	
{
    "type": "object",
    "id": "http://cidne.dae.smil.mil/schemas/Operations/LEPSitrep/CIDNEDM236",
    "description": "CIDNE Operations LEPSitrep Report Definition",
    "definitions": {
        "shortStringRequired": {
            "type": "string",
            "maxLength": 50
        },
        "longStringRequired": {
            "type": "string",
            "maxLength": 500
        },
        "textRequired": {
            "type": "string"
        },
        "textFieldLevelRequired": {
            "type": "object",
            "properties": {
                "objectValue": {
                    "type": "string"
                },
                "security": {
					"$ref": "#/definitions/security"
				}
            },
            "required": [
                "objectValue",
                "security"
            ]
        },
        "dateTimeRequired": {
            "type": "object",
            "properties": {
                "zuluDateTime": {
                    "type": "string",
                    "format": "date-time"
                },
                "zuluOffset": {
                    "type": "integer",
					"minimum": -840,
					"maximum": 840,
                    "description": "Offset in minutes from Zulu"
                }
            },
            "required": [
                "zuluDateTime",
                "zuluOffset"
            ]
        },
        "latitude_ddsRequired": {
            "type": "number",
            "minimum": -90,
            "maximum": 90
        },
        "longitude_ddsRequired": {
            "type": "number",
            "minimum": -180,
            "maximum": 180
        },
        "positive_intRequired": {
            "type": "integer",
            "minimum": 0
        },
        "positive_numRequired": {
            "type": "number",
            "minimum": 0
        },
        "positive_intRequired": {
            "type": "integer",
            "minimum": 0
        },
        "shortString": {
            "type": ["string","null"],
            "maxLength": 50
        },
        "longString": {
            "type": ["string","null"],
            "maxLength": 500
        },
        "text": {
            "type": ["string","null"]
        },
        "textFieldLevel": {
            "type": "object",
            "properties": {
                "objectValue": {
                    "type": ["string","null"]
                },
                "security": {
					"$ref": "#/definitions/securityOptional"
				}
            },
            "required": [
                "objectValue",
                "security"
            ]
        },
        "dateTime": {
            "type": ["object","null"],
            "properties": {
                "zuluDateTime": {
                    "type": "string",
                    "format": "date-time"
                },
                "zuluOffset": {
                    "type": "integer",
					"minimum": -840,
					"maximum": 840,
                    "description": "Offset in minutes from Zulu"
                }
            },
            "required": [
                "zuluDateTime",
                "zuluOffset"
            ]
        },
        "latitude_dds": {
            "type": ["number","null"],
            "minimum": -90,
            "maximum": 90
        },
        "longitude_dds": {
            "type": ["number","null"],
            "minimum": -180,
            "maximum": 180
        },
        "positive_int": {
            "type": ["integer","null"],
            "minimum": 0
        },
        "positive_num": {
            "type": ["number","null"],
            "minimum": 0
        },
        "num": {
            "type": ["number","null"]
        },
        "uniqueStringArray": {
            "type": "array",
            "uniqueItems": true,
            "items": {
                "type": "string"
            }
        },
        "securityOptional": {
            "oneOf": [
                {
                    "type": "null"
                },
                {
                    "$ref": "#/definitions/security"
                }
            ]
        },
        "security": {
            "type": "object",
            "properties": {
                "atomicEnergyMarkings": {
                    "$ref": "#/definitions/shortString",
                    "description": "Atomic Energy Act Information Markings"
                },
                "classificationReason": {
                    "$ref": "#/definitions/longString",
                    "description": ": Concise reason for classification"
                },
                "classification": {
                    "enum": [ "U", "TS", "S", "C" ],
                    "description": "Classification of information",
                    "defaultLabel": "Classification",
                    "isSearchable": false,
                    "picklistName": "classification",
                    "picklistUri": "http://cidne.dae.smil.mil/schemas/CAPCO/classification",
                    "picklistParent": null
                    
                },
                "classifiedBy": {
                    "$ref": "#/definitions/longString",
                    "description": "Identification by name and position, or personal identifier of the OCA"
                },
                "compilationReason": {
                    "$ref": "#/definitions/longString",
                    "description": "Reason why the compilation of information causes the classification"
                },
                "declassDate": {
                    "$ref": "#/definitions/dateTime",
                    "description": "Declassification date"
                },
                "declassEvent": {
                    "$ref": "#/definitions/shortString",
                    "description": "Declassification event"
                },
                "declassException": {
                    "$ref": "#/definitions/longString",
                    "description": "Declassification exception"
                },
                "derivativelyClassifiedBy": {
                    "$ref": "#/definitions/longString",
                    "description": "The derivative classifier’s identification by name and position, or by personal identifier, in a manner that is immediately apparent on each derivatively classified document. If not otherwise evident, the agency and office of origin shall be identified"
                },
                "derivedFrom": {
                    "$ref": "#/definitions/shortString",
                    "description": "Concisely identify the source document or the classification guide"
                },
                "displayOnlyTo": {
                    "$ref": "#/definitions/longString",
                    "description": "List of foreign country(ies)/international organization(s) authorized for disclosure without providing the recipient with a physical copy for retention, regardless of medium to the foreign country(ies)/international organization(s) indicated"
                },
                "disseminationControls": {
                    "$ref": "#/definitions/longString",
                    "description": "Control markings that identify the expansion or limitation on the distribution of information. These markings are in addition to and separate from the levels of classification"
                },
                "FGIsourceOpen": {
                    "$ref": "#/definitions/shortString",
                    "description": "Open Source Foreign Government Information"
                },
                "FGIsourceProtected": {
                    "$ref": "#/definitions/shortString",
                    "description": "Protected Source Foreign Government Information"
                },
                "nonICmarkings": {
                    "$ref": "#/definitions/text",
                    "description": "Markings authorized for use by entities outside of the Intelligence Community"
                },
                "nonUSControls": {
                    "$ref": "#/definitions/shortString",
                    "description": "Non-US protective markings"
                },
                "ownerProducer": {
                    "$ref": "#/definitions/shortStringRequired",
                    "description": "Owner/Producer",
                    "default": "USA",
                    "defaultLabel": "Owner Producer",
                    "isSearchable": false,
                    "picklistName": "ownerProducer",
                    "picklistUri": "http://cidne.dae.smil.mil/schemas/CAPCO/ownerProducer",
                    "picklistParent": null
                },
                "releasableToFilterField": {
                    "$ref": "#/definitions/shortString",
                    "description": "Need to add CAPCO Descriptions"
                },
                "releasableTo": {
                    "$ref": "#/definitions/text",
                    "description": "List of countries releasable to",
                    "defaultLabel": "Releasable To",
                    "isSearchable": false,
                    "picklistName": "releasableTo",
                    "picklistUri": "http://cidne.dae.smil.mil/schemas/CAPCO/releasableTo",
                    "picklistParent": null
                },
                "SARIdentifier": {
                    "$ref": "#/definitions/shortString",
                    "description": "Special access required programs"
                },
                "SCIcontrols": {
                    "$ref": "#/definitions/longString",
                    "description": "Sensitive Compartmented Information (SCI) control systems"
                }
            },
            "required": [
                "ownerProducer",
                "classification"
            ]
        },
        "actionInfo":{
            "type": "object",
            "properties": {
                "actionDate": {
                    "$ref": "#/definitions/dateTimeRequired",
                    "description": "Date Time Action was taken"
                },
                "group": {
                    "$ref": "#/definitions/longStringRequired",
                    "description": "User Group that performed action"
                },
                "parentGroup": {
                    "$ref": "#/definitions/longString",
                    "description": "User Group's Parent Group Name"
                },
                "nationality": {
                    "$ref": "#/definitions/shortStringRequired",
                    "description": "User Nationality"
                },
                "network": {
                    "$ref": "#/definitions/shortStringRequired",
                    "description": "Systems Network where action was taken"
                },
                "objectState": {
                    "description": "",
                    "enum": [
                        "CREATED",
                        "MODIFIED",
                        "TEMPLATE",
                        "SUBMITTED",
                        "PUBLISHED",
                        "VERSIONED",
                        "DEPRECATED",
                        "VALIDATING",
                        "RESTORED",
                        "MOVED"
                    ]
                },
                "site": {
                    "$ref": "#/definitions/shortStringRequired",
                    "description": "Systems Site"
                },
                "system": {
                    "$ref": "#/definitions/shortStringRequired",
                    "description": "System that provided the action"
                },
                "user": {
                    "$ref": "#/definitions/shortStringRequired",
                    "description": "User that performed action"
                }
            },
            "required": [
                "actionDate",
                "group",
                "parentGroup",
                "nationality",
                "network",
                "objectState",
                "site",
                "system",
                "user"
            ]
        },
        "position": {
            "description": "A single position. (order should be longitude,latitude)",
            "type": "array",
            "minItems": 2,
            "items": [
                {
                    "type": "number"
                },
                {
                    "type": "number"
                }
            ],
            "additionalItems": false
        },
        "positionArray": {
            "description": "An array of positions",
            "type": "array",
            "items": {
                "$ref": "#/definitions/position"
            }
        },
        "lineString": {
            "description": "An array of two or more positions",
            "allOf": [
                {
                    "type": "array",
                    "items": {
                        "$ref": "#/definitions/position"
                    }
                },
                {
                    "minItems": 2
                }
            ]
        },
        "linearRing": {
            "description": "An array of four positions where the first equals the last",
            "allOf": [
                {
                    "type": "array",
                    "items": {
                        "$ref": "#/definitions/position"
                    }
                },
                {
                    "minItems": 4
                }
            ]
        },
        "polygon": {
            "description": "An array of linear rings",
            "type": "array",
            "items": {
                "$ref": "#/definitions/linearRing"
            }
        },
        "geometry": {
            "title": "geometry",
            "description": "One geometry as defined by GeoJSON",
            "type": "object",
            "required": [
                "type",
                "coordinates"
            ],
            "oneOf": [
                {
                    "title": "Point",
                    "properties": {
                        "type": {
                            "enum": [
                                "Point"
                            ]
                        },
                        "coordinates": {
                            "$ref": "#/definitions/position"
                        }
                    }
                },
                {
                    "title": "MultiPoint",
                    "properties": {
                        "type": {
                            "enum": [
                                "MultiPoint"
                            ]
                        },
                        "coordinates": {
                            "type": "array",
                            "items": {
                                "$ref": "#/definitions/position"
                            }
                        }
                    }
                },
                {
                    "title": "LineString",
                    "properties": {
                        "type": {
                            "enum": [
                                "LineString"
                            ]
                        },
                        "coordinates": {
                            "$ref": "#/definitions/lineString"
                        }
                    }
                },
                {
                    "title": "MultiLineString",
                    "properties": {
                        "type": {
                            "enum": [
                                "MultiLineString"
                            ]
                        },
                        "coordinates": {
                            "type": "array",
                            "items": {
                                "$ref": "#/definitions/lineString"
                            }
                        }
                    }
                },
                {
                    "title": "Polygon",
                    "properties": {
                        "type": {
                            "enum": [
                                "Polygon"
                            ]
                        },
                        "coordinates": {
                            "$ref": "#/definitions/polygon"
                        }
                    }
                },
                {
                    "title": "MultiPolygon",
                    "properties": {
                        "type": {
                            "enum": [
                                "MultiPolygon"
                            ]
                        },
                        "coordinates": {
                            "type": "array",
                            "items": {
                                "$ref": "#/definitions/polygon"
                            }
                        }
                    }
                }
            ]
        },
        "geometryCollection": {
            "title": "GeometryCollection",
            "description": "A collection of geometry objects",
            "required": [
                "geometries"
            ],
            "properties": {
                "type": {
                    "enum": [
                        "GeometryCollection"
                    ]
                },
                "geometries": {
                    "type": "array",
                    "items": {
                        "$ref": "#/definitions/geometry"
                    }
                }
            }
        },
        "feature": {
            "title": "Feature",
            "description": "A Geo JSON feature object",
            "required": [
                "geometry"
            ],
            "properties": {
                "type": {
                    "enum": [
                        "Feature"
                    ]
                },
                "geometry": {
                    "oneOf": [
                        {
                            "type": "null"
                        },
                        {
                            "$ref": "#/definitions/geometry"
                        }
                    ]
                },
				"properties": { "type": [ "object", "null" ] },
                "id": { "type":["string"] }
            }
        },
        "featureCollection": {
            "description": "A GeoJSON feature collection",
            "required": [
                "features"
            ],
            "properties": {
                "type": {
                    "enum": [
                        "FeatureCollection"
                    ]
                },
                "features": {
                    "type": "array",
                    "items": {
                        "$ref": "#/definitions/feature"
                    }
                }
            }
        },
		"namedCrs": {
            "properties": {
                "type": { "enum": [ "name" ] },
                "properties": {
                    "required": [ "name" ],
                    "additionalProperties": false,
                    "properties": {
                        "name": {
                            "type": "string"
                        }
                    }
                }
            }
        },
        "linkedObject": {
            "type": "object",
            "required": [ "href" ],
            "properties": {
                "href": {
                    "type": "string",
                    "format": "uri"
                },
                "type": {
                    "type": "string",
                    "description": "Suggested values: proj4, ogjwkt, esriwkt"
                }
            }
        },
        "linkedCrs": {
            "properties": {
                "type": { "enum": [ "link" ] },
                "properties": { "$ref": "#/definitions/linkedObject" }
            }
        },	
		"crs":{
			"title": "crs",
			"description": "a Coordinate Reference System object",
			"type": [ "object", "null" ],
			"required": [ "type", "properties" ],
			"properties": {
				"type": { "type": "string" },
				"properties": { "type": "object" }
			},
			"additionalProperties": false,
			"oneOf": [
				{ "$ref": "#/definitions/namedCrs" },
				{ "$ref": "#/definitions/linkedCrs" }
			]
		},
		"bbox":{
		"description": "A bounding box as defined by GeoJSON",
			"type": "array",
			"items": { "type": "number" }
		},
        "geojson": {
            "title": "Geo JSON object",
            "description": "Schema for a Geo JSON object",
            "type": ["object","null"],
            "required": [
                "type"
            ],
			"properties": {
				"crs": { "$ref": "#/definitions/crs" },
				"bbox": { "$ref": "#/definitions/bbox" }
			},
            "anyOf": [
                {
                    "$ref": "#/definitions/geometry"
                },
                {
                    "$ref": "#/definitions/geometryCollection"
                },
                {
                    "$ref": "#/definitions/feature"
                },
                {
                    "$ref": "#/definitions/featureCollection"
                }
            ]
        }
    },
    "required": [
        "base",
        "datamodel",
        "formId",
        "location",
        "security",
        "details"
    ],	
    "properties": {
        "datamodel": {
            "$ref": "#/definitions/longString",
            "description": "Reference to the report definition."
        },
        "formId": {
            "$ref": "#/definitions/longString",
            "description": "Reference to the layout template identifier that this data was intended to be best visualized"
        },
        "base": {
            "type": "object",
            "description": "The core metadata used within all report definitions",
            "properties": {
                "objectId": {
                    "$ref": "#/definitions/shortStringRequired",
                    "description": "Report instance unique identifier"
                },
                "reportId": {
                    "$ref": "#/definitions/shortStringRequired",
                    "description": "Original report instance objectId for a report version grouping. (i.e. the root report identifier)"
                },
                "parentVersionId": {
                    "$ref": "#/definitions/shortString",
                    "description": "Report instance's objectId of the parent report. NOTE: If there is no parent, this value should be set to the report instance's own objectId. "
                },
                "module": {
                    "$ref": "#/definitions/shortStringRequired",
                    "description": "CIDNE community"
                },
                "reportType": {
                    "$ref": "#/definitions/shortStringRequired",
                    "description": "CIDNE report type (e.g. SIGACT)"
                },
                "reportSerial": {
                    "$ref": "#/definitions/textFieldLevel",
					"defaultLabel": "DisplaySerial",
					"description": "Report instance nomenclature (DisplaySerial)",
					"fieldAlias2x": "DisplaySerial"
                },
                "reportTitle": {
                    "$ref": "#/definitions/textFieldLevel",
					"defaultLabel": "DisplayTitle",
					"description": "Report instance title text (DisplayTitle)",
					"fieldAlias2x": "DisplayTitle"
                },
                "reportSummary": {
                    "$ref": "#/definitions/textFieldLevel",
					"defaultLabel": "DisplaySummary",
					"description": "Report instance summary text block (DisplaySummary)",
					"fieldAlias2x": "DisplaySummary"
                },
                "reportDate": {
                    "$ref": "#/definitions/dateTimeRequired",
					"defaultLabel": "DatePosted",
					"description": "Primary report instance date (DatePosted)",
					"fieldAlias2x": "DatePosted"
                },
                "reportSymbol": {
                    "$ref": "#/definitions/longString",
                    "description": "Report instance symbology"
                },
                "reportImage": {
                    "$ref": "#/definitions/longString",
                    "description": "Primary image of report instance"
                },
                "reportCountry": {
                    "$ref": "#/definitions/shortString",
                    "description": "Country value of report instance's primary location"
                },
                "reportLatitude": {
                    "$ref": "#/definitions/latitude_dds",
                    "description": "Latitude value of report instance's primary location"
                },
                "reportLongitude": {
                    "$ref": "#/definitions/longitude_dds",
                    "description": "Longitude value of report instance's primary location"
                },
				"geoLocation":{
					"$ref":"#/definitions/geojson"
				},
                "currentObjectState":{
                        "$ref": "#/definitions/actionInfo"
                },
                "originatingGroup": {
                    "$ref": "#/definitions/longStringRequired",
                    "description": "Original creator's group"
                },  
                "originatingUser": {
                    "$ref": "#/definitions/longStringRequired",
                    "description": "Original creator's User Name or email address"
                },  
				"isTearline": {
                    "type": "boolean",
                    "description": "Determines whether a report is a tearline"
                },
				"tearlineId": {
					"$ref": "#/definitions/shortString",
                    "description": "The reportId of the parent, used as a tearline group binding"
				},
                "theaterFilter": {
                    "$ref": "#/definitions/shortStringRequired",
                    "description": "Report instance theater of relevance"
                },
                "warehouseUri": {
                    "$ref": "#/definitions/longStringRequired",
                    "description": "Data warehouse location for report instance",
                    "format": "uri"
                }
            },
            "required": [
                "isTearline",
                "module",
                "objectId",
                "currentObjectState",
                "originatingGroup",
                "originatingUser",
                "reportId",
                "reportSerial",
                "reportDate",
                "theaterFilter",
                "reportType",
                "reportTitle",
                "reportSummary"
            ]
        },
        "location": {
            "type": "array",
            "description": "All locations for the report instance",
            "items": {
                "type": "object",
                "properties": {
                    "objectId": {
                        "$ref": "#/definitions/shortStringRequired",
                        "description": "objectId required for Edit Purposes"
                    },
                    "address": {
                        "$ref": "#/definitions/longString",
                        "description": "Address Details"
                    },
                    "alternateRoute": {
                        "$ref": "#/definitions/longString",
                        "description": "Alternate Route for location"
                    },
                    "ao": {
                        "$ref": "#/definitions/shortString",
                        "description": "Area of Operations"
                    },
                    "basecamp": {
                        "$ref": "#/definitions/shortString",
                        "description": "Base Camp"
                    },
                    "city": {
                        "$ref": "#/definitions/shortString",
                        "description": "City for Location"
                    },
                    "confidence": {
                        "$ref": "#/definitions/shortString",
                        "description": "Reporters Confidence in Location Value"
                    },
                    "country": {
                        "$ref": "#/definitions/shortString",
                        "description": "Location Country"
                    },
                    "customGeom": {
                        "type": "object",
                        "description": "Custom Geometry Object for Location",
                        "properties": {
                            "customGeomObjectId": {
                                "$ref": "#/definitions/shortString",
                                "description": "objectId for Custom Geometry Object"
                            },
                            "geomType": {
                                "$ref": "#/definitions/shortString",
                                "description": "Geometry Type for custom geometry object (e.g. Point, Multi-polygon"
                            },
                            "geom": {
                                "$ref": "#/definitions/shortString",
                                "description": "TBD GEOM Object for Custom Location Object"
                            },
                            "name": {
                                "$ref": "#/definitions/shortString",
                                "description": "Custom Location Name"
                            }
                        }
                    },
                    "dateEndLocation": {
                        "$ref": "#/definitions/dateTime",
                        "description": "Ending Date Time for location"
                    },
                    "dateStartLocation": {
                        "$ref": "#/definitions/dateTime",
                        "description": "Starting Date Time for location"
                    },
                    "derivedLocation": {
                        "type": "boolean",
                        "description": "Was Location Lat/Long derived from user picklists?"
                    },
                    "description": {
                        "$ref": "#/definitions/text",
                        "description": "Location Description"
                    },
                    "distanceFromCityCenter": {
                        "$ref": "#/definitions/positive_int",
                        "description": "Distance in meters to nearest city center"
                    },
                    "distanceToNearestFOB": {
                        "$ref": "#/definitions/positive_num",
                        "description": "Distance in meters to nearest FOB"
                    },
                    "distanceToNearestRoute": {
                        "$ref": "#/definitions/positive_num",
                        "description": "Distance in meters to nearest Route"
                    },
                    "district": {
                        "$ref": "#/definitions/shortString",
                        "description": "District"
                    },
                    "fob": {
                        "$ref": "#/definitions/shortString",
                        "description": "FOB"
                    },
					"geoLocation":{
						"$ref":"#/definitions/geojson"
					},
					"house": {
                        "$ref": "#/definitions/shortString",
                        "description": "HOUSE"
                    },
                    "isPrimaryLocation": {
                        "type": "boolean",
                        "description": "Marks Primary Location"
                    },
                    "latitude": {
                        "$ref": "#/definitions/latitude_ddsRequired",
                        "description": "Latitude of Location in Degree Decimal Seconds"
                    },
                    "locationActive": {
                        "type": "boolean",
                        "description": "Is Location Active?"
                    },
                    "locationType": {
                        "$ref": "#/definitions/shortString",
                        "description": "Location Type"
                    },
                    "longitude": {
                        "$ref": "#/definitions/longitude_ddsRequired",
                        "description": "Longitude of Location in Degree Decimal Seconds"
                    },
                    "mscCurrent": {
                        "$ref": "#/definitions/shortString",
                        "description": "Current Major Supporting Command responsible for location"
                    },
                    "mscDateOfCurrent": {
                        "$ref": "#/definitions/dateTime",
                        "description": "Date Of Current Major Supporting Command's Control of location"
                    },
                    "msc": {
                        "$ref": "#/definitions/shortString",
                        "description": "Major Supporting Command responsible for location"
                    },
                    "nai": {
                        "$ref": "#/definitions/shortString",
                        "description": "Named Area of Interest"
                    },
                    "nearestCity": {
                        "$ref": "#/definitions/shortString",
                        "description": "Nearest City"
                    },
                    "nearestFOB": {
                        "$ref": "#/definitions/shortString",
                        "description": "Nearest FOB"
                    },
                    "nearestRoute": {
                        "$ref": "#/definitions/shortString",
                        "description": "Nearest Route"
                    },
                    "neighborhood": {
                        "$ref": "#/definitions/shortString",
                        "description": "Neighborhood for location"
                    },
                    "populationCenterType": {
                        "$ref": "#/definitions/shortString",
                        "description": "Population Center Type"
                    },
                    "populationCenter": {
                        "$ref": "#/definitions/shortString",
                        "description": "Population Center"
                    },
                    "province": {
                        "$ref": "#/definitions/shortString",
                        "description": "Province"
                    },
                    "referenceId": {
                        "$ref": "#/definitions/shortString",
                        "description": "Reference to any subelement with in current report instance (e.g. Event Object ID)"
                    },
                    "route": {
                        "$ref": "#/definitions/shortString",
                        "description": "Route"
                    },
                    "security": {
                        "$ref": "#/definitions/securityOptional"
                    },
                    "street": {
                        "$ref": "#/definitions/shortString",
                        "description": "Street"
                    },
                    "structure": {
                        "$ref": "#/definitions/shortString",
                        "description": "Structure"
                    },
                    "village": {
                        "$ref": "#/definitions/shortString",
                        "description": "Village"
                    },
                    "zone": {
                        "$ref": "#/definitions/shortString",
                        "description": "City Zone"
                    }
                },
				"required": [
					"objectId",
					"isPrimaryLocation",
					"latitude",
					"longitude"
				]
            }
        },
        "remarks": {
            "type": "array",
            "items": {
                "type": "object",
                "properties": {
                    "objectId": {
                        "$ref": "#/definitions/shortStringRequired",
                        "description": "objectId required for Edit Purposes"
                    },
                    "referenceId": {
                        "$ref": "#/definitions/shortString",
                        "description": "Reference to any subelement with in current report instance (e.g. Event Object ID)"
                    },
                    "remarkText": {
                        "$ref": "#/definitions/text",
                        "description": "Remark Text"
                    },
                    "remarkType": {
                        "$ref": "#/definitions/shortString",
                        "description": "Remark Type"
                    },
                    "remarkOrder": {
                        "$ref": "#/definitions/positive_num",
                        "description": "Remark Order"
                    },
                    "security": {
                        "$ref": "#/definitions/securityOptional"
                    }
                },
                "required": [
                    "objectId",
                    "remarkText",
                    "remarkType",
                    "security"
                ]
            }
        },
        "requirements": {
            "type": "array",
            "items": {
                "type": "object",
                "properties": {
                    "objectId": {
                        "$ref": "#/definitions/shortStringRequired",
                        "description": "objectId required for Edit Purposes"
                    },
                    "referenceId": {
                        "$ref": "#/definitions/shortString",
                        "description": "Reference to any subelement with in current report instance (e.g. Event Object ID)"
                    },
                    "requirement": {
                        "$ref": "#/definitions/longString",
                        "description": "Requirement sub based on Requirement Type"
                    },
                    "requirementType": {
                        "$ref": "#/definitions/shortString",
                        "description": "Requirement Type"
                    },
                    "comment": {
                        "$ref": "#/definitions/text",
                        "description": "Requirement Comment"
                    },
                    "security": {
                        "$ref": "#/definitions/securityOptional"
                    }
                },
                "required": [
                    "objectId",
                    "requirementType",
                    "requirement",
                    "comment"
                ]
            }
        },
        "security": {
                        "$ref": "#/definitions/security"
        },
        "objectHistory": {
            "type": "array",
            "items":
                    {
                        "$ref": "#/definitions/actionInfo"
                    }       
		},
			"details": {
				"type": "object",
				"description": "Operations LEPSitrep Report details specific details",
				"fieldAlias2x": "details", 
						"properties": {
						
"ciedisoperations": {
	"$ref": "#/definitions/text"
			,"defaultLabel": "CIEDISOperations"
			,"description": "CIEDISOperations"
			,"fieldAlias2x": "CIEDISOperations"
			,"isSearchable": false
			,"picklistDescription": null
			,"picklistUri": null
			,"picklistParent": null
		},
"currentoperations": {
	"$ref": "#/definitions/text"
			,"defaultLabel": "CurrentOperations"
			,"description": "CurrentOperations"
			,"fieldAlias2x": "CurrentOperations"
			,"isSearchable": false
			,"picklistDescription": null
			,"picklistUri": null
			,"picklistParent": null
		},
"dateprepared": {
	"$ref": "#/definitions/dateTime"
			,"defaultLabel": "DatePrepared"
			,"description": "DatePrepared"
			,"fieldAlias2x": "DatePrepared"
			,"isSearchable": false
			,"picklistDescription": null
			,"picklistUri": null
			,"picklistParent": null
		},
"datereported": {
	"$ref": "#/definitions/dateTime"
			,"defaultLabel": "DateReported"
			,"description": "DateReported"
			,"fieldAlias2x": "DateReported"
			,"isSearchable": false
			,"picklistDescription": null
			,"picklistUri": null
			,"picklistParent": null
		},
"datereportingfrom": {
	"$ref": "#/definitions/dateTime"
			,"defaultLabel": "DateReportingFrom"
			,"description": "DateReportingFrom"
			,"fieldAlias2x": "DateReportingFrom"
			,"isSearchable": false
			,"picklistDescription": null
			,"picklistUri": null
			,"picklistParent": null
		},
"datereportingto": {
	"$ref": "#/definitions/dateTime"
			,"defaultLabel": "DateReportingTo"
			,"description": "DateReportingTo"
			,"fieldAlias2x": "DateReportingTo"
			,"isSearchable": false
			,"picklistDescription": null
			,"picklistUri": null
			,"picklistParent": null
		},
"description": {
	"$ref": "#/definitions/text"
			,"defaultLabel": "Description"
			,"description": "Description"
			,"fieldAlias2x": "Description"
			,"isSearchable": false
			,"picklistDescription": null
			,"picklistUri": null
			,"picklistParent": null
		},
"district": {
	"$ref": "#/definitions/longString"
			,"defaultLabel": "District"
			,"description": "District"
			,"fieldAlias2x": "District"
			,"isSearchable": false
			,"picklistDescription": null
			,"picklistUri": null
			,"picklistParent": null
		},
"dutystation": {
	"$ref": "#/definitions/longString"
			,"defaultLabel": "DutyStation"
			,"description": "DutyStation"
			,"fieldAlias2x": "DutyStation"
			,"isSearchable": false
			,"picklistDescription": null
			,"picklistUri": null
			,"picklistParent": null
		},
"futureoperations": {
	"$ref": "#/definitions/text"
			,"defaultLabel": "FutureOperations"
			,"description": "FutureOperations"
			,"fieldAlias2x": "FutureOperations"
			,"isSearchable": false
			,"picklistDescription": null
			,"picklistUri": null
			,"picklistParent": null
		},
"lep": {
	"$ref": "#/definitions/longString"
			,"defaultLabel": "LEP"
			,"description": "LEP"
			,"fieldAlias2x": "LEP"
			,"isSearchable": false
			,"picklistDescription": null
			,"picklistUri": null
			,"picklistParent": null
		},
"mgrs": {
	"$ref": "#/definitions/longString"
			,"defaultLabel": "MGRS"
			,"description": "MGRS"
			,"fieldAlias2x": "MGRS"
			,"isSearchable": false
			,"picklistDescription": null
			,"picklistUri": null
			,"picklistParent": null
		},
"observationstrends": {
	"$ref": "#/definitions/text"
			,"defaultLabel": "ObservationsTrends"
			,"description": "ObservationsTrends"
			,"fieldAlias2x": "ObservationsTrends"
			,"isSearchable": false
			,"picklistDescription": null
			,"picklistUri": null
			,"picklistParent": null
		},
"programcode": {
	"$ref": "#/definitions/longString"
			,"defaultLabel": "ProgramCode"
			,"description": "ProgramCode"
			,"fieldAlias2x": "ProgramCode"
			,"isSearchable": false
			,"picklistDescription": null
			,"picklistUri": null
			,"picklistParent": null
		},
"province": {
	"$ref": "#/definitions/longString"
			,"defaultLabel": "Province"
			,"description": "Province"
			,"fieldAlias2x": "Province"
			,"isSearchable": false
			,"picklistDescription": null
			,"picklistUri": null
			,"picklistParent": null
		},
"qtyactionablereportspassedtocf": {
	"$ref": "#/definitions/positive_int"
			,"defaultLabel": "qtyActionableReportsPassedToCF"
			,"description": "qtyActionableReportsPassedToCF"
			,"fieldAlias2x": "qtyActionableReportsPassedToCF"
			,"isSearchable": false
			,"picklistDescription": null
			,"picklistUri": null
			,"picklistParent": null
		},
"qtyactiveanpinformants": {
	"$ref": "#/definitions/positive_int"
			,"defaultLabel": "qtyActiveANPInformants"
			,"description": "qtyActiveANPInformants"
			,"fieldAlias2x": "qtyActiveANPInformants"
			,"isSearchable": false
			,"picklistDescription": null
			,"picklistUri": null
			,"picklistParent": null
		},
"qtyadmissions": {
	"$ref": "#/definitions/positive_int"
			,"defaultLabel": "qtyAdmissions"
			,"description": "qtyAdmissions"
			,"fieldAlias2x": "qtyAdmissions"
			,"isSearchable": false
			,"picklistDescription": null
			,"picklistUri": null
			,"picklistParent": null
		},
"qtyanparrestsresulting": {
	"$ref": "#/definitions/positive_int"
			,"defaultLabel": "qtyANPArrestsResulting"
			,"description": "qtyANPArrestsResulting"
			,"fieldAlias2x": "qtyANPArrestsResulting"
			,"isSearchable": false
			,"picklistDescription": null
			,"picklistUri": null
			,"picklistParent": null
		},
"qtyanpevidencesearchseizure": {
	"$ref": "#/definitions/positive_int"
			,"defaultLabel": "qtyANPEvidenceSearchSeizure"
			,"description": "qtyANPEvidenceSearchSeizure"
			,"fieldAlias2x": "qtyANPEvidenceSearchSeizure"
			,"isSearchable": false
			,"picklistDescription": null
			,"picklistUri": null
			,"picklistParent": null
		},
"qtyanpiedcaseclosed": {
	"$ref": "#/definitions/positive_int"
			,"defaultLabel": "qtyANPIEDCaseClosed"
			,"description": "qtyANPIEDCaseClosed"
			,"fieldAlias2x": "qtyANPIEDCaseClosed"
			,"isSearchable": false
			,"picklistDescription": null
			,"picklistUri": null
			,"picklistParent": null
		},
"qtyanpiedcaseinitiated": {
	"$ref": "#/definitions/positive_int"
			,"defaultLabel": "qtyANPIEDCaseInitiated"
			,"description": "qtyANPIEDCaseInitiated"
			,"fieldAlias2x": "qtyANPIEDCaseInitiated"
			,"isSearchable": false
			,"picklistDescription": null
			,"picklistUri": null
			,"picklistParent": null
		},
"qtyanpinvestigationsinitiated": {
	"$ref": "#/definitions/positive_int"
			,"defaultLabel": "qtyANPInvestigationsInitiated"
			,"description": "qtyANPInvestigationsInitiated"
			,"fieldAlias2x": "qtyANPInvestigationsInitiated"
			,"isSearchable": false
			,"picklistDescription": null
			,"picklistUri": null
			,"picklistParent": null
		},
"qtyanpreportswritten": {
	"$ref": "#/definitions/positive_int"
			,"defaultLabel": "qtyANPReportsWritten"
			,"description": "qtyANPReportsWritten"
			,"fieldAlias2x": "qtyANPReportsWritten"
			,"isSearchable": false
			,"picklistDescription": null
			,"picklistUri": null
			,"picklistParent": null
		},
"qtyansfkidnappinginvestigationsclosed": {
	"$ref": "#/definitions/positive_int"
			,"defaultLabel": "qtyANSFKidnappingInvestigationsClosed"
			,"description": "qtyANSFKidnappingInvestigationsClosed"
			,"fieldAlias2x": "qtyANSFKidnappingInvestigationsClosed"
			,"isSearchable": false
			,"picklistDescription": null
			,"picklistUri": null
			,"picklistParent": null
		},
"qtyansfkidnappinginvestigationsinitiated": {
	"$ref": "#/definitions/positive_int"
			,"defaultLabel": "qtyANSFKidnappingInvestigationsInitiated"
			,"description": "qtyANSFKidnappingInvestigationsInitiated"
			,"fieldAlias2x": "qtyANSFKidnappingInvestigationsInitiated"
			,"isSearchable": false
			,"picklistDescription": null
			,"picklistUri": null
			,"picklistParent": null
		},
"qtyansfnumbertrained": {
	"$ref": "#/definitions/positive_int"
			,"defaultLabel": "qtyANSFNumberTrained"
			,"description": "qtyANSFNumberTrained"
			,"fieldAlias2x": "qtyANSFNumberTrained"
			,"isSearchable": false
			,"picklistDescription": null
			,"picklistUri": null
			,"picklistParent": null
		},
"qtyansftraininghours": {
	"$ref": "#/definitions/positive_int"
			,"defaultLabel": "qtyANSFTrainingHours"
			,"description": "qtyANSFTrainingHours"
			,"fieldAlias2x": "qtyANSFTrainingHours"
			,"isSearchable": false
			,"picklistDescription": null
			,"picklistUri": null
			,"picklistParent": null
		},
"qtyciedcriminalintelligencereports": {
	"$ref": "#/definitions/positive_int"
			,"defaultLabel": "qtyCIEDCriminalIntelligenceReports"
			,"description": "qtyCIEDCriminalIntelligenceReports"
			,"fieldAlias2x": "qtyCIEDCriminalIntelligenceReports"
			,"isSearchable": false
			,"picklistDescription": null
			,"picklistUri": null
			,"picklistParent": null
		},
"qtyciedfoundclearedied": {
	"$ref": "#/definitions/positive_int"
			,"defaultLabel": "qtyCIEDFoundClearedIED"
			,"description": "qtyCIEDFoundClearedIED"
			,"fieldAlias2x": "qtyCIEDFoundClearedIED"
			,"isSearchable": false
			,"picklistDescription": null
			,"picklistUri": null
			,"picklistParent": null
		},
"qtyciedfoundclearedsuicidevests": {
	"$ref": "#/definitions/positive_int"
			,"defaultLabel": "qtyCIEDFoundClearedSuicideVests"
			,"description": "qtyCIEDFoundClearedSuicideVests"
			,"fieldAlias2x": "qtyCIEDFoundClearedSuicideVests"
			,"isSearchable": false
			,"picklistDescription": null
			,"picklistUri": null
			,"picklistParent": null
		},
"qtyciedfoundclearedvbied": {
	"$ref": "#/definitions/positive_int"
			,"defaultLabel": "qtyCIEDFoundClearedVBIED"
			,"description": "qtyCIEDFoundClearedVBIED"
			,"fieldAlias2x": "qtyCIEDFoundClearedVBIED"
			,"isSearchable": false
			,"picklistDescription": null
			,"picklistUri": null
			,"picklistParent": null
		},
"qtyciedisfoundandclearedieds": {
	"$ref": "#/definitions/positive_int"
			,"defaultLabel": "qtyCIEDISFoundAndClearedIEDs"
			,"description": "qtyCIEDISFoundAndClearedIEDs"
			,"fieldAlias2x": "qtyCIEDISFoundAndClearedIEDs"
			,"isSearchable": false
			,"picklistDescription": null
			,"picklistUri": null
			,"picklistParent": null
		},
"qtyciedishoursmentoredanp": {
	"$ref": "#/definitions/positive_int"
			,"defaultLabel": "qtyCIEDISHoursMentoredANP"
			,"description": "qtyCIEDISHoursMentoredANP"
			,"fieldAlias2x": "qtyCIEDISHoursMentoredANP"
			,"isSearchable": false
			,"picklistDescription": null
			,"picklistUri": null
			,"picklistParent": null
		},
"qtyciedishourstrainedanp": {
	"$ref": "#/definitions/positive_int"
			,"defaultLabel": "qtyCIEDISHoursTrainedANP"
			,"description": "qtyCIEDISHoursTrainedANP"
			,"fieldAlias2x": "qtyCIEDISHoursTrainedANP"
			,"isSearchable": false
			,"picklistDescription": null
			,"picklistUri": null
			,"picklistParent": null
		},
"qtyciediskillcapture": {
	"$ref": "#/definitions/positive_int"
			,"defaultLabel": "qtyCIEDISKillCapture"
			,"description": "qtyCIEDISKillCapture"
			,"fieldAlias2x": "qtyCIEDISKillCapture"
			,"isSearchable": false
			,"picklistDescription": null
			,"picklistUri": null
			,"picklistParent": null
		},
"qtyciedislep1reports": {
	"$ref": "#/definitions/positive_int"
			,"defaultLabel": "qtyCIEDISLEP1Reports"
			,"description": "qtyCIEDISLEP1Reports"
			,"fieldAlias2x": "qtyCIEDISLEP1Reports"
			,"isSearchable": false
			,"picklistDescription": null
			,"picklistUri": null
			,"picklistParent": null
		},
"qtyciedismentoredanp": {
	"$ref": "#/definitions/positive_int"
			,"defaultLabel": "qtyCIEDISMentoredANP"
			,"description": "qtyCIEDISMentoredANP"
			,"fieldAlias2x": "qtyCIEDISMentoredANP"
			,"isSearchable": false
			,"picklistDescription": null
			,"picklistUri": null
			,"picklistParent": null
		},
"qtyciedisnumberofcachesseized": {
	"$ref": "#/definitions/positive_int"
			,"defaultLabel": "qtyCIEDISNumberOfCachesSeized"
			,"description": "qtyCIEDISNumberOfCachesSeized"
			,"fieldAlias2x": "qtyCIEDISNumberOfCachesSeized"
			,"isSearchable": false
			,"picklistDescription": null
			,"picklistUri": null
			,"picklistParent": null
		},
"qtyciedistrainedanp": {
	"$ref": "#/definitions/positive_int"
			,"defaultLabel": "qtyCIEDISTrainedANP"
			,"description": "qtyCIEDISTrainedANP"
			,"fieldAlias2x": "qtyCIEDISTrainedANP"
			,"isSearchable": false
			,"picklistDescription": null
			,"picklistUri": null
			,"picklistParent": null
		},
"qtyciedkillcapture": {
	"$ref": "#/definitions/positive_int"
			,"defaultLabel": "qtyCIEDKillCapture"
			,"description": "qtyCIEDKillCapture"
			,"fieldAlias2x": "qtyCIEDKillCapture"
			,"isSearchable": false
			,"picklistDescription": null
			,"picklistUri": null
			,"picklistParent": null
		},
"qtyciednisfoundandclearedsuicidevests": {
	"$ref": "#/definitions/positive_int"
			,"defaultLabel": "qtyCIEDNISFoundAndClearedSuicideVests"
			,"description": "qtyCIEDNISFoundAndClearedSuicideVests"
			,"fieldAlias2x": "qtyCIEDNISFoundAndClearedSuicideVests"
			,"isSearchable": false
			,"picklistDescription": null
			,"picklistUri": null
			,"picklistParent": null
		},
"qtyciednisfoundandclearedvbieds": {
	"$ref": "#/definitions/positive_int"
			,"defaultLabel": "qtyCIEDNISFoundAndClearedVBIEDs"
			,"description": "qtyCIEDNISFoundAndClearedVBIEDs"
			,"fieldAlias2x": "qtyCIEDNISFoundAndClearedVBIEDs"
			,"isSearchable": false
			,"picklistDescription": null
			,"picklistUri": null
			,"picklistParent": null
		},
"qtyciednumberofcacheseized": {
	"$ref": "#/definitions/positive_int"
			,"defaultLabel": "qtyCIEDNumberOfCacheSeized"
			,"description": "qtyCIEDNumberOfCacheSeized"
			,"fieldAlias2x": "qtyCIEDNumberOfCacheSeized"
			,"isSearchable": false
			,"picklistDescription": null
			,"picklistUri": null
			,"picklistParent": null
		},
"qtyconvictioncasesclosed": {
	"$ref": "#/definitions/positive_int"
			,"defaultLabel": "qtyConvictionCasesClosed"
			,"description": "qtyConvictionCasesClosed"
			,"fieldAlias2x": "qtyConvictionCasesClosed"
			,"isSearchable": false
			,"picklistDescription": null
			,"picklistUri": null
			,"picklistParent": null
		},
"qtyconvictions": {
	"$ref": "#/definitions/positive_int"
			,"defaultLabel": "qtyConvictions"
			,"description": "qtyConvictions"
			,"fieldAlias2x": "qtyConvictions"
			,"isSearchable": false
			,"picklistDescription": null
			,"picklistUri": null
			,"picklistParent": null
		},
"qtycorruptioncasesclosed": {
	"$ref": "#/definitions/positive_int"
			,"defaultLabel": "qtyCorruptionCasesClosed"
			,"description": "qtyCorruptionCasesClosed"
			,"fieldAlias2x": "qtyCorruptionCasesClosed"
			,"isSearchable": false
			,"picklistDescription": null
			,"picklistUri": null
			,"picklistParent": null
		},
"qtycorruptioninvestigationsinititated": {
	"$ref": "#/definitions/positive_int"
			,"defaultLabel": "qtyCorruptionInvestigationsInititated"
			,"description": "qtyCorruptionInvestigationsInititated"
			,"fieldAlias2x": "qtyCorruptionInvestigationsInititated"
			,"isSearchable": false
			,"picklistDescription": null
			,"picklistUri": null
			,"picklistParent": null
		},
"qtycriminalintelligencereports": {
	"$ref": "#/definitions/positive_int"
			,"defaultLabel": "qtyCriminalIntelligenceReports"
			,"description": "qtyCriminalIntelligenceReports"
			,"fieldAlias2x": "qtyCriminalIntelligenceReports"
			,"isSearchable": false
			,"picklistDescription": null
			,"picklistUri": null
			,"picklistParent": null
		},
"qtycriminalleadspassedtoansf": {
	"$ref": "#/definitions/positive_int"
			,"defaultLabel": "qtyCriminalLeadsPassedToANSF"
			,"description": "qtyCriminalLeadsPassedToANSF"
			,"fieldAlias2x": "qtyCriminalLeadsPassedToANSF"
			,"isSearchable": false
			,"picklistDescription": null
			,"picklistUri": null
			,"picklistParent": null
		},
"qtydetaineeprocessed": {
	"$ref": "#/definitions/positive_int"
			,"defaultLabel": "qtyDetaineeProcessed"
			,"description": "qtyDetaineeProcessed"
			,"fieldAlias2x": "qtyDetaineeProcessed"
			,"isSearchable": false
			,"picklistDescription": null
			,"picklistUri": null
			,"picklistParent": null
		},
"qtydetaineeprocessing": {
	"$ref": "#/definitions/positive_int"
			,"defaultLabel": "qtyDetaineeProcessing"
			,"description": "qtyDetaineeProcessing"
			,"fieldAlias2x": "qtyDetaineeProcessing"
			,"isSearchable": false
			,"picklistDescription": null
			,"picklistUri": null
			,"picklistParent": null
		},
"qtyengagement": {
	"$ref": "#/definitions/positive_int"
			,"defaultLabel": "qtyEngagement"
			,"description": "qtyEngagement"
			,"fieldAlias2x": "qtyEngagement"
			,"isSearchable": false
			,"picklistDescription": null
			,"picklistUri": null
			,"picklistParent": null
		},
"qtyevidencecollection": {
	"$ref": "#/definitions/positive_int"
			,"defaultLabel": "qtyEvidenceCollection"
			,"description": "qtyEvidenceCollection"
			,"fieldAlias2x": "qtyEvidenceCollection"
			,"isSearchable": false
			,"picklistDescription": null
			,"picklistUri": null
			,"picklistParent": null
		},
"qtyfoundclearedied": {
	"$ref": "#/definitions/positive_int"
			,"defaultLabel": "qtyFoundClearedIED"
			,"description": "qtyFoundClearedIED"
			,"fieldAlias2x": "qtyFoundClearedIED"
			,"isSearchable": false
			,"picklistDescription": null
			,"picklistUri": null
			,"picklistParent": null
		},
"qtyfoundclearedsuicidevest": {
	"$ref": "#/definitions/positive_int"
			,"defaultLabel": "qtyFoundClearedSuicideVest"
			,"description": "qtyFoundClearedSuicideVest"
			,"fieldAlias2x": "qtyFoundClearedSuicideVest"
			,"isSearchable": false
			,"picklistDescription": null
			,"picklistUri": null
			,"picklistParent": null
		},
"qtyfoundclearedvbied": {
	"$ref": "#/definitions/positive_int"
			,"defaultLabel": "qtyFoundClearedVBIED"
			,"description": "qtyFoundClearedVBIED"
			,"fieldAlias2x": "qtyFoundClearedVBIED"
			,"isSearchable": false
			,"picklistDescription": null
			,"picklistUri": null
			,"picklistParent": null
		},
"qtyhoursmentoredanp": {
	"$ref": "#/definitions/positive_int"
			,"defaultLabel": "qtyHoursMentoredANP"
			,"description": "qtyHoursMentoredANP"
			,"fieldAlias2x": "qtyHoursMentoredANP"
			,"isSearchable": false
			,"picklistDescription": null
			,"picklistUri": null
			,"picklistParent": null
		},
"qtyhourstrainedansf": {
	"$ref": "#/definitions/positive_int"
			,"defaultLabel": "qtyHoursTrainedANSF"
			,"description": "qtyHoursTrainedANSF"
			,"fieldAlias2x": "qtyHoursTrainedANSF"
			,"isSearchable": false
			,"picklistDescription": null
			,"picklistUri": null
			,"picklistParent": null
		},
"qtyhourstrainedus": {
	"$ref": "#/definitions/positive_int"
			,"defaultLabel": "qtyHoursTrainedUS"
			,"description": "qtyHoursTrainedUS"
			,"fieldAlias2x": "qtyHoursTrainedUS"
			,"isSearchable": false
			,"picklistDescription": null
			,"picklistUri": null
			,"picklistParent": null
		},
"qtyied": {
	"$ref": "#/definitions/positive_int"
			,"defaultLabel": "qtyIED"
			,"description": "qtyIED"
			,"fieldAlias2x": "qtyIED"
			,"isSearchable": false
			,"picklistDescription": null
			,"picklistUri": null
			,"picklistParent": null
		},
"qtyiedcasereferralprosecution": {
	"$ref": "#/definitions/positive_int"
			,"defaultLabel": "qtyIEDCaseReferralProsecution"
			,"description": "qtyIEDCaseReferralProsecution"
			,"fieldAlias2x": "qtyIEDCaseReferralProsecution"
			,"isSearchable": false
			,"picklistDescription": null
			,"picklistUri": null
			,"picklistParent": null
		},
"qtyiedcasereferraltargeting": {
	"$ref": "#/definitions/positive_int"
			,"defaultLabel": "qtyIEDCaseReferralTargeting"
			,"description": "qtyIEDCaseReferralTargeting"
			,"fieldAlias2x": "qtyIEDCaseReferralTargeting"
			,"isSearchable": false
			,"picklistDescription": null
			,"picklistUri": null
			,"picklistParent": null
		},
"qtyiedinvestigationinitiated": {
	"$ref": "#/definitions/positive_int"
			,"defaultLabel": "qtyIEDInvestigationInitiated"
			,"description": "qtyIEDInvestigationInitiated"
			,"fieldAlias2x": "qtyIEDInvestigationInitiated"
			,"isSearchable": false
			,"picklistDescription": null
			,"picklistUri": null
			,"picklistParent": null
		},
"qtykidnappingcasesacceptedprosecution": {
	"$ref": "#/definitions/positive_int"
			,"defaultLabel": "qtyKidnappingCasesAcceptedProsecution"
			,"description": "qtyKidnappingCasesAcceptedProsecution"
			,"fieldAlias2x": "qtyKidnappingCasesAcceptedProsecution"
			,"isSearchable": false
			,"picklistDescription": null
			,"picklistUri": null
			,"picklistParent": null
		},
"qtykidnappingvictimsrecovered": {
	"$ref": "#/definitions/positive_int"
			,"defaultLabel": "qtyKidnappingVictimsRecovered"
			,"description": "qtyKidnappingVictimsRecovered"
			,"fieldAlias2x": "qtyKidnappingVictimsRecovered"
			,"isSearchable": false
			,"picklistDescription": null
			,"picklistUri": null
			,"picklistParent": null
		},
"qtykillcapture": {
	"$ref": "#/definitions/positive_int"
			,"defaultLabel": "qtyKillCapture"
			,"description": "qtyKillCapture"
			,"fieldAlias2x": "qtyKillCapture"
			,"isSearchable": false
			,"picklistDescription": null
			,"picklistUri": null
			,"picklistParent": null
		},
"qtykiuhoursmentoredansf": {
	"$ref": "#/definitions/positive_int"
			,"defaultLabel": "qtyKIUHoursMentoredANSF"
			,"description": "qtyKIUHoursMentoredANSF"
			,"fieldAlias2x": "qtyKIUHoursMentoredANSF"
			,"isSearchable": false
			,"picklistDescription": null
			,"picklistUri": null
			,"picklistParent": null
		},
"qtykiuhourstrainedansf": {
	"$ref": "#/definitions/positive_int"
			,"defaultLabel": "qtyKIUHoursTrainedANSF"
			,"description": "qtyKIUHoursTrainedANSF"
			,"fieldAlias2x": "qtyKIUHoursTrainedANSF"
			,"isSearchable": false
			,"picklistDescription": null
			,"picklistUri": null
			,"picklistParent": null
		},
"qtykiulawenforcementoperationsmentored": {
	"$ref": "#/definitions/positive_int"
			,"defaultLabel": "qtyKIULawEnforcementOperationsMentored"
			,"description": "qtyKIULawEnforcementOperationsMentored"
			,"fieldAlias2x": "qtyKIULawEnforcementOperationsMentored"
			,"isSearchable": false
			,"picklistDescription": null
			,"picklistUri": null
			,"picklistParent": null
		},
"qtykiulep1reports": {
	"$ref": "#/definitions/positive_int"
			,"defaultLabel": "qtyKIULEP1Reports"
			,"description": "qtyKIULEP1Reports"
			,"fieldAlias2x": "qtyKIULEP1Reports"
			,"isSearchable": false
			,"picklistDescription": null
			,"picklistUri": null
			,"picklistParent": null
		},
"qtykiunumbermentoredansf": {
	"$ref": "#/definitions/positive_int"
			,"defaultLabel": "qtyKIUNumberMentoredANSF"
			,"description": "qtyKIUNumberMentoredANSF"
			,"fieldAlias2x": "qtyKIUNumberMentoredANSF"
			,"isSearchable": false
			,"picklistDescription": null
			,"picklistUri": null
			,"picklistParent": null
		},
"qtykiunumberofconvictions": {
	"$ref": "#/definitions/positive_int"
			,"defaultLabel": "qtyKIUNumberOfConvictions"
			,"description": "qtyKIUNumberOfConvictions"
			,"fieldAlias2x": "qtyKIUNumberOfConvictions"
			,"isSearchable": false
			,"picklistDescription": null
			,"picklistUri": null
			,"picklistParent": null
		},
"qtykiunumbertrainedansf": {
	"$ref": "#/definitions/positive_int"
			,"defaultLabel": "qtyKIUNumberTrainedANSF"
			,"description": "qtyKIUNumberTrainedANSF"
			,"fieldAlias2x": "qtyKIUNumberTrainedANSF"
			,"isSearchable": false
			,"picklistDescription": null
			,"picklistUri": null
			,"picklistParent": null
		},
"qtylatentprintmatches": {
	"$ref": "#/definitions/positive_int"
			,"defaultLabel": "qtyLatentPrintMatches"
			,"description": "qtyLatentPrintMatches"
			,"fieldAlias2x": "qtyLatentPrintMatches"
			,"isSearchable": false
			,"picklistDescription": null
			,"picklistUri": null
			,"picklistParent": null
		},
"qtylatentsrecovered": {
	"$ref": "#/definitions/positive_int"
			,"defaultLabel": "qtyLatentsRecovered"
			,"description": "qtyLatentsRecovered"
			,"fieldAlias2x": "qtyLatentsRecovered"
			,"isSearchable": false
			,"picklistDescription": null
			,"picklistUri": null
			,"picklistParent": null
		},
"qtylatentsrecoveredbombmaker": {
	"$ref": "#/definitions/positive_int"
			,"defaultLabel": "qtyLatentsRecoveredBombmaker"
			,"description": "qtyLatentsRecoveredBombmaker"
			,"fieldAlias2x": "qtyLatentsRecoveredBombmaker"
			,"isSearchable": false
			,"picklistDescription": null
			,"picklistUri": null
			,"picklistParent": null
		},
"qtylatentsrecoveredemplacer": {
	"$ref": "#/definitions/positive_int"
			,"defaultLabel": "qtyLatentsRecoveredEmplacer"
			,"description": "qtyLatentsRecoveredEmplacer"
			,"fieldAlias2x": "qtyLatentsRecoveredEmplacer"
			,"isSearchable": false
			,"picklistDescription": null
			,"picklistUri": null
			,"picklistParent": null
		},
"qtylawenforcementintelligencementored": {
	"$ref": "#/definitions/positive_int"
			,"defaultLabel": "qtyLawEnforcementIntelligenceMentored"
			,"description": "qtyLawEnforcementIntelligenceMentored"
			,"fieldAlias2x": "qtyLawEnforcementIntelligenceMentored"
			,"isSearchable": false
			,"picklistDescription": null
			,"picklistUri": null
			,"picklistParent": null
		},
"qtymaneuverfoundclearedieds": {
	"$ref": "#/definitions/positive_int"
			,"defaultLabel": "qtyManeuverFoundClearedIEDs"
			,"description": "qtyManeuverFoundClearedIEDs"
			,"fieldAlias2x": "qtyManeuverFoundClearedIEDs"
			,"isSearchable": false
			,"picklistDescription": null
			,"picklistUri": null
			,"picklistParent": null
		},
"qtymaneuverfoundclearedsuicidevests": {
	"$ref": "#/definitions/positive_int"
			,"defaultLabel": "qtyManeuverFoundClearedSuicideVests"
			,"description": "qtyManeuverFoundClearedSuicideVests"
			,"fieldAlias2x": "qtyManeuverFoundClearedSuicideVests"
			,"isSearchable": false
			,"picklistDescription": null
			,"picklistUri": null
			,"picklistParent": null
		},
"qtymaneuverfoundclearedvbieds": {
	"$ref": "#/definitions/positive_int"
			,"defaultLabel": "qtyManeuverFoundClearedVBIEDs"
			,"description": "qtyManeuverFoundClearedVBIEDs"
			,"fieldAlias2x": "qtyManeuverFoundClearedVBIEDs"
			,"isSearchable": false
			,"picklistDescription": null
			,"picklistUri": null
			,"picklistParent": null
		},
"qtymaneuverkillcapture": {
	"$ref": "#/definitions/positive_int"
			,"defaultLabel": "qtyManeuverKillCapture"
			,"description": "qtyManeuverKillCapture"
			,"fieldAlias2x": "qtyManeuverKillCapture"
			,"isSearchable": false
			,"picklistDescription": null
			,"picklistUri": null
			,"picklistParent": null
		},
"qtymaneuverlep1reports": {
	"$ref": "#/definitions/positive_int"
			,"defaultLabel": "qtyManeuverLEP1Reports"
			,"description": "qtyManeuverLEP1Reports"
			,"fieldAlias2x": "qtyManeuverLEP1Reports"
			,"isSearchable": false
			,"picklistDescription": null
			,"picklistUri": null
			,"picklistParent": null
		},
"qtymaneuvernumberofcachesseized": {
	"$ref": "#/definitions/positive_int"
			,"defaultLabel": "qtyManeuverNumberOfCachesSeized"
			,"description": "qtyManeuverNumberOfCachesSeized"
			,"fieldAlias2x": "qtyManeuverNumberOfCachesSeized"
			,"isSearchable": false
			,"picklistDescription": null
			,"picklistUri": null
			,"picklistParent": null
		},
"qtymilitaryreferrals": {
	"$ref": "#/definitions/positive_int"
			,"defaultLabel": "qtyMilitaryReferrals"
			,"description": "qtyMilitaryReferrals"
			,"fieldAlias2x": "qtyMilitaryReferrals"
			,"isSearchable": false
			,"picklistDescription": null
			,"picklistUri": null
			,"picklistParent": null
		},
"qtynamedoperations": {
	"$ref": "#/definitions/positive_int"
			,"defaultLabel": "qtyNamedOperations"
			,"description": "qtyNamedOperations"
			,"fieldAlias2x": "qtyNamedOperations"
			,"isSearchable": false
			,"picklistDescription": null
			,"picklistUri": null
			,"picklistParent": null
		},
"qtynumbercachesseized": {
	"$ref": "#/definitions/positive_int"
			,"defaultLabel": "qtyNumberCachesSeized"
			,"description": "qtyNumberCachesSeized"
			,"fieldAlias2x": "qtyNumberCachesSeized"
			,"isSearchable": false
			,"picklistDescription": null
			,"picklistUri": null
			,"picklistParent": null
		},
"qtynumbermentoredanp": {
	"$ref": "#/definitions/positive_int"
			,"defaultLabel": "qtyNumberMentoredANP"
			,"description": "qtyNumberMentoredANP"
			,"fieldAlias2x": "qtyNumberMentoredANP"
			,"isSearchable": false
			,"picklistDescription": null
			,"picklistUri": null
			,"picklistParent": null
		},
"qtynumberofadmisssions": {
	"$ref": "#/definitions/positive_int"
			,"defaultLabel": "qtyNumberOfAdmisssions"
			,"description": "qtyNumberOfAdmisssions"
			,"fieldAlias2x": "qtyNumberOfAdmisssions"
			,"isSearchable": false
			,"picklistDescription": null
			,"picklistUri": null
			,"picklistParent": null
		},
"qtynumberofcasesacceptedprosecution": {
	"$ref": "#/definitions/positive_int"
			,"defaultLabel": "qtyNumberOfCasesAcceptedProsecution"
			,"description": "qtyNumberOfCasesAcceptedProsecution"
			,"fieldAlias2x": "qtyNumberOfCasesAcceptedProsecution"
			,"isSearchable": false
			,"picklistDescription": null
			,"picklistUri": null
			,"picklistParent": null
		},
"qtynumberofcasesprosecuted": {
	"$ref": "#/definitions/positive_int"
			,"defaultLabel": "qtyNumberOfCasesProsecuted"
			,"description": "qtyNumberOfCasesProsecuted"
			,"fieldAlias2x": "qtyNumberOfCasesProsecuted"
			,"isSearchable": false
			,"picklistDescription": null
			,"picklistUri": null
			,"picklistParent": null
		},
"qtynumberofconvictions": {
	"$ref": "#/definitions/positive_int"
			,"defaultLabel": "qtyNumberOfConvictions"
			,"description": "qtyNumberOfConvictions"
			,"fieldAlias2x": "qtyNumberOfConvictions"
			,"isSearchable": false
			,"picklistDescription": null
			,"picklistUri": null
			,"picklistParent": null
		},
"qtynumbertrainedansf": {
	"$ref": "#/definitions/positive_int"
			,"defaultLabel": "qtyNumberTrainedANSF"
			,"description": "qtyNumberTrainedANSF"
			,"fieldAlias2x": "qtyNumberTrainedANSF"
			,"isSearchable": false
			,"picklistDescription": null
			,"picklistUri": null
			,"picklistParent": null
		},
"qtynumbertrainedus": {
	"$ref": "#/definitions/positive_int"
			,"defaultLabel": "qtyNumberTrainedUS"
			,"description": "qtyNumberTrainedUS"
			,"fieldAlias2x": "qtyNumberTrainedUS"
			,"isSearchable": false
			,"picklistDescription": null
			,"picklistUri": null
			,"picklistParent": null
		},
"qtyoperations": {
	"$ref": "#/definitions/positive_int"
			,"defaultLabel": "qtyOperations"
			,"description": "qtyOperations"
			,"fieldAlias2x": "qtyOperations"
			,"isSearchable": false
			,"picklistDescription": null
			,"picklistUri": null
			,"picklistParent": null
		},
"qtyother": {
	"$ref": "#/definitions/positive_int"
			,"defaultLabel": "qtyOther"
			,"description": "qtyOther"
			,"fieldAlias2x": "qtyOther"
			,"isSearchable": false
			,"picklistDescription": null
			,"picklistUri": null
			,"picklistParent": null
		},
"qtyotherinvestigationsinitiated": {
	"$ref": "#/definitions/positive_int"
			,"defaultLabel": "qtyOtherInvestigationsInitiated"
			,"description": "qtyOtherInvestigationsInitiated"
			,"fieldAlias2x": "qtyOtherInvestigationsInitiated"
			,"isSearchable": false
			,"picklistDescription": null
			,"picklistUri": null
			,"picklistParent": null
		},
"qtyotherinvestigationsprosecuted": {
	"$ref": "#/definitions/positive_int"
			,"defaultLabel": "qtyOtherInvestigationsProsecuted"
			,"description": "qtyOtherInvestigationsProsecuted"
			,"fieldAlias2x": "qtyOtherInvestigationsProsecuted"
			,"isSearchable": false
			,"picklistDescription": null
			,"picklistUri": null
			,"picklistParent": null
		},
"qtypatrols": {
	"$ref": "#/definitions/positive_int"
			,"defaultLabel": "qtyPatrols"
			,"description": "qtyPatrols"
			,"fieldAlias2x": "qtyPatrols"
			,"isSearchable": false
			,"picklistDescription": null
			,"picklistUri": null
			,"picklistParent": null
		},
"qtypimhoursmentoredanp": {
	"$ref": "#/definitions/positive_int"
			,"defaultLabel": "qtyPIMHoursMentoredANP"
			,"description": "qtyPIMHoursMentoredANP"
			,"fieldAlias2x": "qtyPIMHoursMentoredANP"
			,"isSearchable": false
			,"picklistDescription": null
			,"picklistUri": null
			,"picklistParent": null
		},
"qtypimhourstrainedanp": {
	"$ref": "#/definitions/positive_int"
			,"defaultLabel": "qtyPIMHoursTrainedANP"
			,"description": "qtyPIMHoursTrainedANP"
			,"fieldAlias2x": "qtyPIMHoursTrainedANP"
			,"isSearchable": false
			,"picklistDescription": null
			,"picklistUri": null
			,"picklistParent": null
		},
"qtypimlawenforcementoperationsmentored": {
	"$ref": "#/definitions/positive_int"
			,"defaultLabel": "qtyPIMLawEnforcementOperationsMentored"
			,"description": "qtyPIMLawEnforcementOperationsMentored"
			,"fieldAlias2x": "qtyPIMLawEnforcementOperationsMentored"
			,"isSearchable": false
			,"picklistDescription": null
			,"picklistUri": null
			,"picklistParent": null
		},
"qtypimlep1reports": {
	"$ref": "#/definitions/positive_int"
			,"defaultLabel": "qtyPIMLEP1Reports"
			,"description": "qtyPIMLEP1Reports"
			,"fieldAlias2x": "qtyPIMLEP1Reports"
			,"isSearchable": false
			,"picklistDescription": null
			,"picklistUri": null
			,"picklistParent": null
		},
"qtypimmentoredanp": {
	"$ref": "#/definitions/positive_int"
			,"defaultLabel": "qtyPIMMentoredANP"
			,"description": "qtyPIMMentoredANP"
			,"fieldAlias2x": "qtyPIMMentoredANP"
			,"isSearchable": false
			,"picklistDescription": null
			,"picklistUri": null
			,"picklistParent": null
		},
"qtypimnumberofconvictions": {
	"$ref": "#/definitions/positive_int"
			,"defaultLabel": "qtyPIMNumberOfConvictions"
			,"description": "qtyPIMNumberOfConvictions"
			,"fieldAlias2x": "qtyPIMNumberOfConvictions"
			,"isSearchable": false
			,"picklistDescription": null
			,"picklistUri": null
			,"picklistParent": null
		},
"qtypimtrainedanp": {
	"$ref": "#/definitions/positive_int"
			,"defaultLabel": "qtyPIMTrainedANP"
			,"description": "qtyPIMTrainedANP"
			,"fieldAlias2x": "qtyPIMTrainedANP"
			,"isSearchable": false
			,"picklistDescription": null
			,"picklistUri": null
			,"picklistParent": null
		},
"qtyprosecution": {
	"$ref": "#/definitions/positive_int"
			,"defaultLabel": "qtyProsecution"
			,"description": "qtyProsecution"
			,"fieldAlias2x": "qtyProsecution"
			,"isSearchable": false
			,"picklistDescription": null
			,"picklistUri": null
			,"picklistParent": null
		},
"qtyrfi": {
	"$ref": "#/definitions/positive_int"
			,"defaultLabel": "qtyRFI"
			,"description": "qtyRFI"
			,"fieldAlias2x": "qtyRFI"
			,"isSearchable": false
			,"picklistDescription": null
			,"picklistUri": null
			,"picklistParent": null
		},
"qtyrfis": {
	"$ref": "#/definitions/positive_int"
			,"defaultLabel": "qtyRFIs"
			,"description": "qtyRFIs"
			,"fieldAlias2x": "qtyRFIs"
			,"isSearchable": false
			,"picklistDescription": null
			,"picklistUri": null
			,"picklistParent": null
		},
"qtytacticalquestioning": {
	"$ref": "#/definitions/positive_int"
			,"defaultLabel": "qtyTacticalQuestioning"
			,"description": "qtyTacticalQuestioning"
			,"fieldAlias2x": "qtyTacticalQuestioning"
			,"isSearchable": false
			,"picklistDescription": null
			,"picklistUri": null
			,"picklistParent": null
		},
"qtytargetingreferral": {
	"$ref": "#/definitions/positive_int"
			,"defaultLabel": "qtyTargetingReferral"
			,"description": "qtyTargetingReferral"
			,"fieldAlias2x": "qtyTargetingReferral"
			,"isSearchable": false
			,"picklistDescription": null
			,"picklistUri": null
			,"picklistParent": null
		},
"qtytq": {
	"$ref": "#/definitions/positive_int"
			,"defaultLabel": "qtyTQ"
			,"description": "qtyTQ"
			,"fieldAlias2x": "qtyTQ"
			,"isSearchable": false
			,"picklistDescription": null
			,"picklistUri": null
			,"picklistParent": null
		},
"qtytrials": {
	"$ref": "#/definitions/positive_int"
			,"defaultLabel": "qtyTrials"
			,"description": "qtyTrials"
			,"fieldAlias2x": "qtyTrials"
			,"isSearchable": false
			,"picklistDescription": null
			,"picklistUri": null
			,"picklistParent": null
		},
"qtytsemissions": {
	"$ref": "#/definitions/positive_int"
			,"defaultLabel": "qtyTSEMissions"
			,"description": "qtyTSEMissions"
			,"fieldAlias2x": "qtyTSEMissions"
			,"isSearchable": false
			,"picklistDescription": null
			,"picklistUri": null
			,"picklistParent": null
		},
"qtytsesupported": {
	"$ref": "#/definitions/positive_int"
			,"defaultLabel": "qtyTSESupported"
			,"description": "qtyTSESupported"
			,"fieldAlias2x": "qtyTSESupported"
			,"isSearchable": false
			,"picklistDescription": null
			,"picklistUri": null
			,"picklistParent": null
		},
"qtyusnumbertrained": {
	"$ref": "#/definitions/positive_int"
			,"defaultLabel": "qtyUSNumberTrained"
			,"description": "qtyUSNumberTrained"
			,"fieldAlias2x": "qtyUSNumberTrained"
			,"isSearchable": false
			,"picklistDescription": null
			,"picklistUri": null
			,"picklistParent": null
		},
"qtyustraininghours": {
	"$ref": "#/definitions/positive_int"
			,"defaultLabel": "qtyUSTrainingHours"
			,"description": "qtyUSTrainingHours"
			,"fieldAlias2x": "qtyUSTrainingHours"
			,"isSearchable": false
			,"picklistDescription": null
			,"picklistUri": null
			,"picklistParent": null
		},
"qtywitnessinterviews": {
	"$ref": "#/definitions/positive_int"
			,"defaultLabel": "qtyWitnessInterviews"
			,"description": "qtyWitnessInterviews"
			,"fieldAlias2x": "qtyWitnessInterviews"
			,"isSearchable": false
			,"picklistDescription": null
			,"picklistUri": null
			,"picklistParent": null
		},
"summary": {
	"$ref": "#/definitions/text"
			,"defaultLabel": "Summary"
			,"description": "Summary"
			,"fieldAlias2x": "Summary"
			,"isSearchable": false
			,"picklistDescription": null
			,"picklistUri": null
			,"picklistParent": null
		},
"trackingnumber": {
	"$ref": "#/definitions/longString"
			,"defaultLabel": "TrackingNumber"
			,"description": "TrackingNumber"
			,"fieldAlias2x": "TrackingNumber"
			,"isSearchable": false
			,"picklistDescription": null
			,"picklistUri": null
			,"picklistParent": null
		},
			"taskedunits": {
				"type": "array",
				"description": "Operations LEPSitrep Report TaskedUnits specific details",
				"fieldAlias2x": "TaskedUnits", 
					"items": {
						"type": "object",
						"properties": {
						
"taskedunits": {
	"$ref": "#/definitions/text"
			,"defaultLabel": "TaskedUnits"
			,"description": "TaskedUnits"
			,"fieldAlias2x": "TaskedUnits"
			,"isSearchable": false
			,"picklistDescription": null
			,"picklistUri": null
			,"picklistParent": null
		},
"referenceid": {
	"$ref": "#/definitions/longString"
			,"defaultLabel": "referenceId"
			,"description": "referenceId"
			,"fieldAlias2x": "TaskedUnitsKey"
			,"isSearchable": false
			,"picklistDescription": null
			,"picklistUri": null
			,"picklistParent": null
		}
				}
			}
		}
				}
			}
	}
}
