	
{
    "type": "object",
    "id": "http://cidne.dae.smil.mil/schemas/Operations/AirMedevac/CIDNEDM236",
    "description": "CIDNE Operations AirMedevac Report Definition",
    "definitions": {
        "shortStringRequired": {
            "type": "string",
            "maxLength": 50
        },
        "longStringRequired": {
            "type": "string",
            "maxLength": 500
        },
        "textRequired": {
            "type": "string"
        },
        "textFieldLevelRequired": {
            "type": "object",
            "properties": {
                "objectValue": {
                    "type": "string"
                },
                "security": {
					"$ref": "#/definitions/security"
				}
            },
            "required": [
                "objectValue",
                "security"
            ]
        },
        "dateTimeRequired": {
            "type": "object",
            "properties": {
                "zuluDateTime": {
                    "type": "string",
                    "format": "date-time"
                },
                "zuluOffset": {
                    "type": "integer",
					"minimum": -840,
					"maximum": 840,
                    "description": "Offset in minutes from Zulu"
                }
            },
            "required": [
                "zuluDateTime",
                "zuluOffset"
            ]
        },
        "latitude_ddsRequired": {
            "type": "number",
            "minimum": -90,
            "maximum": 90
        },
        "longitude_ddsRequired": {
            "type": "number",
            "minimum": -180,
            "maximum": 180
        },
        "positive_intRequired": {
            "type": "integer",
            "minimum": 0
        },
        "positive_numRequired": {
            "type": "number",
            "minimum": 0
        },
        "positive_intRequired": {
            "type": "integer",
            "minimum": 0
        },
        "shortString": {
            "type": ["string","null"],
            "maxLength": 50
        },
        "longString": {
            "type": ["string","null"],
            "maxLength": 500
        },
        "text": {
            "type": ["string","null"]
        },
        "textFieldLevel": {
            "type": "object",
            "properties": {
                "objectValue": {
                    "type": ["string","null"]
                },
                "security": {
					"$ref": "#/definitions/securityOptional"
				}
            },
            "required": [
                "objectValue",
                "security"
            ]
        },
        "dateTime": {
            "type": ["object","null"],
            "properties": {
                "zuluDateTime": {
                    "type": "string",
                    "format": "date-time"
                },
                "zuluOffset": {
                    "type": "integer",
					"minimum": -840,
					"maximum": 840,
                    "description": "Offset in minutes from Zulu"
                }
            },
            "required": [
                "zuluDateTime",
                "zuluOffset"
            ]
        },
        "latitude_dds": {
            "type": ["number","null"],
            "minimum": -90,
            "maximum": 90
        },
        "longitude_dds": {
            "type": ["number","null"],
            "minimum": -180,
            "maximum": 180
        },
        "positive_int": {
            "type": ["integer","null"],
            "minimum": 0
        },
        "positive_num": {
            "type": ["number","null"],
            "minimum": 0
        },
        "num": {
            "type": ["number","null"]
        },
        "uniqueStringArray": {
            "type": "array",
            "uniqueItems": true,
            "items": {
                "type": "string"
            }
        },
        "securityOptional": {
            "oneOf": [
                {
                    "type": "null"
                },
                {
                    "$ref": "#/definitions/security"
                }
            ]
        },
        "security": {
            "type": "object",
            "properties": {
                "atomicEnergyMarkings": {
                    "$ref": "#/definitions/shortString",
                    "description": "Atomic Energy Act Information Markings"
                },
                "classificationReason": {
                    "$ref": "#/definitions/longString",
                    "description": ": Concise reason for classification"
                },
                "classification": {
                    "enum": [ "U", "TS", "S", "C" ],
                    "description": "Classification of information",
                    "defaultLabel": "Classification",
                    "isSearchable": false,
                    "picklistName": "classification",
                    "picklistUri": "http://cidne.dae.smil.mil/schemas/CAPCO/classification",
                    "picklistParent": null
                    
                },
                "classifiedBy": {
                    "$ref": "#/definitions/longString",
                    "description": "Identification by name and position, or personal identifier of the OCA"
                },
                "compilationReason": {
                    "$ref": "#/definitions/longString",
                    "description": "Reason why the compilation of information causes the classification"
                },
                "declassDate": {
                    "$ref": "#/definitions/dateTime",
                    "description": "Declassification date"
                },
                "declassEvent": {
                    "$ref": "#/definitions/shortString",
                    "description": "Declassification event"
                },
                "declassException": {
                    "$ref": "#/definitions/longString",
                    "description": "Declassification exception"
                },
                "derivativelyClassifiedBy": {
                    "$ref": "#/definitions/longString",
                    "description": "The derivative classifier’s identification by name and position, or by personal identifier, in a manner that is immediately apparent on each derivatively classified document. If not otherwise evident, the agency and office of origin shall be identified"
                },
                "derivedFrom": {
                    "$ref": "#/definitions/shortString",
                    "description": "Concisely identify the source document or the classification guide"
                },
                "displayOnlyTo": {
                    "$ref": "#/definitions/longString",
                    "description": "List of foreign country(ies)/international organization(s) authorized for disclosure without providing the recipient with a physical copy for retention, regardless of medium to the foreign country(ies)/international organization(s) indicated"
                },
                "disseminationControls": {
                    "$ref": "#/definitions/longString",
                    "description": "Control markings that identify the expansion or limitation on the distribution of information. These markings are in addition to and separate from the levels of classification"
                },
                "FGIsourceOpen": {
                    "$ref": "#/definitions/shortString",
                    "description": "Open Source Foreign Government Information"
                },
                "FGIsourceProtected": {
                    "$ref": "#/definitions/shortString",
                    "description": "Protected Source Foreign Government Information"
                },
                "nonICmarkings": {
                    "$ref": "#/definitions/text",
                    "description": "Markings authorized for use by entities outside of the Intelligence Community"
                },
                "nonUSControls": {
                    "$ref": "#/definitions/shortString",
                    "description": "Non-US protective markings"
                },
                "ownerProducer": {
                    "$ref": "#/definitions/shortStringRequired",
                    "description": "Owner/Producer",
                    "default": "USA",
                    "defaultLabel": "Owner Producer",
                    "isSearchable": false,
                    "picklistName": "ownerProducer",
                    "picklistUri": "http://cidne.dae.smil.mil/schemas/CAPCO/ownerProducer",
                    "picklistParent": null
                },
                "releasableToFilterField": {
                    "$ref": "#/definitions/shortString",
                    "description": "Need to add CAPCO Descriptions"
                },
                "releasableTo": {
                    "$ref": "#/definitions/text",
                    "description": "List of countries releasable to",
                    "defaultLabel": "Releasable To",
                    "isSearchable": false,
                    "picklistName": "releasableTo",
                    "picklistUri": "http://cidne.dae.smil.mil/schemas/CAPCO/releasableTo",
                    "picklistParent": null
                },
                "SARIdentifier": {
                    "$ref": "#/definitions/shortString",
                    "description": "Special access required programs"
                },
                "SCIcontrols": {
                    "$ref": "#/definitions/longString",
                    "description": "Sensitive Compartmented Information (SCI) control systems"
                }
            },
            "required": [
                "ownerProducer",
                "classification"
            ]
        },
        "actionInfo":{
            "type": "object",
            "properties": {
                "actionDate": {
                    "$ref": "#/definitions/dateTimeRequired",
                    "description": "Date Time Action was taken"
                },
                "group": {
                    "$ref": "#/definitions/longStringRequired",
                    "description": "User Group that performed action"
                },
                "parentGroup": {
                    "$ref": "#/definitions/longString",
                    "description": "User Group's Parent Group Name"
                },
                "nationality": {
                    "$ref": "#/definitions/shortStringRequired",
                    "description": "User Nationality"
                },
                "network": {
                    "$ref": "#/definitions/shortStringRequired",
                    "description": "Systems Network where action was taken"
                },
                "objectState": {
                    "description": "",
                    "enum": [
                        "CREATED",
                        "MODIFIED",
                        "TEMPLATE",
                        "SUBMITTED",
                        "PUBLISHED",
                        "VERSIONED",
                        "DEPRECATED",
                        "VALIDATING",
                        "RESTORED",
                        "MOVED"
                    ]
                },
                "site": {
                    "$ref": "#/definitions/shortStringRequired",
                    "description": "Systems Site"
                },
                "system": {
                    "$ref": "#/definitions/shortStringRequired",
                    "description": "System that provided the action"
                },
                "user": {
                    "$ref": "#/definitions/shortStringRequired",
                    "description": "User that performed action"
                }
            },
            "required": [
                "actionDate",
                "group",
                "parentGroup",
                "nationality",
                "network",
                "objectState",
                "site",
                "system",
                "user"
            ]
        },
        "position": {
            "description": "A single position. (order should be longitude,latitude)",
            "type": "array",
            "minItems": 2,
            "items": [
                {
                    "type": "number"
                },
                {
                    "type": "number"
                }
            ],
            "additionalItems": false
        },
        "positionArray": {
            "description": "An array of positions",
            "type": "array",
            "items": {
                "$ref": "#/definitions/position"
            }
        },
        "lineString": {
            "description": "An array of two or more positions",
            "allOf": [
                {
                    "type": "array",
                    "items": {
                        "$ref": "#/definitions/position"
                    }
                },
                {
                    "minItems": 2
                }
            ]
        },
        "linearRing": {
            "description": "An array of four positions where the first equals the last",
            "allOf": [
                {
                    "type": "array",
                    "items": {
                        "$ref": "#/definitions/position"
                    }
                },
                {
                    "minItems": 4
                }
            ]
        },
        "polygon": {
            "description": "An array of linear rings",
            "type": "array",
            "items": {
                "$ref": "#/definitions/linearRing"
            }
        },
        "geometry": {
            "title": "geometry",
            "description": "One geometry as defined by GeoJSON",
            "type": "object",
            "required": [
                "type",
                "coordinates"
            ],
            "oneOf": [
                {
                    "title": "Point",
                    "properties": {
                        "type": {
                            "enum": [
                                "Point"
                            ]
                        },
                        "coordinates": {
                            "$ref": "#/definitions/position"
                        }
                    }
                },
                {
                    "title": "MultiPoint",
                    "properties": {
                        "type": {
                            "enum": [
                                "MultiPoint"
                            ]
                        },
                        "coordinates": {
                            "type": "array",
                            "items": {
                                "$ref": "#/definitions/position"
                            }
                        }
                    }
                },
                {
                    "title": "LineString",
                    "properties": {
                        "type": {
                            "enum": [
                                "LineString"
                            ]
                        },
                        "coordinates": {
                            "$ref": "#/definitions/lineString"
                        }
                    }
                },
                {
                    "title": "MultiLineString",
                    "properties": {
                        "type": {
                            "enum": [
                                "MultiLineString"
                            ]
                        },
                        "coordinates": {
                            "type": "array",
                            "items": {
                                "$ref": "#/definitions/lineString"
                            }
                        }
                    }
                },
                {
                    "title": "Polygon",
                    "properties": {
                        "type": {
                            "enum": [
                                "Polygon"
                            ]
                        },
                        "coordinates": {
                            "$ref": "#/definitions/polygon"
                        }
                    }
                },
                {
                    "title": "MultiPolygon",
                    "properties": {
                        "type": {
                            "enum": [
                                "MultiPolygon"
                            ]
                        },
                        "coordinates": {
                            "type": "array",
                            "items": {
                                "$ref": "#/definitions/polygon"
                            }
                        }
                    }
                }
            ]
        },
        "geometryCollection": {
            "title": "GeometryCollection",
            "description": "A collection of geometry objects",
            "required": [
                "geometries"
            ],
            "properties": {
                "type": {
                    "enum": [
                        "GeometryCollection"
                    ]
                },
                "geometries": {
                    "type": "array",
                    "items": {
                        "$ref": "#/definitions/geometry"
                    }
                }
            }
        },
        "feature": {
            "title": "Feature",
            "description": "A Geo JSON feature object",
            "required": [
                "geometry"
            ],
            "properties": {
                "type": {
                    "enum": [
                        "Feature"
                    ]
                },
                "geometry": {
                    "oneOf": [
                        {
                            "type": "null"
                        },
                        {
                            "$ref": "#/definitions/geometry"
                        }
                    ]
                },
				"properties": { "type": [ "object", "null" ] },
                "id": { "type":["string"] }
            }
        },
        "featureCollection": {
            "description": "A GeoJSON feature collection",
            "required": [
                "features"
            ],
            "properties": {
                "type": {
                    "enum": [
                        "FeatureCollection"
                    ]
                },
                "features": {
                    "type": "array",
                    "items": {
                        "$ref": "#/definitions/feature"
                    }
                }
            }
        },
		"namedCrs": {
            "properties": {
                "type": { "enum": [ "name" ] },
                "properties": {
                    "required": [ "name" ],
                    "additionalProperties": false,
                    "properties": {
                        "name": {
                            "type": "string"
                        }
                    }
                }
            }
        },
        "linkedObject": {
            "type": "object",
            "required": [ "href" ],
            "properties": {
                "href": {
                    "type": "string",
                    "format": "uri"
                },
                "type": {
                    "type": "string",
                    "description": "Suggested values: proj4, ogjwkt, esriwkt"
                }
            }
        },
        "linkedCrs": {
            "properties": {
                "type": { "enum": [ "link" ] },
                "properties": { "$ref": "#/definitions/linkedObject" }
            }
        },	
		"crs":{
			"title": "crs",
			"description": "a Coordinate Reference System object",
			"type": [ "object", "null" ],
			"required": [ "type", "properties" ],
			"properties": {
				"type": { "type": "string" },
				"properties": { "type": "object" }
			},
			"additionalProperties": false,
			"oneOf": [
				{ "$ref": "#/definitions/namedCrs" },
				{ "$ref": "#/definitions/linkedCrs" }
			]
		},
		"bbox":{
		"description": "A bounding box as defined by GeoJSON",
			"type": "array",
			"items": { "type": "number" }
		},
        "geojson": {
            "title": "Geo JSON object",
            "description": "Schema for a Geo JSON object",
            "type": ["object","null"],
            "required": [
                "type"
            ],
			"properties": {
				"crs": { "$ref": "#/definitions/crs" },
				"bbox": { "$ref": "#/definitions/bbox" }
			},
            "anyOf": [
                {
                    "$ref": "#/definitions/geometry"
                },
                {
                    "$ref": "#/definitions/geometryCollection"
                },
                {
                    "$ref": "#/definitions/feature"
                },
                {
                    "$ref": "#/definitions/featureCollection"
                }
            ]
        }
    },
    "required": [
        "base",
        "datamodel",
        "formId",
        "location",
        "security",
        "details"
    ],	
    "properties": {
        "datamodel": {
            "$ref": "#/definitions/longString",
            "description": "Reference to the report definition."
        },
        "formId": {
            "$ref": "#/definitions/longString",
            "description": "Reference to the layout template identifier that this data was intended to be best visualized"
        },
        "base": {
            "type": "object",
            "description": "The core metadata used within all report definitions",
            "properties": {
                "objectId": {
                    "$ref": "#/definitions/shortStringRequired",
                    "description": "Report instance unique identifier"
                },
                "reportId": {
                    "$ref": "#/definitions/shortStringRequired",
                    "description": "Original report instance objectId for a report version grouping. (i.e. the root report identifier)"
                },
                "parentVersionId": {
                    "$ref": "#/definitions/shortString",
                    "description": "Report instance's objectId of the parent report. NOTE: If there is no parent, this value should be set to the report instance's own objectId. "
                },
                "module": {
                    "$ref": "#/definitions/shortStringRequired",
                    "description": "CIDNE community"
                },
                "reportType": {
                    "$ref": "#/definitions/shortStringRequired",
                    "description": "CIDNE report type (e.g. SIGACT)"
                },
                "reportSerial": {
                    "$ref": "#/definitions/textFieldLevel",
					"defaultLabel": "DisplaySerial",
					"description": "Report instance nomenclature (DisplaySerial)",
					"fieldAlias2x": "DisplaySerial"
                },
                "reportTitle": {
                    "$ref": "#/definitions/textFieldLevel",
					"defaultLabel": "DisplayTitle",
					"description": "Report instance title text (DisplayTitle)",
					"fieldAlias2x": "DisplayTitle"
                },
                "reportSummary": {
                    "$ref": "#/definitions/textFieldLevel",
					"defaultLabel": "DisplaySummary",
					"description": "Report instance summary text block (DisplaySummary)",
					"fieldAlias2x": "DisplaySummary"
                },
                "reportDate": {
                    "$ref": "#/definitions/dateTimeRequired",
					"defaultLabel": "DatePosted",
					"description": "Primary report instance date (DatePosted)",
					"fieldAlias2x": "DatePosted"
                },
                "reportSymbol": {
                    "$ref": "#/definitions/longString",
                    "description": "Report instance symbology"
                },
                "reportImage": {
                    "$ref": "#/definitions/longString",
                    "description": "Primary image of report instance"
                },
                "reportCountry": {
                    "$ref": "#/definitions/shortString",
                    "description": "Country value of report instance's primary location"
                },
                "reportLatitude": {
                    "$ref": "#/definitions/latitude_dds",
                    "description": "Latitude value of report instance's primary location"
                },
                "reportLongitude": {
                    "$ref": "#/definitions/longitude_dds",
                    "description": "Longitude value of report instance's primary location"
                },
				"geoLocation":{
					"$ref":"#/definitions/geojson"
				},
                "currentObjectState":{
                        "$ref": "#/definitions/actionInfo"
                },
                "originatingGroup": {
                    "$ref": "#/definitions/longStringRequired",
                    "description": "Original creator's group"
                },  
                "originatingUser": {
                    "$ref": "#/definitions/longStringRequired",
                    "description": "Original creator's User Name or email address"
                },  
				"isTearline": {
                    "type": "boolean",
                    "description": "Determines whether a report is a tearline"
                },
				"tearlineId": {
					"$ref": "#/definitions/shortString",
                    "description": "The reportId of the parent, used as a tearline group binding"
				},
                "theaterFilter": {
                    "$ref": "#/definitions/shortStringRequired",
                    "description": "Report instance theater of relevance"
                },
                "warehouseUri": {
                    "$ref": "#/definitions/longStringRequired",
                    "description": "Data warehouse location for report instance",
                    "format": "uri"
                }
            },
            "required": [
                "isTearline",
                "module",
                "objectId",
                "currentObjectState",
                "originatingGroup",
                "originatingUser",
                "reportId",
                "reportSerial",
                "reportDate",
                "theaterFilter",
                "reportType",
                "reportTitle",
                "reportSummary"
            ]
        },
        "location": {
            "type": "array",
            "description": "All locations for the report instance",
            "items": {
                "type": "object",
                "properties": {
                    "objectId": {
                        "$ref": "#/definitions/shortStringRequired",
                        "description": "objectId required for Edit Purposes"
                    },
                    "address": {
                        "$ref": "#/definitions/longString",
                        "description": "Address Details"
                    },
                    "alternateRoute": {
                        "$ref": "#/definitions/longString",
                        "description": "Alternate Route for location"
                    },
                    "ao": {
                        "$ref": "#/definitions/shortString",
                        "description": "Area of Operations"
                    },
                    "basecamp": {
                        "$ref": "#/definitions/shortString",
                        "description": "Base Camp"
                    },
                    "city": {
                        "$ref": "#/definitions/shortString",
                        "description": "City for Location"
                    },
                    "confidence": {
                        "$ref": "#/definitions/shortString",
                        "description": "Reporters Confidence in Location Value"
                    },
                    "country": {
                        "$ref": "#/definitions/shortString",
                        "description": "Location Country"
                    },
                    "customGeom": {
                        "type": "object",
                        "description": "Custom Geometry Object for Location",
                        "properties": {
                            "customGeomObjectId": {
                                "$ref": "#/definitions/shortString",
                                "description": "objectId for Custom Geometry Object"
                            },
                            "geomType": {
                                "$ref": "#/definitions/shortString",
                                "description": "Geometry Type for custom geometry object (e.g. Point, Multi-polygon"
                            },
                            "geom": {
                                "$ref": "#/definitions/shortString",
                                "description": "TBD GEOM Object for Custom Location Object"
                            },
                            "name": {
                                "$ref": "#/definitions/shortString",
                                "description": "Custom Location Name"
                            }
                        }
                    },
                    "dateEndLocation": {
                        "$ref": "#/definitions/dateTime",
                        "description": "Ending Date Time for location"
                    },
                    "dateStartLocation": {
                        "$ref": "#/definitions/dateTime",
                        "description": "Starting Date Time for location"
                    },
                    "derivedLocation": {
                        "type": "boolean",
                        "description": "Was Location Lat/Long derived from user picklists?"
                    },
                    "description": {
                        "$ref": "#/definitions/text",
                        "description": "Location Description"
                    },
                    "distanceFromCityCenter": {
                        "$ref": "#/definitions/positive_int",
                        "description": "Distance in meters to nearest city center"
                    },
                    "distanceToNearestFOB": {
                        "$ref": "#/definitions/positive_num",
                        "description": "Distance in meters to nearest FOB"
                    },
                    "distanceToNearestRoute": {
                        "$ref": "#/definitions/positive_num",
                        "description": "Distance in meters to nearest Route"
                    },
                    "district": {
                        "$ref": "#/definitions/shortString",
                        "description": "District"
                    },
                    "fob": {
                        "$ref": "#/definitions/shortString",
                        "description": "FOB"
                    },
					"geoLocation":{
						"$ref":"#/definitions/geojson"
					},
					"house": {
                        "$ref": "#/definitions/shortString",
                        "description": "HOUSE"
                    },
                    "isPrimaryLocation": {
                        "type": "boolean",
                        "description": "Marks Primary Location"
                    },
                    "latitude": {
                        "$ref": "#/definitions/latitude_ddsRequired",
                        "description": "Latitude of Location in Degree Decimal Seconds"
                    },
                    "locationActive": {
                        "type": "boolean",
                        "description": "Is Location Active?"
                    },
                    "locationType": {
                        "$ref": "#/definitions/shortString",
                        "description": "Location Type"
                    },
                    "longitude": {
                        "$ref": "#/definitions/longitude_ddsRequired",
                        "description": "Longitude of Location in Degree Decimal Seconds"
                    },
                    "mscCurrent": {
                        "$ref": "#/definitions/shortString",
                        "description": "Current Major Supporting Command responsible for location"
                    },
                    "mscDateOfCurrent": {
                        "$ref": "#/definitions/dateTime",
                        "description": "Date Of Current Major Supporting Command's Control of location"
                    },
                    "msc": {
                        "$ref": "#/definitions/shortString",
                        "description": "Major Supporting Command responsible for location"
                    },
                    "nai": {
                        "$ref": "#/definitions/shortString",
                        "description": "Named Area of Interest"
                    },
                    "nearestCity": {
                        "$ref": "#/definitions/shortString",
                        "description": "Nearest City"
                    },
                    "nearestFOB": {
                        "$ref": "#/definitions/shortString",
                        "description": "Nearest FOB"
                    },
                    "nearestRoute": {
                        "$ref": "#/definitions/shortString",
                        "description": "Nearest Route"
                    },
                    "neighborhood": {
                        "$ref": "#/definitions/shortString",
                        "description": "Neighborhood for location"
                    },
                    "populationCenterType": {
                        "$ref": "#/definitions/shortString",
                        "description": "Population Center Type"
                    },
                    "populationCenter": {
                        "$ref": "#/definitions/shortString",
                        "description": "Population Center"
                    },
                    "province": {
                        "$ref": "#/definitions/shortString",
                        "description": "Province"
                    },
                    "referenceId": {
                        "$ref": "#/definitions/shortString",
                        "description": "Reference to any subelement with in current report instance (e.g. Event Object ID)"
                    },
                    "route": {
                        "$ref": "#/definitions/shortString",
                        "description": "Route"
                    },
                    "security": {
                        "$ref": "#/definitions/securityOptional"
                    },
                    "street": {
                        "$ref": "#/definitions/shortString",
                        "description": "Street"
                    },
                    "structure": {
                        "$ref": "#/definitions/shortString",
                        "description": "Structure"
                    },
                    "village": {
                        "$ref": "#/definitions/shortString",
                        "description": "Village"
                    },
                    "zone": {
                        "$ref": "#/definitions/shortString",
                        "description": "City Zone"
                    }
                },
				"required": [
					"objectId",
					"isPrimaryLocation",
					"latitude",
					"longitude"
				]
            }
        },
        "remarks": {
            "type": "array",
            "items": {
                "type": "object",
                "properties": {
                    "objectId": {
                        "$ref": "#/definitions/shortStringRequired",
                        "description": "objectId required for Edit Purposes"
                    },
                    "referenceId": {
                        "$ref": "#/definitions/shortString",
                        "description": "Reference to any subelement with in current report instance (e.g. Event Object ID)"
                    },
                    "remarkText": {
                        "$ref": "#/definitions/text",
                        "description": "Remark Text"
                    },
                    "remarkType": {
                        "$ref": "#/definitions/shortString",
                        "description": "Remark Type"
                    },
                    "remarkOrder": {
                        "$ref": "#/definitions/positive_num",
                        "description": "Remark Order"
                    },
                    "security": {
                        "$ref": "#/definitions/securityOptional"
                    }
                },
                "required": [
                    "objectId",
                    "remarkText",
                    "remarkType",
                    "security"
                ]
            }
        },
        "requirements": {
            "type": "array",
            "items": {
                "type": "object",
                "properties": {
                    "objectId": {
                        "$ref": "#/definitions/shortStringRequired",
                        "description": "objectId required for Edit Purposes"
                    },
                    "referenceId": {
                        "$ref": "#/definitions/shortString",
                        "description": "Reference to any subelement with in current report instance (e.g. Event Object ID)"
                    },
                    "requirement": {
                        "$ref": "#/definitions/longString",
                        "description": "Requirement sub based on Requirement Type"
                    },
                    "requirementType": {
                        "$ref": "#/definitions/shortString",
                        "description": "Requirement Type"
                    },
                    "comment": {
                        "$ref": "#/definitions/text",
                        "description": "Requirement Comment"
                    },
                    "security": {
                        "$ref": "#/definitions/securityOptional"
                    }
                },
                "required": [
                    "objectId",
                    "requirementType",
                    "requirement",
                    "comment"
                ]
            }
        },
        "security": {
                        "$ref": "#/definitions/security"
        },
        "objectHistory": {
            "type": "array",
            "items":
                    {
                        "$ref": "#/definitions/actionInfo"
                    }       
		},
			"details": {
				"type": "object",
				"description": "Operations AirMedevac Report details specific details",
				"fieldAlias2x": "details", 
						"properties": {
						
"acfrequency": {
	"$ref": "#/definitions/longString"
			,"defaultLabel": "ACFrequency"
			,"description": "ACFrequency"
			,"fieldAlias2x": "ACFrequency"
			,"isSearchable": false
			,"picklistDescription": null
			,"picklistUri": null
			,"picklistParent": null
		},
"calc9linetolaunchmin": {
	"$ref": "#/definitions/positive_int"
			,"defaultLabel": "Calc9LineToLaunchMin"
			,"description": "Calc9LineToLaunchMin"
			,"fieldAlias2x": "Calc9LineToLaunchMin"
			,"isSearchable": false
			,"picklistDescription": null
			,"picklistUri": null
			,"picklistParent": null
		},
"calcarriveatmtftoreturntobasemin": {
	"$ref": "#/definitions/positive_int"
			,"defaultLabel": "CalcArriveAtMTFToReturnToBaseMin"
			,"description": "CalcArriveAtMTFToReturnToBaseMin"
			,"fieldAlias2x": "CalcArriveAtMTFToReturnToBaseMin"
			,"isSearchable": false
			,"picklistDescription": null
			,"picklistUri": null
			,"picklistParent": null
		},
"calcarriveatscenetodepartscenemin": {
	"$ref": "#/definitions/positive_int"
			,"defaultLabel": "CalcArriveAtSceneToDepartSceneMin"
			,"description": "CalcArriveAtSceneToDepartSceneMin"
			,"fieldAlias2x": "CalcArriveAtSceneToDepartSceneMin"
			,"isSearchable": false
			,"picklistDescription": null
			,"picklistUri": null
			,"picklistParent": null
		},
"calcdepartscenetoarriveatmtfmin": {
	"$ref": "#/definitions/positive_int"
			,"defaultLabel": "CalcDepartSceneToArriveAtMTFMin"
			,"description": "CalcDepartSceneToArriveAtMTFMin"
			,"fieldAlias2x": "CalcDepartSceneToArriveAtMTFMin"
			,"isSearchable": false
			,"picklistDescription": null
			,"picklistUri": null
			,"picklistParent": null
		},
"calclaunchtoarriveatscenemin": {
	"$ref": "#/definitions/positive_int"
			,"defaultLabel": "CalcLaunchToArriveAtSceneMin"
			,"description": "CalcLaunchToArriveAtSceneMin"
			,"fieldAlias2x": "CalcLaunchToArriveAtSceneMin"
			,"isSearchable": false
			,"picklistDescription": null
			,"picklistUri": null
			,"picklistParent": null
		},
"calctotalelapsedtimemin": {
	"$ref": "#/definitions/positive_int"
			,"defaultLabel": "CalcTotalElapsedTimeMin"
			,"description": "CalcTotalElapsedTimeMin"
			,"fieldAlias2x": "CalcTotalElapsedTimeMin"
			,"isSearchable": false
			,"picklistDescription": null
			,"picklistUri": null
			,"picklistParent": null
		},
"callsign": {
	"$ref": "#/definitions/longString"
			,"defaultLabel": "CallSign"
			,"description": "CallSign"
			,"fieldAlias2x": "CallSign"
			,"isSearchable": false
			,"picklistDescription": null
			,"picklistUri": null
			,"picklistParent": null
		},
"date9linereceived": {
	"$ref": "#/definitions/dateTime"
			,"defaultLabel": "Date9LineReceived"
			,"description": "Date9LineReceived"
			,"fieldAlias2x": "Date9LineReceived"
			,"isSearchable": false
			,"picklistDescription": null
			,"picklistUri": null
			,"picklistParent": null
		},
"datearriveatmtf": {
	"$ref": "#/definitions/dateTime"
			,"defaultLabel": "DateArriveAtMTF"
			,"description": "DateArriveAtMTF"
			,"fieldAlias2x": "DateArriveAtMTF"
			,"isSearchable": false
			,"picklistDescription": null
			,"picklistUri": null
			,"picklistParent": null
		},
"datearriveatscene": {
	"$ref": "#/definitions/dateTime"
			,"defaultLabel": "DateArriveAtScene"
			,"description": "DateArriveAtScene"
			,"fieldAlias2x": "DateArriveAtScene"
			,"isSearchable": false
			,"picklistDescription": null
			,"picklistUri": null
			,"picklistParent": null
		},
"datedepartscene": {
	"$ref": "#/definitions/dateTime"
			,"defaultLabel": "DateDepartScene"
			,"description": "DateDepartScene"
			,"fieldAlias2x": "DateDepartScene"
			,"isSearchable": false
			,"picklistDescription": null
			,"picklistUri": null
			,"picklistParent": null
		},
"datelaunch": {
	"$ref": "#/definitions/dateTime"
			,"defaultLabel": "DateLaunch"
			,"description": "DateLaunch"
			,"fieldAlias2x": "DateLaunch"
			,"isSearchable": false
			,"picklistDescription": null
			,"picklistUri": null
			,"picklistParent": null
		},
"dateoccurred": {
	"$ref": "#/definitions/dateTime"
			,"defaultLabel": "DateOccurred"
			,"description": "DateOccurred"
			,"fieldAlias2x": "DateOccurred"
			,"isSearchable": false
			,"picklistDescription": null
			,"picklistUri": null
			,"picklistParent": null
		},
"datereported": {
	"$ref": "#/definitions/dateTime"
			,"defaultLabel": "DateReported"
			,"description": "DateReported"
			,"fieldAlias2x": "DateReported"
			,"isSearchable": false
			,"picklistDescription": null
			,"picklistUri": null
			,"picklistParent": null
		},
"datereturntobase": {
	"$ref": "#/definitions/dateTime"
			,"defaultLabel": "DateReturnToBase"
			,"description": "DateReturnToBase"
			,"fieldAlias2x": "DateReturnToBase"
			,"isSearchable": false
			,"picklistDescription": null
			,"picklistUri": null
			,"picklistParent": null
		},
"eventtype": {
	"$ref": "#/definitions/longString"
			,"defaultLabel": "EventType"
			,"description": "EventType"
			,"fieldAlias2x": "EventType"
			,"isSearchable": false
			,"picklistDescription": "EventType"
			,"picklistUri": "Operations-EventType"
			,"picklistParent": null
		},
"latitude": {
	"$ref": "#/definitions/latitude_dds"
			,"defaultLabel": "Latitude"
			,"description": "Latitude"
			,"fieldAlias2x": "Latitude"
			,"isSearchable": false
			,"picklistDescription": null
			,"picklistUri": null
			,"picklistParent": null
		},
"localtrackingnumber": {
	"$ref": "#/definitions/text"
			,"defaultLabel": "LocalTrackingNumber"
			,"description": "LocalTrackingNumber"
			,"fieldAlias2x": "LocalTrackingNumber"
			,"isSearchable": false
			,"picklistDescription": null
			,"picklistUri": null
			,"picklistParent": null
		},
"longitude": {
	"$ref": "#/definitions/longitude_dds"
			,"defaultLabel": "Longitude"
			,"description": "Longitude"
			,"fieldAlias2x": "Longitude"
			,"isSearchable": false
			,"picklistDescription": null
			,"picklistUri": null
			,"picklistParent": null
		},
"mais": {
	"$ref": "#/definitions/positive_int"
			,"defaultLabel": "MAIS"
			,"description": "MAIS"
			,"fieldAlias2x": "MAIS"
			,"isSearchable": false
			,"picklistDescription": null
			,"picklistUri": null
			,"picklistParent": null
		},
"medevacprecedence": {
	"$ref": "#/definitions/longString"
			,"defaultLabel": "MedevacPrecedence"
			,"description": "MedevacPrecedence"
			,"fieldAlias2x": "MedevacPrecedence"
			,"isSearchable": false
			,"picklistDescription": "MedevacPrecedence"
			,"picklistUri": "OperationsAirMedevac-MedevacPrecedence"
			,"picklistParent": null
		},
"medevactype": {
	"$ref": "#/definitions/longString"
			,"defaultLabel": "MedevacType"
			,"description": "MedevacType"
			,"fieldAlias2x": "MedevacType"
			,"isSearchable": false
			,"picklistDescription": "MedevacType"
			,"picklistUri": "OperationsAirMedevac-MedevacType"
			,"picklistParent": null
		},
"mgrs": {
	"$ref": "#/definitions/longString"
			,"defaultLabel": "MGRS"
			,"description": "MGRS"
			,"fieldAlias2x": "MGRS"
			,"isSearchable": false
			,"picklistDescription": null
			,"picklistUri": null
			,"picklistParent": null
		},
"missiondetail": {
	"$ref": "#/definitions/longString"
			,"defaultLabel": "MissionDetail"
			,"description": "MissionDetail"
			,"fieldAlias2x": "MissionDetail"
			,"isSearchable": false
			,"picklistDescription": "MissionDetail"
			,"picklistUri": "OperationsAirMedevac-MissionDetail"
			,"picklistParent": null
		},
"missionnumber": {
	"$ref": "#/definitions/longString"
			,"defaultLabel": "MissionNumber"
			,"description": "MissionNumber"
			,"fieldAlias2x": "MissionNumber"
			,"isSearchable": false
			,"picklistDescription": null
			,"picklistUri": null
			,"picklistParent": null
		},
"missionstatus": {
	"$ref": "#/definitions/longString"
			,"defaultLabel": "MissionStatus"
			,"description": "MissionStatus"
			,"fieldAlias2x": "MissionStatus"
			,"isSearchable": false
			,"picklistDescription": "MissionStatus"
			,"picklistUri": "OperationsAirMedevac-MissionStatus"
			,"picklistParent": null
		},
"missionstatuscomments": {
	"$ref": "#/definitions/longString"
			,"defaultLabel": "MissionStatusComments"
			,"description": "MissionStatusComments"
			,"fieldAlias2x": "MissionStatusComments"
			,"isSearchable": false
			,"picklistDescription": null
			,"picklistUri": null
			,"picklistParent": null
		},
"nationality": {
	"$ref": "#/definitions/longString"
			,"defaultLabel": "Nationality"
			,"description": "Nationality"
			,"fieldAlias2x": "Nationality"
			,"isSearchable": false
			,"picklistDescription": "Nationality"
			,"picklistUri": "OperationsAirMedevac-Nationality"
			,"picklistParent": null
		},
"ninelineclosed": {
	"type": "boolean"
			,"defaultLabel": "NineLineClosed"
			,"description": "NineLineClosed"
			,"fieldAlias2x": "NineLineClosed"
			,"isSearchable": false
			,"picklistDescription": null
			,"picklistUri": null
			,"picklistParent": null
		},
"nonmedevacdropofflocation": {
	"$ref": "#/definitions/longString"
			,"defaultLabel": "NonMedevacDropoffLocation"
			,"description": "NonMedevacDropoffLocation"
			,"fieldAlias2x": "NonMedevacDropoffLocation"
			,"isSearchable": false
			,"picklistDescription": null
			,"picklistUri": null
			,"picklistParent": null
		},
"nonmedevaclatitude": {
	"$ref": "#/definitions/latitude_dds"
			,"defaultLabel": "NonMedevacLatitude"
			,"description": "NonMedevacLatitude"
			,"fieldAlias2x": "NonMedevacLatitude"
			,"isSearchable": false
			,"picklistDescription": null
			,"picklistUri": null
			,"picklistParent": null
		},
"nonmedevaclongitude": {
	"$ref": "#/definitions/longitude_dds"
			,"defaultLabel": "NonMedevacLongitude"
			,"description": "NonMedevacLongitude"
			,"fieldAlias2x": "NonMedevacLongitude"
			,"isSearchable": false
			,"picklistDescription": null
			,"picklistUri": null
			,"picklistParent": null
		},
"nonmedevacmgrs": {
	"$ref": "#/definitions/longString"
			,"defaultLabel": "NonMedevacMGRS"
			,"description": "NonMedevacMGRS"
			,"fieldAlias2x": "NonMedevacMGRS"
			,"isSearchable": false
			,"picklistDescription": null
			,"picklistUri": null
			,"picklistParent": null
		},
"numberofpatients": {
	"$ref": "#/definitions/positive_int"
			,"defaultLabel": "NumberOfPatients"
			,"description": "NumberOfPatients"
			,"fieldAlias2x": "NumberOfPatients"
			,"isSearchable": false
			,"picklistDescription": null
			,"picklistUri": null
			,"picklistParent": null
		},
"numcarriedlyingsittinga": {
	"$ref": "#/definitions/positive_int"
			,"defaultLabel": "NumCarriedLyingSittingA"
			,"description": "NumCarriedLyingSittingA"
			,"fieldAlias2x": "NumCarriedLyingSittingA"
			,"isSearchable": false
			,"picklistDescription": null
			,"picklistUri": null
			,"picklistParent": null
		},
"numcarriedlyingsittinge": {
	"$ref": "#/definitions/positive_int"
			,"defaultLabel": "NumCarriedLyingSittingE"
			,"description": "NumCarriedLyingSittingE"
			,"fieldAlias2x": "NumCarriedLyingSittingE"
			,"isSearchable": false
			,"picklistDescription": null
			,"picklistUri": null
			,"picklistParent": null
		},
"numcarriedlyingsittingl": {
	"$ref": "#/definitions/positive_int"
			,"defaultLabel": "NumCarriedLyingSittingL"
			,"description": "NumCarriedLyingSittingL"
			,"fieldAlias2x": "NumCarriedLyingSittingL"
			,"isSearchable": false
			,"picklistDescription": null
			,"picklistUri": null
			,"picklistParent": null
		},
"originatingstation": {
	"$ref": "#/definitions/longString"
			,"defaultLabel": "OriginatingStation"
			,"description": "OriginatingStation"
			,"fieldAlias2x": "OriginatingStation"
			,"isSearchable": false
			,"picklistDescription": "OriginatingStation"
			,"picklistUri": "OperationsAirMedevac-OriginatingStation"
			,"picklistParent": null
		},
"patientdropofflocation": {
	"$ref": "#/definitions/longString"
			,"defaultLabel": "PatientDropOffLocation"
			,"description": "PatientDropOffLocation"
			,"fieldAlias2x": "PatientDropOffLocation"
			,"isSearchable": false
			,"picklistDescription": "PatientDropOffLocation"
			,"picklistUri": "OperationsAirMedevac-PatientDropOffLocation"
			,"picklistParent": null
		},
"patientstatus": {
	"$ref": "#/definitions/longString"
			,"defaultLabel": "PatientStatus"
			,"description": "PatientStatus"
			,"fieldAlias2x": "PatientStatus"
			,"isSearchable": false
			,"picklistDescription": null
			,"picklistUri": null
			,"picklistParent": null
		},
"patnumpreceda": {
	"$ref": "#/definitions/positive_int"
			,"defaultLabel": "PatNumPrecedA"
			,"description": "PatNumPrecedA"
			,"fieldAlias2x": "PatNumPrecedA"
			,"isSearchable": false
			,"picklistDescription": null
			,"picklistUri": null
			,"picklistParent": null
		},
"patnumprecedb": {
	"$ref": "#/definitions/positive_int"
			,"defaultLabel": "PatNumPrecedB"
			,"description": "PatNumPrecedB"
			,"fieldAlias2x": "PatNumPrecedB"
			,"isSearchable": false
			,"picklistDescription": null
			,"picklistUri": null
			,"picklistParent": null
		},
"patnumprecedc": {
	"$ref": "#/definitions/positive_int"
			,"defaultLabel": "PatNumPrecedC"
			,"description": "PatNumPrecedC"
			,"fieldAlias2x": "PatNumPrecedC"
			,"isSearchable": false
			,"picklistDescription": null
			,"picklistUri": null
			,"picklistParent": null
		},
"pickupzonemarking": {
	"$ref": "#/definitions/longString"
			,"defaultLabel": "PickupZoneMarking"
			,"description": "PickupZoneMarking"
			,"fieldAlias2x": "PickupZoneMarking"
			,"isSearchable": false
			,"picklistDescription": "PickupZoneMarking"
			,"picklistUri": "OperationsAirMedevac-PickupZoneMarking"
			,"picklistParent": null
		},
"pickupzoneterrain": {
	"$ref": "#/definitions/text"
			,"defaultLabel": "PickupZoneTerrain"
			,"description": "PickupZoneTerrain"
			,"fieldAlias2x": "PickupZoneTerrain"
			,"isSearchable": false
			,"picklistDescription": null
			,"picklistUri": null
			,"picklistParent": null
		},
"pmrcount": {
	"$ref": "#/definitions/positive_int"
			,"defaultLabel": "PMRCount"
			,"description": "PMRCount"
			,"fieldAlias2x": "PMRCount"
			,"isSearchable": false
			,"picklistDescription": null
			,"picklistUri": null
			,"picklistParent": null
		},
"reasonforbypass": {
	"$ref": "#/definitions/longString"
			,"defaultLabel": "ReasonForBypass"
			,"description": "ReasonForBypass"
			,"fieldAlias2x": "ReasonForBypass"
			,"isSearchable": false
			,"picklistDescription": "ReasonForBypass"
			,"picklistUri": "OperationsAirMedevac-ReasonForBypass"
			,"picklistParent": null
		},
"remarks": {
	"$ref": "#/definitions/text"
			,"defaultLabel": "Remarks"
			,"description": "Remarks"
			,"fieldAlias2x": "Remarks"
			,"isSearchable": false
			,"picklistDescription": null
			,"picklistUri": null
			,"picklistParent": null
		},
"reportingunit": {
	"$ref": "#/definitions/longString"
			,"defaultLabel": "ReportingUnit"
			,"description": "ReportingUnit"
			,"fieldAlias2x": "ReportingUnit"
			,"isSearchable": false
			,"picklistDescription": null
			,"picklistUri": null
			,"picklistParent": null
		},
"reportmsc": {
	"$ref": "#/definitions/longString"
			,"defaultLabel": "ReportMSC"
			,"description": "ReportMSC"
			,"fieldAlias2x": "ReportMSC"
			,"isSearchable": false
			,"picklistDescription": null
			,"picklistUri": null
			,"picklistParent": null
		},
"reportpoc": {
	"$ref": "#/definitions/longString"
			,"defaultLabel": "ReportPOC"
			,"description": "ReportPOC"
			,"fieldAlias2x": "ReportPOC"
			,"isSearchable": false
			,"picklistDescription": null
			,"picklistUri": null
			,"picklistParent": null
		},
"reportpoccontactnumber": {
	"$ref": "#/definitions/longString"
			,"defaultLabel": "ReportPOCContactNumber"
			,"description": "ReportPOCContactNumber"
			,"fieldAlias2x": "ReportPOCContactNumber"
			,"isSearchable": false
			,"picklistDescription": null
			,"picklistUri": null
			,"picklistParent": null
		},
"riskassessment": {
	"$ref": "#/definitions/longString"
			,"defaultLabel": "RiskAssessment"
			,"description": "RiskAssessment"
			,"fieldAlias2x": "RiskAssessment"
			,"isSearchable": false
			,"picklistDescription": "RiskAssessment"
			,"picklistUri": "OperationsAirMedevac-RiskAssessment"
			,"picklistParent": null
		},
"rolebypass": {
	"type": "boolean"
			,"defaultLabel": "RoleBypass"
			,"description": "RoleBypass"
			,"fieldAlias2x": "RollBypass"
			,"isSearchable": false
			,"picklistDescription": null
			,"picklistUri": null
			,"picklistParent": null
		},
"securityatpickupsite": {
	"$ref": "#/definitions/longString"
			,"defaultLabel": "SecurityAtPickupSite"
			,"description": "SecurityAtPickupSite"
			,"fieldAlias2x": "SecurityAtPickupSite"
			,"isSearchable": false
			,"picklistDescription": "SecurityAtPickupSite"
			,"picklistUri": "OperationsAirMedevac-SecurityAtPickupSite"
			,"picklistParent": null
		},
"sigacttrackingnumber": {
	"$ref": "#/definitions/longString"
			,"defaultLabel": "SIGACTTrackingNumber"
			,"description": "SIGACTTrackingNumber"
			,"fieldAlias2x": "SIGACTTrackingNumber"
			,"isSearchable": false
			,"picklistDescription": null
			,"picklistUri": null
			,"picklistParent": null
		},
"specialequipment": {
	"$ref": "#/definitions/longString"
			,"defaultLabel": "SpecialEquipment"
			,"description": "SpecialEquipment"
			,"fieldAlias2x": "SpecialEquipment"
			,"isSearchable": false
			,"picklistDescription": "SpecialEquipment"
			,"picklistUri": "OperationsAirMedevac-SpecialEquipment"
			,"picklistParent": null
		},
"totalcasualties": {
	"$ref": "#/definitions/positive_int"
			,"defaultLabel": "TotalCasualties"
			,"description": "TotalCasualties"
			,"fieldAlias2x": "TotalCasualties"
			,"isSearchable": false
			,"picklistDescription": null
			,"picklistUri": null
			,"picklistParent": null
		},
"totaltimeflownhours": {
	"$ref": "#/definitions/positive_int"
			,"defaultLabel": "TotalTimeFlownHours"
			,"description": "TotalTimeFlownHours"
			,"fieldAlias2x": "TotalTimeFlownHours"
			,"isSearchable": false
			,"picklistDescription": null
			,"picklistUri": null
			,"picklistParent": null
		},
"totaltimeflownmin": {
	"$ref": "#/definitions/positive_int"
			,"defaultLabel": "TotalTimeFlownMin"
			,"description": "TotalTimeFlownMin"
			,"fieldAlias2x": "TotalTimeFlownMin"
			,"isSearchable": false
			,"picklistDescription": null
			,"picklistUri": null
			,"picklistParent": null
		},
"trackingnumber": {
	"$ref": "#/definitions/longString"
			,"defaultLabel": "TrackingNumber"
			,"description": "TrackingNumber"
			,"fieldAlias2x": "TrackingNumber"
			,"isSearchable": false
			,"picklistDescription": null
			,"picklistUri": null
			,"picklistParent": null
		},
"unitinvolved": {
	"$ref": "#/definitions/longString"
			,"defaultLabel": "UnitInvolved"
			,"description": "UnitInvolved"
			,"fieldAlias2x": "UnitInvolved"
			,"isSearchable": false
			,"picklistDescription": "UnitInvolved"
			,"picklistUri": "OperationsAirMedevac-UnitInvolved"
			,"picklistParent": null
		},
"weatherstatusatlaunch": {
	"$ref": "#/definitions/longString"
			,"defaultLabel": "WeatherStatusAtLaunch"
			,"description": "WeatherStatusAtLaunch"
			,"fieldAlias2x": "WeatherStatusAtLaunch"
			,"isSearchable": false
			,"picklistDescription": "WeatherStatusAtLaunch"
			,"picklistUri": "OperationsAirMedevac-WeatherStatusAtLaunch"
			,"picklistParent": null
		},
			"aircraft": {
				"type": "array",
				"description": "Operations AirMedevac Report Aircraft specific details",
				"fieldAlias2x": "Aircraft", 
					"items": {
						"type": "object",
						"properties": {
						
"aircraftdetails": {
	"$ref": "#/definitions/text"
			,"defaultLabel": "AircraftDetails"
			,"description": "AircraftDetails"
			,"fieldAlias2x": "AircraftDetails"
			,"isSearchable": false
			,"picklistDescription": null
			,"picklistUri": null
			,"picklistParent": null
		},
"referenceid": {
	"$ref": "#/definitions/longString"
			,"defaultLabel": "referenceId"
			,"description": "referenceId"
			,"fieldAlias2x": "AircraftKey"
			,"isSearchable": false
			,"picklistDescription": null
			,"picklistUri": null
			,"picklistParent": null
		},
"aircrafttype": {
	"$ref": "#/definitions/longString"
			,"defaultLabel": "AircraftType"
			,"description": "AircraftType"
			,"fieldAlias2x": "AircraftType"
			,"isSearchable": false
			,"picklistDescription": null
			,"picklistUri": null
			,"picklistParent": null
		},
"asegearindications": {
	"type": "boolean"
			,"defaultLabel": "ASEGearIndications"
			,"description": "ASEGearIndications"
			,"fieldAlias2x": "ASEGearIndications"
			,"isSearchable": false
			,"picklistDescription": null
			,"picklistUri": null
			,"picklistParent": null
		},
"asegearoperable": {
	"type": "boolean"
			,"defaultLabel": "ASEGearOperable"
			,"description": "ASEGearOperable"
			,"fieldAlias2x": "ASEGearOperable"
			,"isSearchable": false
			,"picklistDescription": null
			,"picklistUri": null
			,"picklistParent": null
		},
"brigadewing": {
	"$ref": "#/definitions/longString"
			,"defaultLabel": "BrigadeWing"
			,"description": "BrigadeWing"
			,"fieldAlias2x": "BrigadeWing"
			,"isSearchable": false
			,"picklistDescription": null
			,"picklistUri": null
			,"picklistParent": null
		},
"callsign": {
	"$ref": "#/definitions/longString"
			,"defaultLabel": "CallSign"
			,"description": "CallSign"
			,"fieldAlias2x": "CallSign"
			,"isSearchable": false
			,"picklistDescription": null
			,"picklistUri": null
			,"picklistParent": null
		},
"countermeasuresauto": {
	"type": "boolean"
			,"defaultLabel": "CountermeasuresAuto"
			,"description": "CountermeasuresAuto"
			,"fieldAlias2x": "CountermeasuresAuto"
			,"isSearchable": false
			,"picklistDescription": null
			,"picklistUri": null
			,"picklistParent": null
		},
"countermeasuresmanual": {
	"type": "boolean"
			,"defaultLabel": "CountermeasuresManual"
			,"description": "CountermeasuresManual"
			,"fieldAlias2x": "CountermeasuresManual"
			,"isSearchable": false
			,"picklistDescription": null
			,"picklistUri": null
			,"picklistParent": null
		},
"countermeasuresyes": {
	"type": "boolean"
			,"defaultLabel": "CountermeasuresYes"
			,"description": "CountermeasuresYes"
			,"fieldAlias2x": "CountermeasuresYes"
			,"isSearchable": false
			,"picklistDescription": null
			,"picklistUri": null
			,"picklistParent": null
		},
"crewdetails": {
	"$ref": "#/definitions/text"
			,"defaultLabel": "CrewDetails"
			,"description": "CrewDetails"
			,"fieldAlias2x": "CrewDetails"
			,"isSearchable": false
			,"picklistDescription": null
			,"picklistUri": null
			,"picklistParent": null
		},
"evasivemanuevers": {
	"type": "boolean"
			,"defaultLabel": "EvasiveManuevers"
			,"description": "EvasiveManuevers"
			,"fieldAlias2x": "EvasiveManuevers"
			,"isSearchable": false
			,"picklistDescription": null
			,"picklistUri": null
			,"picklistParent": null
		},
"formation": {
	"$ref": "#/definitions/longString"
			,"defaultLabel": "Formation"
			,"description": "Formation"
			,"fieldAlias2x": "Formation"
			,"isSearchable": false
			,"picklistDescription": null
			,"picklistUri": null
			,"picklistParent": null
		},
"frequency": {
	"$ref": "#/definitions/longString"
			,"defaultLabel": "Frequency"
			,"description": "Frequency"
			,"fieldAlias2x": "Frequency"
			,"isSearchable": false
			,"picklistDescription": null
			,"picklistUri": null
			,"picklistParent": null
		},
"helohitbyfire": {
	"type": "boolean"
			,"defaultLabel": "HeloHitByFire"
			,"description": "HeloHitByFire"
			,"fieldAlias2x": "HeloHitByFire"
			,"isSearchable": false
			,"picklistDescription": null
			,"picklistUri": null
			,"picklistParent": null
		},
"helohitbytypeofweapon": {
	"$ref": "#/definitions/longString"
			,"defaultLabel": "HeloHitByTypeofWeapon"
			,"description": "HeloHitByTypeofWeapon"
			,"fieldAlias2x": "HeloHitByTypeofWeapon"
			,"isSearchable": false
			,"picklistDescription": null
			,"picklistUri": null
			,"picklistParent": null
		},
"monthsintheatre": {
	"$ref": "#/definitions/positive_int"
			,"defaultLabel": "MonthsInTheatre"
			,"description": "MonthsInTheatre"
			,"fieldAlias2x": "MonthsInTheatre"
			,"isSearchable": false
			,"picklistDescription": null
			,"picklistUri": null
			,"picklistParent": null
		},
"numberacftinvolved": {
	"$ref": "#/definitions/longString"
			,"defaultLabel": "NumberAcftInvolved"
			,"description": "NumberAcftInvolved"
			,"fieldAlias2x": "NumberAcftInvolved"
			,"isSearchable": false
			,"picklistDescription": null
			,"picklistUri": null
			,"picklistParent": null
		},
"role": {
	"$ref": "#/definitions/longString"
			,"defaultLabel": "Role"
			,"description": "Role"
			,"fieldAlias2x": "Role"
			,"isSearchable": false
			,"picklistDescription": null
			,"picklistUri": null
			,"picklistParent": null
		},
"service": {
	"$ref": "#/definitions/longString"
			,"defaultLabel": "Service"
			,"description": "Service"
			,"fieldAlias2x": "Service"
			,"isSearchable": false
			,"picklistDescription": null
			,"picklistUri": null
			,"picklistParent": null
		},
"unit": {
	"$ref": "#/definitions/longString"
			,"defaultLabel": "Unit"
			,"description": "Unit"
			,"fieldAlias2x": "Unit"
			,"isSearchable": false
			,"picklistDescription": null
			,"picklistUri": null
			,"picklistParent": null
		},
"visualsystemeyes": {
	"type": "boolean"
			,"defaultLabel": "VisualSystemEyes"
			,"description": "VisualSystemEyes"
			,"fieldAlias2x": "VisualSystemEyes"
			,"isSearchable": false
			,"picklistDescription": null
			,"picklistUri": null
			,"picklistParent": null
		},
"visualsystemflir": {
	"type": "boolean"
			,"defaultLabel": "VisualSystemFLIR"
			,"description": "VisualSystemFLIR"
			,"fieldAlias2x": "VisualSystemFLIR"
			,"isSearchable": false
			,"picklistDescription": null
			,"picklistUri": null
			,"picklistParent": null
		},
"visualsystemnvg": {
	"type": "boolean"
			,"defaultLabel": "VisualSystemNVG"
			,"description": "VisualSystemNVG"
			,"fieldAlias2x": "VisualSystemNVG"
			,"isSearchable": false
			,"picklistDescription": null
			,"picklistUri": null
			,"picklistParent": null
		},
"weaponsfired": {
	"$ref": "#/definitions/text"
			,"defaultLabel": "WeaponsFired"
			,"description": "WeaponsFired"
			,"fieldAlias2x": "WeaponsFired"
			,"isSearchable": false
			,"picklistDescription": null
			,"picklistUri": null
			,"picklistParent": null
		},
			"aircraftweapons": {
				"type": "array",
				"description": "Operations AirMedevac Report AircraftWeapons specific details",
				"fieldAlias2x": "AircraftWeapons", 
					"items": {
						"type": "object",
						"properties": {
						
"referenceid": {
	"$ref": "#/definitions/longString"
			,"defaultLabel": "referenceId"
			,"description": "referenceId"
			,"fieldAlias2x": "AircraftWeaponsKey"
			,"isSearchable": false
			,"picklistDescription": null
			,"picklistUri": null
			,"picklistParent": null
		},
"weaponquantity": {
	"$ref": "#/definitions/text"
			,"defaultLabel": "WeaponQuantity"
			,"description": "WeaponQuantity"
			,"fieldAlias2x": "WeaponQuantity"
			,"isSearchable": false
			,"picklistDescription": null
			,"picklistUri": null
			,"picklistParent": null
		},
"weapontype": {
	"$ref": "#/definitions/longString"
			,"defaultLabel": "WeaponType"
			,"description": "WeaponType"
			,"fieldAlias2x": "WeaponType"
			,"isSearchable": false
			,"picklistDescription": null
			,"picklistUri": null
			,"picklistParent": null
		}
				}
			}
		}
				}
			}
		},
			"casualty": {
				"type": "array",
				"description": "Operations AirMedevac Report Casualty specific details",
				"fieldAlias2x": "Casualty", 
					"items": {
						"type": "object",
						"properties": {
						
"battlerosternumber": {
	"$ref": "#/definitions/longString"
			,"defaultLabel": "BattleRosterNumber"
			,"description": "BattleRosterNumber"
			,"fieldAlias2x": "BattleRosterNumber"
			,"isSearchable": false
			,"picklistDescription": null
			,"picklistUri": null
			,"picklistParent": null
		},
"branch": {
	"$ref": "#/definitions/longString"
			,"defaultLabel": "Branch"
			,"description": "Branch"
			,"fieldAlias2x": "Branch"
			,"isSearchable": false
			,"picklistDescription": "Branch"
			,"picklistUri": "OperationsAirMedevac-Branch"
			,"picklistParent": null
		},
"calc9linetoarriveatmtfcasualtymin": {
	"$ref": "#/definitions/positive_int"
			,"defaultLabel": "Calc9LineToArriveAtMTFCasualtyMin"
			,"description": "Calc9LineToArriveAtMTFCasualtyMin"
			,"fieldAlias2x": "Calc9LineToArriveAtMTFCasualtyMin"
			,"isSearchable": false
			,"picklistDescription": null
			,"picklistUri": null
			,"picklistParent": null
		},
"casualtybranch": {
	"$ref": "#/definitions/longString"
			,"defaultLabel": "CasualtyBranch"
			,"description": "CasualtyBranch"
			,"fieldAlias2x": "CasualtyBranch"
			,"isSearchable": false
			,"picklistDescription": null
			,"picklistUri": null
			,"picklistParent": null
		},
"casualtydetails": {
	"$ref": "#/definitions/text"
			,"defaultLabel": "CasualtyDetails"
			,"description": "CasualtyDetails"
			,"fieldAlias2x": "CasualtyDetails"
			,"isSearchable": false
			,"picklistDescription": null
			,"picklistUri": null
			,"picklistParent": null
		},
"referenceid": {
	"$ref": "#/definitions/longString"
			,"defaultLabel": "referenceId"
			,"description": "referenceId"
			,"fieldAlias2x": "CasualtyKey"
			,"isSearchable": false
			,"picklistDescription": null
			,"picklistUri": null
			,"picklistParent": null
		},
"casualtytype": {
	"$ref": "#/definitions/longString"
			,"defaultLabel": "CasualtyType"
			,"description": "CasualtyType"
			,"fieldAlias2x": "CasualtyType"
			,"isSearchable": false
			,"picklistDescription": "CasualtyType"
			,"picklistUri": "Operations-CasualtyType-ForceAffiliation"
			,"picklistParent": "Operations-ForceAffiliation"
		},
"datearriveatmtf": {
	"$ref": "#/definitions/dateTime"
			,"defaultLabel": "DateArriveAtMTF"
			,"description": "DateArriveAtMTF"
			,"fieldAlias2x": "DateArriveAtMTF"
			,"isSearchable": false
			,"picklistDescription": null
			,"picklistUri": null
			,"picklistParent": null
		},
"datereported": {
	"$ref": "#/definitions/dateTime"
			,"defaultLabel": "DateReported"
			,"description": "DateReported"
			,"fieldAlias2x": "DateReported"
			,"isSearchable": false
			,"picklistDescription": null
			,"picklistUri": null
			,"picklistParent": null
		},
"fieldcare": {
	"$ref": "#/definitions/longString"
			,"defaultLabel": "FieldCare"
			,"description": "FieldCare"
			,"fieldAlias2x": "FieldCare"
			,"isSearchable": false
			,"picklistDescription": "FieldCare"
			,"picklistUri": "OperationsAirMedevac-FieldCare"
			,"picklistParent": null
		},
"inflightcare": {
	"$ref": "#/definitions/longString"
			,"defaultLabel": "InFlightCare"
			,"description": "InFlightCare"
			,"fieldAlias2x": "InFlightCare"
			,"isSearchable": false
			,"picklistDescription": "InFlightCare"
			,"picklistUri": "OperationsAirMedevac-InFlightCare"
			,"picklistParent": null
		},
"injury": {
	"$ref": "#/definitions/longString"
			,"defaultLabel": "Injury"
			,"description": "Injury"
			,"fieldAlias2x": "Injury"
			,"isSearchable": false
			,"picklistDescription": "Injury"
			,"picklistUri": "OperationsAirMedevac-Injury"
			,"picklistParent": null
		},
"isabdomen": {
	"type": "boolean"
			,"defaultLabel": "isAbdomen"
			,"description": "isAbdomen"
			,"fieldAlias2x": "isAbdomen"
			,"isSearchable": false
			,"picklistDescription": null
			,"picklistUri": null
			,"picklistParent": null
		},
"isarms": {
	"type": "boolean"
			,"defaultLabel": "isArms"
			,"description": "isArms"
			,"fieldAlias2x": "isArms"
			,"isSearchable": false
			,"picklistDescription": null
			,"picklistUri": null
			,"picklistParent": null
		},
"ischest": {
	"type": "boolean"
			,"defaultLabel": "isChest"
			,"description": "isChest"
			,"fieldAlias2x": "isChest"
			,"isSearchable": false
			,"picklistDescription": null
			,"picklistUri": null
			,"picklistParent": null
		},
"isfeet": {
	"type": "boolean"
			,"defaultLabel": "isFeet"
			,"description": "isFeet"
			,"fieldAlias2x": "isFeet"
			,"isSearchable": false
			,"picklistDescription": null
			,"picklistUri": null
			,"picklistParent": null
		},
"ishands": {
	"type": "boolean"
			,"defaultLabel": "isHands"
			,"description": "isHands"
			,"fieldAlias2x": "isHands"
			,"isSearchable": false
			,"picklistDescription": null
			,"picklistUri": null
			,"picklistParent": null
		},
"ishead": {
	"type": "boolean"
			,"defaultLabel": "IsHead"
			,"description": "IsHead"
			,"fieldAlias2x": "IsHead"
			,"isSearchable": false
			,"picklistDescription": null
			,"picklistUri": null
			,"picklistParent": null
		},
"iskia": {
	"type": "boolean"
			,"defaultLabel": "isKIA"
			,"description": "isKIA"
			,"fieldAlias2x": "isKIA"
			,"isSearchable": false
			,"picklistDescription": null
			,"picklistUri": null
			,"picklistParent": null
		},
"islegs": {
	"type": "boolean"
			,"defaultLabel": "isLegs"
			,"description": "isLegs"
			,"fieldAlias2x": "isLegs"
			,"isSearchable": false
			,"picklistDescription": null
			,"picklistUri": null
			,"picklistParent": null
		},
"ismiscategorized": {
	"type": "boolean"
			,"defaultLabel": "isMisCategorized"
			,"description": "isMisCategorized"
			,"fieldAlias2x": "isMisCategorized"
			,"isSearchable": false
			,"picklistDescription": null
			,"picklistUri": null
			,"picklistParent": null
		},
"nationality": {
	"$ref": "#/definitions/longString"
			,"defaultLabel": "Nationality"
			,"description": "Nationality"
			,"fieldAlias2x": "Nationality"
			,"isSearchable": false
			,"picklistDescription": "Nationality"
			,"picklistUri": "OperationsAirMedevac-Nationality"
			,"picklistParent": null
		},
"other": {
	"$ref": "#/definitions/longString"
			,"defaultLabel": "Other"
			,"description": "Other"
			,"fieldAlias2x": "Other"
			,"isSearchable": false
			,"picklistDescription": null
			,"picklistUri": null
			,"picklistParent": null
		},
"patientdropoff": {
	"$ref": "#/definitions/longString"
			,"defaultLabel": "PatientDropOff"
			,"description": "PatientDropOff"
			,"fieldAlias2x": "PatientDropOff"
			,"isSearchable": false
			,"picklistDescription": null
			,"picklistUri": null
			,"picklistParent": null
		},
"patientdropoffmgrs": {
	"$ref": "#/definitions/longString"
			,"defaultLabel": "PatientDropOffMGRS"
			,"description": "PatientDropOffMGRS"
			,"fieldAlias2x": "PatientDropOffMGRS"
			,"isSearchable": false
			,"picklistDescription": null
			,"picklistUri": null
			,"picklistParent": null
		},
"patientpickup": {
	"$ref": "#/definitions/longString"
			,"defaultLabel": "PatientPickUp"
			,"description": "PatientPickUp"
			,"fieldAlias2x": "PatientPickUp"
			,"isSearchable": false
			,"picklistDescription": null
			,"picklistUri": null
			,"picklistParent": null
		},
"patientpickupmgrs": {
	"$ref": "#/definitions/longString"
			,"defaultLabel": "PatientPickUpMGRS"
			,"description": "PatientPickUpMGRS"
			,"fieldAlias2x": "PatientPickUpMGRS"
			,"isSearchable": false
			,"picklistDescription": null
			,"picklistUri": null
			,"picklistParent": null
		},
"precedence": {
	"$ref": "#/definitions/longString"
			,"defaultLabel": "Precedence"
			,"description": "Precedence"
			,"fieldAlias2x": "Precedence"
			,"isSearchable": false
			,"picklistDescription": "Precedence"
			,"picklistUri": "OperationsAirMedevac-Precedence"
			,"picklistParent": null
		},
"status": {
	"$ref": "#/definitions/longString"
			,"defaultLabel": "Status"
			,"description": "Status"
			,"fieldAlias2x": "Status"
			,"isSearchable": false
			,"picklistDescription": "Status"
			,"picklistUri": "OperationsAirMedevac-Status"
			,"picklistParent": null
		},
"statusvitalsigns": {
	"$ref": "#/definitions/longString"
			,"defaultLabel": "statusVitalSigns"
			,"description": "statusVitalSigns"
			,"fieldAlias2x": "statusVitalSigns"
			,"isSearchable": false
			,"picklistDescription": "StatusVitalSigns"
			,"picklistUri": "OperationsAirMedevac-StatusVitalSigns"
			,"picklistParent": null
		},
"toi": {
	"$ref": "#/definitions/dateTime"
			,"defaultLabel": "TOI"
			,"description": "TOI"
			,"fieldAlias2x": "TOI"
			,"isSearchable": false
			,"picklistDescription": null
			,"picklistUri": null
			,"picklistParent": null
		},
"toito9line": {
	"$ref": "#/definitions/positive_int"
			,"defaultLabel": "TOITo9Line"
			,"description": "TOITo9Line"
			,"fieldAlias2x": "TOITo9Line"
			,"isSearchable": false
			,"picklistDescription": null
			,"picklistUri": null
			,"picklistParent": null
		}
				}
			}
		},
			"equipment": {
				"type": "array",
				"description": "Operations AirMedevac Report Equipment specific details",
				"fieldAlias2x": "Equipment", 
					"items": {
						"type": "object",
						"properties": {
						
"referenceid": {
	"$ref": "#/definitions/longString"
			,"defaultLabel": "referenceId"
			,"description": "referenceId"
			,"fieldAlias2x": "EquipmentKey"
			,"isSearchable": false
			,"picklistDescription": null
			,"picklistUri": null
			,"picklistParent": null
		},
"specialequipmentneeded": {
	"$ref": "#/definitions/longString"
			,"defaultLabel": "SpecialEquipmentNeeded"
			,"description": "SpecialEquipmentNeeded"
			,"fieldAlias2x": "SpecialEquipmentNeeded"
			,"isSearchable": false
			,"picklistDescription": null
			,"picklistUri": null
			,"picklistParent": null
		}
				}
			}
		},
			"flight": {
				"type": "array",
				"description": "Operations AirMedevac Report Flight specific details",
				"fieldAlias2x": "Flight", 
					"items": {
						"type": "object",
						"properties": {
						
"calc9linetoarriveatmtfmin": {
	"$ref": "#/definitions/positive_int"
			,"defaultLabel": "Calc9LineToArriveAtMTFMin"
			,"description": "Calc9LineToArriveAtMTFMin"
			,"fieldAlias2x": "Calc9LineToArriveAtMTFMin"
			,"isSearchable": false
			,"picklistDescription": null
			,"picklistUri": null
			,"picklistParent": null
		},
"calc9linetodatereturntobasemin": {
	"$ref": "#/definitions/positive_int"
			,"defaultLabel": "Calc9LineToDateReturnToBaseMin"
			,"description": "Calc9LineToDateReturnToBaseMin"
			,"fieldAlias2x": "Calc9LineToDateReturnToBaseMin"
			,"isSearchable": false
			,"picklistDescription": null
			,"picklistUri": null
			,"picklistParent": null
		},
"calc9linetolaunchapprovedmin": {
	"$ref": "#/definitions/positive_int"
			,"defaultLabel": "Calc9LineToLaunchApprovedMin"
			,"description": "Calc9LineToLaunchApprovedMin"
			,"fieldAlias2x": "Calc9LineToLaunchApprovedMin"
			,"isSearchable": false
			,"picklistDescription": null
			,"picklistUri": null
			,"picklistParent": null
		},
"calc9linetolaunchmin": {
	"$ref": "#/definitions/positive_int"
			,"defaultLabel": "Calc9LineToLaunchMin"
			,"description": "Calc9LineToLaunchMin"
			,"fieldAlias2x": "Calc9LineToLaunchMin"
			,"isSearchable": false
			,"picklistDescription": null
			,"picklistUri": null
			,"picklistParent": null
		},
"calc9linetomissionapprovedmin": {
	"$ref": "#/definitions/positive_int"
			,"defaultLabel": "Calc9LineToMissionApprovedMin"
			,"description": "Calc9LineToMissionApprovedMin"
			,"fieldAlias2x": "Calc9LineToMissionApprovedMin"
			,"isSearchable": false
			,"picklistDescription": null
			,"picklistUri": null
			,"picklistParent": null
		},
"calcarriveatmtftoreturntobasemin": {
	"$ref": "#/definitions/positive_int"
			,"defaultLabel": "CalcArriveAtMTFToReturnToBaseMin"
			,"description": "CalcArriveAtMTFToReturnToBaseMin"
			,"fieldAlias2x": "CalcArriveAtMTFToReturnToBaseMin"
			,"isSearchable": false
			,"picklistDescription": null
			,"picklistUri": null
			,"picklistParent": null
		},
"calcarriveatscenetodepartscenemin": {
	"$ref": "#/definitions/positive_int"
			,"defaultLabel": "CalcArriveAtSceneToDepartSceneMin"
			,"description": "CalcArriveAtSceneToDepartSceneMin"
			,"fieldAlias2x": "CalcArriveAtSceneToDepartSceneMin"
			,"isSearchable": false
			,"picklistDescription": null
			,"picklistUri": null
			,"picklistParent": null
		},
"calcdepartscenetoarriveatmtfmin": {
	"$ref": "#/definitions/positive_int"
			,"defaultLabel": "CalcDepartSceneToArriveAtMTFMin"
			,"description": "CalcDepartSceneToArriveAtMTFMin"
			,"fieldAlias2x": "CalcDepartSceneToArriveAtMTFMin"
			,"isSearchable": false
			,"picklistDescription": null
			,"picklistUri": null
			,"picklistParent": null
		},
"calclaunchapprovedtolaunchmin": {
	"$ref": "#/definitions/positive_int"
			,"defaultLabel": "CalcLaunchApprovedTolaunchMin"
			,"description": "CalcLaunchApprovedTolaunchMin"
			,"fieldAlias2x": "CalcLaunchApprovedTolaunchMin"
			,"isSearchable": false
			,"picklistDescription": null
			,"picklistUri": null
			,"picklistParent": null
		},
"calclaunchtoarriveatscenemin": {
	"$ref": "#/definitions/positive_int"
			,"defaultLabel": "CalcLaunchToArriveAtSceneMin"
			,"description": "CalcLaunchToArriveAtSceneMin"
			,"fieldAlias2x": "CalcLaunchToArriveAtSceneMin"
			,"isSearchable": false
			,"picklistDescription": null
			,"picklistUri": null
			,"picklistParent": null
		},
"calcmissionapprovedtolaunchapprovedmin": {
	"$ref": "#/definitions/positive_int"
			,"defaultLabel": "CalcMissionApprovedToLaunchApprovedMin"
			,"description": "CalcMissionApprovedToLaunchApprovedMin"
			,"fieldAlias2x": "CalcMissionApprovedToLaunchApprovedMin"
			,"isSearchable": false
			,"picklistDescription": null
			,"picklistUri": null
			,"picklistParent": null
		},
"calctotalelapsedtimemin": {
	"$ref": "#/definitions/positive_int"
			,"defaultLabel": "CalcTotalElapsedTimeMin"
			,"description": "CalcTotalElapsedTimeMin"
			,"fieldAlias2x": "CalcTotalElapsedTimeMin"
			,"isSearchable": false
			,"picklistDescription": null
			,"picklistUri": null
			,"picklistParent": null
		},
"date9linereceived": {
	"$ref": "#/definitions/dateTime"
			,"defaultLabel": "Date9LineReceived"
			,"description": "Date9LineReceived"
			,"fieldAlias2x": "Date9LineReceived"
			,"isSearchable": false
			,"picklistDescription": null
			,"picklistUri": null
			,"picklistParent": null
		},
"datearriveatmtf": {
	"$ref": "#/definitions/dateTime"
			,"defaultLabel": "DateArriveAtMTF"
			,"description": "DateArriveAtMTF"
			,"fieldAlias2x": "DateArriveAtMTF"
			,"isSearchable": false
			,"picklistDescription": null
			,"picklistUri": null
			,"picklistParent": null
		},
"datelaunch": {
	"$ref": "#/definitions/dateTime"
			,"defaultLabel": "DateLaunch"
			,"description": "DateLaunch"
			,"fieldAlias2x": "DateLaunch"
			,"isSearchable": false
			,"picklistDescription": null
			,"picklistUri": null
			,"picklistParent": null
		},
"datelaunchapproved": {
	"$ref": "#/definitions/dateTime"
			,"defaultLabel": "DateLaunchApproved"
			,"description": "DateLaunchApproved"
			,"fieldAlias2x": "DateLaunchApproved"
			,"isSearchable": false
			,"picklistDescription": null
			,"picklistUri": null
			,"picklistParent": null
		},
"datemissionapproved": {
	"$ref": "#/definitions/dateTime"
			,"defaultLabel": "DateMissionApproved"
			,"description": "DateMissionApproved"
			,"fieldAlias2x": "DateMissionApproved"
			,"isSearchable": false
			,"picklistDescription": null
			,"picklistUri": null
			,"picklistParent": null
		},
"datereturntobase": {
	"$ref": "#/definitions/dateTime"
			,"defaultLabel": "DateReturnToBase"
			,"description": "DateReturnToBase"
			,"fieldAlias2x": "DateReturnToBase"
			,"isSearchable": false
			,"picklistDescription": null
			,"picklistUri": null
			,"picklistParent": null
		},
"referenceid": {
	"$ref": "#/definitions/longString"
			,"defaultLabel": "referenceId"
			,"description": "referenceId"
			,"fieldAlias2x": "FlightKey"
			,"isSearchable": false
			,"picklistDescription": null
			,"picklistUri": null
			,"picklistParent": null
		},
"remarks": {
	"$ref": "#/definitions/text"
			,"defaultLabel": "Remarks"
			,"description": "Remarks"
			,"fieldAlias2x": "Remarks"
			,"isSearchable": false
			,"picklistDescription": null
			,"picklistUri": null
			,"picklistParent": null
		},
"totaltimeflownhours": {
	"$ref": "#/definitions/positive_int"
			,"defaultLabel": "TotalTimeFlownHours"
			,"description": "TotalTimeFlownHours"
			,"fieldAlias2x": "TotalTimeFlownHours"
			,"isSearchable": false
			,"picklistDescription": null
			,"picklistUri": null
			,"picklistParent": null
		},
"totaltimeflownmin": {
	"$ref": "#/definitions/positive_int"
			,"defaultLabel": "TotalTimeFlownMin"
			,"description": "TotalTimeFlownMin"
			,"fieldAlias2x": "TotalTimeFlownMin"
			,"isSearchable": false
			,"picklistDescription": null
			,"picklistUri": null
			,"picklistParent": null
		},
			"delay": {
				"type": "array",
				"description": "Operations AirMedevac Report Delay specific details",
				"fieldAlias2x": "Delay", 
					"items": {
						"type": "object",
						"properties": {
						
"referenceid": {
	"$ref": "#/definitions/longString"
			,"defaultLabel": "referenceId"
			,"description": "referenceId"
			,"fieldAlias2x": "DelayKey"
			,"isSearchable": false
			,"picklistDescription": null
			,"picklistUri": null
			,"picklistParent": null
		},
"reasonfordelay": {
	"$ref": "#/definitions/longString"
			,"defaultLabel": "ReasonForDelay"
			,"description": "ReasonForDelay"
			,"fieldAlias2x": "ReasonForDelay"
			,"isSearchable": false
			,"picklistDescription": "ReasonForDelay"
			,"picklistUri": "OperationsAirMedevac-ReasonForDelay"
			,"picklistParent": null
		}
				}
			}
		},
			"leg": {
				"type": "array",
				"description": "Operations AirMedevac Report Leg specific details",
				"fieldAlias2x": "Leg", 
					"items": {
						"type": "object",
						"properties": {
						
"calcarriveatscenetodepartscenemin": {
	"$ref": "#/definitions/positive_int"
			,"defaultLabel": "CalcArriveAtSceneToDepartSceneMin"
			,"description": "CalcArriveAtSceneToDepartSceneMin"
			,"fieldAlias2x": "CalcArriveAtSceneToDepartSceneMin"
			,"isSearchable": false
			,"picklistDescription": null
			,"picklistUri": null
			,"picklistParent": null
		},
"datearriveatscene": {
	"$ref": "#/definitions/dateTime"
			,"defaultLabel": "DateArriveAtScene"
			,"description": "DateArriveAtScene"
			,"fieldAlias2x": "DateArriveAtScene"
			,"isSearchable": false
			,"picklistDescription": null
			,"picklistUri": null
			,"picklistParent": null
		},
"datedepartscene": {
	"$ref": "#/definitions/dateTime"
			,"defaultLabel": "DateDepartScene"
			,"description": "DateDepartScene"
			,"fieldAlias2x": "DateDepartScene"
			,"isSearchable": false
			,"picklistDescription": null
			,"picklistUri": null
			,"picklistParent": null
		},
"fob": {
	"$ref": "#/definitions/longString"
			,"defaultLabel": "FOB"
			,"description": "FOB"
			,"fieldAlias2x": "FOB"
			,"isSearchable": false
			,"picklistDescription": null
			,"picklistUri": null
			,"picklistParent": null
		},
"ismgrsleg": {
	"type": "boolean"
			,"defaultLabel": "isMGRSLeg"
			,"description": "isMGRSLeg"
			,"fieldAlias2x": "isMGRSLeg"
			,"isSearchable": false
			,"picklistDescription": null
			,"picklistUri": null
			,"picklistParent": null
		},
"latitudeleg": {
	"$ref": "#/definitions/latitude_dds"
			,"defaultLabel": "LatitudeLeg"
			,"description": "LatitudeLeg"
			,"fieldAlias2x": "LatitudeLeg"
			,"isSearchable": false
			,"picklistDescription": null
			,"picklistUri": null
			,"picklistParent": null
		},
"referenceid": {
	"$ref": "#/definitions/longString"
			,"defaultLabel": "referenceId"
			,"description": "referenceId"
			,"fieldAlias2x": "LegKey"
			,"isSearchable": false
			,"picklistDescription": null
			,"picklistUri": null
			,"picklistParent": null
		},
"longitudeleg": {
	"$ref": "#/definitions/longitude_dds"
			,"defaultLabel": "LongitudeLeg"
			,"description": "LongitudeLeg"
			,"fieldAlias2x": "LongitudeLeg"
			,"isSearchable": false
			,"picklistDescription": null
			,"picklistUri": null
			,"picklistParent": null
		},
"mgrsleg": {
	"$ref": "#/definitions/longString"
			,"defaultLabel": "MGRSLeg"
			,"description": "MGRSLeg"
			,"fieldAlias2x": "MGRSLeg"
			,"isSearchable": false
			,"picklistDescription": null
			,"picklistUri": null
			,"picklistParent": null
		},
"stoptype": {
	"$ref": "#/definitions/longString"
			,"defaultLabel": "StopType"
			,"description": "StopType"
			,"fieldAlias2x": "StopType"
			,"isSearchable": false
			,"picklistDescription": null
			,"picklistUri": null
			,"picklistParent": null
		}
				}
			}
		}
				}
			}
		},
			"patients": {
				"type": "array",
				"description": "Operations AirMedevac Report Patients specific details",
				"fieldAlias2x": "Patients", 
					"items": {
						"type": "object",
						"properties": {
						
"numberofpatients": {
	"$ref": "#/definitions/positive_int"
			,"defaultLabel": "NumberOfPatients"
			,"description": "NumberOfPatients"
			,"fieldAlias2x": "NumberOfPatients"
			,"isSearchable": false
			,"picklistDescription": null
			,"picklistUri": null
			,"picklistParent": null
		},
"referenceid": {
	"$ref": "#/definitions/longString"
			,"defaultLabel": "referenceId"
			,"description": "referenceId"
			,"fieldAlias2x": "PatientKey"
			,"isSearchable": false
			,"picklistDescription": null
			,"picklistUri": null
			,"picklistParent": null
		},
"patientnationality": {
	"$ref": "#/definitions/longString"
			,"defaultLabel": "PatientNationality"
			,"description": "PatientNationality"
			,"fieldAlias2x": "PatientNationality"
			,"isSearchable": false
			,"picklistDescription": null
			,"picklistUri": null
			,"picklistParent": null
		},
"patientstatus": {
	"$ref": "#/definitions/longString"
			,"defaultLabel": "PatientStatus"
			,"description": "PatientStatus"
			,"fieldAlias2x": "PatientStatus"
			,"isSearchable": false
			,"picklistDescription": null
			,"picklistUri": null
			,"picklistParent": null
		}
				}
			}
		},
			"woundpoint": {
				"type": "array",
				"description": "Operations AirMedevac Report WoundPoint specific details",
				"fieldAlias2x": "WoundPoint", 
					"items": {
						"type": "object",
						"properties": {
						
"woundpoint": {
	"$ref": "#/definitions/longString"
			,"defaultLabel": "WoundPoint"
			,"description": "WoundPoint"
			,"fieldAlias2x": "WoundPoint"
			,"isSearchable": false
			,"picklistDescription": "WoundPoint"
			,"picklistUri": "OperationsAirMedevac-WoundPoint"
			,"picklistParent": null
		},
"referenceid": {
	"$ref": "#/definitions/longString"
			,"defaultLabel": "referenceId"
			,"description": "referenceId"
			,"fieldAlias2x": "WoundPointKey"
			,"isSearchable": false
			,"picklistDescription": null
			,"picklistUri": null
			,"picklistParent": null
		}
				}
			}
		}
				}
			}
	}
}
