	
{
    "type": "object",
    "id": "http://cidne.dae.smil.mil/schemas/Operations/MaritimeEvent/CIDNEDM236",
    "description": "CIDNE Operations MaritimeEvent Report Definition",
    "definitions": {
        "shortStringRequired": {
            "type": "string",
            "maxLength": 50
        },
        "longStringRequired": {
            "type": "string",
            "maxLength": 500
        },
        "textRequired": {
            "type": "string"
        },
        "textFieldLevelRequired": {
            "type": "object",
            "properties": {
                "objectValue": {
                    "type": "string"
                },
                "security": {
					"$ref": "#/definitions/security"
				}
            },
            "required": [
                "objectValue",
                "security"
            ]
        },
        "dateTimeRequired": {
            "type": "object",
            "properties": {
                "zuluDateTime": {
                    "type": "string",
                    "format": "date-time"
                },
                "zuluOffset": {
                    "type": "integer",
					"minimum": -840,
					"maximum": 840,
                    "description": "Offset in minutes from Zulu"
                }
            },
            "required": [
                "zuluDateTime",
                "zuluOffset"
            ]
        },
        "latitude_ddsRequired": {
            "type": "number",
            "minimum": -90,
            "maximum": 90
        },
        "longitude_ddsRequired": {
            "type": "number",
            "minimum": -180,
            "maximum": 180
        },
        "positive_intRequired": {
            "type": "integer",
            "minimum": 0
        },
        "positive_numRequired": {
            "type": "number",
            "minimum": 0
        },
        "positive_intRequired": {
            "type": "integer",
            "minimum": 0
        },
        "shortString": {
            "type": ["string","null"],
            "maxLength": 50
        },
        "longString": {
            "type": ["string","null"],
            "maxLength": 500
        },
        "text": {
            "type": ["string","null"]
        },
        "textFieldLevel": {
            "type": "object",
            "properties": {
                "objectValue": {
                    "type": ["string","null"]
                },
                "security": {
					"$ref": "#/definitions/securityOptional"
				}
            },
            "required": [
                "objectValue",
                "security"
            ]
        },
        "dateTime": {
            "type": ["object","null"],
            "properties": {
                "zuluDateTime": {
                    "type": "string",
                    "format": "date-time"
                },
                "zuluOffset": {
                    "type": "integer",
					"minimum": -840,
					"maximum": 840,
                    "description": "Offset in minutes from Zulu"
                }
            },
            "required": [
                "zuluDateTime",
                "zuluOffset"
            ]
        },
        "latitude_dds": {
            "type": ["number","null"],
            "minimum": -90,
            "maximum": 90
        },
        "longitude_dds": {
            "type": ["number","null"],
            "minimum": -180,
            "maximum": 180
        },
        "positive_int": {
            "type": ["integer","null"],
            "minimum": 0
        },
        "positive_num": {
            "type": ["number","null"],
            "minimum": 0
        },
        "num": {
            "type": ["number","null"]
        },
        "uniqueStringArray": {
            "type": "array",
            "uniqueItems": true,
            "items": {
                "type": "string"
            }
        },
        "securityOptional": {
            "oneOf": [
                {
                    "type": "null"
                },
                {
                    "$ref": "#/definitions/security"
                }
            ]
        },
        "security": {
            "type": "object",
            "properties": {
                "atomicEnergyMarkings": {
                    "$ref": "#/definitions/shortString",
                    "description": "Atomic Energy Act Information Markings"
                },
                "classificationReason": {
                    "$ref": "#/definitions/longString",
                    "description": ": Concise reason for classification"
                },
                "classification": {
                    "enum": [ "U", "TS", "S", "C" ],
                    "description": "Classification of information",
                    "defaultLabel": "Classification",
                    "isSearchable": false,
                    "picklistName": "classification",
                    "picklistUri": "http://cidne.dae.smil.mil/schemas/CAPCO/classification",
                    "picklistParent": null
                    
                },
                "classifiedBy": {
                    "$ref": "#/definitions/longString",
                    "description": "Identification by name and position, or personal identifier of the OCA"
                },
                "compilationReason": {
                    "$ref": "#/definitions/longString",
                    "description": "Reason why the compilation of information causes the classification"
                },
                "declassDate": {
                    "$ref": "#/definitions/dateTime",
                    "description": "Declassification date"
                },
                "declassEvent": {
                    "$ref": "#/definitions/shortString",
                    "description": "Declassification event"
                },
                "declassException": {
                    "$ref": "#/definitions/longString",
                    "description": "Declassification exception"
                },
                "derivativelyClassifiedBy": {
                    "$ref": "#/definitions/longString",
                    "description": "The derivative classifier’s identification by name and position, or by personal identifier, in a manner that is immediately apparent on each derivatively classified document. If not otherwise evident, the agency and office of origin shall be identified"
                },
                "derivedFrom": {
                    "$ref": "#/definitions/shortString",
                    "description": "Concisely identify the source document or the classification guide"
                },
                "displayOnlyTo": {
                    "$ref": "#/definitions/longString",
                    "description": "List of foreign country(ies)/international organization(s) authorized for disclosure without providing the recipient with a physical copy for retention, regardless of medium to the foreign country(ies)/international organization(s) indicated"
                },
                "disseminationControls": {
                    "$ref": "#/definitions/longString",
                    "description": "Control markings that identify the expansion or limitation on the distribution of information. These markings are in addition to and separate from the levels of classification"
                },
                "FGIsourceOpen": {
                    "$ref": "#/definitions/shortString",
                    "description": "Open Source Foreign Government Information"
                },
                "FGIsourceProtected": {
                    "$ref": "#/definitions/shortString",
                    "description": "Protected Source Foreign Government Information"
                },
                "nonICmarkings": {
                    "$ref": "#/definitions/text",
                    "description": "Markings authorized for use by entities outside of the Intelligence Community"
                },
                "nonUSControls": {
                    "$ref": "#/definitions/shortString",
                    "description": "Non-US protective markings"
                },
                "ownerProducer": {
                    "$ref": "#/definitions/shortStringRequired",
                    "description": "Owner/Producer",
                    "default": "USA",
                    "defaultLabel": "Owner Producer",
                    "isSearchable": false,
                    "picklistName": "ownerProducer",
                    "picklistUri": "http://cidne.dae.smil.mil/schemas/CAPCO/ownerProducer",
                    "picklistParent": null
                },
                "releasableToFilterField": {
                    "$ref": "#/definitions/shortString",
                    "description": "Need to add CAPCO Descriptions"
                },
                "releasableTo": {
                    "$ref": "#/definitions/text",
                    "description": "List of countries releasable to",
                    "defaultLabel": "Releasable To",
                    "isSearchable": false,
                    "picklistName": "releasableTo",
                    "picklistUri": "http://cidne.dae.smil.mil/schemas/CAPCO/releasableTo",
                    "picklistParent": null
                },
                "SARIdentifier": {
                    "$ref": "#/definitions/shortString",
                    "description": "Special access required programs"
                },
                "SCIcontrols": {
                    "$ref": "#/definitions/longString",
                    "description": "Sensitive Compartmented Information (SCI) control systems"
                }
            },
            "required": [
                "ownerProducer",
                "classification"
            ]
        },
        "actionInfo":{
            "type": "object",
            "properties": {
                "actionDate": {
                    "$ref": "#/definitions/dateTimeRequired",
                    "description": "Date Time Action was taken"
                },
                "group": {
                    "$ref": "#/definitions/longStringRequired",
                    "description": "User Group that performed action"
                },
                "parentGroup": {
                    "$ref": "#/definitions/longString",
                    "description": "User Group's Parent Group Name"
                },
                "nationality": {
                    "$ref": "#/definitions/shortStringRequired",
                    "description": "User Nationality"
                },
                "network": {
                    "$ref": "#/definitions/shortStringRequired",
                    "description": "Systems Network where action was taken"
                },
                "objectState": {
                    "description": "",
                    "enum": [
                        "CREATED",
                        "MODIFIED",
                        "TEMPLATE",
                        "SUBMITTED",
                        "PUBLISHED",
                        "VERSIONED",
                        "DEPRECATED",
                        "VALIDATING",
                        "RESTORED",
                        "MOVED"
                    ]
                },
                "site": {
                    "$ref": "#/definitions/shortStringRequired",
                    "description": "Systems Site"
                },
                "system": {
                    "$ref": "#/definitions/shortStringRequired",
                    "description": "System that provided the action"
                },
                "user": {
                    "$ref": "#/definitions/shortStringRequired",
                    "description": "User that performed action"
                }
            },
            "required": [
                "actionDate",
                "group",
                "parentGroup",
                "nationality",
                "network",
                "objectState",
                "site",
                "system",
                "user"
            ]
        },
        "position": {
            "description": "A single position. (order should be longitude,latitude)",
            "type": "array",
            "minItems": 2,
            "items": [
                {
                    "type": "number"
                },
                {
                    "type": "number"
                }
            ],
            "additionalItems": false
        },
        "positionArray": {
            "description": "An array of positions",
            "type": "array",
            "items": {
                "$ref": "#/definitions/position"
            }
        },
        "lineString": {
            "description": "An array of two or more positions",
            "allOf": [
                {
                    "type": "array",
                    "items": {
                        "$ref": "#/definitions/position"
                    }
                },
                {
                    "minItems": 2
                }
            ]
        },
        "linearRing": {
            "description": "An array of four positions where the first equals the last",
            "allOf": [
                {
                    "type": "array",
                    "items": {
                        "$ref": "#/definitions/position"
                    }
                },
                {
                    "minItems": 4
                }
            ]
        },
        "polygon": {
            "description": "An array of linear rings",
            "type": "array",
            "items": {
                "$ref": "#/definitions/linearRing"
            }
        },
        "geometry": {
            "title": "geometry",
            "description": "One geometry as defined by GeoJSON",
            "type": "object",
            "required": [
                "type",
                "coordinates"
            ],
            "oneOf": [
                {
                    "title": "Point",
                    "properties": {
                        "type": {
                            "enum": [
                                "Point"
                            ]
                        },
                        "coordinates": {
                            "$ref": "#/definitions/position"
                        }
                    }
                },
                {
                    "title": "MultiPoint",
                    "properties": {
                        "type": {
                            "enum": [
                                "MultiPoint"
                            ]
                        },
                        "coordinates": {
                            "type": "array",
                            "items": {
                                "$ref": "#/definitions/position"
                            }
                        }
                    }
                },
                {
                    "title": "LineString",
                    "properties": {
                        "type": {
                            "enum": [
                                "LineString"
                            ]
                        },
                        "coordinates": {
                            "$ref": "#/definitions/lineString"
                        }
                    }
                },
                {
                    "title": "MultiLineString",
                    "properties": {
                        "type": {
                            "enum": [
                                "MultiLineString"
                            ]
                        },
                        "coordinates": {
                            "type": "array",
                            "items": {
                                "$ref": "#/definitions/lineString"
                            }
                        }
                    }
                },
                {
                    "title": "Polygon",
                    "properties": {
                        "type": {
                            "enum": [
                                "Polygon"
                            ]
                        },
                        "coordinates": {
                            "$ref": "#/definitions/polygon"
                        }
                    }
                },
                {
                    "title": "MultiPolygon",
                    "properties": {
                        "type": {
                            "enum": [
                                "MultiPolygon"
                            ]
                        },
                        "coordinates": {
                            "type": "array",
                            "items": {
                                "$ref": "#/definitions/polygon"
                            }
                        }
                    }
                }
            ]
        },
        "geometryCollection": {
            "title": "GeometryCollection",
            "description": "A collection of geometry objects",
            "required": [
                "geometries"
            ],
            "properties": {
                "type": {
                    "enum": [
                        "GeometryCollection"
                    ]
                },
                "geometries": {
                    "type": "array",
                    "items": {
                        "$ref": "#/definitions/geometry"
                    }
                }
            }
        },
        "feature": {
            "title": "Feature",
            "description": "A Geo JSON feature object",
            "required": [
                "geometry"
            ],
            "properties": {
                "type": {
                    "enum": [
                        "Feature"
                    ]
                },
                "geometry": {
                    "oneOf": [
                        {
                            "type": "null"
                        },
                        {
                            "$ref": "#/definitions/geometry"
                        }
                    ]
                },
				"properties": { "type": [ "object", "null" ] },
                "id": { "type":["string"] }
            }
        },
        "featureCollection": {
            "description": "A GeoJSON feature collection",
            "required": [
                "features"
            ],
            "properties": {
                "type": {
                    "enum": [
                        "FeatureCollection"
                    ]
                },
                "features": {
                    "type": "array",
                    "items": {
                        "$ref": "#/definitions/feature"
                    }
                }
            }
        },
		"namedCrs": {
            "properties": {
                "type": { "enum": [ "name" ] },
                "properties": {
                    "required": [ "name" ],
                    "additionalProperties": false,
                    "properties": {
                        "name": {
                            "type": "string"
                        }
                    }
                }
            }
        },
        "linkedObject": {
            "type": "object",
            "required": [ "href" ],
            "properties": {
                "href": {
                    "type": "string",
                    "format": "uri"
                },
                "type": {
                    "type": "string",
                    "description": "Suggested values: proj4, ogjwkt, esriwkt"
                }
            }
        },
        "linkedCrs": {
            "properties": {
                "type": { "enum": [ "link" ] },
                "properties": { "$ref": "#/definitions/linkedObject" }
            }
        },	
		"crs":{
			"title": "crs",
			"description": "a Coordinate Reference System object",
			"type": [ "object", "null" ],
			"required": [ "type", "properties" ],
			"properties": {
				"type": { "type": "string" },
				"properties": { "type": "object" }
			},
			"additionalProperties": false,
			"oneOf": [
				{ "$ref": "#/definitions/namedCrs" },
				{ "$ref": "#/definitions/linkedCrs" }
			]
		},
		"bbox":{
		"description": "A bounding box as defined by GeoJSON",
			"type": "array",
			"items": { "type": "number" }
		},
        "geojson": {
            "title": "Geo JSON object",
            "description": "Schema for a Geo JSON object",
            "type": ["object","null"],
            "required": [
                "type"
            ],
			"properties": {
				"crs": { "$ref": "#/definitions/crs" },
				"bbox": { "$ref": "#/definitions/bbox" }
			},
            "anyOf": [
                {
                    "$ref": "#/definitions/geometry"
                },
                {
                    "$ref": "#/definitions/geometryCollection"
                },
                {
                    "$ref": "#/definitions/feature"
                },
                {
                    "$ref": "#/definitions/featureCollection"
                }
            ]
        }
    },
    "required": [
        "base",
        "datamodel",
        "formId",
        "location",
        "security",
        "details"
    ],	
    "properties": {
        "datamodel": {
            "$ref": "#/definitions/longString",
            "description": "Reference to the report definition."
        },
        "formId": {
            "$ref": "#/definitions/longString",
            "description": "Reference to the layout template identifier that this data was intended to be best visualized"
        },
        "base": {
            "type": "object",
            "description": "The core metadata used within all report definitions",
            "properties": {
                "objectId": {
                    "$ref": "#/definitions/shortStringRequired",
                    "description": "Report instance unique identifier"
                },
                "reportId": {
                    "$ref": "#/definitions/shortStringRequired",
                    "description": "Original report instance objectId for a report version grouping. (i.e. the root report identifier)"
                },
                "parentVersionId": {
                    "$ref": "#/definitions/shortString",
                    "description": "Report instance's objectId of the parent report. NOTE: If there is no parent, this value should be set to the report instance's own objectId. "
                },
                "module": {
                    "$ref": "#/definitions/shortStringRequired",
                    "description": "CIDNE community"
                },
                "reportType": {
                    "$ref": "#/definitions/shortStringRequired",
                    "description": "CIDNE report type (e.g. SIGACT)"
                },
                "reportSerial": {
                    "$ref": "#/definitions/textFieldLevel",
					"defaultLabel": "DisplaySerial",
					"description": "Report instance nomenclature (DisplaySerial)",
					"fieldAlias2x": "DisplaySerial"
                },
                "reportTitle": {
                    "$ref": "#/definitions/textFieldLevel",
					"defaultLabel": "DisplayTitle",
					"description": "Report instance title text (DisplayTitle)",
					"fieldAlias2x": "DisplayTitle"
                },
                "reportSummary": {
                    "$ref": "#/definitions/textFieldLevel",
					"defaultLabel": "DisplaySummary",
					"description": "Report instance summary text block (DisplaySummary)",
					"fieldAlias2x": "DisplaySummary"
                },
                "reportDate": {
                    "$ref": "#/definitions/dateTimeRequired",
					"defaultLabel": "DatePosted",
					"description": "Primary report instance date (DatePosted)",
					"fieldAlias2x": "DatePosted"
                },
                "reportSymbol": {
                    "$ref": "#/definitions/longString",
                    "description": "Report instance symbology"
                },
                "reportImage": {
                    "$ref": "#/definitions/longString",
                    "description": "Primary image of report instance"
                },
                "reportCountry": {
                    "$ref": "#/definitions/shortString",
                    "description": "Country value of report instance's primary location"
                },
                "reportLatitude": {
                    "$ref": "#/definitions/latitude_dds",
                    "description": "Latitude value of report instance's primary location"
                },
                "reportLongitude": {
                    "$ref": "#/definitions/longitude_dds",
                    "description": "Longitude value of report instance's primary location"
                },
				"geoLocation":{
					"$ref":"#/definitions/geojson"
				},
                "currentObjectState":{
                        "$ref": "#/definitions/actionInfo"
                },
                "originatingGroup": {
                    "$ref": "#/definitions/longStringRequired",
                    "description": "Original creator's group"
                },  
                "originatingUser": {
                    "$ref": "#/definitions/longStringRequired",
                    "description": "Original creator's User Name or email address"
                },  
				"isTearline": {
                    "type": "boolean",
                    "description": "Determines whether a report is a tearline"
                },
				"tearlineId": {
					"$ref": "#/definitions/shortString",
                    "description": "The reportId of the parent, used as a tearline group binding"
				},
                "theaterFilter": {
                    "$ref": "#/definitions/shortStringRequired",
                    "description": "Report instance theater of relevance"
                },
                "warehouseUri": {
                    "$ref": "#/definitions/longStringRequired",
                    "description": "Data warehouse location for report instance",
                    "format": "uri"
                }
            },
            "required": [
                "isTearline",
                "module",
                "objectId",
                "currentObjectState",
                "originatingGroup",
                "originatingUser",
                "reportId",
                "reportSerial",
                "reportDate",
                "theaterFilter",
                "reportType",
                "reportTitle",
                "reportSummary"
            ]
        },
        "location": {
            "type": "array",
            "description": "All locations for the report instance",
            "items": {
                "type": "object",
                "properties": {
                    "objectId": {
                        "$ref": "#/definitions/shortStringRequired",
                        "description": "objectId required for Edit Purposes"
                    },
                    "address": {
                        "$ref": "#/definitions/longString",
                        "description": "Address Details"
                    },
                    "alternateRoute": {
                        "$ref": "#/definitions/longString",
                        "description": "Alternate Route for location"
                    },
                    "ao": {
                        "$ref": "#/definitions/shortString",
                        "description": "Area of Operations"
                    },
                    "basecamp": {
                        "$ref": "#/definitions/shortString",
                        "description": "Base Camp"
                    },
                    "city": {
                        "$ref": "#/definitions/shortString",
                        "description": "City for Location"
                    },
                    "confidence": {
                        "$ref": "#/definitions/shortString",
                        "description": "Reporters Confidence in Location Value"
                    },
                    "country": {
                        "$ref": "#/definitions/shortString",
                        "description": "Location Country"
                    },
                    "customGeom": {
                        "type": "object",
                        "description": "Custom Geometry Object for Location",
                        "properties": {
                            "customGeomObjectId": {
                                "$ref": "#/definitions/shortString",
                                "description": "objectId for Custom Geometry Object"
                            },
                            "geomType": {
                                "$ref": "#/definitions/shortString",
                                "description": "Geometry Type for custom geometry object (e.g. Point, Multi-polygon"
                            },
                            "geom": {
                                "$ref": "#/definitions/shortString",
                                "description": "TBD GEOM Object for Custom Location Object"
                            },
                            "name": {
                                "$ref": "#/definitions/shortString",
                                "description": "Custom Location Name"
                            }
                        }
                    },
                    "dateEndLocation": {
                        "$ref": "#/definitions/dateTime",
                        "description": "Ending Date Time for location"
                    },
                    "dateStartLocation": {
                        "$ref": "#/definitions/dateTime",
                        "description": "Starting Date Time for location"
                    },
                    "derivedLocation": {
                        "type": "boolean",
                        "description": "Was Location Lat/Long derived from user picklists?"
                    },
                    "description": {
                        "$ref": "#/definitions/text",
                        "description": "Location Description"
                    },
                    "distanceFromCityCenter": {
                        "$ref": "#/definitions/positive_int",
                        "description": "Distance in meters to nearest city center"
                    },
                    "distanceToNearestFOB": {
                        "$ref": "#/definitions/positive_num",
                        "description": "Distance in meters to nearest FOB"
                    },
                    "distanceToNearestRoute": {
                        "$ref": "#/definitions/positive_num",
                        "description": "Distance in meters to nearest Route"
                    },
                    "district": {
                        "$ref": "#/definitions/shortString",
                        "description": "District"
                    },
                    "fob": {
                        "$ref": "#/definitions/shortString",
                        "description": "FOB"
                    },
					"geoLocation":{
						"$ref":"#/definitions/geojson"
					},
					"house": {
                        "$ref": "#/definitions/shortString",
                        "description": "HOUSE"
                    },
                    "isPrimaryLocation": {
                        "type": "boolean",
                        "description": "Marks Primary Location"
                    },
                    "latitude": {
                        "$ref": "#/definitions/latitude_ddsRequired",
                        "description": "Latitude of Location in Degree Decimal Seconds"
                    },
                    "locationActive": {
                        "type": "boolean",
                        "description": "Is Location Active?"
                    },
                    "locationType": {
                        "$ref": "#/definitions/shortString",
                        "description": "Location Type"
                    },
                    "longitude": {
                        "$ref": "#/definitions/longitude_ddsRequired",
                        "description": "Longitude of Location in Degree Decimal Seconds"
                    },
                    "mscCurrent": {
                        "$ref": "#/definitions/shortString",
                        "description": "Current Major Supporting Command responsible for location"
                    },
                    "mscDateOfCurrent": {
                        "$ref": "#/definitions/dateTime",
                        "description": "Date Of Current Major Supporting Command's Control of location"
                    },
                    "msc": {
                        "$ref": "#/definitions/shortString",
                        "description": "Major Supporting Command responsible for location"
                    },
                    "nai": {
                        "$ref": "#/definitions/shortString",
                        "description": "Named Area of Interest"
                    },
                    "nearestCity": {
                        "$ref": "#/definitions/shortString",
                        "description": "Nearest City"
                    },
                    "nearestFOB": {
                        "$ref": "#/definitions/shortString",
                        "description": "Nearest FOB"
                    },
                    "nearestRoute": {
                        "$ref": "#/definitions/shortString",
                        "description": "Nearest Route"
                    },
                    "neighborhood": {
                        "$ref": "#/definitions/shortString",
                        "description": "Neighborhood for location"
                    },
                    "populationCenterType": {
                        "$ref": "#/definitions/shortString",
                        "description": "Population Center Type"
                    },
                    "populationCenter": {
                        "$ref": "#/definitions/shortString",
                        "description": "Population Center"
                    },
                    "province": {
                        "$ref": "#/definitions/shortString",
                        "description": "Province"
                    },
                    "referenceId": {
                        "$ref": "#/definitions/shortString",
                        "description": "Reference to any subelement with in current report instance (e.g. Event Object ID)"
                    },
                    "route": {
                        "$ref": "#/definitions/shortString",
                        "description": "Route"
                    },
                    "security": {
                        "$ref": "#/definitions/securityOptional"
                    },
                    "street": {
                        "$ref": "#/definitions/shortString",
                        "description": "Street"
                    },
                    "structure": {
                        "$ref": "#/definitions/shortString",
                        "description": "Structure"
                    },
                    "village": {
                        "$ref": "#/definitions/shortString",
                        "description": "Village"
                    },
                    "zone": {
                        "$ref": "#/definitions/shortString",
                        "description": "City Zone"
                    }
                },
				"required": [
					"objectId",
					"isPrimaryLocation",
					"latitude",
					"longitude"
				]
            }
        },
        "remarks": {
            "type": "array",
            "items": {
                "type": "object",
                "properties": {
                    "objectId": {
                        "$ref": "#/definitions/shortStringRequired",
                        "description": "objectId required for Edit Purposes"
                    },
                    "referenceId": {
                        "$ref": "#/definitions/shortString",
                        "description": "Reference to any subelement with in current report instance (e.g. Event Object ID)"
                    },
                    "remarkText": {
                        "$ref": "#/definitions/text",
                        "description": "Remark Text"
                    },
                    "remarkType": {
                        "$ref": "#/definitions/shortString",
                        "description": "Remark Type"
                    },
                    "remarkOrder": {
                        "$ref": "#/definitions/positive_num",
                        "description": "Remark Order"
                    },
                    "security": {
                        "$ref": "#/definitions/securityOptional"
                    }
                },
                "required": [
                    "objectId",
                    "remarkText",
                    "remarkType",
                    "security"
                ]
            }
        },
        "requirements": {
            "type": "array",
            "items": {
                "type": "object",
                "properties": {
                    "objectId": {
                        "$ref": "#/definitions/shortStringRequired",
                        "description": "objectId required for Edit Purposes"
                    },
                    "referenceId": {
                        "$ref": "#/definitions/shortString",
                        "description": "Reference to any subelement with in current report instance (e.g. Event Object ID)"
                    },
                    "requirement": {
                        "$ref": "#/definitions/longString",
                        "description": "Requirement sub based on Requirement Type"
                    },
                    "requirementType": {
                        "$ref": "#/definitions/shortString",
                        "description": "Requirement Type"
                    },
                    "comment": {
                        "$ref": "#/definitions/text",
                        "description": "Requirement Comment"
                    },
                    "security": {
                        "$ref": "#/definitions/securityOptional"
                    }
                },
                "required": [
                    "objectId",
                    "requirementType",
                    "requirement",
                    "comment"
                ]
            }
        },
        "security": {
                        "$ref": "#/definitions/security"
        },
        "objectHistory": {
            "type": "array",
            "items":
                    {
                        "$ref": "#/definitions/actionInfo"
                    }       
		},
			"details": {
				"type": "object",
				"description": "Operations MaritimeEvent Report details specific details",
				"fieldAlias2x": "details", 
						"properties": {
						
"aidprovidedtocrew": {
	"$ref": "#/definitions/longString"
			,"defaultLabel": "AidProvidedToCrew"
			,"description": "AidProvidedToCrew"
			,"fieldAlias2x": "AidProvidedToCrew"
			,"isSearchable": false
			,"picklistDescription": null
			,"picklistUri": null
			,"picklistParent": null
		},
"analystassessment": {
	"$ref": "#/definitions/text"
			,"defaultLabel": "AnalystAssessment"
			,"description": "AnalystAssessment"
			,"fieldAlias2x": "AnalystAssessment"
			,"isSearchable": false
			,"picklistDescription": null
			,"picklistUri": null
			,"picklistParent": null
		},
"analystcomments": {
	"$ref": "#/definitions/text"
			,"defaultLabel": "AnalystComments"
			,"description": "AnalystComments"
			,"fieldAlias2x": "AnalystComments"
			,"isSearchable": false
			,"picklistDescription": null
			,"picklistUri": null
			,"picklistParent": null
		},
"ashorearea": {
	"$ref": "#/definitions/text"
			,"defaultLabel": "AshoreArea"
			,"description": "AshoreArea"
			,"fieldAlias2x": "AshoreArea"
			,"isSearchable": false
			,"picklistDescription": null
			,"picklistUri": null
			,"picklistParent": null
		},
"ashorelocation": {
	"$ref": "#/definitions/longString"
			,"defaultLabel": "AshoreLocation"
			,"description": "AshoreLocation"
			,"fieldAlias2x": "AshoreLocation"
			,"isSearchable": false
			,"picklistDescription": null
			,"picklistUri": null
			,"picklistParent": null
		},
"ashorelocationlatitude": {
	"$ref": "#/definitions/latitude_dds"
			,"defaultLabel": "AshoreLocationLatitude"
			,"description": "AshoreLocationLatitude"
			,"fieldAlias2x": "AshoreLocationLatitude"
			,"isSearchable": false
			,"picklistDescription": null
			,"picklistUri": null
			,"picklistParent": null
		},
"ashorelocationlongitude": {
	"$ref": "#/definitions/longitude_dds"
			,"defaultLabel": "AshoreLocationLongitude"
			,"description": "AshoreLocationLongitude"
			,"fieldAlias2x": "AshoreLocationLongitude"
			,"isSearchable": false
			,"picklistDescription": null
			,"picklistUri": null
			,"picklistParent": null
		},
"associatedselectorspiratenegotiator": {
	"$ref": "#/definitions/text"
			,"defaultLabel": "AssociatedSelectorsPirateNegotiator"
			,"description": "AssociatedSelectorsPirateNegotiator"
			,"fieldAlias2x": "AssociatedSelectorsPirateNegotiator"
			,"isSearchable": false
			,"picklistDescription": null
			,"picklistUri": null
			,"picklistParent": null
		},
"captivecrewtreated": {
	"$ref": "#/definitions/longString"
			,"defaultLabel": "CaptiveCrewTreated"
			,"description": "CaptiveCrewTreated"
			,"fieldAlias2x": "CaptiveCrewTreated"
			,"isSearchable": false
			,"picklistDescription": null
			,"picklistUri": null
			,"picklistParent": null
		},
"captivecrewtreatedelaborate": {
	"$ref": "#/definitions/text"
			,"defaultLabel": "CaptiveCrewTreatedElaborate"
			,"description": "CaptiveCrewTreatedElaborate"
			,"fieldAlias2x": "CaptiveCrewTreatedElaborate"
			,"isSearchable": false
			,"picklistDescription": null
			,"picklistUri": null
			,"picklistParent": null
		},
"causeofkilling": {
	"$ref": "#/definitions/text"
			,"defaultLabel": "CauseOfKilling"
			,"description": "CauseOfKilling"
			,"fieldAlias2x": "CauseOfKilling"
			,"isSearchable": false
			,"picklistDescription": null
			,"picklistUri": null
			,"picklistParent": null
		},
"causeofwounds": {
	"$ref": "#/definitions/text"
			,"defaultLabel": "CauseOfWounds"
			,"description": "CauseOfWounds"
			,"fieldAlias2x": "CauseOfWounds"
			,"isSearchable": false
			,"picklistDescription": null
			,"picklistUri": null
			,"picklistParent": null
		},
"cocounteroffer": {
	"$ref": "#/definitions/longString"
			,"defaultLabel": "CoCounterOffer"
			,"description": "CoCounterOffer"
			,"fieldAlias2x": "CoCounterOffer"
			,"isSearchable": false
			,"picklistDescription": null
			,"picklistUri": null
			,"picklistParent": null
		},
"companyrep": {
	"$ref": "#/definitions/longString"
			,"defaultLabel": "CompanyRep"
			,"description": "CompanyRep"
			,"fieldAlias2x": "CompanyRep"
			,"isSearchable": false
			,"picklistDescription": null
			,"picklistUri": null
			,"picklistParent": null
		},
"companyrepselectors": {
	"$ref": "#/definitions/text"
			,"defaultLabel": "CompanyRepSelectors"
			,"description": "CompanyRepSelectors"
			,"fieldAlias2x": "CompanyRepSelectors"
			,"isSearchable": false
			,"picklistDescription": null
			,"picklistUri": null
			,"picklistParent": null
		},
"crewdebriefingdetails": {
	"$ref": "#/definitions/text"
			,"defaultLabel": "CrewDebriefingDetails"
			,"description": "CrewDebriefingDetails"
			,"fieldAlias2x": "CrewDebriefingDetails"
			,"isSearchable": false
			,"picklistDescription": null
			,"picklistUri": null
			,"picklistParent": null
		},
"crewmovedashore": {
	"$ref": "#/definitions/longString"
			,"defaultLabel": "CrewMovedAshore"
			,"description": "CrewMovedAshore"
			,"fieldAlias2x": "CrewMovedAshore"
			,"isSearchable": false
			,"picklistDescription": null
			,"picklistUri": null
			,"picklistParent": null
		},
"crewsickdescription": {
	"$ref": "#/definitions/text"
			,"defaultLabel": "CrewSickDescription"
			,"description": "CrewSickDescription"
			,"fieldAlias2x": "CrewSickDescription"
			,"isSearchable": false
			,"picklistDescription": null
			,"picklistUri": null
			,"picklistParent": null
		},
"daynight": {
	"$ref": "#/definitions/longString"
			,"defaultLabel": "DayNight"
			,"description": "DayNight"
			,"fieldAlias2x": "DayNight"
			,"isSearchable": false
			,"picklistDescription": null
			,"picklistUri": null
			,"picklistParent": null
		},
"defensivemeasurestaken": {
	"$ref": "#/definitions/longString"
			,"defaultLabel": "DefensiveMeasuresTaken"
			,"description": "DefensiveMeasuresTaken"
			,"fieldAlias2x": "DefensiveMeasuresTaken"
			,"isSearchable": false
			,"picklistDescription": null
			,"picklistUri": null
			,"picklistParent": null
		},
"defensivemeasurestakendescription": {
	"$ref": "#/definitions/text"
			,"defaultLabel": "DefensiveMeasuresTakenDescription"
			,"description": "DefensiveMeasuresTakenDescription"
			,"fieldAlias2x": "DefensiveMeasuresTakenDescription"
			,"isSearchable": false
			,"picklistDescription": null
			,"picklistUri": null
			,"picklistParent": null
		},
"distresssignalissued": {
	"$ref": "#/definitions/longString"
			,"defaultLabel": "DistressSignalIssued"
			,"description": "DistressSignalIssued"
			,"fieldAlias2x": "DistressSignalIssued"
			,"isSearchable": false
			,"picklistDescription": null
			,"picklistUri": null
			,"picklistParent": null
		},
"entitieswhoreceivedsignal": {
	"$ref": "#/definitions/text"
			,"defaultLabel": "EntitiesWhoReceivedSignal"
			,"description": "EntitiesWhoReceivedSignal"
			,"fieldAlias2x": "EntitiesWhoReceivedSignal"
			,"isSearchable": false
			,"picklistDescription": null
			,"picklistUri": null
			,"picklistParent": null
		},
"evasivemeasurestakendescription": {
	"$ref": "#/definitions/text"
			,"defaultLabel": "EvasiveMeasuresTakenDescription"
			,"description": "EvasiveMeasuresTakenDescription"
			,"fieldAlias2x": "EvasiveMeasuresTakenDescription"
			,"isSearchable": false
			,"picklistDescription": null
			,"picklistUri": null
			,"picklistParent": null
		},
"finalagreedransom": {
	"$ref": "#/definitions/longString"
			,"defaultLabel": "FinalAgreedRansom"
			,"description": "FinalAgreedRansom"
			,"fieldAlias2x": "FinalAgreedRansom"
			,"isSearchable": false
			,"picklistDescription": null
			,"picklistUri": null
			,"picklistParent": null
		},
"finaloutcome": {
	"$ref": "#/definitions/text"
			,"defaultLabel": "FinalOutcome"
			,"description": "FinalOutcome"
			,"fieldAlias2x": "FinalOutcome"
			,"isSearchable": false
			,"picklistDescription": null
			,"picklistUri": null
			,"picklistParent": null
		},
"generalareaofattack": {
	"$ref": "#/definitions/longString"
			,"defaultLabel": "GeneralAreaofAttack"
			,"description": "GeneralAreaofAttack"
			,"fieldAlias2x": "GeneralAreaofAttack"
			,"isSearchable": false
			,"picklistDescription": null
			,"picklistUri": null
			,"picklistParent": null
		},
"initialransom": {
	"$ref": "#/definitions/longString"
			,"defaultLabel": "InitialRansom"
			,"description": "InitialRansom"
			,"fieldAlias2x": "InitialRansom"
			,"isSearchable": false
			,"picklistDescription": null
			,"picklistUri": null
			,"picklistParent": null
		},
"initialreporting": {
	"$ref": "#/definitions/text"
			,"defaultLabel": "InitialReporting"
			,"description": "InitialReporting"
			,"fieldAlias2x": "InitialReporting"
			,"isSearchable": false
			,"picklistDescription": null
			,"picklistUri": null
			,"picklistParent": null
		},
"itemsconfiscated": {
	"$ref": "#/definitions/text"
			,"defaultLabel": "ItemsConfiscated"
			,"description": "ItemsConfiscated"
			,"fieldAlias2x": "ItemsConfiscated"
			,"isSearchable": false
			,"picklistDescription": null
			,"picklistUri": null
			,"picklistParent": null
		},
"killednationality": {
	"$ref": "#/definitions/text"
			,"defaultLabel": "KilledNationality"
			,"description": "KilledNationality"
			,"fieldAlias2x": "KilledNationality"
			,"isSearchable": false
			,"picklistDescription": null
			,"picklistUri": null
			,"picklistParent": null
		},
"leadpirateonboard": {
	"$ref": "#/definitions/longString"
			,"defaultLabel": "LeadPirateOnBoard"
			,"description": "LeadPirateOnBoard"
			,"fieldAlias2x": "LeadPirateOnBoard"
			,"isSearchable": false
			,"picklistDescription": null
			,"picklistUri": null
			,"picklistParent": null
		},
"militaryinverventionremarks": {
	"$ref": "#/definitions/text"
			,"defaultLabel": "MilitaryInverventionRemarks"
			,"description": "MilitaryInverventionRemarks"
			,"fieldAlias2x": "MilitaryInverventionRemarks"
			,"isSearchable": false
			,"picklistDescription": null
			,"picklistUri": null
			,"picklistParent": null
		},
"mothershipoperationsconducted": {
	"$ref": "#/definitions/longString"
			,"defaultLabel": "MothershipOperationsConducted"
			,"description": "MothershipOperationsConducted"
			,"fieldAlias2x": "MothershipOperationsConducted"
			,"isSearchable": false
			,"picklistDescription": null
			,"picklistUri": null
			,"picklistParent": null
		},
"mothershipoperationsdetails": {
	"$ref": "#/definitions/text"
			,"defaultLabel": "MothershipOperationsDetails"
			,"description": "MothershipOperationsDetails"
			,"fieldAlias2x": "MothershipOperationsDetails"
			,"isSearchable": false
			,"picklistDescription": null
			,"picklistUri": null
			,"picklistParent": null
		},
"nationalitiesofcrewkilled": {
	"$ref": "#/definitions/text"
			,"defaultLabel": "NationalitiesOfCrewKilled"
			,"description": "NationalitiesOfCrewKilled"
			,"fieldAlias2x": "NationalitiesOfCrewKilled"
			,"isSearchable": false
			,"picklistDescription": null
			,"picklistUri": null
			,"picklistParent": null
		},
"nationalitiesofcrewwounded": {
	"$ref": "#/definitions/text"
			,"defaultLabel": "NationalitiesOfCrewWounded"
			,"description": "NationalitiesOfCrewWounded"
			,"fieldAlias2x": "NationalitiesOfCrewWounded"
			,"isSearchable": false
			,"picklistDescription": null
			,"picklistUri": null
			,"picklistParent": null
		},
"numcrewkilled": {
	"$ref": "#/definitions/longString"
			,"defaultLabel": "NumCrewKilled"
			,"description": "NumCrewKilled"
			,"fieldAlias2x": "NumCrewKilled"
			,"isSearchable": false
			,"picklistDescription": null
			,"picklistUri": null
			,"picklistParent": null
		},
"numcrewwounded": {
	"$ref": "#/definitions/longString"
			,"defaultLabel": "NumCrewWounded"
			,"description": "NumCrewWounded"
			,"fieldAlias2x": "NumCrewWounded"
			,"isSearchable": false
			,"picklistDescription": null
			,"picklistUri": null
			,"picklistParent": null
		},
"numofcrewsick": {
	"$ref": "#/definitions/longString"
			,"defaultLabel": "NumOfCrewSick"
			,"description": "NumOfCrewSick"
			,"fieldAlias2x": "NumOfCrewSick"
			,"isSearchable": false
			,"picklistDescription": null
			,"picklistUri": null
			,"picklistParent": null
		},
"numofcrewtakenhostage": {
	"$ref": "#/definitions/longString"
			,"defaultLabel": "NumOfCrewTakenHostage"
			,"description": "NumOfCrewTakenHostage"
			,"fieldAlias2x": "NumOfCrewTakenHostage"
			,"isSearchable": false
			,"picklistDescription": null
			,"picklistUri": null
			,"picklistParent": null
		},
"numofdayscrewheldhostage": {
	"$ref": "#/definitions/longString"
			,"defaultLabel": "NumOfDaysCrewHeldHostage"
			,"description": "NumOfDaysCrewHeldHostage"
			,"fieldAlias2x": "NumOfDaysCrewHeldHostage"
			,"isSearchable": false
			,"picklistDescription": null
			,"picklistUri": null
			,"picklistParent": null
		},
"numpirateinjured": {
	"$ref": "#/definitions/longString"
			,"defaultLabel": "NumPirateInjured"
			,"description": "NumPirateInjured"
			,"fieldAlias2x": "NumPirateInjured"
			,"isSearchable": false
			,"picklistDescription": null
			,"picklistUri": null
			,"picklistParent": null
		},
"numpiratesdisrupted": {
	"$ref": "#/definitions/longString"
			,"defaultLabel": "NumPiratesDisrupted"
			,"description": "NumPiratesDisrupted"
			,"fieldAlias2x": "NumPiratesDisrupted"
			,"isSearchable": false
			,"picklistDescription": null
			,"picklistUri": null
			,"picklistParent": null
		},
"numpiratesinvolved": {
	"$ref": "#/definitions/longString"
			,"defaultLabel": "NumPiratesInvolved"
			,"description": "NumPiratesInvolved"
			,"fieldAlias2x": "NumPiratesInvolved"
			,"isSearchable": false
			,"picklistDescription": null
			,"picklistUri": null
			,"picklistParent": null
		},
"numpirateskilled": {
	"$ref": "#/definitions/longString"
			,"defaultLabel": "NumPiratesKilled"
			,"description": "NumPiratesKilled"
			,"fieldAlias2x": "NumPiratesKilled"
			,"isSearchable": false
			,"picklistDescription": null
			,"picklistUri": null
			,"picklistParent": null
		},
"numpiratestrialincarcerated": {
	"$ref": "#/definitions/longString"
			,"defaultLabel": "NumPiratesTrialIncarcerated"
			,"description": "NumPiratesTrialIncarcerated"
			,"fieldAlias2x": "NumPiratesTrialIncarcerated"
			,"isSearchable": false
			,"picklistDescription": null
			,"picklistUri": null
			,"picklistParent": null
		},
"numpiratevesselsboarded": {
	"$ref": "#/definitions/longString"
			,"defaultLabel": "NumPirateVesselsBoarded"
			,"description": "NumPirateVesselsBoarded"
			,"fieldAlias2x": "NumPirateVesselsBoarded"
			,"isSearchable": false
			,"picklistDescription": null
			,"picklistUri": null
			,"picklistParent": null
		},
"numpiratevesselsdestroyed": {
	"$ref": "#/definitions/longString"
			,"defaultLabel": "NumPirateVesselsDestroyed"
			,"description": "NumPirateVesselsDestroyed"
			,"fieldAlias2x": "NumPirateVesselsDestroyed"
			,"isSearchable": false
			,"picklistDescription": null
			,"picklistUri": null
			,"picklistParent": null
		},
"pirateclanaffiliation": {
	"$ref": "#/definitions/text"
			,"defaultLabel": "PirateClanAffiliation"
			,"description": "PirateClanAffiliation"
			,"fieldAlias2x": "PirateClanAffiliation"
			,"isSearchable": false
			,"picklistDescription": null
			,"picklistUri": null
			,"picklistParent": null
		},
"piratedefensivemeasurestaken": {
	"$ref": "#/definitions/longString"
			,"defaultLabel": "PirateDefensiveMeasuresTaken"
			,"description": "PirateDefensiveMeasuresTaken"
			,"fieldAlias2x": "PirateDefensiveMeasuresTaken"
			,"isSearchable": false
			,"picklistDescription": null
			,"picklistUri": null
			,"picklistParent": null
		},
"pirateevasivemeasurestaken": {
	"$ref": "#/definitions/longString"
			,"defaultLabel": "PirateEvasiveMeasuresTaken"
			,"description": "PirateEvasiveMeasuresTaken"
			,"fieldAlias2x": "PirateEvasiveMeasuresTaken"
			,"isSearchable": false
			,"picklistDescription": null
			,"picklistUri": null
			,"picklistParent": null
		},
"piratenegotiator": {
	"$ref": "#/definitions/longString"
			,"defaultLabel": "PirateNegotiator"
			,"description": "PirateNegotiator"
			,"fieldAlias2x": "PirateNegotiator"
			,"isSearchable": false
			,"picklistDescription": null
			,"picklistUri": null
			,"picklistParent": null
		},
"pirateransom": {
	"$ref": "#/definitions/longString"
			,"defaultLabel": "PirateRansom"
			,"description": "PirateRansom"
			,"fieldAlias2x": "PirateRansom"
			,"isSearchable": false
			,"picklistDescription": null
			,"picklistUri": null
			,"picklistParent": null
		},
"piratesdisrupted": {
	"$ref": "#/definitions/longString"
			,"defaultLabel": "PiratesDisrupted"
			,"description": "PiratesDisrupted"
			,"fieldAlias2x": "PiratesDisrupted"
			,"isSearchable": false
			,"picklistDescription": null
			,"picklistUri": null
			,"picklistParent": null
		},
"piratesinjured": {
	"$ref": "#/definitions/longString"
			,"defaultLabel": "PiratesInjured"
			,"description": "PiratesInjured"
			,"fieldAlias2x": "PiratesInjured"
			,"isSearchable": false
			,"picklistDescription": null
			,"picklistUri": null
			,"picklistParent": null
		},
"pirateskilled": {
	"$ref": "#/definitions/longString"
			,"defaultLabel": "PiratesKilled"
			,"description": "PiratesKilled"
			,"fieldAlias2x": "PiratesKilled"
			,"isSearchable": false
			,"picklistDescription": null
			,"picklistUri": null
			,"picklistParent": null
		},
"piratestrialincarcerated": {
	"$ref": "#/definitions/longString"
			,"defaultLabel": "PiratesTrialIncarcerated"
			,"description": "PiratesTrialIncarcerated"
			,"fieldAlias2x": "PiratesTrialIncarcerated"
			,"isSearchable": false
			,"picklistDescription": null
			,"picklistUri": null
			,"picklistParent": null
		},
"piratesvesselsconfiscated": {
	"$ref": "#/definitions/longString"
			,"defaultLabel": "PiratesVesselsConfiscated"
			,"description": "PiratesVesselsConfiscated"
			,"fieldAlias2x": "PiratesVesselsConfiscated"
			,"isSearchable": false
			,"picklistDescription": null
			,"picklistUri": null
			,"picklistParent": null
		},
"piratetacticsandequipment": {
	"$ref": "#/definitions/text"
			,"defaultLabel": "PirateTacticsAndEquipment"
			,"description": "PirateTacticsAndEquipment"
			,"fieldAlias2x": "PirateTacticsAndEquipment"
			,"isSearchable": false
			,"picklistDescription": null
			,"picklistUri": null
			,"picklistParent": null
		},
"piratevesselsboarded": {
	"$ref": "#/definitions/longString"
			,"defaultLabel": "PirateVesselsBoarded"
			,"description": "PirateVesselsBoarded"
			,"fieldAlias2x": "PirateVesselsBoarded"
			,"isSearchable": false
			,"picklistDescription": null
			,"picklistUri": null
			,"picklistParent": null
		},
"piratevesselsdestroyed": {
	"$ref": "#/definitions/longString"
			,"defaultLabel": "PirateVesselsDestroyed"
			,"description": "PirateVesselsDestroyed"
			,"fieldAlias2x": "PirateVesselsDestroyed"
			,"isSearchable": false
			,"picklistDescription": null
			,"picklistUri": null
			,"picklistParent": null
		},
"pirateweaponsdescription": {
	"$ref": "#/definitions/text"
			,"defaultLabel": "PirateWeaponsDescription"
			,"description": "PirateWeaponsDescription"
			,"fieldAlias2x": "PirateWeaponsDescription"
			,"isSearchable": false
			,"picklistDescription": null
			,"picklistUri": null
			,"picklistParent": null
		},
"portshipreportedtoafterrelease": {
	"$ref": "#/definitions/longString"
			,"defaultLabel": "PortShipReportedToAfterRelease"
			,"description": "PortShipReportedToAfterRelease"
			,"fieldAlias2x": "PortShipReportedToAfterRelease"
			,"isSearchable": false
			,"picklistDescription": null
			,"picklistUri": null
			,"picklistParent": null
		},
"postattackcauseofkilling": {
	"$ref": "#/definitions/text"
			,"defaultLabel": "PostAttackCauseOfKilling"
			,"description": "PostAttackCauseOfKilling"
			,"fieldAlias2x": "PostAttackCauseOfKilling"
			,"isSearchable": false
			,"picklistDescription": null
			,"picklistUri": null
			,"picklistParent": null
		},
"postattackcauseofwounds": {
	"$ref": "#/definitions/text"
			,"defaultLabel": "PostAttackCauseOfWounds"
			,"description": "PostAttackCauseOfWounds"
			,"fieldAlias2x": "PostAttackCauseOfWounds"
			,"isSearchable": false
			,"picklistDescription": null
			,"picklistUri": null
			,"picklistParent": null
		},
"postattacknumcrewkilled": {
	"$ref": "#/definitions/longString"
			,"defaultLabel": "PostAttackNumCrewKilled"
			,"description": "PostAttackNumCrewKilled"
			,"fieldAlias2x": "PostAttackNumCrewKilled"
			,"isSearchable": false
			,"picklistDescription": null
			,"picklistUri": null
			,"picklistParent": null
		},
"postattacknumcrewwounded": {
	"$ref": "#/definitions/longString"
			,"defaultLabel": "PostAttackNumCrewWounded"
			,"description": "PostAttackNumCrewWounded"
			,"fieldAlias2x": "PostAttackNumCrewWounded"
			,"isSearchable": false
			,"picklistDescription": null
			,"picklistUri": null
			,"picklistParent": null
		},
"postattackthreatmadetocrew": {
	"$ref": "#/definitions/longString"
			,"defaultLabel": "PostAttackThreatMadeToCrew"
			,"description": "PostAttackThreatMadeToCrew"
			,"fieldAlias2x": "PostAttackThreatMadeToCrew"
			,"isSearchable": false
			,"picklistDescription": null
			,"picklistUri": null
			,"picklistParent": null
		},
"postattackthreatmadetocrewelaborate": {
	"$ref": "#/definitions/text"
			,"defaultLabel": "PostAttackThreatMadeToCrewElaborate"
			,"description": "PostAttackThreatMadeToCrewElaborate"
			,"fieldAlias2x": "PostAttackThreatMadeToCrewElaborate"
			,"isSearchable": false
			,"picklistDescription": null
			,"picklistUri": null
			,"picklistParent": null
		},
"postattackthreattype": {
	"$ref": "#/definitions/longString"
			,"defaultLabel": "PostAttackThreatType"
			,"description": "PostAttackThreatType"
			,"fieldAlias2x": "PostAttackThreatType"
			,"isSearchable": false
			,"picklistDescription": null
			,"picklistUri": null
			,"picklistParent": null
		},
"ransomdelivery": {
	"$ref": "#/definitions/longString"
			,"defaultLabel": "RansomDelivery"
			,"description": "RansomDelivery"
			,"fieldAlias2x": "RansomDelivery"
			,"isSearchable": false
			,"picklistDescription": null
			,"picklistUri": null
			,"picklistParent": null
		},
"ransomdeliverycompany": {
	"$ref": "#/definitions/longString"
			,"defaultLabel": "RansomDeliveryCompany"
			,"description": "RansomDeliveryCompany"
			,"fieldAlias2x": "RansomDeliveryCompany"
			,"isSearchable": false
			,"picklistDescription": null
			,"picklistUri": null
			,"picklistParent": null
		},
"ransomdeliverycompanynationality": {
	"$ref": "#/definitions/longString"
			,"defaultLabel": "RansomDeliveryCompanyNationality"
			,"description": "RansomDeliveryCompanyNationality"
			,"fieldAlias2x": "RansomDeliveryCompanyNationality"
			,"isSearchable": false
			,"picklistDescription": null
			,"picklistUri": null
			,"picklistParent": null
		},
"ransomdeliverymethod": {
	"$ref": "#/definitions/longString"
			,"defaultLabel": "RansomDeliveryMethod"
			,"description": "RansomDeliveryMethod"
			,"fieldAlias2x": "RansomDeliveryMethod"
			,"isSearchable": false
			,"picklistDescription": null
			,"picklistUri": null
			,"picklistParent": null
		},
"reportdate": {
	"$ref": "#/definitions/dateTime"
			,"defaultLabel": "ReportDate"
			,"description": "ReportDate"
			,"fieldAlias2x": "ReportDate"
			,"isSearchable": false
			,"picklistDescription": null
			,"picklistUri": null
			,"picklistParent": null
		},
"reportingunit": {
	"$ref": "#/definitions/longString"
			,"defaultLabel": "ReportingUnit"
			,"description": "ReportingUnit"
			,"fieldAlias2x": "ReportingUnit"
			,"isSearchable": false
			,"picklistDescription": null
			,"picklistUri": null
			,"picklistParent": null
		},
"reporttitle": {
	"$ref": "#/definitions/longString"
			,"defaultLabel": "ReportTitle"
			,"description": "ReportTitle"
			,"fieldAlias2x": "ReportTitle"
			,"isSearchable": false
			,"picklistDescription": null
			,"picklistUri": null
			,"picklistParent": null
		},
"reporttype": {
	"$ref": "#/definitions/longString"
			,"defaultLabel": "ReportType"
			,"description": "ReportType"
			,"fieldAlias2x": "ReportType"
			,"isSearchable": false
			,"picklistDescription": null
			,"picklistUri": null
			,"picklistParent": null
		},
"responsiveunit": {
	"$ref": "#/definitions/longString"
			,"defaultLabel": "ResponsiveUnit"
			,"description": "ResponsiveUnit"
			,"fieldAlias2x": "ResponsiveUnit"
			,"isSearchable": false
			,"picklistDescription": null
			,"picklistUri": null
			,"picklistParent": null
		},
"season": {
	"$ref": "#/definitions/longString"
			,"defaultLabel": "Season"
			,"description": "Season"
			,"fieldAlias2x": "Season"
			,"isSearchable": false
			,"picklistDescription": null
			,"picklistUri": null
			,"picklistParent": null
		},
"seastate": {
	"$ref": "#/definitions/longString"
			,"defaultLabel": "SeaState"
			,"description": "SeaState"
			,"fieldAlias2x": "SeaState"
			,"isSearchable": false
			,"picklistDescription": null
			,"picklistUri": null
			,"picklistParent": null
		},
"shipanchoragelocation": {
	"$ref": "#/definitions/longString"
			,"defaultLabel": "ShipAnchorageLocation"
			,"description": "ShipAnchorageLocation"
			,"fieldAlias2x": "ShipAnchorageLocation"
			,"isSearchable": false
			,"picklistDescription": null
			,"picklistUri": null
			,"picklistParent": null
		},
"tf": {
	"$ref": "#/definitions/longString"
			,"defaultLabel": "TF"
			,"description": "TF"
			,"fieldAlias2x": "TF"
			,"isSearchable": false
			,"picklistDescription": null
			,"picklistUri": null
			,"picklistParent": null
		},
"thirdpartyngoissues": {
	"$ref": "#/definitions/text"
			,"defaultLabel": "ThirdPartyNGOIssues"
			,"description": "ThirdPartyNGOIssues"
			,"fieldAlias2x": "ThirdPartyNGOIssues"
			,"isSearchable": false
			,"picklistDescription": null
			,"picklistUri": null
			,"picklistParent": null
		},
"threatmadetocrew": {
	"$ref": "#/definitions/longString"
			,"defaultLabel": "ThreatMadeToCrew"
			,"description": "ThreatMadeToCrew"
			,"fieldAlias2x": "ThreatMadeToCrew"
			,"isSearchable": false
			,"picklistDescription": null
			,"picklistUri": null
			,"picklistParent": null
		},
"threatmadetocrewelaborate": {
	"$ref": "#/definitions/text"
			,"defaultLabel": "ThreatMadeToCrewElaborate"
			,"description": "ThreatMadeToCrewElaborate"
			,"fieldAlias2x": "ThreatMadeToCrewElaborate"
			,"isSearchable": false
			,"picklistDescription": null
			,"picklistUri": null
			,"picklistParent": null
		},
"threattype": {
	"$ref": "#/definitions/longString"
			,"defaultLabel": "ThreatType"
			,"description": "ThreatType"
			,"fieldAlias2x": "ThreatType"
			,"isSearchable": false
			,"picklistDescription": null
			,"picklistUri": null
			,"picklistParent": null
		},
"trackingnumber": {
	"$ref": "#/definitions/longString"
			,"defaultLabel": "TrackingNumber"
			,"description": "TrackingNumber"
			,"fieldAlias2x": "TrackingNumber"
			,"isSearchable": false
			,"picklistDescription": null
			,"picklistUri": null
			,"picklistParent": null
		},
"watertype": {
	"$ref": "#/definitions/longString"
			,"defaultLabel": "WaterType"
			,"description": "WaterType"
			,"fieldAlias2x": "WaterType"
			,"isSearchable": false
			,"picklistDescription": null
			,"picklistUri": null
			,"picklistParent": null
		},
"weaponsfired": {
	"$ref": "#/definitions/longString"
			,"defaultLabel": "WeaponsFired"
			,"description": "WeaponsFired"
			,"fieldAlias2x": "WeaponsFired"
			,"isSearchable": false
			,"picklistDescription": null
			,"picklistUri": null
			,"picklistParent": null
		},
"weaponsfireddescription": {
	"$ref": "#/definitions/text"
			,"defaultLabel": "WeaponsFiredDescription"
			,"description": "WeaponsFiredDescription"
			,"fieldAlias2x": "WeaponsFiredDescription"
			,"isSearchable": false
			,"picklistDescription": null
			,"picklistUri": null
			,"picklistParent": null
		},
"weathercondition": {
	"$ref": "#/definitions/longString"
			,"defaultLabel": "WeatherCondition"
			,"description": "WeatherCondition"
			,"fieldAlias2x": "WeatherCondition"
			,"isSearchable": false
			,"picklistDescription": null
			,"picklistUri": null
			,"picklistParent": null
		},
"whatdefensivemeasures": {
	"$ref": "#/definitions/text"
			,"defaultLabel": "WhatDefensiveMeasures"
			,"description": "WhatDefensiveMeasures"
			,"fieldAlias2x": "WhatDefensiveMeasures"
			,"isSearchable": false
			,"picklistDescription": null
			,"picklistUri": null
			,"picklistParent": null
		},
"winddirection": {
	"$ref": "#/definitions/longString"
			,"defaultLabel": "WindDirection"
			,"description": "WindDirection"
			,"fieldAlias2x": "WindDirection"
			,"isSearchable": false
			,"picklistDescription": null
			,"picklistUri": null
			,"picklistParent": null
		},
"windspeed": {
	"$ref": "#/definitions/longString"
			,"defaultLabel": "WindSpeed"
			,"description": "WindSpeed"
			,"fieldAlias2x": "WindSpeed"
			,"isSearchable": false
			,"picklistDescription": null
			,"picklistUri": null
			,"picklistParent": null
		},
"woundednationality": {
	"$ref": "#/definitions/text"
			,"defaultLabel": "WoundedNationality"
			,"description": "WoundedNationality"
			,"fieldAlias2x": "WoundedNationality"
			,"isSearchable": false
			,"picklistDescription": null
			,"picklistUri": null
			,"picklistParent": null
		},
			"counterpiracymanagementpractices": {
				"type": "array",
				"description": "Operations MaritimeEvent Report CounterPiracyManagementPractices specific details",
				"fieldAlias2x": "CounterPiracyManagementPractices", 
					"items": {
						"type": "object",
						"properties": {
						
"counterpiracymanagementpractices": {
	"$ref": "#/definitions/text"
			,"defaultLabel": "CounterPiracyManagementPractices"
			,"description": "CounterPiracyManagementPractices"
			,"fieldAlias2x": "CounterPiracyManagementPractices"
			,"isSearchable": false
			,"picklistDescription": null
			,"picklistUri": null
			,"picklistParent": null
		},
"referenceid": {
	"$ref": "#/definitions/longString"
			,"defaultLabel": "referenceId"
			,"description": "referenceId"
			,"fieldAlias2x": "CounterPiracyManagementPracticesKey"
			,"isSearchable": false
			,"picklistDescription": null
			,"picklistUri": null
			,"picklistParent": null
		}
				}
			}
		},
			"eventdata": {
				"type": "array",
				"description": "Operations MaritimeEvent Report EventData specific details",
				"fieldAlias2x": "EventData", 
					"items": {
						"type": "object",
						"properties": {
						
"referenceid": {
	"$ref": "#/definitions/longString"
			,"defaultLabel": "referenceId"
			,"description": "referenceId"
			,"fieldAlias2x": "EventDataKey"
			,"isSearchable": false
			,"picklistDescription": null
			,"picklistUri": null
			,"picklistParent": null
		},
"eventend": {
	"$ref": "#/definitions/dateTime"
			,"defaultLabel": "EventEnd"
			,"description": "EventEnd"
			,"fieldAlias2x": "EventEnd"
			,"isSearchable": false
			,"picklistDescription": null
			,"picklistUri": null
			,"picklistParent": null
		},
"eventlocation": {
	"$ref": "#/definitions/longString"
			,"defaultLabel": "EventLocation"
			,"description": "EventLocation"
			,"fieldAlias2x": "EventLocation"
			,"isSearchable": false
			,"picklistDescription": null
			,"picklistUri": null
			,"picklistParent": null
		},
"eventlocationlatitude": {
	"$ref": "#/definitions/latitude_dds"
			,"defaultLabel": "EventLocationLatitude"
			,"description": "EventLocationLatitude"
			,"fieldAlias2x": "EventLocationLatitude"
			,"isSearchable": false
			,"picklistDescription": null
			,"picklistUri": null
			,"picklistParent": null
		},
"eventlocationlongitude": {
	"$ref": "#/definitions/longitude_dds"
			,"defaultLabel": "EventLocationLongitude"
			,"description": "EventLocationLongitude"
			,"fieldAlias2x": "EventLocationLongitude"
			,"isSearchable": false
			,"picklistDescription": null
			,"picklistUri": null
			,"picklistParent": null
		},
"eventstart": {
	"$ref": "#/definitions/dateTime"
			,"defaultLabel": "EventStart"
			,"description": "EventStart"
			,"fieldAlias2x": "EventStart"
			,"isSearchable": false
			,"picklistDescription": null
			,"picklistUri": null
			,"picklistParent": null
		},
"eventsummary": {
	"$ref": "#/definitions/text"
			,"defaultLabel": "EventSummary"
			,"description": "EventSummary"
			,"fieldAlias2x": "EventSummary"
			,"isSearchable": false
			,"picklistDescription": null
			,"picklistUri": null
			,"picklistParent": null
		},
"eventtype": {
	"$ref": "#/definitions/longString"
			,"defaultLabel": "EventType"
			,"description": "EventType"
			,"fieldAlias2x": "EventType"
			,"isSearchable": false
			,"picklistDescription": null
			,"picklistUri": null
			,"picklistParent": null
		}
				}
			}
		},
			"piratesturnedover": {
				"type": "array",
				"description": "Operations MaritimeEvent Report PiratesTurnedOver specific details",
				"fieldAlias2x": "PiratesTurnedOver", 
					"items": {
						"type": "object",
						"properties": {
						
"countrypiratesturnedoverto": {
	"$ref": "#/definitions/longString"
			,"defaultLabel": "CountryPiratesTurnedOverTo"
			,"description": "CountryPiratesTurnedOverTo"
			,"fieldAlias2x": "CountryPiratesTurnedOverTo"
			,"isSearchable": false
			,"picklistDescription": null
			,"picklistUri": null
			,"picklistParent": null
		},
"datepiratesturnedover": {
	"$ref": "#/definitions/dateTime"
			,"defaultLabel": "DatePiratesTurnedOver"
			,"description": "DatePiratesTurnedOver"
			,"fieldAlias2x": "DatePiratesTurnedOver"
			,"isSearchable": false
			,"picklistDescription": null
			,"picklistUri": null
			,"picklistParent": null
		},
"numpiratesturnedover": {
	"$ref": "#/definitions/longString"
			,"defaultLabel": "NumPiratesTurnedOver"
			,"description": "NumPiratesTurnedOver"
			,"fieldAlias2x": "NumPiratesTurnedOver"
			,"isSearchable": false
			,"picklistDescription": null
			,"picklistUri": null
			,"picklistParent": null
		},
"piratesturnedoverdetails": {
	"$ref": "#/definitions/text"
			,"defaultLabel": "PiratesTurnedOverDetails"
			,"description": "PiratesTurnedOverDetails"
			,"fieldAlias2x": "PiratesTurnedOverDetails"
			,"isSearchable": false
			,"picklistDescription": null
			,"picklistUri": null
			,"picklistParent": null
		},
"referenceid": {
	"$ref": "#/definitions/longString"
			,"defaultLabel": "referenceId"
			,"description": "referenceId"
			,"fieldAlias2x": "PiratesTurnedOverKey"
			,"isSearchable": false
			,"picklistDescription": null
			,"picklistUri": null
			,"picklistParent": null
		}
				}
			}
		},
			"pirateweaponsused": {
				"type": "array",
				"description": "Operations MaritimeEvent Report PirateWeaponsUsed specific details",
				"fieldAlias2x": "PirateWeaponsUsed", 
					"items": {
						"type": "object",
						"properties": {
						
"pirateweaponsused": {
	"$ref": "#/definitions/text"
			,"defaultLabel": "PirateWeaponsUsed"
			,"description": "PirateWeaponsUsed"
			,"fieldAlias2x": "PirateWeaponsUsed"
			,"isSearchable": false
			,"picklistDescription": null
			,"picklistUri": null
			,"picklistParent": null
		},
"referenceid": {
	"$ref": "#/definitions/longString"
			,"defaultLabel": "referenceId"
			,"description": "referenceId"
			,"fieldAlias2x": "PirateWeaponsUsedKey"
			,"isSearchable": false
			,"picklistDescription": null
			,"picklistUri": null
			,"picklistParent": null
		}
				}
			}
		},
			"securityteamescalation": {
				"type": "array",
				"description": "Operations MaritimeEvent Report SecurityTeamEscalation specific details",
				"fieldAlias2x": "SecurityTeamEscalation", 
					"items": {
						"type": "object",
						"properties": {
						
"securityteamescalation": {
	"$ref": "#/definitions/text"
			,"defaultLabel": "SecurityTeamEscalation"
			,"description": "SecurityTeamEscalation"
			,"fieldAlias2x": "SecurityTeamEscalation"
			,"isSearchable": false
			,"picklistDescription": null
			,"picklistUri": null
			,"picklistParent": null
		},
"referenceid": {
	"$ref": "#/definitions/longString"
			,"defaultLabel": "referenceId"
			,"description": "referenceId"
			,"fieldAlias2x": "SecurityTeamEscalationKey"
			,"isSearchable": false
			,"picklistDescription": null
			,"picklistUri": null
			,"picklistParent": null
		}
				}
			}
		},
			"shipdata": {
				"type": "array",
				"description": "Operations MaritimeEvent Report ShipData specific details",
				"fieldAlias2x": "ShipData", 
					"items": {
						"type": "object",
						"properties": {
						
"crewnationalitybreakdown": {
	"$ref": "#/definitions/text"
			,"defaultLabel": "CrewNationalityBreakdown"
			,"description": "CrewNationalityBreakdown"
			,"fieldAlias2x": "CrewNationalityBreakdown"
			,"isSearchable": false
			,"picklistDescription": null
			,"picklistUri": null
			,"picklistParent": null
		},
"dateoflastportofcall": {
	"$ref": "#/definitions/dateTime"
			,"defaultLabel": "DateofLastPortofCall"
			,"description": "DateofLastPortofCall"
			,"fieldAlias2x": "DateofLastPortofCall"
			,"isSearchable": false
			,"picklistDescription": null
			,"picklistUri": null
			,"picklistParent": null
		},
"flag": {
	"$ref": "#/definitions/longString"
			,"defaultLabel": "Flag"
			,"description": "Flag"
			,"fieldAlias2x": "Flag"
			,"isSearchable": false
			,"picklistDescription": null
			,"picklistUri": null
			,"picklistParent": null
		},
"imo": {
	"$ref": "#/definitions/longString"
			,"defaultLabel": "IMO"
			,"description": "IMO"
			,"fieldAlias2x": "IMO"
			,"isSearchable": false
			,"picklistDescription": null
			,"picklistUri": null
			,"picklistParent": null
		},
"lastportofcall": {
	"$ref": "#/definitions/longString"
			,"defaultLabel": "LastPortofCall"
			,"description": "LastPortofCall"
			,"fieldAlias2x": "LastPortofCall"
			,"isSearchable": false
			,"picklistDescription": null
			,"picklistUri": null
			,"picklistParent": null
		},
"mmsi": {
	"$ref": "#/definitions/longString"
			,"defaultLabel": "MMSI"
			,"description": "MMSI"
			,"fieldAlias2x": "MMSI"
			,"isSearchable": false
			,"picklistDescription": null
			,"picklistUri": null
			,"picklistParent": null
		},
"numofsecurityteammembers": {
	"$ref": "#/definitions/longString"
			,"defaultLabel": "NumOfSecurityTeamMembers"
			,"description": "NumOfSecurityTeamMembers"
			,"fieldAlias2x": "NumOfSecurityTeamMembers"
			,"isSearchable": false
			,"picklistDescription": null
			,"picklistUri": null
			,"picklistParent": null
		},
"sconum": {
	"$ref": "#/definitions/longString"
			,"defaultLabel": "SCONUM"
			,"description": "SCONUM"
			,"fieldAlias2x": "SCONUM"
			,"isSearchable": false
			,"picklistDescription": null
			,"picklistUri": null
			,"picklistParent": null
		},
"securitycompanyname": {
	"$ref": "#/definitions/longString"
			,"defaultLabel": "SecurityCompanyName"
			,"description": "SecurityCompanyName"
			,"fieldAlias2x": "SecurityCompanyName"
			,"isSearchable": false
			,"picklistDescription": null
			,"picklistUri": null
			,"picklistParent": null
		},
"securitycompanynationality": {
	"$ref": "#/definitions/longString"
			,"defaultLabel": "SecurityCompanyNationality"
			,"description": "SecurityCompanyNationality"
			,"fieldAlias2x": "SecurityCompanyNationality"
			,"isSearchable": false
			,"picklistDescription": null
			,"picklistUri": null
			,"picklistParent": null
		},
"securityteamonboard": {
	"$ref": "#/definitions/longString"
			,"defaultLabel": "SecurityTeamOnBoard"
			,"description": "SecurityTeamOnBoard"
			,"fieldAlias2x": "SecurityTeamOnBoard"
			,"isSearchable": false
			,"picklistDescription": null
			,"picklistUri": null
			,"picklistParent": null
		},
"shipcargo": {
	"$ref": "#/definitions/text"
			,"defaultLabel": "ShipCargo"
			,"description": "ShipCargo"
			,"fieldAlias2x": "ShipCargo"
			,"isSearchable": false
			,"picklistDescription": null
			,"picklistUri": null
			,"picklistParent": null
		},
"shipcompanyname": {
	"$ref": "#/definitions/longString"
			,"defaultLabel": "ShipCompanyName"
			,"description": "ShipCompanyName"
			,"fieldAlias2x": "ShipCompanyName"
			,"isSearchable": false
			,"picklistDescription": null
			,"picklistUri": null
			,"picklistParent": null
		},
"shipcompanynationality": {
	"$ref": "#/definitions/longString"
			,"defaultLabel": "ShipCompanyNationality"
			,"description": "ShipCompanyNationality"
			,"fieldAlias2x": "ShipCompanyNationality"
			,"isSearchable": false
			,"picklistDescription": null
			,"picklistUri": null
			,"picklistParent": null
		},
"shipdamaged": {
	"$ref": "#/definitions/longString"
			,"defaultLabel": "ShipDamaged"
			,"description": "ShipDamaged"
			,"fieldAlias2x": "ShipDamaged"
			,"isSearchable": false
			,"picklistDescription": null
			,"picklistUri": null
			,"picklistParent": null
		},
"shipdamagedescription": {
	"$ref": "#/definitions/text"
			,"defaultLabel": "ShipDamageDescription"
			,"description": "ShipDamageDescription"
			,"fieldAlias2x": "ShipDamageDescription"
			,"isSearchable": false
			,"picklistDescription": null
			,"picklistUri": null
			,"picklistParent": null
		},
"shipdamagescale": {
	"$ref": "#/definitions/longString"
			,"defaultLabel": "ShipDamageScale"
			,"description": "ShipDamageScale"
			,"fieldAlias2x": "ShipDamageScale"
			,"isSearchable": false
			,"picklistDescription": null
			,"picklistUri": null
			,"picklistParent": null
		},
"referenceid": {
	"$ref": "#/definitions/longString"
			,"defaultLabel": "referenceId"
			,"description": "referenceId"
			,"fieldAlias2x": "ShipDataKey"
			,"isSearchable": false
			,"picklistDescription": null
			,"picklistUri": null
			,"picklistParent": null
		},
"shipmaxspeed": {
	"$ref": "#/definitions/longString"
			,"defaultLabel": "ShipMaxSpeed"
			,"description": "ShipMaxSpeed"
			,"fieldAlias2x": "ShipMaxSpeed"
			,"isSearchable": false
			,"picklistDescription": null
			,"picklistUri": null
			,"picklistParent": null
		},
"shipname": {
	"$ref": "#/definitions/longString"
			,"defaultLabel": "ShipName"
			,"description": "ShipName"
			,"fieldAlias2x": "ShipName"
			,"isSearchable": false
			,"picklistDescription": null
			,"picklistUri": null
			,"picklistParent": null
		},
"shiporiginaldestination": {
	"$ref": "#/definitions/longString"
			,"defaultLabel": "ShipOriginalDestination"
			,"description": "ShipOriginalDestination"
			,"fieldAlias2x": "ShipOriginalDestination"
			,"isSearchable": false
			,"picklistDescription": null
			,"picklistUri": null
			,"picklistParent": null
		},
"shipscrewnum": {
	"$ref": "#/definitions/longString"
			,"defaultLabel": "ShipsCrewNum"
			,"description": "ShipsCrewNum"
			,"fieldAlias2x": "ShipsCrewNum"
			,"isSearchable": false
			,"picklistDescription": null
			,"picklistUri": null
			,"picklistParent": null
		},
"shipselfreporting": {
	"$ref": "#/definitions/longString"
			,"defaultLabel": "ShipSelfReporting"
			,"description": "ShipSelfReporting"
			,"fieldAlias2x": "ShipSelfReporting"
			,"isSearchable": false
			,"picklistDescription": null
			,"picklistUri": null
			,"picklistParent": null
		},
"shipselfreportingdetails": {
	"$ref": "#/definitions/text"
			,"defaultLabel": "ShipSelfReportingDetails"
			,"description": "ShipSelfReportingDetails"
			,"fieldAlias2x": "ShipSelfReportingDetails"
			,"isSearchable": false
			,"picklistDescription": null
			,"picklistUri": null
			,"picklistParent": null
		},
"shipsspeedduringattack": {
	"$ref": "#/definitions/longString"
			,"defaultLabel": "ShipsSpeedDuringAttack"
			,"description": "ShipsSpeedDuringAttack"
			,"fieldAlias2x": "ShipsSpeedDuringAttack"
			,"isSearchable": false
			,"picklistDescription": null
			,"picklistUri": null
			,"picklistParent": null
		},
"shiptype": {
	"$ref": "#/definitions/longString"
			,"defaultLabel": "ShipType"
			,"description": "ShipType"
			,"fieldAlias2x": "ShipType"
			,"isSearchable": false
			,"picklistDescription": null
			,"picklistUri": null
			,"picklistParent": null
		},
"shipweight": {
	"$ref": "#/definitions/longString"
			,"defaultLabel": "ShipWeight"
			,"description": "ShipWeight"
			,"fieldAlias2x": "ShipWeight"
			,"isSearchable": false
			,"picklistDescription": null
			,"picklistUri": null
			,"picklistParent": null
		}
				}
			}
		}
				}
			}
	}
}
