	
{
    "type": "object",
    "id": "http://cidne.dae.smil.mil/schemas/Operations/AfterAction/CIDNEDM236",
    "description": "CIDNE Operations AfterAction Report Definition",
    "definitions": {
        "shortStringRequired": {
            "type": "string",
            "maxLength": 50
        },
        "longStringRequired": {
            "type": "string",
            "maxLength": 500
        },
        "textRequired": {
            "type": "string"
        },
        "textFieldLevelRequired": {
            "type": "object",
            "properties": {
                "objectValue": {
                    "type": "string"
                },
                "security": {
					"$ref": "#/definitions/security"
				}
            },
            "required": [
                "objectValue",
                "security"
            ]
        },
        "dateTimeRequired": {
            "type": "object",
            "properties": {
                "zuluDateTime": {
                    "type": "string",
                    "format": "date-time"
                },
                "zuluOffset": {
                    "type": "integer",
					"minimum": -840,
					"maximum": 840,
                    "description": "Offset in minutes from Zulu"
                }
            },
            "required": [
                "zuluDateTime",
                "zuluOffset"
            ]
        },
        "latitude_ddsRequired": {
            "type": "number",
            "minimum": -90,
            "maximum": 90
        },
        "longitude_ddsRequired": {
            "type": "number",
            "minimum": -180,
            "maximum": 180
        },
        "positive_intRequired": {
            "type": "integer",
            "minimum": 0
        },
        "positive_numRequired": {
            "type": "number",
            "minimum": 0
        },
        "positive_intRequired": {
            "type": "integer",
            "minimum": 0
        },
        "shortString": {
            "type": ["string","null"],
            "maxLength": 50
        },
        "longString": {
            "type": ["string","null"],
            "maxLength": 500
        },
        "text": {
            "type": ["string","null"]
        },
        "textFieldLevel": {
            "type": "object",
            "properties": {
                "objectValue": {
                    "type": ["string","null"]
                },
                "security": {
					"$ref": "#/definitions/securityOptional"
				}
            },
            "required": [
                "objectValue",
                "security"
            ]
        },
        "dateTime": {
            "type": ["object","null"],
            "properties": {
                "zuluDateTime": {
                    "type": "string",
                    "format": "date-time"
                },
                "zuluOffset": {
                    "type": "integer",
					"minimum": -840,
					"maximum": 840,
                    "description": "Offset in minutes from Zulu"
                }
            },
            "required": [
                "zuluDateTime",
                "zuluOffset"
            ]
        },
        "latitude_dds": {
            "type": ["number","null"],
            "minimum": -90,
            "maximum": 90
        },
        "longitude_dds": {
            "type": ["number","null"],
            "minimum": -180,
            "maximum": 180
        },
        "positive_int": {
            "type": ["integer","null"],
            "minimum": 0
        },
        "positive_num": {
            "type": ["number","null"],
            "minimum": 0
        },
        "num": {
            "type": ["number","null"]
        },
        "uniqueStringArray": {
            "type": "array",
            "uniqueItems": true,
            "items": {
                "type": "string"
            }
        },
        "securityOptional": {
            "oneOf": [
                {
                    "type": "null"
                },
                {
                    "$ref": "#/definitions/security"
                }
            ]
        },
        "security": {
            "type": "object",
            "properties": {
                "atomicEnergyMarkings": {
                    "$ref": "#/definitions/shortString",
                    "description": "Atomic Energy Act Information Markings"
                },
                "classificationReason": {
                    "$ref": "#/definitions/longString",
                    "description": ": Concise reason for classification"
                },
                "classification": {
                    "enum": [ "U", "TS", "S", "C" ],
                    "description": "Classification of information",
                    "defaultLabel": "Classification",
                    "isSearchable": false,
                    "picklistName": "classification",
                    "picklistUri": "http://cidne.dae.smil.mil/schemas/CAPCO/classification",
                    "picklistParent": null
                    
                },
                "classifiedBy": {
                    "$ref": "#/definitions/longString",
                    "description": "Identification by name and position, or personal identifier of the OCA"
                },
                "compilationReason": {
                    "$ref": "#/definitions/longString",
                    "description": "Reason why the compilation of information causes the classification"
                },
                "declassDate": {
                    "$ref": "#/definitions/dateTime",
                    "description": "Declassification date"
                },
                "declassEvent": {
                    "$ref": "#/definitions/shortString",
                    "description": "Declassification event"
                },
                "declassException": {
                    "$ref": "#/definitions/longString",
                    "description": "Declassification exception"
                },
                "derivativelyClassifiedBy": {
                    "$ref": "#/definitions/longString",
                    "description": "The derivative classifier’s identification by name and position, or by personal identifier, in a manner that is immediately apparent on each derivatively classified document. If not otherwise evident, the agency and office of origin shall be identified"
                },
                "derivedFrom": {
                    "$ref": "#/definitions/shortString",
                    "description": "Concisely identify the source document or the classification guide"
                },
                "displayOnlyTo": {
                    "$ref": "#/definitions/longString",
                    "description": "List of foreign country(ies)/international organization(s) authorized for disclosure without providing the recipient with a physical copy for retention, regardless of medium to the foreign country(ies)/international organization(s) indicated"
                },
                "disseminationControls": {
                    "$ref": "#/definitions/longString",
                    "description": "Control markings that identify the expansion or limitation on the distribution of information. These markings are in addition to and separate from the levels of classification"
                },
                "FGIsourceOpen": {
                    "$ref": "#/definitions/shortString",
                    "description": "Open Source Foreign Government Information"
                },
                "FGIsourceProtected": {
                    "$ref": "#/definitions/shortString",
                    "description": "Protected Source Foreign Government Information"
                },
                "nonICmarkings": {
                    "$ref": "#/definitions/text",
                    "description": "Markings authorized for use by entities outside of the Intelligence Community"
                },
                "nonUSControls": {
                    "$ref": "#/definitions/shortString",
                    "description": "Non-US protective markings"
                },
                "ownerProducer": {
                    "$ref": "#/definitions/shortStringRequired",
                    "description": "Owner/Producer",
                    "default": "USA",
                    "defaultLabel": "Owner Producer",
                    "isSearchable": false,
                    "picklistName": "ownerProducer",
                    "picklistUri": "http://cidne.dae.smil.mil/schemas/CAPCO/ownerProducer",
                    "picklistParent": null
                },
                "releasableToFilterField": {
                    "$ref": "#/definitions/shortString",
                    "description": "Need to add CAPCO Descriptions"
                },
                "releasableTo": {
                    "$ref": "#/definitions/text",
                    "description": "List of countries releasable to",
                    "defaultLabel": "Releasable To",
                    "isSearchable": false,
                    "picklistName": "releasableTo",
                    "picklistUri": "http://cidne.dae.smil.mil/schemas/CAPCO/releasableTo",
                    "picklistParent": null
                },
                "SARIdentifier": {
                    "$ref": "#/definitions/shortString",
                    "description": "Special access required programs"
                },
                "SCIcontrols": {
                    "$ref": "#/definitions/longString",
                    "description": "Sensitive Compartmented Information (SCI) control systems"
                }
            },
            "required": [
                "ownerProducer",
                "classification"
            ]
        },
        "actionInfo":{
            "type": "object",
            "properties": {
                "actionDate": {
                    "$ref": "#/definitions/dateTimeRequired",
                    "description": "Date Time Action was taken"
                },
                "group": {
                    "$ref": "#/definitions/longStringRequired",
                    "description": "User Group that performed action"
                },
                "parentGroup": {
                    "$ref": "#/definitions/longString",
                    "description": "User Group's Parent Group Name"
                },
                "nationality": {
                    "$ref": "#/definitions/shortStringRequired",
                    "description": "User Nationality"
                },
                "network": {
                    "$ref": "#/definitions/shortStringRequired",
                    "description": "Systems Network where action was taken"
                },
                "objectState": {
                    "description": "",
                    "enum": [
                        "CREATED",
                        "MODIFIED",
                        "TEMPLATE",
                        "SUBMITTED",
                        "PUBLISHED",
                        "VERSIONED",
                        "DEPRECATED",
                        "VALIDATING",
                        "RESTORED",
                        "MOVED"
                    ]
                },
                "site": {
                    "$ref": "#/definitions/shortStringRequired",
                    "description": "Systems Site"
                },
                "system": {
                    "$ref": "#/definitions/shortStringRequired",
                    "description": "System that provided the action"
                },
                "user": {
                    "$ref": "#/definitions/shortStringRequired",
                    "description": "User that performed action"
                }
            },
            "required": [
                "actionDate",
                "group",
                "parentGroup",
                "nationality",
                "network",
                "objectState",
                "site",
                "system",
                "user"
            ]
        },
        "position": {
            "description": "A single position. (order should be longitude,latitude)",
            "type": "array",
            "minItems": 2,
            "items": [
                {
                    "type": "number"
                },
                {
                    "type": "number"
                }
            ],
            "additionalItems": false
        },
        "positionArray": {
            "description": "An array of positions",
            "type": "array",
            "items": {
                "$ref": "#/definitions/position"
            }
        },
        "lineString": {
            "description": "An array of two or more positions",
            "allOf": [
                {
                    "type": "array",
                    "items": {
                        "$ref": "#/definitions/position"
                    }
                },
                {
                    "minItems": 2
                }
            ]
        },
        "linearRing": {
            "description": "An array of four positions where the first equals the last",
            "allOf": [
                {
                    "type": "array",
                    "items": {
                        "$ref": "#/definitions/position"
                    }
                },
                {
                    "minItems": 4
                }
            ]
        },
        "polygon": {
            "description": "An array of linear rings",
            "type": "array",
            "items": {
                "$ref": "#/definitions/linearRing"
            }
        },
        "geometry": {
            "title": "geometry",
            "description": "One geometry as defined by GeoJSON",
            "type": "object",
            "required": [
                "type",
                "coordinates"
            ],
            "oneOf": [
                {
                    "title": "Point",
                    "properties": {
                        "type": {
                            "enum": [
                                "Point"
                            ]
                        },
                        "coordinates": {
                            "$ref": "#/definitions/position"
                        }
                    }
                },
                {
                    "title": "MultiPoint",
                    "properties": {
                        "type": {
                            "enum": [
                                "MultiPoint"
                            ]
                        },
                        "coordinates": {
                            "type": "array",
                            "items": {
                                "$ref": "#/definitions/position"
                            }
                        }
                    }
                },
                {
                    "title": "LineString",
                    "properties": {
                        "type": {
                            "enum": [
                                "LineString"
                            ]
                        },
                        "coordinates": {
                            "$ref": "#/definitions/lineString"
                        }
                    }
                },
                {
                    "title": "MultiLineString",
                    "properties": {
                        "type": {
                            "enum": [
                                "MultiLineString"
                            ]
                        },
                        "coordinates": {
                            "type": "array",
                            "items": {
                                "$ref": "#/definitions/lineString"
                            }
                        }
                    }
                },
                {
                    "title": "Polygon",
                    "properties": {
                        "type": {
                            "enum": [
                                "Polygon"
                            ]
                        },
                        "coordinates": {
                            "$ref": "#/definitions/polygon"
                        }
                    }
                },
                {
                    "title": "MultiPolygon",
                    "properties": {
                        "type": {
                            "enum": [
                                "MultiPolygon"
                            ]
                        },
                        "coordinates": {
                            "type": "array",
                            "items": {
                                "$ref": "#/definitions/polygon"
                            }
                        }
                    }
                }
            ]
        },
        "geometryCollection": {
            "title": "GeometryCollection",
            "description": "A collection of geometry objects",
            "required": [
                "geometries"
            ],
            "properties": {
                "type": {
                    "enum": [
                        "GeometryCollection"
                    ]
                },
                "geometries": {
                    "type": "array",
                    "items": {
                        "$ref": "#/definitions/geometry"
                    }
                }
            }
        },
        "feature": {
            "title": "Feature",
            "description": "A Geo JSON feature object",
            "required": [
                "geometry"
            ],
            "properties": {
                "type": {
                    "enum": [
                        "Feature"
                    ]
                },
                "geometry": {
                    "oneOf": [
                        {
                            "type": "null"
                        },
                        {
                            "$ref": "#/definitions/geometry"
                        }
                    ]
                },
				"properties": { "type": [ "object", "null" ] },
                "id": { "type":["string"] }
            }
        },
        "featureCollection": {
            "description": "A GeoJSON feature collection",
            "required": [
                "features"
            ],
            "properties": {
                "type": {
                    "enum": [
                        "FeatureCollection"
                    ]
                },
                "features": {
                    "type": "array",
                    "items": {
                        "$ref": "#/definitions/feature"
                    }
                }
            }
        },
		"namedCrs": {
            "properties": {
                "type": { "enum": [ "name" ] },
                "properties": {
                    "required": [ "name" ],
                    "additionalProperties": false,
                    "properties": {
                        "name": {
                            "type": "string"
                        }
                    }
                }
            }
        },
        "linkedObject": {
            "type": "object",
            "required": [ "href" ],
            "properties": {
                "href": {
                    "type": "string",
                    "format": "uri"
                },
                "type": {
                    "type": "string",
                    "description": "Suggested values: proj4, ogjwkt, esriwkt"
                }
            }
        },
        "linkedCrs": {
            "properties": {
                "type": { "enum": [ "link" ] },
                "properties": { "$ref": "#/definitions/linkedObject" }
            }
        },	
		"crs":{
			"title": "crs",
			"description": "a Coordinate Reference System object",
			"type": [ "object", "null" ],
			"required": [ "type", "properties" ],
			"properties": {
				"type": { "type": "string" },
				"properties": { "type": "object" }
			},
			"additionalProperties": false,
			"oneOf": [
				{ "$ref": "#/definitions/namedCrs" },
				{ "$ref": "#/definitions/linkedCrs" }
			]
		},
		"bbox":{
		"description": "A bounding box as defined by GeoJSON",
			"type": "array",
			"items": { "type": "number" }
		},
        "geojson": {
            "title": "Geo JSON object",
            "description": "Schema for a Geo JSON object",
            "type": ["object","null"],
            "required": [
                "type"
            ],
			"properties": {
				"crs": { "$ref": "#/definitions/crs" },
				"bbox": { "$ref": "#/definitions/bbox" }
			},
            "anyOf": [
                {
                    "$ref": "#/definitions/geometry"
                },
                {
                    "$ref": "#/definitions/geometryCollection"
                },
                {
                    "$ref": "#/definitions/feature"
                },
                {
                    "$ref": "#/definitions/featureCollection"
                }
            ]
        }
    },
    "required": [
        "base",
        "datamodel",
        "formId",
        "location",
        "security",
        "details"
    ],	
    "properties": {
        "datamodel": {
            "$ref": "#/definitions/longString",
            "description": "Reference to the report definition."
        },
        "formId": {
            "$ref": "#/definitions/longString",
            "description": "Reference to the layout template identifier that this data was intended to be best visualized"
        },
        "base": {
            "type": "object",
            "description": "The core metadata used within all report definitions",
            "properties": {
                "objectId": {
                    "$ref": "#/definitions/shortStringRequired",
                    "description": "Report instance unique identifier"
                },
                "reportId": {
                    "$ref": "#/definitions/shortStringRequired",
                    "description": "Original report instance objectId for a report version grouping. (i.e. the root report identifier)"
                },
                "parentVersionId": {
                    "$ref": "#/definitions/shortString",
                    "description": "Report instance's objectId of the parent report. NOTE: If there is no parent, this value should be set to the report instance's own objectId. "
                },
                "module": {
                    "$ref": "#/definitions/shortStringRequired",
                    "description": "CIDNE community"
                },
                "reportType": {
                    "$ref": "#/definitions/shortStringRequired",
                    "description": "CIDNE report type (e.g. SIGACT)"
                },
                "reportSerial": {
                    "$ref": "#/definitions/textFieldLevel",
					"defaultLabel": "DisplaySerial",
					"description": "Report instance nomenclature (DisplaySerial)",
					"fieldAlias2x": "DisplaySerial"
                },
                "reportTitle": {
                    "$ref": "#/definitions/textFieldLevel",
					"defaultLabel": "DisplayTitle",
					"description": "Report instance title text (DisplayTitle)",
					"fieldAlias2x": "DisplayTitle"
                },
                "reportSummary": {
                    "$ref": "#/definitions/textFieldLevel",
					"defaultLabel": "DisplaySummary",
					"description": "Report instance summary text block (DisplaySummary)",
					"fieldAlias2x": "DisplaySummary"
                },
                "reportDate": {
                    "$ref": "#/definitions/dateTimeRequired",
					"defaultLabel": "DatePosted",
					"description": "Primary report instance date (DatePosted)",
					"fieldAlias2x": "DatePosted"
                },
                "reportSymbol": {
                    "$ref": "#/definitions/longString",
                    "description": "Report instance symbology"
                },
                "reportImage": {
                    "$ref": "#/definitions/longString",
                    "description": "Primary image of report instance"
                },
                "reportCountry": {
                    "$ref": "#/definitions/shortString",
                    "description": "Country value of report instance's primary location"
                },
                "reportLatitude": {
                    "$ref": "#/definitions/latitude_dds",
                    "description": "Latitude value of report instance's primary location"
                },
                "reportLongitude": {
                    "$ref": "#/definitions/longitude_dds",
                    "description": "Longitude value of report instance's primary location"
                },
				"geoLocation":{
					"$ref":"#/definitions/geojson"
				},
                "currentObjectState":{
                        "$ref": "#/definitions/actionInfo"
                },
                "originatingGroup": {
                    "$ref": "#/definitions/longStringRequired",
                    "description": "Original creator's group"
                },  
                "originatingUser": {
                    "$ref": "#/definitions/longStringRequired",
                    "description": "Original creator's User Name or email address"
                },  
				"isTearline": {
                    "type": "boolean",
                    "description": "Determines whether a report is a tearline"
                },
				"tearlineId": {
					"$ref": "#/definitions/shortString",
                    "description": "The reportId of the parent, used as a tearline group binding"
				},
                "theaterFilter": {
                    "$ref": "#/definitions/shortStringRequired",
                    "description": "Report instance theater of relevance"
                },
                "warehouseUri": {
                    "$ref": "#/definitions/longStringRequired",
                    "description": "Data warehouse location for report instance",
                    "format": "uri"
                }
            },
            "required": [
                "isTearline",
                "module",
                "objectId",
                "currentObjectState",
                "originatingGroup",
                "originatingUser",
                "reportId",
                "reportSerial",
                "reportDate",
                "theaterFilter",
                "reportType",
                "reportTitle",
                "reportSummary"
            ]
        },
        "location": {
            "type": "array",
            "description": "All locations for the report instance",
            "items": {
                "type": "object",
                "properties": {
                    "objectId": {
                        "$ref": "#/definitions/shortStringRequired",
                        "description": "objectId required for Edit Purposes"
                    },
                    "address": {
                        "$ref": "#/definitions/longString",
                        "description": "Address Details"
                    },
                    "alternateRoute": {
                        "$ref": "#/definitions/longString",
                        "description": "Alternate Route for location"
                    },
                    "ao": {
                        "$ref": "#/definitions/shortString",
                        "description": "Area of Operations"
                    },
                    "basecamp": {
                        "$ref": "#/definitions/shortString",
                        "description": "Base Camp"
                    },
                    "city": {
                        "$ref": "#/definitions/shortString",
                        "description": "City for Location"
                    },
                    "confidence": {
                        "$ref": "#/definitions/shortString",
                        "description": "Reporters Confidence in Location Value"
                    },
                    "country": {
                        "$ref": "#/definitions/shortString",
                        "description": "Location Country"
                    },
                    "customGeom": {
                        "type": "object",
                        "description": "Custom Geometry Object for Location",
                        "properties": {
                            "customGeomObjectId": {
                                "$ref": "#/definitions/shortString",
                                "description": "objectId for Custom Geometry Object"
                            },
                            "geomType": {
                                "$ref": "#/definitions/shortString",
                                "description": "Geometry Type for custom geometry object (e.g. Point, Multi-polygon"
                            },
                            "geom": {
                                "$ref": "#/definitions/shortString",
                                "description": "TBD GEOM Object for Custom Location Object"
                            },
                            "name": {
                                "$ref": "#/definitions/shortString",
                                "description": "Custom Location Name"
                            }
                        }
                    },
                    "dateEndLocation": {
                        "$ref": "#/definitions/dateTime",
                        "description": "Ending Date Time for location"
                    },
                    "dateStartLocation": {
                        "$ref": "#/definitions/dateTime",
                        "description": "Starting Date Time for location"
                    },
                    "derivedLocation": {
                        "type": "boolean",
                        "description": "Was Location Lat/Long derived from user picklists?"
                    },
                    "description": {
                        "$ref": "#/definitions/text",
                        "description": "Location Description"
                    },
                    "distanceFromCityCenter": {
                        "$ref": "#/definitions/positive_int",
                        "description": "Distance in meters to nearest city center"
                    },
                    "distanceToNearestFOB": {
                        "$ref": "#/definitions/positive_num",
                        "description": "Distance in meters to nearest FOB"
                    },
                    "distanceToNearestRoute": {
                        "$ref": "#/definitions/positive_num",
                        "description": "Distance in meters to nearest Route"
                    },
                    "district": {
                        "$ref": "#/definitions/shortString",
                        "description": "District"
                    },
                    "fob": {
                        "$ref": "#/definitions/shortString",
                        "description": "FOB"
                    },
					"geoLocation":{
						"$ref":"#/definitions/geojson"
					},
					"house": {
                        "$ref": "#/definitions/shortString",
                        "description": "HOUSE"
                    },
                    "isPrimaryLocation": {
                        "type": "boolean",
                        "description": "Marks Primary Location"
                    },
                    "latitude": {
                        "$ref": "#/definitions/latitude_ddsRequired",
                        "description": "Latitude of Location in Degree Decimal Seconds"
                    },
                    "locationActive": {
                        "type": "boolean",
                        "description": "Is Location Active?"
                    },
                    "locationType": {
                        "$ref": "#/definitions/shortString",
                        "description": "Location Type"
                    },
                    "longitude": {
                        "$ref": "#/definitions/longitude_ddsRequired",
                        "description": "Longitude of Location in Degree Decimal Seconds"
                    },
                    "mscCurrent": {
                        "$ref": "#/definitions/shortString",
                        "description": "Current Major Supporting Command responsible for location"
                    },
                    "mscDateOfCurrent": {
                        "$ref": "#/definitions/dateTime",
                        "description": "Date Of Current Major Supporting Command's Control of location"
                    },
                    "msc": {
                        "$ref": "#/definitions/shortString",
                        "description": "Major Supporting Command responsible for location"
                    },
                    "nai": {
                        "$ref": "#/definitions/shortString",
                        "description": "Named Area of Interest"
                    },
                    "nearestCity": {
                        "$ref": "#/definitions/shortString",
                        "description": "Nearest City"
                    },
                    "nearestFOB": {
                        "$ref": "#/definitions/shortString",
                        "description": "Nearest FOB"
                    },
                    "nearestRoute": {
                        "$ref": "#/definitions/shortString",
                        "description": "Nearest Route"
                    },
                    "neighborhood": {
                        "$ref": "#/definitions/shortString",
                        "description": "Neighborhood for location"
                    },
                    "populationCenterType": {
                        "$ref": "#/definitions/shortString",
                        "description": "Population Center Type"
                    },
                    "populationCenter": {
                        "$ref": "#/definitions/shortString",
                        "description": "Population Center"
                    },
                    "province": {
                        "$ref": "#/definitions/shortString",
                        "description": "Province"
                    },
                    "referenceId": {
                        "$ref": "#/definitions/shortString",
                        "description": "Reference to any subelement with in current report instance (e.g. Event Object ID)"
                    },
                    "route": {
                        "$ref": "#/definitions/shortString",
                        "description": "Route"
                    },
                    "security": {
                        "$ref": "#/definitions/securityOptional"
                    },
                    "street": {
                        "$ref": "#/definitions/shortString",
                        "description": "Street"
                    },
                    "structure": {
                        "$ref": "#/definitions/shortString",
                        "description": "Structure"
                    },
                    "village": {
                        "$ref": "#/definitions/shortString",
                        "description": "Village"
                    },
                    "zone": {
                        "$ref": "#/definitions/shortString",
                        "description": "City Zone"
                    }
                },
				"required": [
					"objectId",
					"isPrimaryLocation",
					"latitude",
					"longitude"
				]
            }
        },
        "remarks": {
            "type": "array",
            "items": {
                "type": "object",
                "properties": {
                    "objectId": {
                        "$ref": "#/definitions/shortStringRequired",
                        "description": "objectId required for Edit Purposes"
                    },
                    "referenceId": {
                        "$ref": "#/definitions/shortString",
                        "description": "Reference to any subelement with in current report instance (e.g. Event Object ID)"
                    },
                    "remarkText": {
                        "$ref": "#/definitions/text",
                        "description": "Remark Text"
                    },
                    "remarkType": {
                        "$ref": "#/definitions/shortString",
                        "description": "Remark Type"
                    },
                    "remarkOrder": {
                        "$ref": "#/definitions/positive_num",
                        "description": "Remark Order"
                    },
                    "security": {
                        "$ref": "#/definitions/securityOptional"
                    }
                },
                "required": [
                    "objectId",
                    "remarkText",
                    "remarkType",
                    "security"
                ]
            }
        },
        "requirements": {
            "type": "array",
            "items": {
                "type": "object",
                "properties": {
                    "objectId": {
                        "$ref": "#/definitions/shortStringRequired",
                        "description": "objectId required for Edit Purposes"
                    },
                    "referenceId": {
                        "$ref": "#/definitions/shortString",
                        "description": "Reference to any subelement with in current report instance (e.g. Event Object ID)"
                    },
                    "requirement": {
                        "$ref": "#/definitions/longString",
                        "description": "Requirement sub based on Requirement Type"
                    },
                    "requirementType": {
                        "$ref": "#/definitions/shortString",
                        "description": "Requirement Type"
                    },
                    "comment": {
                        "$ref": "#/definitions/text",
                        "description": "Requirement Comment"
                    },
                    "security": {
                        "$ref": "#/definitions/securityOptional"
                    }
                },
                "required": [
                    "objectId",
                    "requirementType",
                    "requirement",
                    "comment"
                ]
            }
        },
        "security": {
                        "$ref": "#/definitions/security"
        },
        "objectHistory": {
            "type": "array",
            "items":
                    {
                        "$ref": "#/definitions/actionInfo"
                    }       
		},
			"details": {
				"type": "object",
				"description": "Operations AfterAction Report details specific details",
				"fieldAlias2x": "details", 
						"properties": {
						
"accomplishmission": {
	"$ref": "#/definitions/longString"
			,"defaultLabel": "AccomplishMission"
			,"description": "AccomplishMission"
			,"fieldAlias2x": "AccomplishMission"
			,"isSearchable": false
			,"picklistDescription": null
			,"picklistUri": null
			,"picklistParent": null
		},
"accomplishmissionwhynot": {
	"$ref": "#/definitions/text"
			,"defaultLabel": "AccomplishMissionWhyNot"
			,"description": "AccomplishMissionWhyNot"
			,"fieldAlias2x": "AccomplishMissionWhyNot"
			,"isSearchable": false
			,"picklistDescription": null
			,"picklistUri": null
			,"picklistParent": null
		},
"additionalexplanation": {
	"$ref": "#/definitions/text"
			,"defaultLabel": "AdditionalExplanation"
			,"description": "AdditionalExplanation"
			,"fieldAlias2x": "AdditionalExplanation"
			,"isSearchable": false
			,"picklistDescription": null
			,"picklistUri": null
			,"picklistParent": null
		},
"adequatefacilities": {
	"$ref": "#/definitions/longString"
			,"defaultLabel": "AdequateFacilities"
			,"description": "AdequateFacilities"
			,"fieldAlias2x": "AdequateFacilities"
			,"isSearchable": false
			,"picklistDescription": null
			,"picklistUri": null
			,"picklistParent": null
		},
"adequateinfo": {
	"$ref": "#/definitions/longString"
			,"defaultLabel": "AdequateInfo"
			,"description": "AdequateInfo"
			,"fieldAlias2x": "AdequateInfo"
			,"isSearchable": false
			,"picklistDescription": null
			,"picklistUri": null
			,"picklistParent": null
		},
"alliedmembers1": {
	"$ref": "#/definitions/positive_int"
			,"defaultLabel": "AlliedMembers1"
			,"description": "AlliedMembers1"
			,"fieldAlias2x": "AlliedMembers1"
			,"isSearchable": false
			,"picklistDescription": null
			,"picklistUri": null
			,"picklistParent": null
		},
"alliedmembers2": {
	"$ref": "#/definitions/positive_int"
			,"defaultLabel": "AlliedMembers2"
			,"description": "AlliedMembers2"
			,"fieldAlias2x": "AlliedMembers2"
			,"isSearchable": false
			,"picklistDescription": null
			,"picklistUri": null
			,"picklistParent": null
		},
"alliedmembers3": {
	"$ref": "#/definitions/positive_int"
			,"defaultLabel": "AlliedMembers3"
			,"description": "AlliedMembers3"
			,"fieldAlias2x": "AlliedMembers3"
			,"isSearchable": false
			,"picklistDescription": null
			,"picklistUri": null
			,"picklistParent": null
		},
"alliedmembers4": {
	"$ref": "#/definitions/positive_int"
			,"defaultLabel": "AlliedMembers4"
			,"description": "AlliedMembers4"
			,"fieldAlias2x": "AlliedMembers4"
			,"isSearchable": false
			,"picklistDescription": null
			,"picklistUri": null
			,"picklistParent": null
		},
"alliedmembers5": {
	"$ref": "#/definitions/positive_int"
			,"defaultLabel": "AlliedMembers5"
			,"description": "AlliedMembers5"
			,"fieldAlias2x": "AlliedMembers5"
			,"isSearchable": false
			,"picklistDescription": null
			,"picklistUri": null
			,"picklistParent": null
		},
"commprobs": {
	"$ref": "#/definitions/longString"
			,"defaultLabel": "CommProbs"
			,"description": "CommProbs"
			,"fieldAlias2x": "CommProbs"
			,"isSearchable": false
			,"picklistDescription": null
			,"picklistUri": null
			,"picklistParent": null
		},
"continuedpresence": {
	"$ref": "#/definitions/longString"
			,"defaultLabel": "ContinuedPresence"
			,"description": "ContinuedPresence"
			,"fieldAlias2x": "ContinuedPresence"
			,"isSearchable": false
			,"picklistDescription": null
			,"picklistUri": null
			,"picklistParent": null
		},
"coverageyes": {
	"$ref": "#/definitions/text"
			,"defaultLabel": "CoverageYes"
			,"description": "CoverageYes"
			,"fieldAlias2x": "CoverageYes"
			,"isSearchable": false
			,"picklistDescription": null
			,"picklistUri": null
			,"picklistParent": null
		},
"dateoccurred": {
	"$ref": "#/definitions/dateTime"
			,"defaultLabel": "DateOccurred"
			,"description": "DateOccurred"
			,"fieldAlias2x": "DateOccurred"
			,"isSearchable": false
			,"picklistDescription": null
			,"picklistUri": null
			,"picklistParent": null
		},
"daystraining": {
	"$ref": "#/definitions/positive_int"
			,"defaultLabel": "DaysTraining"
			,"description": "DaysTraining"
			,"fieldAlias2x": "DaysTraining"
			,"isSearchable": false
			,"picklistDescription": null
			,"picklistUri": null
			,"picklistParent": null
		},
"describebenefits": {
	"$ref": "#/definitions/text"
			,"defaultLabel": "DescribeBenefits"
			,"description": "DescribeBenefits"
			,"fieldAlias2x": "DescribeBenefits"
			,"isSearchable": false
			,"picklistDescription": null
			,"picklistUri": null
			,"picklistParent": null
		},
"describeconversation": {
	"$ref": "#/definitions/text"
			,"defaultLabel": "DescribeConversation"
			,"description": "DescribeConversation"
			,"fieldAlias2x": "DescribeConversation"
			,"isSearchable": false
			,"picklistDescription": null
			,"picklistUri": null
			,"picklistParent": null
		},
"describeequipment": {
	"$ref": "#/definitions/text"
			,"defaultLabel": "DescribeEquipment"
			,"description": "DescribeEquipment"
			,"fieldAlias2x": "DescribeEquipment"
			,"isSearchable": false
			,"picklistDescription": null
			,"picklistUri": null
			,"picklistParent": null
		},
"describegaps": {
	"$ref": "#/definitions/text"
			,"defaultLabel": "DescribeGaps"
			,"description": "DescribeGaps"
			,"fieldAlias2x": "DescribeGaps"
			,"isSearchable": false
			,"picklistDescription": null
			,"picklistUri": null
			,"picklistParent": null
		},
"desiredeffects": {
	"$ref": "#/definitions/text"
			,"defaultLabel": "DesiredEffects"
			,"description": "DesiredEffects"
			,"fieldAlias2x": "DesiredEffects"
			,"isSearchable": false
			,"picklistDescription": null
			,"picklistUri": null
			,"picklistParent": null
		},
"email": {
	"$ref": "#/definitions/longString"
			,"defaultLabel": "Email"
			,"description": "Email"
			,"fieldAlias2x": "Email"
			,"isSearchable": false
			,"picklistDescription": null
			,"picklistUri": null
			,"picklistParent": null
		},
"equipmentowner": {
	"$ref": "#/definitions/longString"
			,"defaultLabel": "EquipmentOwner"
			,"description": "EquipmentOwner"
			,"fieldAlias2x": "EquipmentOwner"
			,"isSearchable": false
			,"picklistDescription": null
			,"picklistUri": null
			,"picklistParent": null
		},
"explainaudience": {
	"$ref": "#/definitions/text"
			,"defaultLabel": "ExplainAudience"
			,"description": "ExplainAudience"
			,"fieldAlias2x": "ExplainAudience"
			,"isSearchable": false
			,"picklistDescription": null
			,"picklistUri": null
			,"picklistParent": null
		},
"explaincommprobs": {
	"$ref": "#/definitions/text"
			,"defaultLabel": "ExplainCommProbs"
			,"description": "ExplainCommProbs"
			,"fieldAlias2x": "ExplainCommProbs"
			,"isSearchable": false
			,"picklistDescription": null
			,"picklistUri": null
			,"picklistParent": null
		},
"explainexpertise": {
	"$ref": "#/definitions/text"
			,"defaultLabel": "ExplainExpertise"
			,"description": "ExplainExpertise"
			,"fieldAlias2x": "ExplainExpertise"
			,"isSearchable": false
			,"picklistDescription": null
			,"picklistUri": null
			,"picklistParent": null
		},
"explainsuccess": {
	"$ref": "#/definitions/text"
			,"defaultLabel": "ExplainSuccess"
			,"description": "ExplainSuccess"
			,"fieldAlias2x": "ExplainSuccess"
			,"isSearchable": false
			,"picklistDescription": null
			,"picklistUri": null
			,"picklistParent": null
		},
"followonexplain": {
	"$ref": "#/definitions/text"
			,"defaultLabel": "FollowOnExplain"
			,"description": "FollowOnExplain"
			,"fieldAlias2x": "FollowOnExplain"
			,"isSearchable": false
			,"picklistDescription": null
			,"picklistUri": null
			,"picklistParent": null
		},
"followonnecessary": {
	"$ref": "#/definitions/longString"
			,"defaultLabel": "FollowOnNecessary"
			,"description": "FollowOnNecessary"
			,"fieldAlias2x": "FollowOnNecessary"
			,"isSearchable": false
			,"picklistDescription": null
			,"picklistUri": null
			,"picklistParent": null
		},
"formalinteractions": {
	"$ref": "#/definitions/longString"
			,"defaultLabel": "FormalInteractions"
			,"description": "FormalInteractions"
			,"fieldAlias2x": "FormalInteractions"
			,"isSearchable": false
			,"picklistDescription": null
			,"picklistUri": null
			,"picklistParent": null
		},
"formalinteractionsyes": {
	"$ref": "#/definitions/text"
			,"defaultLabel": "FormalInteractionsYes"
			,"description": "FormalInteractionsYes"
			,"fieldAlias2x": "FormalInteractionsYes"
			,"isSearchable": false
			,"picklistDescription": null
			,"picklistUri": null
			,"picklistParent": null
		},
"fundingsource": {
	"$ref": "#/definitions/longString"
			,"defaultLabel": "FundingSource"
			,"description": "FundingSource"
			,"fieldAlias2x": "FundingSource"
			,"isSearchable": false
			,"picklistDescription": null
			,"picklistUri": null
			,"picklistParent": null
		},
"furtherexplanation": {
	"$ref": "#/definitions/text"
			,"defaultLabel": "FurtherExplanation"
			,"description": "FurtherExplanation"
			,"fieldAlias2x": "FurtherExplanation"
			,"isSearchable": false
			,"picklistDescription": null
			,"picklistUri": null
			,"picklistParent": null
		},
"interactionhelpful": {
	"$ref": "#/definitions/longString"
			,"defaultLabel": "InteractionHelpful"
			,"description": "InteractionHelpful"
			,"fieldAlias2x": "InteractionHelpful"
			,"isSearchable": false
			,"picklistDescription": null
			,"picklistUri": null
			,"picklistParent": null
		},
"lackedexpertise": {
	"$ref": "#/definitions/longString"
			,"defaultLabel": "LackedExpertise"
			,"description": "LackedExpertise"
			,"fieldAlias2x": "LackedExpertise"
			,"isSearchable": false
			,"picklistDescription": null
			,"picklistUri": null
			,"picklistParent": null
		},
"lnointeraction": {
	"$ref": "#/definitions/longString"
			,"defaultLabel": "LNOInteraction"
			,"description": "LNOInteraction"
			,"fieldAlias2x": "LNOInteraction"
			,"isSearchable": false
			,"picklistDescription": null
			,"picklistUri": null
			,"picklistParent": null
		},
"lnointeractionyes": {
	"$ref": "#/definitions/text"
			,"defaultLabel": "LNOInteractionYes"
			,"description": "LNOInteractionYes"
			,"fieldAlias2x": "LNOInteractionYes"
			,"isSearchable": false
			,"picklistDescription": null
			,"picklistUri": null
			,"picklistParent": null
		},
"locationfield": {
	"$ref": "#/definitions/longString"
			,"defaultLabel": "LocationField"
			,"description": "LocationField"
			,"fieldAlias2x": "Location"
			,"isSearchable": false
			,"picklistDescription": null
			,"picklistUri": null
			,"picklistParent": null
		},
"mediacoverage": {
	"$ref": "#/definitions/longString"
			,"defaultLabel": "MediaCoverage"
			,"description": "MediaCoverage"
			,"fieldAlias2x": "MediaCoverage"
			,"isSearchable": false
			,"picklistDescription": null
			,"picklistUri": null
			,"picklistParent": null
		},
"missiondateto": {
	"$ref": "#/definitions/dateTime"
			,"defaultLabel": "MissionDateTo"
			,"description": "MissionDateTo"
			,"fieldAlias2x": "MissionDateTo"
			,"isSearchable": false
			,"picklistDescription": null
			,"picklistUri": null
			,"picklistParent": null
		},
"missionenvironment": {
	"$ref": "#/definitions/longString"
			,"defaultLabel": "MissionEnvironment"
			,"description": "MissionEnvironment"
			,"fieldAlias2x": "MissionEnvironment"
			,"isSearchable": false
			,"picklistDescription": null
			,"picklistUri": null
			,"picklistParent": null
		},
"missionjustification": {
	"$ref": "#/definitions/text"
			,"defaultLabel": "MissionJustification"
			,"description": "MissionJustification"
			,"fieldAlias2x": "MissionJustification"
			,"isSearchable": false
			,"picklistDescription": null
			,"picklistUri": null
			,"picklistParent": null
		},
"missionleadelement": {
	"$ref": "#/definitions/text"
			,"defaultLabel": "MissionLeadElement"
			,"description": "MissionLeadElement"
			,"fieldAlias2x": "MissionLeadElement"
			,"isSearchable": false
			,"picklistDescription": null
			,"picklistUri": null
			,"picklistParent": null
		},
"missionname1": {
	"$ref": "#/definitions/longString"
			,"defaultLabel": "MissionName1"
			,"description": "MissionName1"
			,"fieldAlias2x": "MissionName1"
			,"isSearchable": false
			,"picklistDescription": null
			,"picklistUri": null
			,"picklistParent": null
		},
"missionname2": {
	"$ref": "#/definitions/longString"
			,"defaultLabel": "MissionName2"
			,"description": "MissionName2"
			,"fieldAlias2x": "MissionName2"
			,"isSearchable": false
			,"picklistDescription": null
			,"picklistUri": null
			,"picklistParent": null
		},
"missionname3": {
	"$ref": "#/definitions/positive_int"
			,"defaultLabel": "MissionName3"
			,"description": "MissionName3"
			,"fieldAlias2x": "MissionName3"
			,"isSearchable": false
			,"picklistDescription": null
			,"picklistUri": null
			,"picklistParent": null
		},
"missionname4": {
	"$ref": "#/definitions/positive_int"
			,"defaultLabel": "MissionName4"
			,"description": "MissionName4"
			,"fieldAlias2x": "MissionName4"
			,"isSearchable": false
			,"picklistDescription": null
			,"picklistUri": null
			,"picklistParent": null
		},
"missionpictures": {
	"$ref": "#/definitions/longString"
			,"defaultLabel": "MissionPictures"
			,"description": "MissionPictures"
			,"fieldAlias2x": "MissionPictures"
			,"isSearchable": false
			,"picklistDescription": null
			,"picklistUri": null
			,"picklistParent": null
		},
"missionstatement": {
	"$ref": "#/definitions/text"
			,"defaultLabel": "MissionStatement"
			,"description": "MissionStatement"
			,"fieldAlias2x": "MissionStatement"
			,"isSearchable": false
			,"picklistDescription": null
			,"picklistUri": null
			,"picklistParent": null
		},
"name": {
	"$ref": "#/definitions/longString"
			,"defaultLabel": "Name"
			,"description": "Name"
			,"fieldAlias2x": "Name"
			,"isSearchable": false
			,"picklistDescription": null
			,"picklistUri": null
			,"picklistParent": null
		},
"noadequateinfo": {
	"$ref": "#/definitions/text"
			,"defaultLabel": "NoAdequateInfo"
			,"description": "NoAdequateInfo"
			,"fieldAlias2x": "NoAdequateInfo"
			,"isSearchable": false
			,"picklistDescription": null
			,"picklistUri": null
			,"picklistParent": null
		},
"noadequateresources": {
	"$ref": "#/definitions/text"
			,"defaultLabel": "NoAdequateResources"
			,"description": "NoAdequateResources"
			,"fieldAlias2x": "NoAdequateResources"
			,"isSearchable": false
			,"picklistDescription": null
			,"picklistUri": null
			,"picklistParent": null
		},
"nothelpful": {
	"$ref": "#/definitions/text"
			,"defaultLabel": "NotHelpful"
			,"description": "NotHelpful"
			,"fieldAlias2x": "NotHelpful"
			,"isSearchable": false
			,"picklistDescription": null
			,"picklistUri": null
			,"picklistParent": null
		},
"phone": {
	"$ref": "#/definitions/longString"
			,"defaultLabel": "Phone"
			,"description": "Phone"
			,"fieldAlias2x": "Phone"
			,"isSearchable": false
			,"picklistDescription": null
			,"picklistUri": null
			,"picklistParent": null
		},
"pncivilians": {
	"$ref": "#/definitions/positive_int"
			,"defaultLabel": "PNCivilians"
			,"description": "PNCivilians"
			,"fieldAlias2x": "PNCivilians"
			,"isSearchable": false
			,"picklistDescription": null
			,"picklistUri": null
			,"picklistParent": null
		},
"pnmembers1": {
	"$ref": "#/definitions/positive_int"
			,"defaultLabel": "PNMembers1"
			,"description": "PNMembers1"
			,"fieldAlias2x": "PNMembers1"
			,"isSearchable": false
			,"picklistDescription": null
			,"picklistUri": null
			,"picklistParent": null
		},
"pnmembers2": {
	"$ref": "#/definitions/positive_int"
			,"defaultLabel": "PNMembers2"
			,"description": "PNMembers2"
			,"fieldAlias2x": "PNMembers2"
			,"isSearchable": false
			,"picklistDescription": null
			,"picklistUri": null
			,"picklistParent": null
		},
"pnmembers3": {
	"$ref": "#/definitions/positive_int"
			,"defaultLabel": "PNMembers3"
			,"description": "PNMembers3"
			,"fieldAlias2x": "PNMembers3"
			,"isSearchable": false
			,"picklistDescription": null
			,"picklistUri": null
			,"picklistParent": null
		},
"pnmembers4": {
	"$ref": "#/definitions/positive_int"
			,"defaultLabel": "PNMembers4"
			,"description": "PNMembers4"
			,"fieldAlias2x": "PNMembers4"
			,"isSearchable": false
			,"picklistDescription": null
			,"picklistUri": null
			,"picklistParent": null
		},
"pnmembers5": {
	"$ref": "#/definitions/positive_int"
			,"defaultLabel": "PNMembers5"
			,"description": "PNMembers5"
			,"fieldAlias2x": "PNMembers5"
			,"isSearchable": false
			,"picklistDescription": null
			,"picklistUri": null
			,"picklistParent": null
		},
"possiblesolutions": {
	"$ref": "#/definitions/text"
			,"defaultLabel": "PossibleSolutions"
			,"description": "PossibleSolutions"
			,"fieldAlias2x": "PossibleSolutions"
			,"isSearchable": false
			,"picklistDescription": null
			,"picklistUri": null
			,"picklistParent": null
		},
"preparestory": {
	"$ref": "#/definitions/longString"
			,"defaultLabel": "PrepareStory"
			,"description": "PrepareStory"
			,"fieldAlias2x": "PrepareStory"
			,"isSearchable": false
			,"picklistDescription": null
			,"picklistUri": null
			,"picklistParent": null
		},
"prospectivetrainers": {
	"$ref": "#/definitions/longString"
			,"defaultLabel": "ProspectiveTrainers"
			,"description": "ProspectiveTrainers"
			,"fieldAlias2x": "ProspectiveTrainers"
			,"isSearchable": false
			,"picklistDescription": null
			,"picklistUri": null
			,"picklistParent": null
		},
"quotesyes": {
	"$ref": "#/definitions/text"
			,"defaultLabel": "QuotesYes"
			,"description": "QuotesYes"
			,"fieldAlias2x": "QuotesYes"
			,"isSearchable": false
			,"picklistDescription": null
			,"picklistUri": null
			,"picklistParent": null
		},
"recordquotes": {
	"$ref": "#/definitions/longString"
			,"defaultLabel": "RecordQuotes"
			,"description": "RecordQuotes"
			,"fieldAlias2x": "RecordQuotes"
			,"isSearchable": false
			,"picklistDescription": null
			,"picklistUri": null
			,"picklistParent": null
		},
"resourcesadequate": {
	"$ref": "#/definitions/longString"
			,"defaultLabel": "ResourcesAdequate"
			,"description": "ResourcesAdequate"
			,"fieldAlias2x": "ResourcesAdequate"
			,"isSearchable": false
			,"picklistDescription": null
			,"picklistUri": null
			,"picklistParent": null
		},
"rightaudience": {
	"$ref": "#/definitions/longString"
			,"defaultLabel": "RightAudience"
			,"description": "RightAudience"
			,"fieldAlias2x": "RightAudience"
			,"isSearchable": false
			,"picklistDescription": null
			,"picklistUri": null
			,"picklistParent": null
		},
"studentopinion": {
	"$ref": "#/definitions/longString"
			,"defaultLabel": "StudentOpinion"
			,"description": "StudentOpinion"
			,"fieldAlias2x": "StudentOpinion"
			,"isSearchable": false
			,"picklistDescription": null
			,"picklistUri": null
			,"picklistParent": null
		},
"successfulmission": {
	"$ref": "#/definitions/longString"
			,"defaultLabel": "SuccessfulMission"
			,"description": "SuccessfulMission"
			,"fieldAlias2x": "SuccessfulMission"
			,"isSearchable": false
			,"picklistDescription": null
			,"picklistUri": null
			,"picklistParent": null
		},
"suitableenvironment": {
	"$ref": "#/definitions/longString"
			,"defaultLabel": "SuitableEnvironment"
			,"description": "SuitableEnvironment"
			,"fieldAlias2x": "SuitableEnvironment"
			,"isSearchable": false
			,"picklistDescription": null
			,"picklistUri": null
			,"picklistParent": null
		},
"totalcost": {
	"$ref": "#/definitions/longString"
			,"defaultLabel": "TotalCost"
			,"description": "TotalCost"
			,"fieldAlias2x": "TotalCost"
			,"isSearchable": false
			,"picklistDescription": null
			,"picklistUri": null
			,"picklistParent": null
		},
"unit": {
	"$ref": "#/definitions/longString"
			,"defaultLabel": "Unit"
			,"description": "Unit"
			,"fieldAlias2x": "Unit"
			,"isSearchable": false
			,"picklistDescription": null
			,"picklistUri": null
			,"picklistParent": null
		},
"warfighterfunction": {
	"$ref": "#/definitions/longString"
			,"defaultLabel": "WarfighterFunction"
			,"description": "WarfighterFunction"
			,"fieldAlias2x": "WarfighterFunction"
			,"isSearchable": false
			,"picklistDescription": null
			,"picklistUri": null
			,"picklistParent": null
		},
			"animals": {
				"type": "array",
				"description": "Operations AfterAction Report Animals specific details",
				"fieldAlias2x": "Animals", 
					"items": {
						"type": "object",
						"properties": {
						
"animalnumber": {
	"$ref": "#/definitions/positive_int"
			,"defaultLabel": "AnimalNumber"
			,"description": "AnimalNumber"
			,"fieldAlias2x": "AnimalNumber"
			,"isSearchable": false
			,"picklistDescription": null
			,"picklistUri": null
			,"picklistParent": null
		},
"referenceid": {
	"$ref": "#/definitions/longString"
			,"defaultLabel": "referenceId"
			,"description": "referenceId"
			,"fieldAlias2x": "AnimalsKey"
			,"isSearchable": false
			,"picklistDescription": null
			,"picklistUri": null
			,"picklistParent": null
		},
"animaltype": {
	"$ref": "#/definitions/longString"
			,"defaultLabel": "AnimalType"
			,"description": "AnimalType"
			,"fieldAlias2x": "AnimalType"
			,"isSearchable": false
			,"picklistDescription": null
			,"picklistUri": null
			,"picklistParent": null
		}
				}
			}
		},
			"campaign": {
				"type": "array",
				"description": "Operations AfterAction Report Campaign specific details",
				"fieldAlias2x": "Campaign", 
					"items": {
						"type": "object",
						"properties": {
						
"campaign": {
	"$ref": "#/definitions/longString"
			,"defaultLabel": "Campaign"
			,"description": "Campaign"
			,"fieldAlias2x": "Campaign"
			,"isSearchable": false
			,"picklistDescription": null
			,"picklistUri": null
			,"picklistParent": null
		},
"referenceid": {
	"$ref": "#/definitions/longString"
			,"defaultLabel": "referenceId"
			,"description": "referenceId"
			,"fieldAlias2x": "CampaignKey"
			,"isSearchable": false
			,"picklistDescription": null
			,"picklistUri": null
			,"picklistParent": null
		},
"loe": {
	"$ref": "#/definitions/longString"
			,"defaultLabel": "LOE"
			,"description": "LOE"
			,"fieldAlias2x": "LOE"
			,"isSearchable": false
			,"picklistDescription": null
			,"picklistUri": null
			,"picklistParent": null
		}
				}
			}
		},
			"capabilitygaps": {
				"type": "array",
				"description": "Operations AfterAction Report CapabilityGaps specific details",
				"fieldAlias2x": "CapabilityGaps", 
					"items": {
						"type": "object",
						"properties": {
						
"capabilitygaps": {
	"$ref": "#/definitions/longString"
			,"defaultLabel": "CapabilityGaps"
			,"description": "CapabilityGaps"
			,"fieldAlias2x": "CapabilityGaps"
			,"isSearchable": false
			,"picklistDescription": null
			,"picklistUri": null
			,"picklistParent": null
		},
"referenceid": {
	"$ref": "#/definitions/longString"
			,"defaultLabel": "referenceId"
			,"description": "referenceId"
			,"fieldAlias2x": "CapabilityGapsKey"
			,"isSearchable": false
			,"picklistDescription": null
			,"picklistUri": null
			,"picklistParent": null
		}
				}
			}
		},
			"effects": {
				"type": "array",
				"description": "Operations AfterAction Report Effects specific details",
				"fieldAlias2x": "Effects", 
					"items": {
						"type": "object",
						"properties": {
						
"effect": {
	"$ref": "#/definitions/longString"
			,"defaultLabel": "Effect"
			,"description": "Effect"
			,"fieldAlias2x": "Effect"
			,"isSearchable": false
			,"picklistDescription": null
			,"picklistUri": null
			,"picklistParent": null
		},
"referenceid": {
	"$ref": "#/definitions/longString"
			,"defaultLabel": "referenceId"
			,"description": "referenceId"
			,"fieldAlias2x": "EffectsKey"
			,"isSearchable": false
			,"picklistDescription": null
			,"picklistUri": null
			,"picklistParent": null
		},
"measureofeffectiveness": {
	"$ref": "#/definitions/longString"
			,"defaultLabel": "MeasureOfEffectiveness"
			,"description": "MeasureOfEffectiveness"
			,"fieldAlias2x": "MeasureOfEffectiveness"
			,"isSearchable": false
			,"picklistDescription": null
			,"picklistUri": null
			,"picklistParent": null
		},
"rating": {
	"$ref": "#/definitions/longString"
			,"defaultLabel": "Rating"
			,"description": "Rating"
			,"fieldAlias2x": "Rating"
			,"isSearchable": false
			,"picklistDescription": null
			,"picklistUri": null
			,"picklistParent": null
		}
				}
			}
		},
			"equipment": {
				"type": "array",
				"description": "Operations AfterAction Report Equipment specific details",
				"fieldAlias2x": "Equipment", 
					"items": {
						"type": "object",
						"properties": {
						
"equipment": {
	"$ref": "#/definitions/longString"
			,"defaultLabel": "Equipment"
			,"description": "Equipment"
			,"fieldAlias2x": "Equipment"
			,"isSearchable": false
			,"picklistDescription": null
			,"picklistUri": null
			,"picklistParent": null
		},
"referenceid": {
	"$ref": "#/definitions/longString"
			,"defaultLabel": "referenceId"
			,"description": "referenceId"
			,"fieldAlias2x": "EquipmentKey"
			,"isSearchable": false
			,"picklistDescription": null
			,"picklistUri": null
			,"picklistParent": null
		}
				}
			}
		},
			"footnote": {
				"type": "array",
				"description": "Operations AfterAction Report Footnote specific details",
				"fieldAlias2x": "Footnote", 
					"items": {
						"type": "object",
						"properties": {
						
"footnote": {
	"$ref": "#/definitions/text"
			,"defaultLabel": "Footnote"
			,"description": "Footnote"
			,"fieldAlias2x": "Footnote"
			,"isSearchable": false
			,"picklistDescription": null
			,"picklistUri": null
			,"picklistParent": null
		},
"referenceid": {
	"$ref": "#/definitions/longString"
			,"defaultLabel": "referenceId"
			,"description": "referenceId"
			,"fieldAlias2x": "FootnoteKey"
			,"isSearchable": false
			,"picklistDescription": null
			,"picklistUri": null
			,"picklistParent": null
		},
"ordinal": {
	"$ref": "#/definitions/positive_int"
			,"defaultLabel": "Ordinal"
			,"description": "Ordinal"
			,"fieldAlias2x": "Ordinal"
			,"isSearchable": false
			,"picklistDescription": null
			,"picklistUri": null
			,"picklistParent": null
		}
				}
			}
		},
			"limitingfactors": {
				"type": "array",
				"description": "Operations AfterAction Report LimitingFactors specific details",
				"fieldAlias2x": "LimitingFactors", 
					"items": {
						"type": "object",
						"properties": {
						
"limitingfactors": {
	"$ref": "#/definitions/longString"
			,"defaultLabel": "LimitingFactors"
			,"description": "LimitingFactors"
			,"fieldAlias2x": "LimitingFactors"
			,"isSearchable": false
			,"picklistDescription": null
			,"picklistUri": null
			,"picklistParent": null
		},
"referenceid": {
	"$ref": "#/definitions/longString"
			,"defaultLabel": "referenceId"
			,"description": "referenceId"
			,"fieldAlias2x": "LimitingFactorsKey"
			,"isSearchable": false
			,"picklistDescription": null
			,"picklistUri": null
			,"picklistParent": null
		}
				}
			}
		},
			"localreactions": {
				"type": "array",
				"description": "Operations AfterAction Report LocalReactions specific details",
				"fieldAlias2x": "LocalReactions", 
					"items": {
						"type": "object",
						"properties": {
						
"localreactions": {
	"$ref": "#/definitions/longString"
			,"defaultLabel": "LocalReactions"
			,"description": "LocalReactions"
			,"fieldAlias2x": "LocalReactions"
			,"isSearchable": false
			,"picklistDescription": null
			,"picklistUri": null
			,"picklistParent": null
		},
"referenceid": {
	"$ref": "#/definitions/longString"
			,"defaultLabel": "referenceId"
			,"description": "referenceId"
			,"fieldAlias2x": "LocalReactionsKey"
			,"isSearchable": false
			,"picklistDescription": null
			,"picklistUri": null
			,"picklistParent": null
		}
				}
			}
		},
			"medvet": {
				"type": "array",
				"description": "Operations AfterAction Report MEDVET specific details",
				"fieldAlias2x": "MEDVET", 
					"items": {
						"type": "object",
						"properties": {
						
"adultfemale": {
	"$ref": "#/definitions/positive_int"
			,"defaultLabel": "AdultFemale"
			,"description": "AdultFemale"
			,"fieldAlias2x": "AdultFemale"
			,"isSearchable": false
			,"picklistDescription": null
			,"picklistUri": null
			,"picklistParent": null
		},
"adultmale": {
	"$ref": "#/definitions/positive_int"
			,"defaultLabel": "AdultMale"
			,"description": "AdultMale"
			,"fieldAlias2x": "AdultMale"
			,"isSearchable": false
			,"picklistDescription": null
			,"picklistUri": null
			,"picklistParent": null
		},
"childfemale": {
	"$ref": "#/definitions/positive_int"
			,"defaultLabel": "ChildFemale"
			,"description": "ChildFemale"
			,"fieldAlias2x": "ChildFemale"
			,"isSearchable": false
			,"picklistDescription": null
			,"picklistUri": null
			,"picklistParent": null
		},
"childmale": {
	"$ref": "#/definitions/positive_int"
			,"defaultLabel": "ChildMale"
			,"description": "ChildMale"
			,"fieldAlias2x": "ChildMale"
			,"isSearchable": false
			,"picklistDescription": null
			,"picklistUri": null
			,"picklistParent": null
		},
"location": {
	"$ref": "#/definitions/longString"
			,"defaultLabel": "Location"
			,"description": "Location"
			,"fieldAlias2x": "Location"
			,"isSearchable": false
			,"picklistDescription": null
			,"picklistUri": null
			,"picklistParent": null
		},
"referenceid": {
	"$ref": "#/definitions/longString"
			,"defaultLabel": "referenceId"
			,"description": "referenceId"
			,"fieldAlias2x": "MEDVETKey"
			,"isSearchable": false
			,"picklistDescription": null
			,"picklistUri": null
			,"picklistParent": null
		}
				}
			}
		},
			"nationsrepresented": {
				"type": "array",
				"description": "Operations AfterAction Report NationsRepresented specific details",
				"fieldAlias2x": "NationsRepresented", 
					"items": {
						"type": "object",
						"properties": {
						
"nationsrepresented": {
	"$ref": "#/definitions/longString"
			,"defaultLabel": "NationsRepresented"
			,"description": "NationsRepresented"
			,"fieldAlias2x": "NationsRepresented"
			,"isSearchable": false
			,"picklistDescription": null
			,"picklistUri": null
			,"picklistParent": null
		},
"referenceid": {
	"$ref": "#/definitions/longString"
			,"defaultLabel": "referenceId"
			,"description": "referenceId"
			,"fieldAlias2x": "NationsRepresentedKey"
			,"isSearchable": false
			,"picklistDescription": null
			,"picklistUri": null
			,"picklistParent": null
		}
				}
			}
		},
			"orgsbenefitted": {
				"type": "array",
				"description": "Operations AfterAction Report OrgsBenefitted specific details",
				"fieldAlias2x": "OrgsBenefitted", 
					"items": {
						"type": "object",
						"properties": {
						
"orgsbenefitted": {
	"$ref": "#/definitions/longString"
			,"defaultLabel": "OrgsBenefitted"
			,"description": "OrgsBenefitted"
			,"fieldAlias2x": "OrgsBenefitted"
			,"isSearchable": false
			,"picklistDescription": null
			,"picklistUri": null
			,"picklistParent": null
		},
"referenceid": {
	"$ref": "#/definitions/longString"
			,"defaultLabel": "referenceId"
			,"description": "referenceId"
			,"fieldAlias2x": "OrgsBenefittedKey"
			,"isSearchable": false
			,"picklistDescription": null
			,"picklistUri": null
			,"picklistParent": null
		}
				}
			}
		},
			"orgsrepresented": {
				"type": "array",
				"description": "Operations AfterAction Report OrgsRepresented specific details",
				"fieldAlias2x": "OrgsRepresented", 
					"items": {
						"type": "object",
						"properties": {
						
"orgsrepresented": {
	"$ref": "#/definitions/longString"
			,"defaultLabel": "OrgsRepresented"
			,"description": "OrgsRepresented"
			,"fieldAlias2x": "OrgsRepresented"
			,"isSearchable": false
			,"picklistDescription": null
			,"picklistUri": null
			,"picklistParent": null
		},
"referenceid": {
	"$ref": "#/definitions/longString"
			,"defaultLabel": "referenceId"
			,"description": "referenceId"
			,"fieldAlias2x": "OrgsRepresentedKey"
			,"isSearchable": false
			,"picklistDescription": null
			,"picklistUri": null
			,"picklistParent": null
		}
				}
			}
		},
			"pncivposition": {
				"type": "array",
				"description": "Operations AfterAction Report PNCIVposition specific details",
				"fieldAlias2x": "PNCIVposition", 
					"items": {
						"type": "object",
						"properties": {
						
"pncivposition": {
	"$ref": "#/definitions/longString"
			,"defaultLabel": "PNCIVposition"
			,"description": "PNCIVposition"
			,"fieldAlias2x": "PNCIVposition"
			,"isSearchable": false
			,"picklistDescription": null
			,"picklistUri": null
			,"picklistParent": null
		},
"referenceid": {
	"$ref": "#/definitions/longString"
			,"defaultLabel": "referenceId"
			,"description": "referenceId"
			,"fieldAlias2x": "PNCIVpositionKey"
			,"isSearchable": false
			,"picklistDescription": null
			,"picklistUri": null
			,"picklistParent": null
		}
				}
			}
		},
			"poe": {
				"type": "array",
				"description": "Operations AfterAction Report POE specific details",
				"fieldAlias2x": "POE", 
					"items": {
						"type": "object",
						"properties": {
						
"afterevaluation": {
	"$ref": "#/definitions/positive_int"
			,"defaultLabel": "AfterEvaluation"
			,"description": "AfterEvaluation"
			,"fieldAlias2x": "AfterEvaluation"
			,"isSearchable": false
			,"picklistDescription": null
			,"picklistUri": null
			,"picklistParent": null
		},
"beforeevaluation": {
	"$ref": "#/definitions/positive_int"
			,"defaultLabel": "BeforeEvaluation"
			,"description": "BeforeEvaluation"
			,"fieldAlias2x": "BeforeEvaluation"
			,"isSearchable": false
			,"picklistDescription": null
			,"picklistUri": null
			,"picklistParent": null
		},
"elo": {
	"$ref": "#/definitions/text"
			,"defaultLabel": "ELO"
			,"description": "ELO"
			,"fieldAlias2x": "ELO"
			,"isSearchable": false
			,"picklistDescription": null
			,"picklistUri": null
			,"picklistParent": null
		},
"elodate": {
	"$ref": "#/definitions/dateTime"
			,"defaultLabel": "ELODate"
			,"description": "ELODate"
			,"fieldAlias2x": "ELODate"
			,"isSearchable": false
			,"picklistDescription": null
			,"picklistUri": null
			,"picklistParent": null
		},
"justifyevaluation": {
	"$ref": "#/definitions/text"
			,"defaultLabel": "JustifyEvaluation"
			,"description": "JustifyEvaluation"
			,"fieldAlias2x": "JustifyEvaluation"
			,"isSearchable": false
			,"picklistDescription": null
			,"picklistUri": null
			,"picklistParent": null
		},
"referenceid": {
	"$ref": "#/definitions/longString"
			,"defaultLabel": "referenceId"
			,"description": "referenceId"
			,"fieldAlias2x": "POEKey"
			,"isSearchable": false
			,"picklistDescription": null
			,"picklistUri": null
			,"picklistParent": null
		}
				}
			}
		},
			"poefootnote": {
				"type": "array",
				"description": "Operations AfterAction Report POEFootnote specific details",
				"fieldAlias2x": "POEFootnote", 
					"items": {
						"type": "object",
						"properties": {
						
"referenceid": {
	"$ref": "#/definitions/longString"
			,"defaultLabel": "referenceId"
			,"description": "referenceId"
			,"fieldAlias2x": "POEFootnoteKey"
			,"isSearchable": false
			,"picklistDescription": null
			,"picklistUri": null
			,"picklistParent": null
		}
				}
			}
		}
				}
			}
	}
}
