	
{
    "type": "object",
    "id": "http://cidne.dae.smil.mil/schemas/Operations/DailySITREP/CIDNEDM236",
    "description": "CIDNE Operations DailySITREP Report Definition",
    "definitions": {
        "shortStringRequired": {
            "type": "string",
            "maxLength": 50
        },
        "longStringRequired": {
            "type": "string",
            "maxLength": 500
        },
        "textRequired": {
            "type": "string"
        },
        "textFieldLevelRequired": {
            "type": "object",
            "properties": {
                "objectValue": {
                    "type": "string"
                },
                "security": {
					"$ref": "#/definitions/security"
				}
            },
            "required": [
                "objectValue",
                "security"
            ]
        },
        "dateTimeRequired": {
            "type": "object",
            "properties": {
                "zuluDateTime": {
                    "type": "string",
                    "format": "date-time"
                },
                "zuluOffset": {
                    "type": "integer",
					"minimum": -840,
					"maximum": 840,
                    "description": "Offset in minutes from Zulu"
                }
            },
            "required": [
                "zuluDateTime",
                "zuluOffset"
            ]
        },
        "latitude_ddsRequired": {
            "type": "number",
            "minimum": -90,
            "maximum": 90
        },
        "longitude_ddsRequired": {
            "type": "number",
            "minimum": -180,
            "maximum": 180
        },
        "positive_intRequired": {
            "type": "integer",
            "minimum": 0
        },
        "positive_numRequired": {
            "type": "number",
            "minimum": 0
        },
        "positive_intRequired": {
            "type": "integer",
            "minimum": 0
        },
        "shortString": {
            "type": ["string","null"],
            "maxLength": 50
        },
        "longString": {
            "type": ["string","null"],
            "maxLength": 500
        },
        "text": {
            "type": ["string","null"]
        },
        "textFieldLevel": {
            "type": "object",
            "properties": {
                "objectValue": {
                    "type": ["string","null"]
                },
                "security": {
					"$ref": "#/definitions/securityOptional"
				}
            },
            "required": [
                "objectValue",
                "security"
            ]
        },
        "dateTime": {
            "type": ["object","null"],
            "properties": {
                "zuluDateTime": {
                    "type": "string",
                    "format": "date-time"
                },
                "zuluOffset": {
                    "type": "integer",
					"minimum": -840,
					"maximum": 840,
                    "description": "Offset in minutes from Zulu"
                }
            },
            "required": [
                "zuluDateTime",
                "zuluOffset"
            ]
        },
        "latitude_dds": {
            "type": ["number","null"],
            "minimum": -90,
            "maximum": 90
        },
        "longitude_dds": {
            "type": ["number","null"],
            "minimum": -180,
            "maximum": 180
        },
        "positive_int": {
            "type": ["integer","null"],
            "minimum": 0
        },
        "positive_num": {
            "type": ["number","null"],
            "minimum": 0
        },
        "num": {
            "type": ["number","null"]
        },
        "uniqueStringArray": {
            "type": "array",
            "uniqueItems": true,
            "items": {
                "type": "string"
            }
        },
        "securityOptional": {
            "oneOf": [
                {
                    "type": "null"
                },
                {
                    "$ref": "#/definitions/security"
                }
            ]
        },
        "security": {
            "type": "object",
            "properties": {
                "atomicEnergyMarkings": {
                    "$ref": "#/definitions/shortString",
                    "description": "Atomic Energy Act Information Markings"
                },
                "classificationReason": {
                    "$ref": "#/definitions/longString",
                    "description": ": Concise reason for classification"
                },
                "classification": {
                    "enum": [ "U", "TS", "S", "C" ],
                    "description": "Classification of information",
                    "defaultLabel": "Classification",
                    "isSearchable": false,
                    "picklistName": "classification",
                    "picklistUri": "http://cidne.dae.smil.mil/schemas/CAPCO/classification",
                    "picklistParent": null
                    
                },
                "classifiedBy": {
                    "$ref": "#/definitions/longString",
                    "description": "Identification by name and position, or personal identifier of the OCA"
                },
                "compilationReason": {
                    "$ref": "#/definitions/longString",
                    "description": "Reason why the compilation of information causes the classification"
                },
                "declassDate": {
                    "$ref": "#/definitions/dateTime",
                    "description": "Declassification date"
                },
                "declassEvent": {
                    "$ref": "#/definitions/shortString",
                    "description": "Declassification event"
                },
                "declassException": {
                    "$ref": "#/definitions/longString",
                    "description": "Declassification exception"
                },
                "derivativelyClassifiedBy": {
                    "$ref": "#/definitions/longString",
                    "description": "The derivative classifier’s identification by name and position, or by personal identifier, in a manner that is immediately apparent on each derivatively classified document. If not otherwise evident, the agency and office of origin shall be identified"
                },
                "derivedFrom": {
                    "$ref": "#/definitions/shortString",
                    "description": "Concisely identify the source document or the classification guide"
                },
                "displayOnlyTo": {
                    "$ref": "#/definitions/longString",
                    "description": "List of foreign country(ies)/international organization(s) authorized for disclosure without providing the recipient with a physical copy for retention, regardless of medium to the foreign country(ies)/international organization(s) indicated"
                },
                "disseminationControls": {
                    "$ref": "#/definitions/longString",
                    "description": "Control markings that identify the expansion or limitation on the distribution of information. These markings are in addition to and separate from the levels of classification"
                },
                "FGIsourceOpen": {
                    "$ref": "#/definitions/shortString",
                    "description": "Open Source Foreign Government Information"
                },
                "FGIsourceProtected": {
                    "$ref": "#/definitions/shortString",
                    "description": "Protected Source Foreign Government Information"
                },
                "nonICmarkings": {
                    "$ref": "#/definitions/text",
                    "description": "Markings authorized for use by entities outside of the Intelligence Community"
                },
                "nonUSControls": {
                    "$ref": "#/definitions/shortString",
                    "description": "Non-US protective markings"
                },
                "ownerProducer": {
                    "$ref": "#/definitions/shortStringRequired",
                    "description": "Owner/Producer",
                    "default": "USA",
                    "defaultLabel": "Owner Producer",
                    "isSearchable": false,
                    "picklistName": "ownerProducer",
                    "picklistUri": "http://cidne.dae.smil.mil/schemas/CAPCO/ownerProducer",
                    "picklistParent": null
                },
                "releasableToFilterField": {
                    "$ref": "#/definitions/shortString",
                    "description": "Need to add CAPCO Descriptions"
                },
                "releasableTo": {
                    "$ref": "#/definitions/text",
                    "description": "List of countries releasable to",
                    "defaultLabel": "Releasable To",
                    "isSearchable": false,
                    "picklistName": "releasableTo",
                    "picklistUri": "http://cidne.dae.smil.mil/schemas/CAPCO/releasableTo",
                    "picklistParent": null
                },
                "SARIdentifier": {
                    "$ref": "#/definitions/shortString",
                    "description": "Special access required programs"
                },
                "SCIcontrols": {
                    "$ref": "#/definitions/longString",
                    "description": "Sensitive Compartmented Information (SCI) control systems"
                }
            },
            "required": [
                "ownerProducer",
                "classification"
            ]
        },
        "actionInfo":{
            "type": "object",
            "properties": {
                "actionDate": {
                    "$ref": "#/definitions/dateTimeRequired",
                    "description": "Date Time Action was taken"
                },
                "group": {
                    "$ref": "#/definitions/longStringRequired",
                    "description": "User Group that performed action"
                },
                "parentGroup": {
                    "$ref": "#/definitions/longString",
                    "description": "User Group's Parent Group Name"
                },
                "nationality": {
                    "$ref": "#/definitions/shortStringRequired",
                    "description": "User Nationality"
                },
                "network": {
                    "$ref": "#/definitions/shortStringRequired",
                    "description": "Systems Network where action was taken"
                },
                "objectState": {
                    "description": "",
                    "enum": [
                        "CREATED",
                        "MODIFIED",
                        "TEMPLATE",
                        "SUBMITTED",
                        "PUBLISHED",
                        "VERSIONED",
                        "DEPRECATED",
                        "VALIDATING",
                        "RESTORED",
                        "MOVED"
                    ]
                },
                "site": {
                    "$ref": "#/definitions/shortStringRequired",
                    "description": "Systems Site"
                },
                "system": {
                    "$ref": "#/definitions/shortStringRequired",
                    "description": "System that provided the action"
                },
                "user": {
                    "$ref": "#/definitions/shortStringRequired",
                    "description": "User that performed action"
                }
            },
            "required": [
                "actionDate",
                "group",
                "parentGroup",
                "nationality",
                "network",
                "objectState",
                "site",
                "system",
                "user"
            ]
        },
        "position": {
            "description": "A single position. (order should be longitude,latitude)",
            "type": "array",
            "minItems": 2,
            "items": [
                {
                    "type": "number"
                },
                {
                    "type": "number"
                }
            ],
            "additionalItems": false
        },
        "positionArray": {
            "description": "An array of positions",
            "type": "array",
            "items": {
                "$ref": "#/definitions/position"
            }
        },
        "lineString": {
            "description": "An array of two or more positions",
            "allOf": [
                {
                    "type": "array",
                    "items": {
                        "$ref": "#/definitions/position"
                    }
                },
                {
                    "minItems": 2
                }
            ]
        },
        "linearRing": {
            "description": "An array of four positions where the first equals the last",
            "allOf": [
                {
                    "type": "array",
                    "items": {
                        "$ref": "#/definitions/position"
                    }
                },
                {
                    "minItems": 4
                }
            ]
        },
        "polygon": {
            "description": "An array of linear rings",
            "type": "array",
            "items": {
                "$ref": "#/definitions/linearRing"
            }
        },
        "geometry": {
            "title": "geometry",
            "description": "One geometry as defined by GeoJSON",
            "type": "object",
            "required": [
                "type",
                "coordinates"
            ],
            "oneOf": [
                {
                    "title": "Point",
                    "properties": {
                        "type": {
                            "enum": [
                                "Point"
                            ]
                        },
                        "coordinates": {
                            "$ref": "#/definitions/position"
                        }
                    }
                },
                {
                    "title": "MultiPoint",
                    "properties": {
                        "type": {
                            "enum": [
                                "MultiPoint"
                            ]
                        },
                        "coordinates": {
                            "type": "array",
                            "items": {
                                "$ref": "#/definitions/position"
                            }
                        }
                    }
                },
                {
                    "title": "LineString",
                    "properties": {
                        "type": {
                            "enum": [
                                "LineString"
                            ]
                        },
                        "coordinates": {
                            "$ref": "#/definitions/lineString"
                        }
                    }
                },
                {
                    "title": "MultiLineString",
                    "properties": {
                        "type": {
                            "enum": [
                                "MultiLineString"
                            ]
                        },
                        "coordinates": {
                            "type": "array",
                            "items": {
                                "$ref": "#/definitions/lineString"
                            }
                        }
                    }
                },
                {
                    "title": "Polygon",
                    "properties": {
                        "type": {
                            "enum": [
                                "Polygon"
                            ]
                        },
                        "coordinates": {
                            "$ref": "#/definitions/polygon"
                        }
                    }
                },
                {
                    "title": "MultiPolygon",
                    "properties": {
                        "type": {
                            "enum": [
                                "MultiPolygon"
                            ]
                        },
                        "coordinates": {
                            "type": "array",
                            "items": {
                                "$ref": "#/definitions/polygon"
                            }
                        }
                    }
                }
            ]
        },
        "geometryCollection": {
            "title": "GeometryCollection",
            "description": "A collection of geometry objects",
            "required": [
                "geometries"
            ],
            "properties": {
                "type": {
                    "enum": [
                        "GeometryCollection"
                    ]
                },
                "geometries": {
                    "type": "array",
                    "items": {
                        "$ref": "#/definitions/geometry"
                    }
                }
            }
        },
        "feature": {
            "title": "Feature",
            "description": "A Geo JSON feature object",
            "required": [
                "geometry"
            ],
            "properties": {
                "type": {
                    "enum": [
                        "Feature"
                    ]
                },
                "geometry": {
                    "oneOf": [
                        {
                            "type": "null"
                        },
                        {
                            "$ref": "#/definitions/geometry"
                        }
                    ]
                },
				"properties": { "type": [ "object", "null" ] },
                "id": { "type":["string"] }
            }
        },
        "featureCollection": {
            "description": "A GeoJSON feature collection",
            "required": [
                "features"
            ],
            "properties": {
                "type": {
                    "enum": [
                        "FeatureCollection"
                    ]
                },
                "features": {
                    "type": "array",
                    "items": {
                        "$ref": "#/definitions/feature"
                    }
                }
            }
        },
		"namedCrs": {
            "properties": {
                "type": { "enum": [ "name" ] },
                "properties": {
                    "required": [ "name" ],
                    "additionalProperties": false,
                    "properties": {
                        "name": {
                            "type": "string"
                        }
                    }
                }
            }
        },
        "linkedObject": {
            "type": "object",
            "required": [ "href" ],
            "properties": {
                "href": {
                    "type": "string",
                    "format": "uri"
                },
                "type": {
                    "type": "string",
                    "description": "Suggested values: proj4, ogjwkt, esriwkt"
                }
            }
        },
        "linkedCrs": {
            "properties": {
                "type": { "enum": [ "link" ] },
                "properties": { "$ref": "#/definitions/linkedObject" }
            }
        },	
		"crs":{
			"title": "crs",
			"description": "a Coordinate Reference System object",
			"type": [ "object", "null" ],
			"required": [ "type", "properties" ],
			"properties": {
				"type": { "type": "string" },
				"properties": { "type": "object" }
			},
			"additionalProperties": false,
			"oneOf": [
				{ "$ref": "#/definitions/namedCrs" },
				{ "$ref": "#/definitions/linkedCrs" }
			]
		},
		"bbox":{
		"description": "A bounding box as defined by GeoJSON",
			"type": "array",
			"items": { "type": "number" }
		},
        "geojson": {
            "title": "Geo JSON object",
            "description": "Schema for a Geo JSON object",
            "type": ["object","null"],
            "required": [
                "type"
            ],
			"properties": {
				"crs": { "$ref": "#/definitions/crs" },
				"bbox": { "$ref": "#/definitions/bbox" }
			},
            "anyOf": [
                {
                    "$ref": "#/definitions/geometry"
                },
                {
                    "$ref": "#/definitions/geometryCollection"
                },
                {
                    "$ref": "#/definitions/feature"
                },
                {
                    "$ref": "#/definitions/featureCollection"
                }
            ]
        }
    },
    "required": [
        "base",
        "datamodel",
        "formId",
        "location",
        "security",
        "details"
    ],	
    "properties": {
        "datamodel": {
            "$ref": "#/definitions/longString",
            "description": "Reference to the report definition."
        },
        "formId": {
            "$ref": "#/definitions/longString",
            "description": "Reference to the layout template identifier that this data was intended to be best visualized"
        },
        "base": {
            "type": "object",
            "description": "The core metadata used within all report definitions",
            "properties": {
                "objectId": {
                    "$ref": "#/definitions/shortStringRequired",
                    "description": "Report instance unique identifier"
                },
                "reportId": {
                    "$ref": "#/definitions/shortStringRequired",
                    "description": "Original report instance objectId for a report version grouping. (i.e. the root report identifier)"
                },
                "parentVersionId": {
                    "$ref": "#/definitions/shortString",
                    "description": "Report instance's objectId of the parent report. NOTE: If there is no parent, this value should be set to the report instance's own objectId. "
                },
                "module": {
                    "$ref": "#/definitions/shortStringRequired",
                    "description": "CIDNE community"
                },
                "reportType": {
                    "$ref": "#/definitions/shortStringRequired",
                    "description": "CIDNE report type (e.g. SIGACT)"
                },
                "reportSerial": {
                    "$ref": "#/definitions/textFieldLevel",
					"defaultLabel": "TrackingNumber",
					"description": "Report instance nomenclature (TrackingNumber)",
					"fieldAlias2x": "TrackingNumber"
                },
                "reportTitle": {
                    "$ref": "#/definitions/textFieldLevel",
					"defaultLabel": "DTG",
					"description": "Report instance title text (DTG)",
					"fieldAlias2x": "DTG"
                },
                "reportSummary": {
                    "$ref": "#/definitions/textFieldLevel",
					"defaultLabel": "DisplaySummary",
					"description": "Report instance summary text block (DisplaySummary)",
					"fieldAlias2x": "DisplaySummary"
                },
                "reportDate": {
                    "$ref": "#/definitions/dateTimeRequired",
					"defaultLabel": "ReportStartPeriod",
					"description": "Primary report instance date (r.ReportStartPeriod)",
					"fieldAlias2x": "ReportStartPeriod"
                },
                "reportSymbol": {
                    "$ref": "#/definitions/longString",
                    "description": "Report instance symbology"
                },
                "reportImage": {
                    "$ref": "#/definitions/longString",
                    "description": "Primary image of report instance"
                },
                "reportCountry": {
                    "$ref": "#/definitions/shortString",
                    "description": "Country value of report instance's primary location"
                },
                "reportLatitude": {
                    "$ref": "#/definitions/latitude_dds",
                    "description": "Latitude value of report instance's primary location"
                },
                "reportLongitude": {
                    "$ref": "#/definitions/longitude_dds",
                    "description": "Longitude value of report instance's primary location"
                },
				"geoLocation":{
					"$ref":"#/definitions/geojson"
				},
                "currentObjectState":{
                        "$ref": "#/definitions/actionInfo"
                },
                "originatingGroup": {
                    "$ref": "#/definitions/longStringRequired",
                    "description": "Original creator's group"
                },  
                "originatingUser": {
                    "$ref": "#/definitions/longStringRequired",
                    "description": "Original creator's User Name or email address"
                },  
				"isTearline": {
                    "type": "boolean",
                    "description": "Determines whether a report is a tearline"
                },
				"tearlineId": {
					"$ref": "#/definitions/shortString",
                    "description": "The reportId of the parent, used as a tearline group binding"
				},
                "theaterFilter": {
                    "$ref": "#/definitions/shortStringRequired",
                    "description": "Report instance theater of relevance"
                },
                "warehouseUri": {
                    "$ref": "#/definitions/longStringRequired",
                    "description": "Data warehouse location for report instance",
                    "format": "uri"
                }
            },
            "required": [
                "isTearline",
                "module",
                "objectId",
                "currentObjectState",
                "originatingGroup",
                "originatingUser",
                "reportId",
                "reportSerial",
                "reportDate",
                "theaterFilter",
                "reportType",
                "reportTitle",
                "reportSummary"
            ]
        },
        "location": {
            "type": "array",
            "description": "All locations for the report instance",
            "items": {
                "type": "object",
                "properties": {
                    "objectId": {
                        "$ref": "#/definitions/shortStringRequired",
                        "description": "objectId required for Edit Purposes"
                    },
                    "address": {
                        "$ref": "#/definitions/longString",
                        "description": "Address Details"
                    },
                    "alternateRoute": {
                        "$ref": "#/definitions/longString",
                        "description": "Alternate Route for location"
                    },
                    "ao": {
                        "$ref": "#/definitions/shortString",
                        "description": "Area of Operations"
                    },
                    "basecamp": {
                        "$ref": "#/definitions/shortString",
                        "description": "Base Camp"
                    },
                    "city": {
                        "$ref": "#/definitions/shortString",
                        "description": "City for Location"
                    },
                    "confidence": {
                        "$ref": "#/definitions/shortString",
                        "description": "Reporters Confidence in Location Value"
                    },
                    "country": {
                        "$ref": "#/definitions/shortString",
                        "description": "Location Country"
                    },
                    "customGeom": {
                        "type": "object",
                        "description": "Custom Geometry Object for Location",
                        "properties": {
                            "customGeomObjectId": {
                                "$ref": "#/definitions/shortString",
                                "description": "objectId for Custom Geometry Object"
                            },
                            "geomType": {
                                "$ref": "#/definitions/shortString",
                                "description": "Geometry Type for custom geometry object (e.g. Point, Multi-polygon"
                            },
                            "geom": {
                                "$ref": "#/definitions/shortString",
                                "description": "TBD GEOM Object for Custom Location Object"
                            },
                            "name": {
                                "$ref": "#/definitions/shortString",
                                "description": "Custom Location Name"
                            }
                        }
                    },
                    "dateEndLocation": {
                        "$ref": "#/definitions/dateTime",
                        "description": "Ending Date Time for location"
                    },
                    "dateStartLocation": {
                        "$ref": "#/definitions/dateTime",
                        "description": "Starting Date Time for location"
                    },
                    "derivedLocation": {
                        "type": "boolean",
                        "description": "Was Location Lat/Long derived from user picklists?"
                    },
                    "description": {
                        "$ref": "#/definitions/text",
                        "description": "Location Description"
                    },
                    "distanceFromCityCenter": {
                        "$ref": "#/definitions/positive_int",
                        "description": "Distance in meters to nearest city center"
                    },
                    "distanceToNearestFOB": {
                        "$ref": "#/definitions/positive_num",
                        "description": "Distance in meters to nearest FOB"
                    },
                    "distanceToNearestRoute": {
                        "$ref": "#/definitions/positive_num",
                        "description": "Distance in meters to nearest Route"
                    },
                    "district": {
                        "$ref": "#/definitions/shortString",
                        "description": "District"
                    },
                    "fob": {
                        "$ref": "#/definitions/shortString",
                        "description": "FOB"
                    },
					"geoLocation":{
						"$ref":"#/definitions/geojson"
					},
					"house": {
                        "$ref": "#/definitions/shortString",
                        "description": "HOUSE"
                    },
                    "isPrimaryLocation": {
                        "type": "boolean",
                        "description": "Marks Primary Location"
                    },
                    "latitude": {
                        "$ref": "#/definitions/latitude_ddsRequired",
                        "description": "Latitude of Location in Degree Decimal Seconds"
                    },
                    "locationActive": {
                        "type": "boolean",
                        "description": "Is Location Active?"
                    },
                    "locationType": {
                        "$ref": "#/definitions/shortString",
                        "description": "Location Type"
                    },
                    "longitude": {
                        "$ref": "#/definitions/longitude_ddsRequired",
                        "description": "Longitude of Location in Degree Decimal Seconds"
                    },
                    "mscCurrent": {
                        "$ref": "#/definitions/shortString",
                        "description": "Current Major Supporting Command responsible for location"
                    },
                    "mscDateOfCurrent": {
                        "$ref": "#/definitions/dateTime",
                        "description": "Date Of Current Major Supporting Command's Control of location"
                    },
                    "msc": {
                        "$ref": "#/definitions/shortString",
                        "description": "Major Supporting Command responsible for location"
                    },
                    "nai": {
                        "$ref": "#/definitions/shortString",
                        "description": "Named Area of Interest"
                    },
                    "nearestCity": {
                        "$ref": "#/definitions/shortString",
                        "description": "Nearest City"
                    },
                    "nearestFOB": {
                        "$ref": "#/definitions/shortString",
                        "description": "Nearest FOB"
                    },
                    "nearestRoute": {
                        "$ref": "#/definitions/shortString",
                        "description": "Nearest Route"
                    },
                    "neighborhood": {
                        "$ref": "#/definitions/shortString",
                        "description": "Neighborhood for location"
                    },
                    "populationCenterType": {
                        "$ref": "#/definitions/shortString",
                        "description": "Population Center Type"
                    },
                    "populationCenter": {
                        "$ref": "#/definitions/shortString",
                        "description": "Population Center"
                    },
                    "province": {
                        "$ref": "#/definitions/shortString",
                        "description": "Province"
                    },
                    "referenceId": {
                        "$ref": "#/definitions/shortString",
                        "description": "Reference to any subelement with in current report instance (e.g. Event Object ID)"
                    },
                    "route": {
                        "$ref": "#/definitions/shortString",
                        "description": "Route"
                    },
                    "security": {
                        "$ref": "#/definitions/securityOptional"
                    },
                    "street": {
                        "$ref": "#/definitions/shortString",
                        "description": "Street"
                    },
                    "structure": {
                        "$ref": "#/definitions/shortString",
                        "description": "Structure"
                    },
                    "village": {
                        "$ref": "#/definitions/shortString",
                        "description": "Village"
                    },
                    "zone": {
                        "$ref": "#/definitions/shortString",
                        "description": "City Zone"
                    }
                },
				"required": [
					"objectId",
					"isPrimaryLocation",
					"latitude",
					"longitude"
				]
            }
        },
        "remarks": {
            "type": "array",
            "items": {
                "type": "object",
                "properties": {
                    "objectId": {
                        "$ref": "#/definitions/shortStringRequired",
                        "description": "objectId required for Edit Purposes"
                    },
                    "referenceId": {
                        "$ref": "#/definitions/shortString",
                        "description": "Reference to any subelement with in current report instance (e.g. Event Object ID)"
                    },
                    "remarkText": {
                        "$ref": "#/definitions/text",
                        "description": "Remark Text"
                    },
                    "remarkType": {
                        "$ref": "#/definitions/shortString",
                        "description": "Remark Type"
                    },
                    "remarkOrder": {
                        "$ref": "#/definitions/positive_num",
                        "description": "Remark Order"
                    },
                    "security": {
                        "$ref": "#/definitions/securityOptional"
                    }
                },
                "required": [
                    "objectId",
                    "remarkText",
                    "remarkType",
                    "security"
                ]
            }
        },
        "requirements": {
            "type": "array",
            "items": {
                "type": "object",
                "properties": {
                    "objectId": {
                        "$ref": "#/definitions/shortStringRequired",
                        "description": "objectId required for Edit Purposes"
                    },
                    "referenceId": {
                        "$ref": "#/definitions/shortString",
                        "description": "Reference to any subelement with in current report instance (e.g. Event Object ID)"
                    },
                    "requirement": {
                        "$ref": "#/definitions/longString",
                        "description": "Requirement sub based on Requirement Type"
                    },
                    "requirementType": {
                        "$ref": "#/definitions/shortString",
                        "description": "Requirement Type"
                    },
                    "comment": {
                        "$ref": "#/definitions/text",
                        "description": "Requirement Comment"
                    },
                    "security": {
                        "$ref": "#/definitions/securityOptional"
                    }
                },
                "required": [
                    "objectId",
                    "requirementType",
                    "requirement",
                    "comment"
                ]
            }
        },
        "security": {
                        "$ref": "#/definitions/security"
        },
        "objectHistory": {
            "type": "array",
            "items":
                    {
                        "$ref": "#/definitions/actionInfo"
                    }       
		},
			"details": {
				"type": "object",
				"description": "Operations DailySITREP Report details specific details",
				"fieldAlias2x": "details", 
						"properties": {
						
"civ": {
	"$ref": "#/definitions/longString"
			,"defaultLabel": "CIV"
			,"description": "CIV"
			,"fieldAlias2x": "CIV"
			,"isSearchable": false
			,"picklistDescription": null
			,"picklistUri": null
			,"picklistParent": null
		},
"command": {
	"$ref": "#/definitions/longString"
			,"defaultLabel": "Command"
			,"description": "Command"
			,"fieldAlias2x": "Command"
			,"isSearchable": false
			,"picklistDescription": null
			,"picklistUri": null
			,"picklistParent": null
		},
"commanderscommand": {
	"$ref": "#/definitions/longString"
			,"defaultLabel": "CommandersCommand"
			,"description": "CommandersCommand"
			,"fieldAlias2x": "CommandersCommand"
			,"isSearchable": false
			,"picklistDescription": null
			,"picklistUri": null
			,"picklistParent": null
		},
"commandersemail": {
	"$ref": "#/definitions/longString"
			,"defaultLabel": "CommandersEmail"
			,"description": "CommandersEmail"
			,"fieldAlias2x": "CommandersEmail"
			,"isSearchable": false
			,"picklistDescription": null
			,"picklistUri": null
			,"picklistParent": null
		},
"commandersoffice": {
	"$ref": "#/definitions/longString"
			,"defaultLabel": "CommandersOffice"
			,"description": "CommandersOffice"
			,"fieldAlias2x": "CommandersOffice"
			,"isSearchable": false
			,"picklistDescription": null
			,"picklistUri": null
			,"picklistParent": null
		},
"commandersphone": {
	"$ref": "#/definitions/longString"
			,"defaultLabel": "CommandersPhone"
			,"description": "CommandersPhone"
			,"fieldAlias2x": "CommandersPhone"
			,"isSearchable": false
			,"picklistDescription": null
			,"picklistUri": null
			,"picklistParent": null
		},
"comstat_acomment": {
	"$ref": "#/definitions/longString"
			,"defaultLabel": "COMSTAT_AComment"
			,"description": "COMSTAT_AComment"
			,"fieldAlias2x": "COMSTAT_AComment"
			,"isSearchable": false
			,"picklistDescription": null
			,"picklistUri": null
			,"picklistParent": null
		},
"comstat_astatus": {
	"$ref": "#/definitions/longString"
			,"defaultLabel": "COMSTAT_AStatus"
			,"description": "COMSTAT_AStatus"
			,"fieldAlias2x": "COMSTAT_AStatus"
			,"isSearchable": false
			,"picklistDescription": null
			,"picklistUri": null
			,"picklistParent": null
		},
"comstat_avalue": {
	"$ref": "#/definitions/longString"
			,"defaultLabel": "COMSTAT_Avalue"
			,"description": "COMSTAT_Avalue"
			,"fieldAlias2x": "COMSTAT_Avalue"
			,"isSearchable": false
			,"picklistDescription": null
			,"picklistUri": null
			,"picklistParent": null
		},
"comstat_ccomment": {
	"$ref": "#/definitions/longString"
			,"defaultLabel": "COMSTAT_CComment"
			,"description": "COMSTAT_CComment"
			,"fieldAlias2x": "COMSTAT_CComment"
			,"isSearchable": false
			,"picklistDescription": null
			,"picklistUri": null
			,"picklistParent": null
		},
"comstat_cstatus": {
	"$ref": "#/definitions/longString"
			,"defaultLabel": "COMSTAT_CStatus"
			,"description": "COMSTAT_CStatus"
			,"fieldAlias2x": "COMSTAT_CStatus"
			,"isSearchable": false
			,"picklistDescription": null
			,"picklistUri": null
			,"picklistParent": null
		},
"comstat_cvalue": {
	"$ref": "#/definitions/longString"
			,"defaultLabel": "COMSTAT_Cvalue"
			,"description": "COMSTAT_Cvalue"
			,"fieldAlias2x": "COMSTAT_Cvalue"
			,"isSearchable": false
			,"picklistDescription": null
			,"picklistUri": null
			,"picklistParent": null
		},
"comstat_ecomment": {
	"$ref": "#/definitions/longString"
			,"defaultLabel": "COMSTAT_EComment"
			,"description": "COMSTAT_EComment"
			,"fieldAlias2x": "COMSTAT_EComment"
			,"isSearchable": false
			,"picklistDescription": null
			,"picklistUri": null
			,"picklistParent": null
		},
"comstat_estatus": {
	"$ref": "#/definitions/longString"
			,"defaultLabel": "COMSTAT_EStatus"
			,"description": "COMSTAT_EStatus"
			,"fieldAlias2x": "COMSTAT_EStatus"
			,"isSearchable": false
			,"picklistDescription": null
			,"picklistUri": null
			,"picklistParent": null
		},
"comstat_evalue": {
	"$ref": "#/definitions/longString"
			,"defaultLabel": "COMSTAT_Evalue"
			,"description": "COMSTAT_Evalue"
			,"fieldAlias2x": "COMSTAT_Evalue"
			,"isSearchable": false
			,"picklistDescription": null
			,"picklistUri": null
			,"picklistParent": null
		},
"comstat_pcomment": {
	"$ref": "#/definitions/longString"
			,"defaultLabel": "COMSTAT_PComment"
			,"description": "COMSTAT_PComment"
			,"fieldAlias2x": "COMSTAT_PComment"
			,"isSearchable": false
			,"picklistDescription": null
			,"picklistUri": null
			,"picklistParent": null
		},
"comstat_pstatus": {
	"$ref": "#/definitions/longString"
			,"defaultLabel": "COMSTAT_PStatus"
			,"description": "COMSTAT_PStatus"
			,"fieldAlias2x": "COMSTAT_PStatus"
			,"isSearchable": false
			,"picklistDescription": null
			,"picklistUri": null
			,"picklistParent": null
		},
"comstat_pvalue": {
	"$ref": "#/definitions/longString"
			,"defaultLabel": "COMSTAT_Pvalue"
			,"description": "COMSTAT_Pvalue"
			,"fieldAlias2x": "COMSTAT_Pvalue"
			,"isSearchable": false
			,"picklistDescription": null
			,"picklistUri": null
			,"picklistParent": null
		},
"comstatna": {
	"type": "boolean"
			,"defaultLabel": "ComstatNA"
			,"description": "ComstatNA"
			,"fieldAlias2x": "ComstatNA"
			,"isSearchable": false
			,"picklistDescription": null
			,"picklistUri": null
			,"picklistParent": null
		},
"comstatrating": {
	"$ref": "#/definitions/longString"
			,"defaultLabel": "COMSTATRating"
			,"description": "COMSTATRating"
			,"fieldAlias2x": "COMSTATRating"
			,"isSearchable": false
			,"picklistDescription": null
			,"picklistUri": null
			,"picklistParent": null
		},
"distributionfield": {
	"$ref": "#/definitions/longString"
			,"defaultLabel": "DistributionField"
			,"description": "DistributionField"
			,"fieldAlias2x": "Distribution"
			,"isSearchable": false
			,"picklistDescription": null
			,"picklistUri": null
			,"picklistParent": null
		},
"reporttitlesecurity": {
	"$ref": "#/definitions/securityOptional"
					,"isSectionSecurity": true
				},
"enl": {
	"$ref": "#/definitions/longString"
			,"defaultLabel": "ENL"
			,"description": "ENL"
			,"fieldAlias2x": "ENL"
			,"isSearchable": false
			,"picklistDescription": null
			,"picklistUri": null
			,"picklistParent": null
		},
"filenumber": {
	"$ref": "#/definitions/longString"
			,"defaultLabel": "FileNumber"
			,"description": "FileNumber"
			,"fieldAlias2x": "FileNumber"
			,"isSearchable": false
			,"picklistDescription": null
			,"picklistUri": null
			,"picklistParent": null
		},
"logstat_estatus": {
	"$ref": "#/definitions/longString"
			,"defaultLabel": "LOGSTAT_EStatus"
			,"description": "LOGSTAT_EStatus"
			,"fieldAlias2x": "LOGSTAT_EStatus"
			,"isSearchable": false
			,"picklistDescription": null
			,"picklistUri": null
			,"picklistParent": null
		},
"logstat_mstatus": {
	"$ref": "#/definitions/longString"
			,"defaultLabel": "LOGSTAT_MStatus"
			,"description": "LOGSTAT_MStatus"
			,"fieldAlias2x": "LOGSTAT_MStatus"
			,"isSearchable": false
			,"picklistDescription": null
			,"picklistUri": null
			,"picklistParent": null
		},
"logstat_wstatus": {
	"$ref": "#/definitions/longString"
			,"defaultLabel": "LOGSTAT_WStatus"
			,"description": "LOGSTAT_WStatus"
			,"fieldAlias2x": "LOGSTAT_WStatus"
			,"isSearchable": false
			,"picklistDescription": null
			,"picklistUri": null
			,"picklistParent": null
		},
"logstatna": {
	"type": "boolean"
			,"defaultLabel": "LogstatNA"
			,"description": "LogstatNA"
			,"fieldAlias2x": "LogstatNA"
			,"isSearchable": false
			,"picklistDescription": null
			,"picklistUri": null
			,"picklistParent": null
		},
"logstatrating": {
	"$ref": "#/definitions/longString"
			,"defaultLabel": "LOGSTATRating"
			,"description": "LOGSTATRating"
			,"fieldAlias2x": "LOGSTATRating"
			,"isSearchable": false
			,"picklistDescription": null
			,"picklistUri": null
			,"picklistParent": null
		},
"mgrslatitude": {
	"$ref": "#/definitions/latitude_dds"
			,"defaultLabel": "MGRSLatitude"
			,"description": "MGRSLatitude"
			,"fieldAlias2x": "MGRSLatitude"
			,"isSearchable": false
			,"picklistDescription": null
			,"picklistUri": null
			,"picklistParent": null
		},
"mgrslongitude": {
	"$ref": "#/definitions/longitude_dds"
			,"defaultLabel": "MGRSLongitude"
			,"description": "MGRSLongitude"
			,"fieldAlias2x": "MGRSLongitude"
			,"isSearchable": false
			,"picklistDescription": null
			,"picklistUri": null
			,"picklistParent": null
		},
"ofc": {
	"$ref": "#/definitions/longString"
			,"defaultLabel": "OFC"
			,"description": "OFC"
			,"fieldAlias2x": "OFC"
			,"isSearchable": false
			,"picklistDescription": null
			,"picklistUri": null
			,"picklistParent": null
		},
"operationsna": {
	"type": "boolean"
			,"defaultLabel": "OperationsNA"
			,"description": "OperationsNA"
			,"fieldAlias2x": "OperationsNA"
			,"isSearchable": false
			,"picklistDescription": null
			,"picklistUri": null
			,"picklistParent": null
		},
"operationssummarylast24security": {
	"$ref": "#/definitions/securityOptional"
					,"isSectionSecurity": true
				},
"operationssummarynext24security": {
	"$ref": "#/definitions/securityOptional"
					,"isSectionSecurity": true
				},
"perstatsecurity": {
	"$ref": "#/definitions/securityOptional"
					,"isSectionSecurity": true
				},
"perstatna": {
	"type": "boolean"
			,"defaultLabel": "PerstatNA"
			,"description": "PerstatNA"
			,"fieldAlias2x": "PerstatNA"
			,"isSearchable": false
			,"picklistDescription": null
			,"picklistUri": null
			,"picklistParent": null
		},
"perstatrating": {
	"$ref": "#/definitions/longString"
			,"defaultLabel": "PERSTATRating"
			,"description": "PERSTATRating"
			,"fieldAlias2x": "PERSTATRating"
			,"isSearchable": false
			,"picklistDescription": null
			,"picklistUri": null
			,"picklistParent": null
		},
"readinessna": {
	"type": "boolean"
			,"defaultLabel": "ReadinessNA"
			,"description": "ReadinessNA"
			,"fieldAlias2x": "ReadinessNA"
			,"isSearchable": false
			,"picklistDescription": null
			,"picklistUri": null
			,"picklistParent": null
		},
"reportedby": {
	"$ref": "#/definitions/longString"
			,"defaultLabel": "ReportedBy"
			,"description": "ReportedBy"
			,"fieldAlias2x": "ReportedBy"
			,"isSearchable": false
			,"picklistDescription": null
			,"picklistUri": null
			,"picklistParent": null
		},
"reportendperiod": {
	"$ref": "#/definitions/dateTime"
			,"defaultLabel": "ReportEndPeriod"
			,"description": "ReportEndPeriod"
			,"fieldAlias2x": "ReportEndPeriod"
			,"isSearchable": false
			,"picklistDescription": null
			,"picklistUri": null
			,"picklistParent": null
		},
"sitreptype": {
	"$ref": "#/definitions/longString"
			,"defaultLabel": "SITREPType"
			,"description": "SITREPType"
			,"fieldAlias2x": "SITREPType"
			,"isSearchable": false
			,"picklistDescription": null
			,"picklistUri": null
			,"picklistParent": null
		},
"total": {
	"$ref": "#/definitions/longString"
			,"defaultLabel": "Total"
			,"description": "Total"
			,"fieldAlias2x": "Total"
			,"isSearchable": false
			,"picklistDescription": null
			,"picklistUri": null
			,"picklistParent": null
		},
"war": {
	"$ref": "#/definitions/longString"
			,"defaultLabel": "WAR"
			,"description": "WAR"
			,"fieldAlias2x": "WAR"
			,"isSearchable": false
			,"picklistDescription": null
			,"picklistUri": null
			,"picklistParent": null
		},
"commanderscomment": {
	"type": ["object","null"]
	,"defaultLabel": "CommandersComment"
	,"description": "CommandersComment"
	,"fieldAlias2x": "CommandersComment"
	,"isSearchable": false
	,"hasSecurity": true
	,"picklistDescription": null
	,"picklistUri": null
	,"picklistParent": null
	,"properties": {
				"objectValue": {		
					"$ref": "#/definitions/text"
				},
			   "security": {
					"$ref": "#/definitions/securityOptional"
				}
			},
			"required": [
				"objectValue",
				"security"
			]
	},
"commanderspoc": {
	"type": ["object","null"]
	,"defaultLabel": "CommandersPOC"
	,"description": "CommandersPOC"
	,"fieldAlias2x": "CommandersPOC"
	,"isSearchable": false
	,"hasSecurity": true
	,"picklistDescription": null
	,"picklistUri": null
	,"picklistParent": null
	,"properties": {
				"objectValue": {		
					"$ref": "#/definitions/longString"
				},
			   "security": {
					"$ref": "#/definitions/securityOptional"
				}
			},
			"required": [
				"objectValue",
				"security"
			]
	},
"comstat": {
	"type": ["object","null"]
	,"defaultLabel": "COMSTAT"
	,"description": "COMSTAT"
	,"fieldAlias2x": "COMSTAT"
	,"isSearchable": false
	,"hasSecurity": true
	,"picklistDescription": null
	,"picklistUri": null
	,"picklistParent": null
	,"properties": {
				"objectValue": {		
					"$ref": "#/definitions/text"
				},
			   "security": {
					"$ref": "#/definitions/securityOptional"
				}
			},
			"required": [
				"objectValue",
				"security"
			]
	},
"locationfield": {
	"type": ["object","null"]
	,"defaultLabel": "LocationField"
	,"description": "LocationField"
	,"fieldAlias2x": "Location"
	,"isSearchable": false
	,"hasSecurity": true
	,"picklistDescription": null
	,"picklistUri": null
	,"picklistParent": null
	,"properties": {
				"objectValue": {		
					"$ref": "#/definitions/longString"
				},
			   "security": {
					"$ref": "#/definitions/securityOptional"
				}
			},
			"required": [
				"objectValue",
				"security"
			]
	},
"logstat": {
	"type": ["object","null"]
	,"defaultLabel": "LOGSTAT"
	,"description": "LOGSTAT"
	,"fieldAlias2x": "LOGSTAT"
	,"isSearchable": false
	,"hasSecurity": true
	,"picklistDescription": null
	,"picklistUri": null
	,"picklistParent": null
	,"properties": {
				"objectValue": {		
					"$ref": "#/definitions/text"
				},
			   "security": {
					"$ref": "#/definitions/securityOptional"
				}
			},
			"required": [
				"objectValue",
				"security"
			]
	},
"mgrs": {
	"type": ["object","null"]
	,"defaultLabel": "MGRS"
	,"description": "MGRS"
	,"fieldAlias2x": "MGRS"
	,"isSearchable": false
	,"hasSecurity": true
	,"picklistDescription": null
	,"picklistUri": null
	,"picklistParent": null
	,"properties": {
				"objectValue": {		
					"$ref": "#/definitions/longString"
				},
			   "security": {
					"$ref": "#/definitions/securityOptional"
				}
			},
			"required": [
				"objectValue",
				"security"
			]
	},
"operationssummarylast24": {
	"type": ["object","null"]
	,"defaultLabel": "OperationsSummaryLast24"
	,"description": "OperationsSummaryLast24"
	,"fieldAlias2x": "OperationsSummaryLast24"
	,"isSearchable": false
	,"hasSecurity": true
	,"picklistDescription": null
	,"picklistUri": null
	,"picklistParent": null
	,"properties": {
				"objectValue": {		
					"$ref": "#/definitions/text"
				},
			   "security": {
					"$ref": "#/definitions/securityOptional"
				}
			},
			"required": [
				"objectValue",
				"security"
			]
	},
"operationssummarynext24": {
	"type": ["object","null"]
	,"defaultLabel": "OperationsSummaryNext24"
	,"description": "OperationsSummaryNext24"
	,"fieldAlias2x": "OperationsSummaryNext24"
	,"isSearchable": false
	,"hasSecurity": true
	,"picklistDescription": null
	,"picklistUri": null
	,"picklistParent": null
	,"properties": {
				"objectValue": {		
					"$ref": "#/definitions/text"
				},
			   "security": {
					"$ref": "#/definitions/securityOptional"
				}
			},
			"required": [
				"objectValue",
				"security"
			]
	},
"perstatfield": {
	"type": ["object","null"]
	,"defaultLabel": "PERSTATField"
	,"description": "PERSTATField"
	,"fieldAlias2x": "PERSTAT"
	,"isSearchable": false
	,"hasSecurity": true
	,"picklistDescription": null
	,"picklistUri": null
	,"picklistParent": null
	,"properties": {
				"objectValue": {		
					"$ref": "#/definitions/text"
				},
			   "security": {
					"$ref": "#/definitions/securityOptional"
				}
			},
			"required": [
				"objectValue",
				"security"
			]
	},
"situation": {
	"type": ["object","null"]
	,"defaultLabel": "Situation"
	,"description": "Situation"
	,"fieldAlias2x": "Situation"
	,"isSearchable": false
	,"hasSecurity": true
	,"picklistDescription": null
	,"picklistUri": null
	,"picklistParent": null
	,"properties": {
				"objectValue": {		
					"$ref": "#/definitions/text"
				},
			   "security": {
					"$ref": "#/definitions/securityOptional"
				}
			},
			"required": [
				"objectValue",
				"security"
			]
	},
"unit": {
	"type": ["object","null"]
	,"defaultLabel": "Unit"
	,"description": "Unit"
	,"fieldAlias2x": "Unit"
	,"isSearchable": false
	,"hasSecurity": true
	,"picklistDescription": null
	,"picklistUri": null
	,"picklistParent": null
	,"properties": {
				"objectValue": {		
					"$ref": "#/definitions/longString"
				},
			   "security": {
					"$ref": "#/definitions/securityOptional"
				}
			},
			"required": [
				"objectValue",
				"security"
			]
	},
			"associatediirs": {
				"type": "array",
				"description": "Operations DailySITREP Report AssociatedIIRs specific details",
				"fieldAlias2x": "AssociatedIIRs", 
					"items": {
						"type": "object",
						"properties": {
						
"referenceid": {
	"$ref": "#/definitions/longString"
			,"defaultLabel": "referenceId"
			,"description": "referenceId"
			,"fieldAlias2x": "AssociatedIIRsKey"
			,"isSearchable": false
			,"picklistDescription": null
			,"picklistUri": null
			,"picklistParent": null
		},
"iircomments": {
	"$ref": "#/definitions/longString"
			,"defaultLabel": "IIRComments"
			,"description": "IIRComments"
			,"fieldAlias2x": "IIRComments"
			,"isSearchable": false
			,"picklistDescription": null
			,"picklistUri": null
			,"picklistParent": null
		}
				}
			}
		},
			"components": {
				"type": "array",
				"description": "Operations DailySITREP Report Components specific details",
				"fieldAlias2x": "Components", 
					"items": {
						"type": "object",
						"properties": {
						
"referenceid": {
	"$ref": "#/definitions/longString"
			,"defaultLabel": "referenceId"
			,"description": "referenceId"
			,"fieldAlias2x": "ComponentsKey"
			,"isSearchable": false
			,"picklistDescription": null
			,"picklistUri": null
			,"picklistParent": null
		},
"component": {
	"type": ["object","null"]
	,"defaultLabel": "Component"
	,"description": "Component"
	,"fieldAlias2x": "Component"
	,"isSearchable": false
	,"hasSecurity": true
	,"picklistDescription": null
	,"picklistUri": null
	,"picklistParent": null
	,"properties": {
				"objectValue": {		
					"$ref": "#/definitions/longString"
				},
			   "security": {
					"$ref": "#/definitions/securityOptional"
				}
			},
			"required": [
				"objectValue",
				"security"
			]
	},
"mgrs": {
	"type": ["object","null"]
	,"defaultLabel": "MGRS"
	,"description": "MGRS"
	,"fieldAlias2x": "MGRS"
	,"isSearchable": false
	,"hasSecurity": true
	,"picklistDescription": null
	,"picklistUri": null
	,"picklistParent": null
	,"properties": {
				"objectValue": {		
					"$ref": "#/definitions/longString"
				},
			   "security": {
					"$ref": "#/definitions/securityOptional"
				}
			},
			"required": [
				"objectValue",
				"security"
			]
	}
				}
			}
		},
			"distribution": {
				"type": "array",
				"description": "Operations DailySITREP Report Distribution specific details",
				"fieldAlias2x": "Distribution", 
					"items": {
						"type": "object",
						"properties": {
						
"distribution": {
	"$ref": "#/definitions/longString"
			,"defaultLabel": "Distribution"
			,"description": "Distribution"
			,"fieldAlias2x": "Distribution"
			,"isSearchable": false
			,"picklistDescription": null
			,"picklistUri": null
			,"picklistParent": null
		},
"referenceid": {
	"$ref": "#/definitions/longString"
			,"defaultLabel": "referenceId"
			,"description": "referenceId"
			,"fieldAlias2x": "DistributionKey"
			,"isSearchable": false
			,"picklistDescription": null
			,"picklistUri": null
			,"picklistParent": null
		}
				}
			}
		},
			"missiondata": {
				"type": "array",
				"description": "Operations DailySITREP Report MissionData specific details",
				"fieldAlias2x": "MissionData", 
					"items": {
						"type": "object",
						"properties": {
						
"referenceid": {
	"$ref": "#/definitions/longString"
			,"defaultLabel": "referenceId"
			,"description": "referenceId"
			,"fieldAlias2x": "MissionDataKey"
			,"isSearchable": false
			,"picklistDescription": null
			,"picklistUri": null
			,"picklistParent": null
		},
"missionstatus": {
	"$ref": "#/definitions/longString"
			,"defaultLabel": "MissionStatus"
			,"description": "MissionStatus"
			,"fieldAlias2x": "MissionStatus"
			,"isSearchable": false
			,"picklistDescription": null
			,"picklistUri": null
			,"picklistParent": null
		},
"missionsummary": {
	"$ref": "#/definitions/text"
			,"defaultLabel": "MissionSummary"
			,"description": "MissionSummary"
			,"fieldAlias2x": "MissionSummary"
			,"isSearchable": false
			,"picklistDescription": null
			,"picklistUri": null
			,"picklistParent": null
		},
"missiontype": {
	"$ref": "#/definitions/longString"
			,"defaultLabel": "MissionType"
			,"description": "MissionType"
			,"fieldAlias2x": "MissionType"
			,"isSearchable": false
			,"picklistDescription": null
			,"picklistUri": null
			,"picklistParent": null
		}
				}
			}
		},
			"operations": {
				"type": "array",
				"description": "Operations DailySITREP Report Operations specific details",
				"fieldAlias2x": "Operations", 
					"items": {
						"type": "object",
						"properties": {
						
"operationsenddate": {
	"$ref": "#/definitions/dateTime"
			,"defaultLabel": "OperationsEndDate"
			,"description": "OperationsEndDate"
			,"fieldAlias2x": "OperationsEndDate"
			,"isSearchable": false
			,"picklistDescription": null
			,"picklistUri": null
			,"picklistParent": null
		},
"referenceid": {
	"$ref": "#/definitions/longString"
			,"defaultLabel": "referenceId"
			,"description": "referenceId"
			,"fieldAlias2x": "OperationsKey"
			,"isSearchable": false
			,"picklistDescription": null
			,"picklistUri": null
			,"picklistParent": null
		},
"operationsstartdate": {
	"$ref": "#/definitions/dateTime"
			,"defaultLabel": "OperationsStartDate"
			,"description": "OperationsStartDate"
			,"fieldAlias2x": "OperationsStartDate"
			,"isSearchable": false
			,"picklistDescription": null
			,"picklistUri": null
			,"picklistParent": null
		},
"operationstype": {
	"$ref": "#/definitions/longString"
			,"defaultLabel": "OperationsType"
			,"description": "OperationsType"
			,"fieldAlias2x": "OperationsType"
			,"isSearchable": false
			,"picklistDescription": null
			,"picklistUri": null
			,"picklistParent": null
		},
"opsum": {
	"$ref": "#/definitions/text"
			,"defaultLabel": "OPSUM"
			,"description": "OPSUM"
			,"fieldAlias2x": "OPSUM"
			,"isSearchable": false
			,"picklistDescription": null
			,"picklistUri": null
			,"picklistParent": null
		},
"sendtorecent": {
	"type": "boolean"
			,"defaultLabel": "SendToRecent"
			,"description": "SendToRecent"
			,"fieldAlias2x": "SendToRecent"
			,"isSearchable": false
			,"picklistDescription": null
			,"picklistUri": null
			,"picklistParent": null
		}
				}
			}
		},
			"paragraph": {
				"type": "array",
				"description": "Operations DailySITREP Report Paragraph specific details",
				"fieldAlias2x": "Paragraph", 
					"hasSecurity": true, 
					"items": {
						"type": "object",
						"properties": {
						
"referenceid": {
	"$ref": "#/definitions/longString"
			,"defaultLabel": "referenceId"
			,"description": "referenceId"
			,"fieldAlias2x": "ParagraphKey"
			,"isSearchable": false
			,"picklistDescription": null
			,"picklistUri": null
			,"picklistParent": null
		},
"subject": {
	"$ref": "#/definitions/longString"
			,"defaultLabel": "Subject"
			,"description": "Subject"
			,"fieldAlias2x": "Subject"
			,"isSearchable": false
			,"picklistDescription": null
			,"picklistUri": null
			,"picklistParent": null
		},
"summary": {
	"$ref": "#/definitions/text"
			,"defaultLabel": "Summary"
			,"description": "Summary"
			,"fieldAlias2x": "Summary"
			,"isSearchable": false
			,"picklistDescription": null
			,"picklistUri": null
			,"picklistParent": null
		},
                    "security": {
                        "$ref": "#/definitions/securityOptional"
                    }
				}
			}
		},
			"perstat": {
				"type": "array",
				"description": "Operations DailySITREP Report Perstat specific details",
				"fieldAlias2x": "Perstat", 
					"items": {
						"type": "object",
						"properties": {
						
"civ": {
	"$ref": "#/definitions/positive_int"
			,"defaultLabel": "CIV"
			,"description": "CIV"
			,"fieldAlias2x": "CIV"
			,"isSearchable": false
			,"picklistDescription": null
			,"picklistUri": null
			,"picklistParent": null
		},
"enl": {
	"$ref": "#/definitions/positive_int"
			,"defaultLabel": "ENL"
			,"description": "ENL"
			,"fieldAlias2x": "ENL"
			,"isSearchable": false
			,"picklistDescription": null
			,"picklistUri": null
			,"picklistParent": null
		},
"ofc": {
	"$ref": "#/definitions/positive_int"
			,"defaultLabel": "OFC"
			,"description": "OFC"
			,"fieldAlias2x": "OFC"
			,"isSearchable": false
			,"picklistDescription": null
			,"picklistUri": null
			,"picklistParent": null
		},
"referenceid": {
	"$ref": "#/definitions/longString"
			,"defaultLabel": "referenceId"
			,"description": "referenceId"
			,"fieldAlias2x": "PerstatKey"
			,"isSearchable": false
			,"picklistDescription": null
			,"picklistUri": null
			,"picklistParent": null
		},
"perstatrating": {
	"$ref": "#/definitions/longString"
			,"defaultLabel": "PERSTATRating"
			,"description": "PERSTATRating"
			,"fieldAlias2x": "PERSTATRating"
			,"isSearchable": false
			,"picklistDescription": null
			,"picklistUri": null
			,"picklistParent": null
		},
"total": {
	"$ref": "#/definitions/positive_int"
			,"defaultLabel": "Total"
			,"description": "Total"
			,"fieldAlias2x": "Total"
			,"isSearchable": false
			,"picklistDescription": null
			,"picklistUri": null
			,"picklistParent": null
		},
"war": {
	"$ref": "#/definitions/positive_int"
			,"defaultLabel": "WAR"
			,"description": "WAR"
			,"fieldAlias2x": "WAR"
			,"isSearchable": false
			,"picklistDescription": null
			,"picklistUri": null
			,"picklistParent": null
		},
"perstat": {
	"type": ["object","null"]
	,"defaultLabel": "Perstat"
	,"description": "Perstat"
	,"fieldAlias2x": "Perstat"
	,"isSearchable": false
	,"hasSecurity": true
	,"picklistDescription": null
	,"picklistUri": null
	,"picklistParent": null
	,"properties": {
				"objectValue": {		
					"$ref": "#/definitions/text"
				},
			   "security": {
					"$ref": "#/definitions/securityOptional"
				}
			},
			"required": [
				"objectValue",
				"security"
			]
	}
				}
			}
		},
			"requests": {
				"type": "array",
				"description": "Operations DailySITREP Report Requests specific details",
				"fieldAlias2x": "Requests", 
					"items": {
						"type": "object",
						"properties": {
						
"dateopen": {
	"$ref": "#/definitions/dateTime"
			,"defaultLabel": "DateOpen"
			,"description": "DateOpen"
			,"fieldAlias2x": "DateOpen"
			,"isSearchable": false
			,"picklistDescription": null
			,"picklistUri": null
			,"picklistParent": null
		},
"justification": {
	"$ref": "#/definitions/text"
			,"defaultLabel": "Justification"
			,"description": "Justification"
			,"fieldAlias2x": "Justification"
			,"isSearchable": false
			,"picklistDescription": null
			,"picklistUri": null
			,"picklistParent": null
		},
"priority": {
	"$ref": "#/definitions/longString"
			,"defaultLabel": "Priority"
			,"description": "Priority"
			,"fieldAlias2x": "Priority"
			,"isSearchable": false
			,"picklistDescription": null
			,"picklistUri": null
			,"picklistParent": null
		},
"referenceid": {
	"$ref": "#/definitions/longString"
			,"defaultLabel": "referenceId"
			,"description": "referenceId"
			,"fieldAlias2x": "RequestsKey"
			,"isSearchable": false
			,"picklistDescription": null
			,"picklistUri": null
			,"picklistParent": null
		},
"requesttype": {
	"$ref": "#/definitions/longString"
			,"defaultLabel": "RequestType"
			,"description": "RequestType"
			,"fieldAlias2x": "RequestType"
			,"isSearchable": false
			,"picklistDescription": null
			,"picklistUri": null
			,"picklistParent": null
		},
"trackingnumber": {
	"$ref": "#/definitions/longString"
			,"defaultLabel": "TrackingNumber"
			,"description": "TrackingNumber"
			,"fieldAlias2x": "TrackingNumber"
			,"isSearchable": false
			,"picklistDescription": null
			,"picklistUri": null
			,"picklistParent": null
		}
				}
			}
		}
				}
			}
	}
}
