	
{
    "type": "object",
    "id": "http://cidne.dae.smil.mil/schemas/SOF/Contact/CIDNEDM236",
    "description": "CIDNE SOF Contact Report Definition",
    "definitions": {
        "shortStringRequired": {
            "type": "string",
            "maxLength": 50
        },
        "longStringRequired": {
            "type": "string",
            "maxLength": 500
        },
        "textRequired": {
            "type": "string"
        },
        "textFieldLevelRequired": {
            "type": "object",
            "properties": {
                "objectValue": {
                    "type": "string"
                },
                "security": {
					"$ref": "#/definitions/security"
				}
            },
            "required": [
                "objectValue",
                "security"
            ]
        },
        "dateTimeRequired": {
            "type": "object",
            "properties": {
                "zuluDateTime": {
                    "type": "string",
                    "format": "date-time"
                },
                "zuluOffset": {
                    "type": "integer",
					"minimum": -840,
					"maximum": 840,
                    "description": "Offset in minutes from Zulu"
                }
            },
            "required": [
                "zuluDateTime",
                "zuluOffset"
            ]
        },
        "latitude_ddsRequired": {
            "type": "number",
            "minimum": -90,
            "maximum": 90
        },
        "longitude_ddsRequired": {
            "type": "number",
            "minimum": -180,
            "maximum": 180
        },
        "positive_intRequired": {
            "type": "integer",
            "minimum": 0
        },
        "positive_numRequired": {
            "type": "number",
            "minimum": 0
        },
        "positive_intRequired": {
            "type": "integer",
            "minimum": 0
        },
        "shortString": {
            "type": ["string","null"],
            "maxLength": 50
        },
        "longString": {
            "type": ["string","null"],
            "maxLength": 500
        },
        "text": {
            "type": ["string","null"]
        },
        "textFieldLevel": {
            "type": "object",
            "properties": {
                "objectValue": {
                    "type": ["string","null"]
                },
                "security": {
					"$ref": "#/definitions/securityOptional"
				}
            },
            "required": [
                "objectValue",
                "security"
            ]
        },
        "dateTime": {
            "type": ["object","null"],
            "properties": {
                "zuluDateTime": {
                    "type": "string",
                    "format": "date-time"
                },
                "zuluOffset": {
                    "type": "integer",
					"minimum": -840,
					"maximum": 840,
                    "description": "Offset in minutes from Zulu"
                }
            },
            "required": [
                "zuluDateTime",
                "zuluOffset"
            ]
        },
        "latitude_dds": {
            "type": ["number","null"],
            "minimum": -90,
            "maximum": 90
        },
        "longitude_dds": {
            "type": ["number","null"],
            "minimum": -180,
            "maximum": 180
        },
        "positive_int": {
            "type": ["integer","null"],
            "minimum": 0
        },
        "positive_num": {
            "type": ["number","null"],
            "minimum": 0
        },
        "num": {
            "type": ["number","null"]
        },
        "uniqueStringArray": {
            "type": "array",
            "uniqueItems": true,
            "items": {
                "type": "string"
            }
        },
        "securityOptional": {
            "oneOf": [
                {
                    "type": "null"
                },
                {
                    "$ref": "#/definitions/security"
                }
            ]
        },
        "security": {
            "type": "object",
            "properties": {
                "atomicEnergyMarkings": {
                    "$ref": "#/definitions/shortString",
                    "description": "Atomic Energy Act Information Markings"
                },
                "classificationReason": {
                    "$ref": "#/definitions/longString",
                    "description": ": Concise reason for classification"
                },
                "classification": {
                    "enum": [ "U", "TS", "S", "C" ],
                    "description": "Classification of information",
                    "defaultLabel": "Classification",
                    "isSearchable": false,
                    "picklistName": "classification",
                    "picklistUri": "http://cidne.dae.smil.mil/schemas/CAPCO/classification",
                    "picklistParent": null
                    
                },
                "classifiedBy": {
                    "$ref": "#/definitions/longString",
                    "description": "Identification by name and position, or personal identifier of the OCA"
                },
                "compilationReason": {
                    "$ref": "#/definitions/longString",
                    "description": "Reason why the compilation of information causes the classification"
                },
                "declassDate": {
                    "$ref": "#/definitions/dateTime",
                    "description": "Declassification date"
                },
                "declassEvent": {
                    "$ref": "#/definitions/shortString",
                    "description": "Declassification event"
                },
                "declassException": {
                    "$ref": "#/definitions/longString",
                    "description": "Declassification exception"
                },
                "derivativelyClassifiedBy": {
                    "$ref": "#/definitions/longString",
                    "description": "The derivative classifier’s identification by name and position, or by personal identifier, in a manner that is immediately apparent on each derivatively classified document. If not otherwise evident, the agency and office of origin shall be identified"
                },
                "derivedFrom": {
                    "$ref": "#/definitions/shortString",
                    "description": "Concisely identify the source document or the classification guide"
                },
                "displayOnlyTo": {
                    "$ref": "#/definitions/longString",
                    "description": "List of foreign country(ies)/international organization(s) authorized for disclosure without providing the recipient with a physical copy for retention, regardless of medium to the foreign country(ies)/international organization(s) indicated"
                },
                "disseminationControls": {
                    "$ref": "#/definitions/longString",
                    "description": "Control markings that identify the expansion or limitation on the distribution of information. These markings are in addition to and separate from the levels of classification"
                },
                "FGIsourceOpen": {
                    "$ref": "#/definitions/shortString",
                    "description": "Open Source Foreign Government Information"
                },
                "FGIsourceProtected": {
                    "$ref": "#/definitions/shortString",
                    "description": "Protected Source Foreign Government Information"
                },
                "nonICmarkings": {
                    "$ref": "#/definitions/text",
                    "description": "Markings authorized for use by entities outside of the Intelligence Community"
                },
                "nonUSControls": {
                    "$ref": "#/definitions/shortString",
                    "description": "Non-US protective markings"
                },
                "ownerProducer": {
                    "$ref": "#/definitions/shortStringRequired",
                    "description": "Owner/Producer",
                    "default": "USA",
                    "defaultLabel": "Owner Producer",
                    "isSearchable": false,
                    "picklistName": "ownerProducer",
                    "picklistUri": "http://cidne.dae.smil.mil/schemas/CAPCO/ownerProducer",
                    "picklistParent": null
                },
                "releasableToFilterField": {
                    "$ref": "#/definitions/shortString",
                    "description": "Need to add CAPCO Descriptions"
                },
                "releasableTo": {
                    "$ref": "#/definitions/text",
                    "description": "List of countries releasable to",
                    "defaultLabel": "Releasable To",
                    "isSearchable": false,
                    "picklistName": "releasableTo",
                    "picklistUri": "http://cidne.dae.smil.mil/schemas/CAPCO/releasableTo",
                    "picklistParent": null
                },
                "SARIdentifier": {
                    "$ref": "#/definitions/shortString",
                    "description": "Special access required programs"
                },
                "SCIcontrols": {
                    "$ref": "#/definitions/longString",
                    "description": "Sensitive Compartmented Information (SCI) control systems"
                }
            },
            "required": [
                "ownerProducer",
                "classification"
            ]
        },
        "actionInfo":{
            "type": "object",
            "properties": {
                "actionDate": {
                    "$ref": "#/definitions/dateTimeRequired",
                    "description": "Date Time Action was taken"
                },
                "group": {
                    "$ref": "#/definitions/longStringRequired",
                    "description": "User Group that performed action"
                },
                "parentGroup": {
                    "$ref": "#/definitions/longString",
                    "description": "User Group's Parent Group Name"
                },
                "nationality": {
                    "$ref": "#/definitions/shortStringRequired",
                    "description": "User Nationality"
                },
                "network": {
                    "$ref": "#/definitions/shortStringRequired",
                    "description": "Systems Network where action was taken"
                },
                "objectState": {
                    "description": "",
                    "enum": [
                        "CREATED",
                        "MODIFIED",
                        "TEMPLATE",
                        "SUBMITTED",
                        "PUBLISHED",
                        "VERSIONED",
                        "DEPRECATED",
                        "VALIDATING",
                        "RESTORED",
                        "MOVED"
                    ]
                },
                "site": {
                    "$ref": "#/definitions/shortStringRequired",
                    "description": "Systems Site"
                },
                "system": {
                    "$ref": "#/definitions/shortStringRequired",
                    "description": "System that provided the action"
                },
                "user": {
                    "$ref": "#/definitions/shortStringRequired",
                    "description": "User that performed action"
                }
            },
            "required": [
                "actionDate",
                "group",
                "parentGroup",
                "nationality",
                "network",
                "objectState",
                "site",
                "system",
                "user"
            ]
        },
        "position": {
            "description": "A single position. (order should be longitude,latitude)",
            "type": "array",
            "minItems": 2,
            "items": [
                {
                    "type": "number"
                },
                {
                    "type": "number"
                }
            ],
            "additionalItems": false
        },
        "positionArray": {
            "description": "An array of positions",
            "type": "array",
            "items": {
                "$ref": "#/definitions/position"
            }
        },
        "lineString": {
            "description": "An array of two or more positions",
            "allOf": [
                {
                    "type": "array",
                    "items": {
                        "$ref": "#/definitions/position"
                    }
                },
                {
                    "minItems": 2
                }
            ]
        },
        "linearRing": {
            "description": "An array of four positions where the first equals the last",
            "allOf": [
                {
                    "type": "array",
                    "items": {
                        "$ref": "#/definitions/position"
                    }
                },
                {
                    "minItems": 4
                }
            ]
        },
        "polygon": {
            "description": "An array of linear rings",
            "type": "array",
            "items": {
                "$ref": "#/definitions/linearRing"
            }
        },
        "geometry": {
            "title": "geometry",
            "description": "One geometry as defined by GeoJSON",
            "type": "object",
            "required": [
                "type",
                "coordinates"
            ],
            "oneOf": [
                {
                    "title": "Point",
                    "properties": {
                        "type": {
                            "enum": [
                                "Point"
                            ]
                        },
                        "coordinates": {
                            "$ref": "#/definitions/position"
                        }
                    }
                },
                {
                    "title": "MultiPoint",
                    "properties": {
                        "type": {
                            "enum": [
                                "MultiPoint"
                            ]
                        },
                        "coordinates": {
                            "type": "array",
                            "items": {
                                "$ref": "#/definitions/position"
                            }
                        }
                    }
                },
                {
                    "title": "LineString",
                    "properties": {
                        "type": {
                            "enum": [
                                "LineString"
                            ]
                        },
                        "coordinates": {
                            "$ref": "#/definitions/lineString"
                        }
                    }
                },
                {
                    "title": "MultiLineString",
                    "properties": {
                        "type": {
                            "enum": [
                                "MultiLineString"
                            ]
                        },
                        "coordinates": {
                            "type": "array",
                            "items": {
                                "$ref": "#/definitions/lineString"
                            }
                        }
                    }
                },
                {
                    "title": "Polygon",
                    "properties": {
                        "type": {
                            "enum": [
                                "Polygon"
                            ]
                        },
                        "coordinates": {
                            "$ref": "#/definitions/polygon"
                        }
                    }
                },
                {
                    "title": "MultiPolygon",
                    "properties": {
                        "type": {
                            "enum": [
                                "MultiPolygon"
                            ]
                        },
                        "coordinates": {
                            "type": "array",
                            "items": {
                                "$ref": "#/definitions/polygon"
                            }
                        }
                    }
                }
            ]
        },
        "geometryCollection": {
            "title": "GeometryCollection",
            "description": "A collection of geometry objects",
            "required": [
                "geometries"
            ],
            "properties": {
                "type": {
                    "enum": [
                        "GeometryCollection"
                    ]
                },
                "geometries": {
                    "type": "array",
                    "items": {
                        "$ref": "#/definitions/geometry"
                    }
                }
            }
        },
        "feature": {
            "title": "Feature",
            "description": "A Geo JSON feature object",
            "required": [
                "geometry"
            ],
            "properties": {
                "type": {
                    "enum": [
                        "Feature"
                    ]
                },
                "geometry": {
                    "oneOf": [
                        {
                            "type": "null"
                        },
                        {
                            "$ref": "#/definitions/geometry"
                        }
                    ]
                },
				"properties": { "type": [ "object", "null" ] },
                "id": { "type":["string"] }
            }
        },
        "featureCollection": {
            "description": "A GeoJSON feature collection",
            "required": [
                "features"
            ],
            "properties": {
                "type": {
                    "enum": [
                        "FeatureCollection"
                    ]
                },
                "features": {
                    "type": "array",
                    "items": {
                        "$ref": "#/definitions/feature"
                    }
                }
            }
        },
		"namedCrs": {
            "properties": {
                "type": { "enum": [ "name" ] },
                "properties": {
                    "required": [ "name" ],
                    "additionalProperties": false,
                    "properties": {
                        "name": {
                            "type": "string"
                        }
                    }
                }
            }
        },
        "linkedObject": {
            "type": "object",
            "required": [ "href" ],
            "properties": {
                "href": {
                    "type": "string",
                    "format": "uri"
                },
                "type": {
                    "type": "string",
                    "description": "Suggested values: proj4, ogjwkt, esriwkt"
                }
            }
        },
        "linkedCrs": {
            "properties": {
                "type": { "enum": [ "link" ] },
                "properties": { "$ref": "#/definitions/linkedObject" }
            }
        },	
		"crs":{
			"title": "crs",
			"description": "a Coordinate Reference System object",
			"type": [ "object", "null" ],
			"required": [ "type", "properties" ],
			"properties": {
				"type": { "type": "string" },
				"properties": { "type": "object" }
			},
			"additionalProperties": false,
			"oneOf": [
				{ "$ref": "#/definitions/namedCrs" },
				{ "$ref": "#/definitions/linkedCrs" }
			]
		},
		"bbox":{
		"description": "A bounding box as defined by GeoJSON",
			"type": "array",
			"items": { "type": "number" }
		},
        "geojson": {
            "title": "Geo JSON object",
            "description": "Schema for a Geo JSON object",
            "type": ["object","null"],
            "required": [
                "type"
            ],
			"properties": {
				"crs": { "$ref": "#/definitions/crs" },
				"bbox": { "$ref": "#/definitions/bbox" }
			},
            "anyOf": [
                {
                    "$ref": "#/definitions/geometry"
                },
                {
                    "$ref": "#/definitions/geometryCollection"
                },
                {
                    "$ref": "#/definitions/feature"
                },
                {
                    "$ref": "#/definitions/featureCollection"
                }
            ]
        }
    },
    "required": [
        "base",
        "datamodel",
        "formId",
        "location",
        "security",
        "details"
    ],	
    "properties": {
        "datamodel": {
            "$ref": "#/definitions/longString",
            "description": "Reference to the report definition."
        },
        "formId": {
            "$ref": "#/definitions/longString",
            "description": "Reference to the layout template identifier that this data was intended to be best visualized"
        },
        "base": {
            "type": "object",
            "description": "The core metadata used within all report definitions",
            "properties": {
                "objectId": {
                    "$ref": "#/definitions/shortStringRequired",
                    "description": "Report instance unique identifier"
                },
                "reportId": {
                    "$ref": "#/definitions/shortStringRequired",
                    "description": "Original report instance objectId for a report version grouping. (i.e. the root report identifier)"
                },
                "parentVersionId": {
                    "$ref": "#/definitions/shortString",
                    "description": "Report instance's objectId of the parent report. NOTE: If there is no parent, this value should be set to the report instance's own objectId. "
                },
                "module": {
                    "$ref": "#/definitions/shortStringRequired",
                    "description": "CIDNE community"
                },
                "reportType": {
                    "$ref": "#/definitions/shortStringRequired",
                    "description": "CIDNE report type (e.g. SIGACT)"
                },
                "reportSerial": {
                    "$ref": "#/definitions/textFieldLevel",
					"defaultLabel": "DisplaySerial",
					"description": "Report instance nomenclature (DisplaySerial)",
					"fieldAlias2x": "DisplaySerial"
                },
                "reportTitle": {
                    "$ref": "#/definitions/textFieldLevel",
					"defaultLabel": "DisplayTitle",
					"description": "Report instance title text (DisplayTitle)",
					"fieldAlias2x": "DisplayTitle"
                },
                "reportSummary": {
                    "$ref": "#/definitions/textFieldLevel",
					"defaultLabel": "DisplaySummary",
					"description": "Report instance summary text block (DisplaySummary)",
					"fieldAlias2x": "DisplaySummary"
                },
                "reportDate": {
                    "$ref": "#/definitions/dateTimeRequired",
					"defaultLabel": "DatePosted",
					"description": "Primary report instance date (DatePosted)",
					"fieldAlias2x": "DatePosted"
                },
                "reportSymbol": {
                    "$ref": "#/definitions/longString",
                    "description": "Report instance symbology"
                },
                "reportImage": {
                    "$ref": "#/definitions/longString",
                    "description": "Primary image of report instance"
                },
                "reportCountry": {
                    "$ref": "#/definitions/shortString",
                    "description": "Country value of report instance's primary location"
                },
                "reportLatitude": {
                    "$ref": "#/definitions/latitude_dds",
                    "description": "Latitude value of report instance's primary location"
                },
                "reportLongitude": {
                    "$ref": "#/definitions/longitude_dds",
                    "description": "Longitude value of report instance's primary location"
                },
				"geoLocation":{
					"$ref":"#/definitions/geojson"
				},
                "currentObjectState":{
                        "$ref": "#/definitions/actionInfo"
                },
                "originatingGroup": {
                    "$ref": "#/definitions/longStringRequired",
                    "description": "Original creator's group"
                },  
                "originatingUser": {
                    "$ref": "#/definitions/longStringRequired",
                    "description": "Original creator's User Name or email address"
                },  
				"isTearline": {
                    "type": "boolean",
                    "description": "Determines whether a report is a tearline"
                },
				"tearlineId": {
					"$ref": "#/definitions/shortString",
                    "description": "The reportId of the parent, used as a tearline group binding"
				},
                "theaterFilter": {
                    "$ref": "#/definitions/shortStringRequired",
                    "description": "Report instance theater of relevance"
                },
                "warehouseUri": {
                    "$ref": "#/definitions/longStringRequired",
                    "description": "Data warehouse location for report instance",
                    "format": "uri"
                }
            },
            "required": [
                "isTearline",
                "module",
                "objectId",
                "currentObjectState",
                "originatingGroup",
                "originatingUser",
                "reportId",
                "reportSerial",
                "reportDate",
                "theaterFilter",
                "reportType",
                "reportTitle",
                "reportSummary"
            ]
        },
        "location": {
            "type": "array",
            "description": "All locations for the report instance",
            "items": {
                "type": "object",
                "properties": {
                    "objectId": {
                        "$ref": "#/definitions/shortStringRequired",
                        "description": "objectId required for Edit Purposes"
                    },
                    "address": {
                        "$ref": "#/definitions/longString",
                        "description": "Address Details"
                    },
                    "alternateRoute": {
                        "$ref": "#/definitions/longString",
                        "description": "Alternate Route for location"
                    },
                    "ao": {
                        "$ref": "#/definitions/shortString",
                        "description": "Area of Operations"
                    },
                    "basecamp": {
                        "$ref": "#/definitions/shortString",
                        "description": "Base Camp"
                    },
                    "city": {
                        "$ref": "#/definitions/shortString",
                        "description": "City for Location"
                    },
                    "confidence": {
                        "$ref": "#/definitions/shortString",
                        "description": "Reporters Confidence in Location Value"
                    },
                    "country": {
                        "$ref": "#/definitions/shortString",
                        "description": "Location Country"
                    },
                    "customGeom": {
                        "type": "object",
                        "description": "Custom Geometry Object for Location",
                        "properties": {
                            "customGeomObjectId": {
                                "$ref": "#/definitions/shortString",
                                "description": "objectId for Custom Geometry Object"
                            },
                            "geomType": {
                                "$ref": "#/definitions/shortString",
                                "description": "Geometry Type for custom geometry object (e.g. Point, Multi-polygon"
                            },
                            "geom": {
                                "$ref": "#/definitions/shortString",
                                "description": "TBD GEOM Object for Custom Location Object"
                            },
                            "name": {
                                "$ref": "#/definitions/shortString",
                                "description": "Custom Location Name"
                            }
                        }
                    },
                    "dateEndLocation": {
                        "$ref": "#/definitions/dateTime",
                        "description": "Ending Date Time for location"
                    },
                    "dateStartLocation": {
                        "$ref": "#/definitions/dateTime",
                        "description": "Starting Date Time for location"
                    },
                    "derivedLocation": {
                        "type": "boolean",
                        "description": "Was Location Lat/Long derived from user picklists?"
                    },
                    "description": {
                        "$ref": "#/definitions/text",
                        "description": "Location Description"
                    },
                    "distanceFromCityCenter": {
                        "$ref": "#/definitions/positive_int",
                        "description": "Distance in meters to nearest city center"
                    },
                    "distanceToNearestFOB": {
                        "$ref": "#/definitions/positive_num",
                        "description": "Distance in meters to nearest FOB"
                    },
                    "distanceToNearestRoute": {
                        "$ref": "#/definitions/positive_num",
                        "description": "Distance in meters to nearest Route"
                    },
                    "district": {
                        "$ref": "#/definitions/shortString",
                        "description": "District"
                    },
                    "fob": {
                        "$ref": "#/definitions/shortString",
                        "description": "FOB"
                    },
					"geoLocation":{
						"$ref":"#/definitions/geojson"
					},
					"house": {
                        "$ref": "#/definitions/shortString",
                        "description": "HOUSE"
                    },
                    "isPrimaryLocation": {
                        "type": "boolean",
                        "description": "Marks Primary Location"
                    },
                    "latitude": {
                        "$ref": "#/definitions/latitude_ddsRequired",
                        "description": "Latitude of Location in Degree Decimal Seconds"
                    },
                    "locationActive": {
                        "type": "boolean",
                        "description": "Is Location Active?"
                    },
                    "locationType": {
                        "$ref": "#/definitions/shortString",
                        "description": "Location Type"
                    },
                    "longitude": {
                        "$ref": "#/definitions/longitude_ddsRequired",
                        "description": "Longitude of Location in Degree Decimal Seconds"
                    },
                    "mscCurrent": {
                        "$ref": "#/definitions/shortString",
                        "description": "Current Major Supporting Command responsible for location"
                    },
                    "mscDateOfCurrent": {
                        "$ref": "#/definitions/dateTime",
                        "description": "Date Of Current Major Supporting Command's Control of location"
                    },
                    "msc": {
                        "$ref": "#/definitions/shortString",
                        "description": "Major Supporting Command responsible for location"
                    },
                    "nai": {
                        "$ref": "#/definitions/shortString",
                        "description": "Named Area of Interest"
                    },
                    "nearestCity": {
                        "$ref": "#/definitions/shortString",
                        "description": "Nearest City"
                    },
                    "nearestFOB": {
                        "$ref": "#/definitions/shortString",
                        "description": "Nearest FOB"
                    },
                    "nearestRoute": {
                        "$ref": "#/definitions/shortString",
                        "description": "Nearest Route"
                    },
                    "neighborhood": {
                        "$ref": "#/definitions/shortString",
                        "description": "Neighborhood for location"
                    },
                    "populationCenterType": {
                        "$ref": "#/definitions/shortString",
                        "description": "Population Center Type"
                    },
                    "populationCenter": {
                        "$ref": "#/definitions/shortString",
                        "description": "Population Center"
                    },
                    "province": {
                        "$ref": "#/definitions/shortString",
                        "description": "Province"
                    },
                    "referenceId": {
                        "$ref": "#/definitions/shortString",
                        "description": "Reference to any subelement with in current report instance (e.g. Event Object ID)"
                    },
                    "route": {
                        "$ref": "#/definitions/shortString",
                        "description": "Route"
                    },
                    "security": {
                        "$ref": "#/definitions/securityOptional"
                    },
                    "street": {
                        "$ref": "#/definitions/shortString",
                        "description": "Street"
                    },
                    "structure": {
                        "$ref": "#/definitions/shortString",
                        "description": "Structure"
                    },
                    "village": {
                        "$ref": "#/definitions/shortString",
                        "description": "Village"
                    },
                    "zone": {
                        "$ref": "#/definitions/shortString",
                        "description": "City Zone"
                    }
                },
				"required": [
					"objectId",
					"isPrimaryLocation",
					"latitude",
					"longitude"
				]
            }
        },
        "remarks": {
            "type": "array",
            "items": {
                "type": "object",
                "properties": {
                    "objectId": {
                        "$ref": "#/definitions/shortStringRequired",
                        "description": "objectId required for Edit Purposes"
                    },
                    "referenceId": {
                        "$ref": "#/definitions/shortString",
                        "description": "Reference to any subelement with in current report instance (e.g. Event Object ID)"
                    },
                    "remarkText": {
                        "$ref": "#/definitions/text",
                        "description": "Remark Text"
                    },
                    "remarkType": {
                        "$ref": "#/definitions/shortString",
                        "description": "Remark Type"
                    },
                    "remarkOrder": {
                        "$ref": "#/definitions/positive_num",
                        "description": "Remark Order"
                    },
                    "security": {
                        "$ref": "#/definitions/securityOptional"
                    }
                },
                "required": [
                    "objectId",
                    "remarkText",
                    "remarkType",
                    "security"
                ]
            }
        },
        "requirements": {
            "type": "array",
            "items": {
                "type": "object",
                "properties": {
                    "objectId": {
                        "$ref": "#/definitions/shortStringRequired",
                        "description": "objectId required for Edit Purposes"
                    },
                    "referenceId": {
                        "$ref": "#/definitions/shortString",
                        "description": "Reference to any subelement with in current report instance (e.g. Event Object ID)"
                    },
                    "requirement": {
                        "$ref": "#/definitions/longString",
                        "description": "Requirement sub based on Requirement Type"
                    },
                    "requirementType": {
                        "$ref": "#/definitions/shortString",
                        "description": "Requirement Type"
                    },
                    "comment": {
                        "$ref": "#/definitions/text",
                        "description": "Requirement Comment"
                    },
                    "security": {
                        "$ref": "#/definitions/securityOptional"
                    }
                },
                "required": [
                    "objectId",
                    "requirementType",
                    "requirement",
                    "comment"
                ]
            }
        },
        "security": {
                        "$ref": "#/definitions/security"
        },
        "objectHistory": {
            "type": "array",
            "items":
                    {
                        "$ref": "#/definitions/actionInfo"
                    }       
		},
			"details": {
				"type": "object",
				"description": "SOF Contact Report details specific details",
				"fieldAlias2x": "details", 
						"properties": {
						
"benumber": {
	"$ref": "#/definitions/text"
			,"defaultLabel": "BENumber"
			,"description": "BENumber"
			,"fieldAlias2x": "BENumber"
			,"isSearchable": false
			,"picklistDescription": null
			,"picklistUri": null
			,"picklistParent": null
		},
"birthdate": {
	"$ref": "#/definitions/longString"
			,"defaultLabel": "BirthDate"
			,"description": "BirthDate"
			,"fieldAlias2x": "BirthDate"
			,"isSearchable": false
			,"picklistDescription": null
			,"picklistUri": null
			,"picklistParent": null
		},
"doi": {
	"$ref": "#/definitions/dateTime"
			,"defaultLabel": "DOI"
			,"description": "DOI"
			,"fieldAlias2x": "DOI"
			,"isSearchable": false
			,"picklistDescription": null
			,"picklistUri": null
			,"picklistParent": null
		},
"expired": {
	"type": "boolean"
			,"defaultLabel": "Expired"
			,"description": "Expired"
			,"fieldAlias2x": "Expired"
			,"isSearchable": false
			,"picklistDescription": null
			,"picklistUri": null
			,"picklistParent": null
		},
"firstname": {
	"$ref": "#/definitions/longString"
			,"defaultLabel": "FirstName"
			,"description": "FirstName"
			,"fieldAlias2x": "FirstName"
			,"isSearchable": false
			,"picklistDescription": null
			,"picklistUri": null
			,"picklistParent": null
		},
"keywords": {
	"$ref": "#/definitions/longString"
			,"defaultLabel": "Keywords"
			,"description": "Keywords"
			,"fieldAlias2x": "Keywords"
			,"isSearchable": false
			,"picklistDescription": null
			,"picklistUri": null
			,"picklistParent": null
		},
"lastname": {
	"$ref": "#/definitions/longString"
			,"defaultLabel": "LastName"
			,"description": "LastName"
			,"fieldAlias2x": "LastName"
			,"isSearchable": false
			,"picklistDescription": null
			,"picklistUri": null
			,"picklistParent": null
		},
"latitude": {
	"$ref": "#/definitions/latitude_dds"
			,"defaultLabel": "Latitude"
			,"description": "Latitude"
			,"fieldAlias2x": "Latitude"
			,"isSearchable": false
			,"picklistDescription": null
			,"picklistUri": null
			,"picklistParent": null
		},
"longitude": {
	"$ref": "#/definitions/longitude_dds"
			,"defaultLabel": "Longitude"
			,"description": "Longitude"
			,"fieldAlias2x": "Longitude"
			,"isSearchable": false
			,"picklistDescription": null
			,"picklistUri": null
			,"picklistParent": null
		},
"mgrs": {
	"$ref": "#/definitions/longString"
			,"defaultLabel": "MGRS"
			,"description": "MGRS"
			,"fieldAlias2x": "MGRS"
			,"isSearchable": false
			,"picklistDescription": null
			,"picklistUri": null
			,"picklistParent": null
		},
"middlename": {
	"$ref": "#/definitions/longString"
			,"defaultLabel": "MiddleName"
			,"description": "MiddleName"
			,"fieldAlias2x": "MiddleName"
			,"isSearchable": false
			,"picklistDescription": null
			,"picklistUri": null
			,"picklistParent": null
		},
"nationality": {
	"$ref": "#/definitions/longString"
			,"defaultLabel": "Nationality"
			,"description": "Nationality"
			,"fieldAlias2x": "Nationality"
			,"isSearchable": false
			,"picklistDescription": null
			,"picklistUri": null
			,"picklistParent": null
		},
"reportcategory": {
	"$ref": "#/definitions/longString"
			,"defaultLabel": "ReportCategory"
			,"description": "ReportCategory"
			,"fieldAlias2x": "ReportCategory"
			,"isSearchable": false
			,"picklistDescription": null
			,"picklistUri": null
			,"picklistParent": null
		},
"reportstance": {
	"$ref": "#/definitions/longString"
			,"defaultLabel": "ReportStance"
			,"description": "ReportStance"
			,"fieldAlias2x": "ReportStance"
			,"isSearchable": false
			,"picklistDescription": null
			,"picklistUri": null
			,"picklistParent": null
		},
"reportstatus": {
	"$ref": "#/definitions/longString"
			,"defaultLabel": "ReportStatus"
			,"description": "ReportStatus"
			,"fieldAlias2x": "ReportStatus"
			,"isSearchable": false
			,"picklistDescription": null
			,"picklistUri": null
			,"picklistParent": null
		},
"reporttitle": {
	"$ref": "#/definitions/longString"
			,"defaultLabel": "ReportTitle"
			,"description": "ReportTitle"
			,"fieldAlias2x": "ReportTitle"
			,"isSearchable": false
			,"picklistDescription": null
			,"picklistUri": null
			,"picklistParent": null
		},
"reporttype": {
	"$ref": "#/definitions/longString"
			,"defaultLabel": "ReportType"
			,"description": "ReportType"
			,"fieldAlias2x": "ReportType"
			,"isSearchable": false
			,"picklistDescription": null
			,"picklistUri": null
			,"picklistParent": null
		},
"significance": {
	"$ref": "#/definitions/text"
			,"defaultLabel": "Significance"
			,"description": "Significance"
			,"fieldAlias2x": "Significance"
			,"isSearchable": false
			,"picklistDescription": null
			,"picklistUri": null
			,"picklistParent": null
		},
"statusofreport": {
	"$ref": "#/definitions/longString"
			,"defaultLabel": "StatusOfReport"
			,"description": "StatusOfReport"
			,"fieldAlias2x": "StatusOfReport"
			,"isSearchable": false
			,"picklistDescription": null
			,"picklistUri": null
			,"picklistParent": null
		},
"submittedby": {
	"$ref": "#/definitions/longString"
			,"defaultLabel": "SubmittedBy"
			,"description": "SubmittedBy"
			,"fieldAlias2x": "SubmittedBy"
			,"isSearchable": false
			,"picklistDescription": null
			,"picklistUri": null
			,"picklistParent": null
		},
"submittedbyemail": {
	"$ref": "#/definitions/longString"
			,"defaultLabel": "SubmittedByEmail"
			,"description": "SubmittedByEmail"
			,"fieldAlias2x": "SubmittedByEmail"
			,"isSearchable": false
			,"picklistDescription": null
			,"picklistUri": null
			,"picklistParent": null
		},
"submittedbyphone": {
	"$ref": "#/definitions/longString"
			,"defaultLabel": "SubmittedByPhone"
			,"description": "SubmittedByPhone"
			,"fieldAlias2x": "SubmittedByPhone"
			,"isSearchable": false
			,"picklistDescription": null
			,"picklistUri": null
			,"picklistParent": null
		},
"suffix": {
	"$ref": "#/definitions/longString"
			,"defaultLabel": "Suffix"
			,"description": "Suffix"
			,"fieldAlias2x": "Suffix"
			,"isSearchable": false
			,"picklistDescription": "Suffix"
			,"picklistUri": "SOFContact-Suffix"
			,"picklistParent": null
		},
"translatorrequired": {
	"type": "boolean"
			,"defaultLabel": "TranslatorRequired"
			,"description": "TranslatorRequired"
			,"fieldAlias2x": "TranslatorRequired"
			,"isSearchable": false
			,"picklistDescription": null
			,"picklistUri": null
			,"picklistParent": null
		},
"validationdate": {
	"$ref": "#/definitions/dateTime"
			,"defaultLabel": "ValidationDate"
			,"description": "ValidationDate"
			,"fieldAlias2x": "ValidationDate"
			,"isSearchable": false
			,"picklistDescription": null
			,"picklistUri": null
			,"picklistParent": null
		},
			"aliases": {
				"type": "array",
				"description": "SOF Contact Report Aliases specific details",
				"fieldAlias2x": "Aliases", 
					"items": {
						"type": "object",
						"properties": {
						
"alias": {
	"$ref": "#/definitions/longString"
			,"defaultLabel": "Alias"
			,"description": "Alias"
			,"fieldAlias2x": "Alias"
			,"isSearchable": false
			,"picklistDescription": null
			,"picklistUri": null
			,"picklistParent": null
		},
"referenceid": {
	"$ref": "#/definitions/longString"
			,"defaultLabel": "referenceId"
			,"description": "referenceId"
			,"fieldAlias2x": "AliasesKey"
			,"isSearchable": false
			,"picklistDescription": null
			,"picklistUri": null
			,"picklistParent": null
		}
				}
			}
		},
			"contactinfo": {
				"type": "array",
				"description": "SOF Contact Report ContactInfo specific details",
				"fieldAlias2x": "ContactInfo", 
					"items": {
						"type": "object",
						"properties": {
						
"referenceid": {
	"$ref": "#/definitions/longString"
			,"defaultLabel": "referenceId"
			,"description": "referenceId"
			,"fieldAlias2x": "ContactInfoKey"
			,"isSearchable": false
			,"picklistDescription": null
			,"picklistUri": null
			,"picklistParent": null
		},
"contactinformation": {
	"$ref": "#/definitions/longString"
			,"defaultLabel": "ContactInformation"
			,"description": "ContactInformation"
			,"fieldAlias2x": "ContactInformation"
			,"isSearchable": false
			,"picklistDescription": null
			,"picklistUri": null
			,"picklistParent": null
		},
"contacttype": {
	"$ref": "#/definitions/longString"
			,"defaultLabel": "ContactType"
			,"description": "ContactType"
			,"fieldAlias2x": "ContactType"
			,"isSearchable": false
			,"picklistDescription": "ContactType"
			,"picklistUri": "SOFContact-ContactType"
			,"picklistParent": null
		}
				}
			}
		},
			"description": {
				"type": "array",
				"description": "SOF Contact Report Description specific details",
				"fieldAlias2x": "Description", 
					"items": {
						"type": "object",
						"properties": {
						
"build": {
	"$ref": "#/definitions/longString"
			,"defaultLabel": "Build"
			,"description": "Build"
			,"fieldAlias2x": "Build"
			,"isSearchable": false
			,"picklistDescription": "Build"
			,"picklistUri": "SOFContact-Build"
			,"picklistParent": null
		},
"descriptiondetails": {
	"$ref": "#/definitions/text"
			,"defaultLabel": "DescriptionDetails"
			,"description": "DescriptionDetails"
			,"fieldAlias2x": "DescriptionDetails"
			,"isSearchable": false
			,"picklistDescription": null
			,"picklistUri": null
			,"picklistParent": null
		},
"referenceid": {
	"$ref": "#/definitions/longString"
			,"defaultLabel": "referenceId"
			,"description": "referenceId"
			,"fieldAlias2x": "DescriptionKey"
			,"isSearchable": false
			,"picklistDescription": null
			,"picklistUri": null
			,"picklistParent": null
		},
"distinguishingmarks": {
	"$ref": "#/definitions/longString"
			,"defaultLabel": "DistinguishingMarks"
			,"description": "DistinguishingMarks"
			,"fieldAlias2x": "DistinguishingMarks"
			,"isSearchable": false
			,"picklistDescription": null
			,"picklistUri": null
			,"picklistParent": null
		},
"eyecolor": {
	"$ref": "#/definitions/longString"
			,"defaultLabel": "EyeColor"
			,"description": "EyeColor"
			,"fieldAlias2x": "EyeColor"
			,"isSearchable": false
			,"picklistDescription": "EyeColor"
			,"picklistUri": "SOFContact-EyeColor"
			,"picklistParent": null
		},
"facialhair": {
	"$ref": "#/definitions/longString"
			,"defaultLabel": "FacialHair"
			,"description": "FacialHair"
			,"fieldAlias2x": "FacialHair"
			,"isSearchable": false
			,"picklistDescription": null
			,"picklistUri": null
			,"picklistParent": null
		},
"gender": {
	"$ref": "#/definitions/longString"
			,"defaultLabel": "Gender"
			,"description": "Gender"
			,"fieldAlias2x": "Gender"
			,"isSearchable": false
			,"picklistDescription": "Gender"
			,"picklistUri": "SOFContact-Gender"
			,"picklistParent": null
		},
"haircolor": {
	"$ref": "#/definitions/longString"
			,"defaultLabel": "HairColor"
			,"description": "HairColor"
			,"fieldAlias2x": "HairColor"
			,"isSearchable": false
			,"picklistDescription": "HairColor"
			,"picklistUri": "SOFContact-HairColor"
			,"picklistParent": null
		},
"height": {
	"$ref": "#/definitions/longString"
			,"defaultLabel": "Height"
			,"description": "Height"
			,"fieldAlias2x": "Height"
			,"isSearchable": false
			,"picklistDescription": null
			,"picklistUri": null
			,"picklistParent": null
		},
"heightmeasure": {
	"$ref": "#/definitions/longString"
			,"defaultLabel": "HeightMeasure"
			,"description": "HeightMeasure"
			,"fieldAlias2x": "HeightMeasure"
			,"isSearchable": false
			,"picklistDescription": "HeightMeasure"
			,"picklistUri": "SOFContact-HeightMeasure"
			,"picklistParent": null
		},
"mannerofdress": {
	"$ref": "#/definitions/longString"
			,"defaultLabel": "MannerOfDress"
			,"description": "MannerOfDress"
			,"fieldAlias2x": "MannerOfDress"
			,"isSearchable": false
			,"picklistDescription": "MannerOfDress"
			,"picklistUri": "SOFContact-MannerOfDress"
			,"picklistParent": null
		},
"weight": {
	"$ref": "#/definitions/longString"
			,"defaultLabel": "Weight"
			,"description": "Weight"
			,"fieldAlias2x": "Weight"
			,"isSearchable": false
			,"picklistDescription": null
			,"picklistUri": null
			,"picklistParent": null
		},
"weightmeasure": {
	"$ref": "#/definitions/longString"
			,"defaultLabel": "WeightMeasure"
			,"description": "WeightMeasure"
			,"fieldAlias2x": "WeightMeasure"
			,"isSearchable": false
			,"picklistDescription": "WeightMeasure"
			,"picklistUri": "SOFContact-WeightMeasure"
			,"picklistParent": null
		},
"writinghand": {
	"$ref": "#/definitions/longString"
			,"defaultLabel": "WritingHand"
			,"description": "WritingHand"
			,"fieldAlias2x": "WritingHand"
			,"isSearchable": false
			,"picklistDescription": "WritingHand"
			,"picklistUri": "SOFContact-WritingHand"
			,"picklistParent": null
		}
				}
			}
		},
			"languagesspoken": {
				"type": "array",
				"description": "SOF Contact Report LanguagesSpoken specific details",
				"fieldAlias2x": "LanguagesSpoken", 
					"items": {
						"type": "object",
						"properties": {
						
"language": {
	"$ref": "#/definitions/longString"
			,"defaultLabel": "Language"
			,"description": "Language"
			,"fieldAlias2x": "Language"
			,"isSearchable": false
			,"picklistDescription": null
			,"picklistUri": null
			,"picklistParent": null
		},
"referenceid": {
	"$ref": "#/definitions/longString"
			,"defaultLabel": "referenceId"
			,"description": "referenceId"
			,"fieldAlias2x": "LanguagesSpokenKey"
			,"isSearchable": false
			,"picklistDescription": null
			,"picklistUri": null
			,"picklistParent": null
		},
"literate": {
	"$ref": "#/definitions/longString"
			,"defaultLabel": "Literate"
			,"description": "Literate"
			,"fieldAlias2x": "Literate"
			,"isSearchable": false
			,"picklistDescription": "Literate"
			,"picklistUri": "SOFContact-Literate"
			,"picklistParent": null
		},
"primarylanguage": {
	"type": "boolean"
			,"defaultLabel": "PrimaryLanguage"
			,"description": "PrimaryLanguage"
			,"fieldAlias2x": "PrimaryLanguage"
			,"isSearchable": false
			,"picklistDescription": null
			,"picklistUri": null
			,"picklistParent": null
		},
"verbalfluency": {
	"$ref": "#/definitions/longString"
			,"defaultLabel": "VerbalFluency"
			,"description": "VerbalFluency"
			,"fieldAlias2x": "VerbalFluency"
			,"isSearchable": false
			,"picklistDescription": "VerbalFluency"
			,"picklistUri": "SOFContact-VerbalFluency"
			,"picklistParent": null
		}
				}
			}
		},
			"occupation": {
				"type": "array",
				"description": "SOF Contact Report Occupation specific details",
				"fieldAlias2x": "Occupation", 
					"items": {
						"type": "object",
						"properties": {
						
"employer": {
	"$ref": "#/definitions/longString"
			,"defaultLabel": "Employer"
			,"description": "Employer"
			,"fieldAlias2x": "Employer"
			,"isSearchable": false
			,"picklistDescription": null
			,"picklistUri": null
			,"picklistParent": null
		},
"hiredate": {
	"$ref": "#/definitions/dateTime"
			,"defaultLabel": "HireDate"
			,"description": "HireDate"
			,"fieldAlias2x": "HireDate"
			,"isSearchable": false
			,"picklistDescription": null
			,"picklistUri": null
			,"picklistParent": null
		},
"location": {
	"$ref": "#/definitions/longString"
			,"defaultLabel": "Location"
			,"description": "Location"
			,"fieldAlias2x": "Location"
			,"isSearchable": false
			,"picklistDescription": null
			,"picklistUri": null
			,"picklistParent": null
		},
"occupation": {
	"$ref": "#/definitions/longString"
			,"defaultLabel": "Occupation"
			,"description": "Occupation"
			,"fieldAlias2x": "Occupation"
			,"isSearchable": false
			,"picklistDescription": "Occupation"
			,"picklistUri": "SOFContact-Occupation"
			,"picklistParent": null
		},
"referenceid": {
	"$ref": "#/definitions/longString"
			,"defaultLabel": "referenceId"
			,"description": "referenceId"
			,"fieldAlias2x": "OccupationKey"
			,"isSearchable": false
			,"picklistDescription": null
			,"picklistUri": null
			,"picklistParent": null
		},
"position": {
	"$ref": "#/definitions/longString"
			,"defaultLabel": "Position"
			,"description": "Position"
			,"fieldAlias2x": "Position"
			,"isSearchable": false
			,"picklistDescription": null
			,"picklistUri": null
			,"picklistParent": null
		},
"primaryjob": {
	"type": "boolean"
			,"defaultLabel": "PrimaryJob"
			,"description": "PrimaryJob"
			,"fieldAlias2x": "PrimaryJob"
			,"isSearchable": false
			,"picklistDescription": null
			,"picklistUri": null
			,"picklistParent": null
		},
"unit": {
	"$ref": "#/definitions/longString"
			,"defaultLabel": "Unit"
			,"description": "Unit"
			,"fieldAlias2x": "Unit"
			,"isSearchable": false
			,"picklistDescription": null
			,"picklistUri": null
			,"picklistParent": null
		}
				}
			}
		},
			"otherid": {
				"type": "array",
				"description": "SOF Contact Report OtherID specific details",
				"fieldAlias2x": "OtherID", 
					"items": {
						"type": "object",
						"properties": {
						
"country": {
	"$ref": "#/definitions/longString"
			,"defaultLabel": "Country"
			,"description": "Country"
			,"fieldAlias2x": "Country"
			,"isSearchable": false
			,"picklistDescription": null
			,"picklistUri": null
			,"picklistParent": null
		},
"expirationdate": {
	"$ref": "#/definitions/dateTime"
			,"defaultLabel": "ExpirationDate"
			,"description": "ExpirationDate"
			,"fieldAlias2x": "ExpirationDate"
			,"isSearchable": false
			,"picklistDescription": null
			,"picklistUri": null
			,"picklistParent": null
		},
"idnumber": {
	"$ref": "#/definitions/longString"
			,"defaultLabel": "IDNumber"
			,"description": "IDNumber"
			,"fieldAlias2x": "IDNumber"
			,"isSearchable": false
			,"picklistDescription": null
			,"picklistUri": null
			,"picklistParent": null
		},
"idtype": {
	"$ref": "#/definitions/longString"
			,"defaultLabel": "IDType"
			,"description": "IDType"
			,"fieldAlias2x": "IDType"
			,"isSearchable": false
			,"picklistDescription": "IDType"
			,"picklistUri": "SOFContact-IDType"
			,"picklistParent": null
		},
"issuedate": {
	"$ref": "#/definitions/dateTime"
			,"defaultLabel": "IssueDate"
			,"description": "IssueDate"
			,"fieldAlias2x": "IssueDate"
			,"isSearchable": false
			,"picklistDescription": null
			,"picklistUri": null
			,"picklistParent": null
		},
"referenceid": {
	"$ref": "#/definitions/longString"
			,"defaultLabel": "referenceId"
			,"description": "referenceId"
			,"fieldAlias2x": "OtherIDKey"
			,"isSearchable": false
			,"picklistDescription": null
			,"picklistUri": null
			,"picklistParent": null
		}
				}
			}
		},
			"pmesii": {
				"type": "array",
				"description": "SOF Contact Report PMESII specific details",
				"fieldAlias2x": "PMESII", 
					"items": {
						"type": "object",
						"properties": {
						
"ascope": {
	"$ref": "#/definitions/longString"
			,"defaultLabel": "ASCOPE"
			,"description": "ASCOPE"
			,"fieldAlias2x": "ASCOPE"
			,"isSearchable": false
			,"picklistDescription": null
			,"picklistUri": null
			,"picklistParent": null
		},
"dimelif": {
	"$ref": "#/definitions/longString"
			,"defaultLabel": "DIMELIF"
			,"description": "DIMELIF"
			,"fieldAlias2x": "DIMELIF"
			,"isSearchable": false
			,"picklistDescription": null
			,"picklistUri": null
			,"picklistParent": null
		},
"pmesii": {
	"$ref": "#/definitions/longString"
			,"defaultLabel": "PMESII"
			,"description": "PMESII"
			,"fieldAlias2x": "PMESII"
			,"isSearchable": false
			,"picklistDescription": null
			,"picklistUri": null
			,"picklistParent": null
		},
"referenceid": {
	"$ref": "#/definitions/longString"
			,"defaultLabel": "referenceId"
			,"description": "referenceId"
			,"fieldAlias2x": "PMESIIKey"
			,"isSearchable": false
			,"picklistDescription": null
			,"picklistUri": null
			,"picklistParent": null
		},
"remarks": {
	"$ref": "#/definitions/text"
			,"defaultLabel": "Remarks"
			,"description": "Remarks"
			,"fieldAlias2x": "Remarks"
			,"isSearchable": false
			,"picklistDescription": null
			,"picklistUri": null
			,"picklistParent": null
		},
"stance": {
	"$ref": "#/definitions/longString"
			,"defaultLabel": "Stance"
			,"description": "Stance"
			,"fieldAlias2x": "Stance"
			,"isSearchable": false
			,"picklistDescription": null
			,"picklistUri": null
			,"picklistParent": null
		}
				}
			}
		},
			"remarks": {
				"type": "array",
				"description": "SOF Contact Report Remarks specific details",
				"fieldAlias2x": "Remarks", 
					"items": {
						"type": "object",
						"properties": {
						
"remarks": {
	"$ref": "#/definitions/text"
			,"defaultLabel": "Remarks"
			,"description": "Remarks"
			,"fieldAlias2x": "Remarks"
			,"isSearchable": false
			,"picklistDescription": null
			,"picklistUri": null
			,"picklistParent": null
		},
"referenceid": {
	"$ref": "#/definitions/longString"
			,"defaultLabel": "referenceId"
			,"description": "referenceId"
			,"fieldAlias2x": "RemarksKey"
			,"isSearchable": false
			,"picklistDescription": null
			,"picklistUri": null
			,"picklistParent": null
		}
				}
			}
		},
			"titles": {
				"type": "array",
				"description": "SOF Contact Report Titles specific details",
				"fieldAlias2x": "Titles", 
					"items": {
						"type": "object",
						"properties": {
						
"primarytitle": {
	"type": "boolean"
			,"defaultLabel": "PrimaryTitle"
			,"description": "PrimaryTitle"
			,"fieldAlias2x": "PrimaryTitle"
			,"isSearchable": false
			,"picklistDescription": null
			,"picklistUri": null
			,"picklistParent": null
		},
"titles": {
	"$ref": "#/definitions/longString"
			,"defaultLabel": "Titles"
			,"description": "Titles"
			,"fieldAlias2x": "Titles"
			,"isSearchable": false
			,"picklistDescription": "Titles"
			,"picklistUri": "SOFContact-Titles"
			,"picklistParent": null
		},
"referenceid": {
	"$ref": "#/definitions/longString"
			,"defaultLabel": "referenceId"
			,"description": "referenceId"
			,"fieldAlias2x": "TitlesKey"
			,"isSearchable": false
			,"picklistDescription": null
			,"picklistUri": null
			,"picklistParent": null
		}
				}
			}
		}
				}
			}
	}
}
