	
{
    "type": "object",
    "id": "http://cidne.dae.smil.mil/schemas/SOF/Fuel/CIDNEDM236",
    "description": "CIDNE SOF Fuel Report Definition",
    "definitions": {
        "shortStringRequired": {
            "type": "string",
            "maxLength": 50
        },
        "longStringRequired": {
            "type": "string",
            "maxLength": 500
        },
        "textRequired": {
            "type": "string"
        },
        "textFieldLevelRequired": {
            "type": "object",
            "properties": {
                "objectValue": {
                    "type": "string"
                },
                "security": {
					"$ref": "#/definitions/security"
				}
            },
            "required": [
                "objectValue",
                "security"
            ]
        },
        "dateTimeRequired": {
            "type": "object",
            "properties": {
                "zuluDateTime": {
                    "type": "string",
                    "format": "date-time"
                },
                "zuluOffset": {
                    "type": "integer",
					"minimum": -840,
					"maximum": 840,
                    "description": "Offset in minutes from Zulu"
                }
            },
            "required": [
                "zuluDateTime",
                "zuluOffset"
            ]
        },
        "latitude_ddsRequired": {
            "type": "number",
            "minimum": -90,
            "maximum": 90
        },
        "longitude_ddsRequired": {
            "type": "number",
            "minimum": -180,
            "maximum": 180
        },
        "positive_intRequired": {
            "type": "integer",
            "minimum": 0
        },
        "positive_numRequired": {
            "type": "number",
            "minimum": 0
        },
        "positive_intRequired": {
            "type": "integer",
            "minimum": 0
        },
        "shortString": {
            "type": ["string","null"],
            "maxLength": 50
        },
        "longString": {
            "type": ["string","null"],
            "maxLength": 500
        },
        "text": {
            "type": ["string","null"]
        },
        "textFieldLevel": {
            "type": "object",
            "properties": {
                "objectValue": {
                    "type": ["string","null"]
                },
                "security": {
					"$ref": "#/definitions/securityOptional"
				}
            },
            "required": [
                "objectValue",
                "security"
            ]
        },
        "dateTime": {
            "type": ["object","null"],
            "properties": {
                "zuluDateTime": {
                    "type": "string",
                    "format": "date-time"
                },
                "zuluOffset": {
                    "type": "integer",
					"minimum": -840,
					"maximum": 840,
                    "description": "Offset in minutes from Zulu"
                }
            },
            "required": [
                "zuluDateTime",
                "zuluOffset"
            ]
        },
        "latitude_dds": {
            "type": ["number","null"],
            "minimum": -90,
            "maximum": 90
        },
        "longitude_dds": {
            "type": ["number","null"],
            "minimum": -180,
            "maximum": 180
        },
        "positive_int": {
            "type": ["integer","null"],
            "minimum": 0
        },
        "positive_num": {
            "type": ["number","null"],
            "minimum": 0
        },
        "num": {
            "type": ["number","null"]
        },
        "uniqueStringArray": {
            "type": "array",
            "uniqueItems": true,
            "items": {
                "type": "string"
            }
        },
        "securityOptional": {
            "oneOf": [
                {
                    "type": "null"
                },
                {
                    "$ref": "#/definitions/security"
                }
            ]
        },
        "security": {
            "type": "object",
            "properties": {
                "atomicEnergyMarkings": {
                    "$ref": "#/definitions/shortString",
                    "description": "Atomic Energy Act Information Markings"
                },
                "classificationReason": {
                    "$ref": "#/definitions/longString",
                    "description": ": Concise reason for classification"
                },
                "classification": {
                    "enum": [ "U", "TS", "S", "C" ],
                    "description": "Classification of information",
                    "defaultLabel": "Classification",
                    "isSearchable": false,
                    "picklistName": "classification",
                    "picklistUri": "http://cidne.dae.smil.mil/schemas/CAPCO/classification",
                    "picklistParent": null
                    
                },
                "classifiedBy": {
                    "$ref": "#/definitions/longString",
                    "description": "Identification by name and position, or personal identifier of the OCA"
                },
                "compilationReason": {
                    "$ref": "#/definitions/longString",
                    "description": "Reason why the compilation of information causes the classification"
                },
                "declassDate": {
                    "$ref": "#/definitions/dateTime",
                    "description": "Declassification date"
                },
                "declassEvent": {
                    "$ref": "#/definitions/shortString",
                    "description": "Declassification event"
                },
                "declassException": {
                    "$ref": "#/definitions/longString",
                    "description": "Declassification exception"
                },
                "derivativelyClassifiedBy": {
                    "$ref": "#/definitions/longString",
                    "description": "The derivative classifier’s identification by name and position, or by personal identifier, in a manner that is immediately apparent on each derivatively classified document. If not otherwise evident, the agency and office of origin shall be identified"
                },
                "derivedFrom": {
                    "$ref": "#/definitions/shortString",
                    "description": "Concisely identify the source document or the classification guide"
                },
                "displayOnlyTo": {
                    "$ref": "#/definitions/longString",
                    "description": "List of foreign country(ies)/international organization(s) authorized for disclosure without providing the recipient with a physical copy for retention, regardless of medium to the foreign country(ies)/international organization(s) indicated"
                },
                "disseminationControls": {
                    "$ref": "#/definitions/longString",
                    "description": "Control markings that identify the expansion or limitation on the distribution of information. These markings are in addition to and separate from the levels of classification"
                },
                "FGIsourceOpen": {
                    "$ref": "#/definitions/shortString",
                    "description": "Open Source Foreign Government Information"
                },
                "FGIsourceProtected": {
                    "$ref": "#/definitions/shortString",
                    "description": "Protected Source Foreign Government Information"
                },
                "nonICmarkings": {
                    "$ref": "#/definitions/text",
                    "description": "Markings authorized for use by entities outside of the Intelligence Community"
                },
                "nonUSControls": {
                    "$ref": "#/definitions/shortString",
                    "description": "Non-US protective markings"
                },
                "ownerProducer": {
                    "$ref": "#/definitions/shortStringRequired",
                    "description": "Owner/Producer",
                    "default": "USA",
                    "defaultLabel": "Owner Producer",
                    "isSearchable": false,
                    "picklistName": "ownerProducer",
                    "picklistUri": "http://cidne.dae.smil.mil/schemas/CAPCO/ownerProducer",
                    "picklistParent": null
                },
                "releasableToFilterField": {
                    "$ref": "#/definitions/shortString",
                    "description": "Need to add CAPCO Descriptions"
                },
                "releasableTo": {
                    "$ref": "#/definitions/text",
                    "description": "List of countries releasable to",
                    "defaultLabel": "Releasable To",
                    "isSearchable": false,
                    "picklistName": "releasableTo",
                    "picklistUri": "http://cidne.dae.smil.mil/schemas/CAPCO/releasableTo",
                    "picklistParent": null
                },
                "SARIdentifier": {
                    "$ref": "#/definitions/shortString",
                    "description": "Special access required programs"
                },
                "SCIcontrols": {
                    "$ref": "#/definitions/longString",
                    "description": "Sensitive Compartmented Information (SCI) control systems"
                }
            },
            "required": [
                "ownerProducer",
                "classification"
            ]
        },
        "actionInfo":{
            "type": "object",
            "properties": {
                "actionDate": {
                    "$ref": "#/definitions/dateTimeRequired",
                    "description": "Date Time Action was taken"
                },
                "group": {
                    "$ref": "#/definitions/longStringRequired",
                    "description": "User Group that performed action"
                },
                "parentGroup": {
                    "$ref": "#/definitions/longString",
                    "description": "User Group's Parent Group Name"
                },
                "nationality": {
                    "$ref": "#/definitions/shortStringRequired",
                    "description": "User Nationality"
                },
                "network": {
                    "$ref": "#/definitions/shortStringRequired",
                    "description": "Systems Network where action was taken"
                },
                "objectState": {
                    "description": "",
                    "enum": [
                        "CREATED",
                        "MODIFIED",
                        "TEMPLATE",
                        "SUBMITTED",
                        "PUBLISHED",
                        "VERSIONED",
                        "DEPRECATED",
                        "VALIDATING",
                        "RESTORED",
                        "MOVED"
                    ]
                },
                "site": {
                    "$ref": "#/definitions/shortStringRequired",
                    "description": "Systems Site"
                },
                "system": {
                    "$ref": "#/definitions/shortStringRequired",
                    "description": "System that provided the action"
                },
                "user": {
                    "$ref": "#/definitions/shortStringRequired",
                    "description": "User that performed action"
                }
            },
            "required": [
                "actionDate",
                "group",
                "parentGroup",
                "nationality",
                "network",
                "objectState",
                "site",
                "system",
                "user"
            ]
        },
        "position": {
            "description": "A single position. (order should be longitude,latitude)",
            "type": "array",
            "minItems": 2,
            "items": [
                {
                    "type": "number"
                },
                {
                    "type": "number"
                }
            ],
            "additionalItems": false
        },
        "positionArray": {
            "description": "An array of positions",
            "type": "array",
            "items": {
                "$ref": "#/definitions/position"
            }
        },
        "lineString": {
            "description": "An array of two or more positions",
            "allOf": [
                {
                    "type": "array",
                    "items": {
                        "$ref": "#/definitions/position"
                    }
                },
                {
                    "minItems": 2
                }
            ]
        },
        "linearRing": {
            "description": "An array of four positions where the first equals the last",
            "allOf": [
                {
                    "type": "array",
                    "items": {
                        "$ref": "#/definitions/position"
                    }
                },
                {
                    "minItems": 4
                }
            ]
        },
        "polygon": {
            "description": "An array of linear rings",
            "type": "array",
            "items": {
                "$ref": "#/definitions/linearRing"
            }
        },
        "geometry": {
            "title": "geometry",
            "description": "One geometry as defined by GeoJSON",
            "type": "object",
            "required": [
                "type",
                "coordinates"
            ],
            "oneOf": [
                {
                    "title": "Point",
                    "properties": {
                        "type": {
                            "enum": [
                                "Point"
                            ]
                        },
                        "coordinates": {
                            "$ref": "#/definitions/position"
                        }
                    }
                },
                {
                    "title": "MultiPoint",
                    "properties": {
                        "type": {
                            "enum": [
                                "MultiPoint"
                            ]
                        },
                        "coordinates": {
                            "type": "array",
                            "items": {
                                "$ref": "#/definitions/position"
                            }
                        }
                    }
                },
                {
                    "title": "LineString",
                    "properties": {
                        "type": {
                            "enum": [
                                "LineString"
                            ]
                        },
                        "coordinates": {
                            "$ref": "#/definitions/lineString"
                        }
                    }
                },
                {
                    "title": "MultiLineString",
                    "properties": {
                        "type": {
                            "enum": [
                                "MultiLineString"
                            ]
                        },
                        "coordinates": {
                            "type": "array",
                            "items": {
                                "$ref": "#/definitions/lineString"
                            }
                        }
                    }
                },
                {
                    "title": "Polygon",
                    "properties": {
                        "type": {
                            "enum": [
                                "Polygon"
                            ]
                        },
                        "coordinates": {
                            "$ref": "#/definitions/polygon"
                        }
                    }
                },
                {
                    "title": "MultiPolygon",
                    "properties": {
                        "type": {
                            "enum": [
                                "MultiPolygon"
                            ]
                        },
                        "coordinates": {
                            "type": "array",
                            "items": {
                                "$ref": "#/definitions/polygon"
                            }
                        }
                    }
                }
            ]
        },
        "geometryCollection": {
            "title": "GeometryCollection",
            "description": "A collection of geometry objects",
            "required": [
                "geometries"
            ],
            "properties": {
                "type": {
                    "enum": [
                        "GeometryCollection"
                    ]
                },
                "geometries": {
                    "type": "array",
                    "items": {
                        "$ref": "#/definitions/geometry"
                    }
                }
            }
        },
        "feature": {
            "title": "Feature",
            "description": "A Geo JSON feature object",
            "required": [
                "geometry"
            ],
            "properties": {
                "type": {
                    "enum": [
                        "Feature"
                    ]
                },
                "geometry": {
                    "oneOf": [
                        {
                            "type": "null"
                        },
                        {
                            "$ref": "#/definitions/geometry"
                        }
                    ]
                },
				"properties": { "type": [ "object", "null" ] },
                "id": { "type":["string"] }
            }
        },
        "featureCollection": {
            "description": "A GeoJSON feature collection",
            "required": [
                "features"
            ],
            "properties": {
                "type": {
                    "enum": [
                        "FeatureCollection"
                    ]
                },
                "features": {
                    "type": "array",
                    "items": {
                        "$ref": "#/definitions/feature"
                    }
                }
            }
        },
		"namedCrs": {
            "properties": {
                "type": { "enum": [ "name" ] },
                "properties": {
                    "required": [ "name" ],
                    "additionalProperties": false,
                    "properties": {
                        "name": {
                            "type": "string"
                        }
                    }
                }
            }
        },
        "linkedObject": {
            "type": "object",
            "required": [ "href" ],
            "properties": {
                "href": {
                    "type": "string",
                    "format": "uri"
                },
                "type": {
                    "type": "string",
                    "description": "Suggested values: proj4, ogjwkt, esriwkt"
                }
            }
        },
        "linkedCrs": {
            "properties": {
                "type": { "enum": [ "link" ] },
                "properties": { "$ref": "#/definitions/linkedObject" }
            }
        },	
		"crs":{
			"title": "crs",
			"description": "a Coordinate Reference System object",
			"type": [ "object", "null" ],
			"required": [ "type", "properties" ],
			"properties": {
				"type": { "type": "string" },
				"properties": { "type": "object" }
			},
			"additionalProperties": false,
			"oneOf": [
				{ "$ref": "#/definitions/namedCrs" },
				{ "$ref": "#/definitions/linkedCrs" }
			]
		},
		"bbox":{
		"description": "A bounding box as defined by GeoJSON",
			"type": "array",
			"items": { "type": "number" }
		},
        "geojson": {
            "title": "Geo JSON object",
            "description": "Schema for a Geo JSON object",
            "type": ["object","null"],
            "required": [
                "type"
            ],
			"properties": {
				"crs": { "$ref": "#/definitions/crs" },
				"bbox": { "$ref": "#/definitions/bbox" }
			},
            "anyOf": [
                {
                    "$ref": "#/definitions/geometry"
                },
                {
                    "$ref": "#/definitions/geometryCollection"
                },
                {
                    "$ref": "#/definitions/feature"
                },
                {
                    "$ref": "#/definitions/featureCollection"
                }
            ]
        }
    },
    "required": [
        "base",
        "datamodel",
        "formId",
        "location",
        "security",
        "details"
    ],	
    "properties": {
        "datamodel": {
            "$ref": "#/definitions/longString",
            "description": "Reference to the report definition."
        },
        "formId": {
            "$ref": "#/definitions/longString",
            "description": "Reference to the layout template identifier that this data was intended to be best visualized"
        },
        "base": {
            "type": "object",
            "description": "The core metadata used within all report definitions",
            "properties": {
                "objectId": {
                    "$ref": "#/definitions/shortStringRequired",
                    "description": "Report instance unique identifier"
                },
                "reportId": {
                    "$ref": "#/definitions/shortStringRequired",
                    "description": "Original report instance objectId for a report version grouping. (i.e. the root report identifier)"
                },
                "parentVersionId": {
                    "$ref": "#/definitions/shortString",
                    "description": "Report instance's objectId of the parent report. NOTE: If there is no parent, this value should be set to the report instance's own objectId. "
                },
                "module": {
                    "$ref": "#/definitions/shortStringRequired",
                    "description": "CIDNE community"
                },
                "reportType": {
                    "$ref": "#/definitions/shortStringRequired",
                    "description": "CIDNE report type (e.g. SIGACT)"
                },
                "reportSerial": {
                    "$ref": "#/definitions/textFieldLevel",
					"defaultLabel": "DisplaySerial",
					"description": "Report instance nomenclature (DisplaySerial)",
					"fieldAlias2x": "DisplaySerial"
                },
                "reportTitle": {
                    "$ref": "#/definitions/textFieldLevel",
					"defaultLabel": "DisplayTitle",
					"description": "Report instance title text (DisplayTitle)",
					"fieldAlias2x": "DisplayTitle"
                },
                "reportSummary": {
                    "$ref": "#/definitions/textFieldLevel",
					"defaultLabel": "DisplaySummary",
					"description": "Report instance summary text block (DisplaySummary)",
					"fieldAlias2x": "DisplaySummary"
                },
                "reportDate": {
                    "$ref": "#/definitions/dateTimeRequired",
					"defaultLabel": "DatePosted",
					"description": "Primary report instance date (DatePosted)",
					"fieldAlias2x": "DatePosted"
                },
                "reportSymbol": {
                    "$ref": "#/definitions/longString",
                    "description": "Report instance symbology"
                },
                "reportImage": {
                    "$ref": "#/definitions/longString",
                    "description": "Primary image of report instance"
                },
                "reportCountry": {
                    "$ref": "#/definitions/shortString",
                    "description": "Country value of report instance's primary location"
                },
                "reportLatitude": {
                    "$ref": "#/definitions/latitude_dds",
                    "description": "Latitude value of report instance's primary location"
                },
                "reportLongitude": {
                    "$ref": "#/definitions/longitude_dds",
                    "description": "Longitude value of report instance's primary location"
                },
				"geoLocation":{
					"$ref":"#/definitions/geojson"
				},
                "currentObjectState":{
                        "$ref": "#/definitions/actionInfo"
                },
                "originatingGroup": {
                    "$ref": "#/definitions/longStringRequired",
                    "description": "Original creator's group"
                },  
                "originatingUser": {
                    "$ref": "#/definitions/longStringRequired",
                    "description": "Original creator's User Name or email address"
                },  
				"isTearline": {
                    "type": "boolean",
                    "description": "Determines whether a report is a tearline"
                },
				"tearlineId": {
					"$ref": "#/definitions/shortString",
                    "description": "The reportId of the parent, used as a tearline group binding"
				},
                "theaterFilter": {
                    "$ref": "#/definitions/shortStringRequired",
                    "description": "Report instance theater of relevance"
                },
                "warehouseUri": {
                    "$ref": "#/definitions/longStringRequired",
                    "description": "Data warehouse location for report instance",
                    "format": "uri"
                }
            },
            "required": [
                "isTearline",
                "module",
                "objectId",
                "currentObjectState",
                "originatingGroup",
                "originatingUser",
                "reportId",
                "reportSerial",
                "reportDate",
                "theaterFilter",
                "reportType",
                "reportTitle",
                "reportSummary"
            ]
        },
        "location": {
            "type": "array",
            "description": "All locations for the report instance",
            "items": {
                "type": "object",
                "properties": {
                    "objectId": {
                        "$ref": "#/definitions/shortStringRequired",
                        "description": "objectId required for Edit Purposes"
                    },
                    "address": {
                        "$ref": "#/definitions/longString",
                        "description": "Address Details"
                    },
                    "alternateRoute": {
                        "$ref": "#/definitions/longString",
                        "description": "Alternate Route for location"
                    },
                    "ao": {
                        "$ref": "#/definitions/shortString",
                        "description": "Area of Operations"
                    },
                    "basecamp": {
                        "$ref": "#/definitions/shortString",
                        "description": "Base Camp"
                    },
                    "city": {
                        "$ref": "#/definitions/shortString",
                        "description": "City for Location"
                    },
                    "confidence": {
                        "$ref": "#/definitions/shortString",
                        "description": "Reporters Confidence in Location Value"
                    },
                    "country": {
                        "$ref": "#/definitions/shortString",
                        "description": "Location Country"
                    },
                    "customGeom": {
                        "type": "object",
                        "description": "Custom Geometry Object for Location",
                        "properties": {
                            "customGeomObjectId": {
                                "$ref": "#/definitions/shortString",
                                "description": "objectId for Custom Geometry Object"
                            },
                            "geomType": {
                                "$ref": "#/definitions/shortString",
                                "description": "Geometry Type for custom geometry object (e.g. Point, Multi-polygon"
                            },
                            "geom": {
                                "$ref": "#/definitions/shortString",
                                "description": "TBD GEOM Object for Custom Location Object"
                            },
                            "name": {
                                "$ref": "#/definitions/shortString",
                                "description": "Custom Location Name"
                            }
                        }
                    },
                    "dateEndLocation": {
                        "$ref": "#/definitions/dateTime",
                        "description": "Ending Date Time for location"
                    },
                    "dateStartLocation": {
                        "$ref": "#/definitions/dateTime",
                        "description": "Starting Date Time for location"
                    },
                    "derivedLocation": {
                        "type": "boolean",
                        "description": "Was Location Lat/Long derived from user picklists?"
                    },
                    "description": {
                        "$ref": "#/definitions/text",
                        "description": "Location Description"
                    },
                    "distanceFromCityCenter": {
                        "$ref": "#/definitions/positive_int",
                        "description": "Distance in meters to nearest city center"
                    },
                    "distanceToNearestFOB": {
                        "$ref": "#/definitions/positive_num",
                        "description": "Distance in meters to nearest FOB"
                    },
                    "distanceToNearestRoute": {
                        "$ref": "#/definitions/positive_num",
                        "description": "Distance in meters to nearest Route"
                    },
                    "district": {
                        "$ref": "#/definitions/shortString",
                        "description": "District"
                    },
                    "fob": {
                        "$ref": "#/definitions/shortString",
                        "description": "FOB"
                    },
					"geoLocation":{
						"$ref":"#/definitions/geojson"
					},
					"house": {
                        "$ref": "#/definitions/shortString",
                        "description": "HOUSE"
                    },
                    "isPrimaryLocation": {
                        "type": "boolean",
                        "description": "Marks Primary Location"
                    },
                    "latitude": {
                        "$ref": "#/definitions/latitude_ddsRequired",
                        "description": "Latitude of Location in Degree Decimal Seconds"
                    },
                    "locationActive": {
                        "type": "boolean",
                        "description": "Is Location Active?"
                    },
                    "locationType": {
                        "$ref": "#/definitions/shortString",
                        "description": "Location Type"
                    },
                    "longitude": {
                        "$ref": "#/definitions/longitude_ddsRequired",
                        "description": "Longitude of Location in Degree Decimal Seconds"
                    },
                    "mscCurrent": {
                        "$ref": "#/definitions/shortString",
                        "description": "Current Major Supporting Command responsible for location"
                    },
                    "mscDateOfCurrent": {
                        "$ref": "#/definitions/dateTime",
                        "description": "Date Of Current Major Supporting Command's Control of location"
                    },
                    "msc": {
                        "$ref": "#/definitions/shortString",
                        "description": "Major Supporting Command responsible for location"
                    },
                    "nai": {
                        "$ref": "#/definitions/shortString",
                        "description": "Named Area of Interest"
                    },
                    "nearestCity": {
                        "$ref": "#/definitions/shortString",
                        "description": "Nearest City"
                    },
                    "nearestFOB": {
                        "$ref": "#/definitions/shortString",
                        "description": "Nearest FOB"
                    },
                    "nearestRoute": {
                        "$ref": "#/definitions/shortString",
                        "description": "Nearest Route"
                    },
                    "neighborhood": {
                        "$ref": "#/definitions/shortString",
                        "description": "Neighborhood for location"
                    },
                    "populationCenterType": {
                        "$ref": "#/definitions/shortString",
                        "description": "Population Center Type"
                    },
                    "populationCenter": {
                        "$ref": "#/definitions/shortString",
                        "description": "Population Center"
                    },
                    "province": {
                        "$ref": "#/definitions/shortString",
                        "description": "Province"
                    },
                    "referenceId": {
                        "$ref": "#/definitions/shortString",
                        "description": "Reference to any subelement with in current report instance (e.g. Event Object ID)"
                    },
                    "route": {
                        "$ref": "#/definitions/shortString",
                        "description": "Route"
                    },
                    "security": {
                        "$ref": "#/definitions/securityOptional"
                    },
                    "street": {
                        "$ref": "#/definitions/shortString",
                        "description": "Street"
                    },
                    "structure": {
                        "$ref": "#/definitions/shortString",
                        "description": "Structure"
                    },
                    "village": {
                        "$ref": "#/definitions/shortString",
                        "description": "Village"
                    },
                    "zone": {
                        "$ref": "#/definitions/shortString",
                        "description": "City Zone"
                    }
                },
				"required": [
					"objectId",
					"isPrimaryLocation",
					"latitude",
					"longitude"
				]
            }
        },
        "remarks": {
            "type": "array",
            "items": {
                "type": "object",
                "properties": {
                    "objectId": {
                        "$ref": "#/definitions/shortStringRequired",
                        "description": "objectId required for Edit Purposes"
                    },
                    "referenceId": {
                        "$ref": "#/definitions/shortString",
                        "description": "Reference to any subelement with in current report instance (e.g. Event Object ID)"
                    },
                    "remarkText": {
                        "$ref": "#/definitions/text",
                        "description": "Remark Text"
                    },
                    "remarkType": {
                        "$ref": "#/definitions/shortString",
                        "description": "Remark Type"
                    },
                    "remarkOrder": {
                        "$ref": "#/definitions/positive_num",
                        "description": "Remark Order"
                    },
                    "security": {
                        "$ref": "#/definitions/securityOptional"
                    }
                },
                "required": [
                    "objectId",
                    "remarkText",
                    "remarkType",
                    "security"
                ]
            }
        },
        "requirements": {
            "type": "array",
            "items": {
                "type": "object",
                "properties": {
                    "objectId": {
                        "$ref": "#/definitions/shortStringRequired",
                        "description": "objectId required for Edit Purposes"
                    },
                    "referenceId": {
                        "$ref": "#/definitions/shortString",
                        "description": "Reference to any subelement with in current report instance (e.g. Event Object ID)"
                    },
                    "requirement": {
                        "$ref": "#/definitions/longString",
                        "description": "Requirement sub based on Requirement Type"
                    },
                    "requirementType": {
                        "$ref": "#/definitions/shortString",
                        "description": "Requirement Type"
                    },
                    "comment": {
                        "$ref": "#/definitions/text",
                        "description": "Requirement Comment"
                    },
                    "security": {
                        "$ref": "#/definitions/securityOptional"
                    }
                },
                "required": [
                    "objectId",
                    "requirementType",
                    "requirement",
                    "comment"
                ]
            }
        },
        "security": {
                        "$ref": "#/definitions/security"
        },
        "objectHistory": {
            "type": "array",
            "items":
                    {
                        "$ref": "#/definitions/actionInfo"
                    }       
		},
			"details": {
				"type": "object",
				"description": "SOF Fuel Report details specific details",
				"fieldAlias2x": "details", 
						"properties": {
						
"accesspoints": {
	"$ref": "#/definitions/text"
			,"defaultLabel": "AccessPoints"
			,"description": "AccessPoints"
			,"fieldAlias2x": "AccessPoints"
			,"isSearchable": false
			,"picklistDescription": null
			,"picklistUri": null
			,"picklistParent": null
		},
"armed": {
	"$ref": "#/definitions/longString"
			,"defaultLabel": "Armed"
			,"description": "Armed"
			,"fieldAlias2x": "Armed"
			,"isSearchable": false
			,"picklistDescription": null
			,"picklistUri": null
			,"picklistParent": null
		},
"backuppower": {
	"$ref": "#/definitions/longString"
			,"defaultLabel": "BackupPower"
			,"description": "BackupPower"
			,"fieldAlias2x": "BackupPower"
			,"isSearchable": false
			,"picklistDescription": null
			,"picklistUri": null
			,"picklistParent": null
		},
"backuppowerremarks": {
	"$ref": "#/definitions/text"
			,"defaultLabel": "BackupPowerRemarks"
			,"description": "BackupPowerRemarks"
			,"fieldAlias2x": "BackupPowerRemarks"
			,"isSearchable": false
			,"picklistDescription": null
			,"picklistUri": null
			,"picklistParent": null
		},
"balconies": {
	"$ref": "#/definitions/longString"
			,"defaultLabel": "Balconies"
			,"description": "Balconies"
			,"fieldAlias2x": "Balconies"
			,"isSearchable": false
			,"picklistDescription": null
			,"picklistUri": null
			,"picklistParent": null
		},
"benumber": {
	"$ref": "#/definitions/text"
			,"defaultLabel": "BENumber"
			,"description": "BENumber"
			,"fieldAlias2x": "BENumber"
			,"isSearchable": false
			,"picklistDescription": null
			,"picklistUri": null
			,"picklistParent": null
		},
"businesscenter": {
	"$ref": "#/definitions/longString"
			,"defaultLabel": "BusinessCenter"
			,"description": "BusinessCenter"
			,"fieldAlias2x": "BusinessCenter"
			,"isSearchable": false
			,"picklistDescription": null
			,"picklistUri": null
			,"picklistParent": null
		},
"businesscenterremarks": {
	"$ref": "#/definitions/text"
			,"defaultLabel": "BusinessCenterRemarks"
			,"description": "BusinessCenterRemarks"
			,"fieldAlias2x": "BusinessCenterRemarks"
			,"isSearchable": false
			,"picklistDescription": null
			,"picklistUri": null
			,"picklistParent": null
		},
"carbonmonoxidedetectors": {
	"$ref": "#/definitions/longString"
			,"defaultLabel": "CarbonMonoxideDetectors"
			,"description": "CarbonMonoxideDetectors"
			,"fieldAlias2x": "CarbonMonoxideDetectors"
			,"isSearchable": false
			,"picklistDescription": null
			,"picklistUri": null
			,"picklistParent": null
		},
"carbonmonoxidedetectorsremarks": {
	"$ref": "#/definitions/text"
			,"defaultLabel": "CarbonMonoxideDetectorsRemarks"
			,"description": "CarbonMonoxideDetectorsRemarks"
			,"fieldAlias2x": "CarbonMonoxideDetectorsRemarks"
			,"isSearchable": false
			,"picklistDescription": null
			,"picklistUri": null
			,"picklistParent": null
		},
"cardriveravailable": {
	"$ref": "#/definitions/longString"
			,"defaultLabel": "CarDriverAvailable"
			,"description": "CarDriverAvailable"
			,"fieldAlias2x": "CarDriverAvailable"
			,"isSearchable": false
			,"picklistDescription": null
			,"picklistUri": null
			,"picklistParent": null
		},
"cardriveravailableremarks": {
	"$ref": "#/definitions/text"
			,"defaultLabel": "CarDriverAvailableRemarks"
			,"description": "CarDriverAvailableRemarks"
			,"fieldAlias2x": "CarDriverAvailableRemarks"
			,"isSearchable": false
			,"picklistDescription": null
			,"picklistUri": null
			,"picklistParent": null
		},
"cctv": {
	"$ref": "#/definitions/longString"
			,"defaultLabel": "CCTV"
			,"description": "CCTV"
			,"fieldAlias2x": "CCTV"
			,"isSearchable": false
			,"picklistDescription": null
			,"picklistUri": null
			,"picklistParent": null
		},
"cctvmonitored": {
	"$ref": "#/definitions/longString"
			,"defaultLabel": "CCTVMonitored"
			,"description": "CCTVMonitored"
			,"fieldAlias2x": "CCTVMonitored"
			,"isSearchable": false
			,"picklistDescription": null
			,"picklistUri": null
			,"picklistParent": null
		},
"cctvremarks": {
	"$ref": "#/definitions/text"
			,"defaultLabel": "CCTVRemarks"
			,"description": "CCTVRemarks"
			,"fieldAlias2x": "CCTVRemarks"
			,"isSearchable": false
			,"picklistDescription": null
			,"picklistUri": null
			,"picklistParent": null
		},
"cctvterminate": {
	"$ref": "#/definitions/text"
			,"defaultLabel": "CCTVTerminate"
			,"description": "CCTVTerminate"
			,"fieldAlias2x": "CCTVTerminate"
			,"isSearchable": false
			,"picklistDescription": null
			,"picklistUri": null
			,"picklistParent": null
		},
"constructionbarriers": {
	"$ref": "#/definitions/text"
			,"defaultLabel": "ConstructionBarriers"
			,"description": "ConstructionBarriers"
			,"fieldAlias2x": "ConstructionBarriers"
			,"isSearchable": false
			,"picklistDescription": null
			,"picklistUri": null
			,"picklistParent": null
		},
"crimeinarea": {
	"$ref": "#/definitions/text"
			,"defaultLabel": "CrimeInArea"
			,"description": "CrimeInArea"
			,"fieldAlias2x": "CrimeInArea"
			,"isSearchable": false
			,"picklistDescription": null
			,"picklistUri": null
			,"picklistParent": null
		},
"doi": {
	"$ref": "#/definitions/dateTime"
			,"defaultLabel": "DOI"
			,"description": "DOI"
			,"fieldAlias2x": "DOI"
			,"isSearchable": false
			,"picklistDescription": null
			,"picklistUri": null
			,"picklistParent": null
		},
"elevatornumber": {
	"$ref": "#/definitions/longString"
			,"defaultLabel": "ElevatorNumber"
			,"description": "ElevatorNumber"
			,"fieldAlias2x": "ElevatorNumber"
			,"isSearchable": false
			,"picklistDescription": null
			,"picklistUri": null
			,"picklistParent": null
		},
"emergencyequipment": {
	"$ref": "#/definitions/longString"
			,"defaultLabel": "EmergencyEquipment"
			,"description": "EmergencyEquipment"
			,"fieldAlias2x": "EmergencyEquipment"
			,"isSearchable": false
			,"picklistDescription": null
			,"picklistUri": null
			,"picklistParent": null
		},
"emergencyequipmentremarks": {
	"$ref": "#/definitions/text"
			,"defaultLabel": "EmergencyEquipmentRemarks"
			,"description": "EmergencyEquipmentRemarks"
			,"fieldAlias2x": "EmergencyEquipmentRemarks"
			,"isSearchable": false
			,"picklistDescription": null
			,"picklistUri": null
			,"picklistParent": null
		},
"emergencyexitplan": {
	"$ref": "#/definitions/longString"
			,"defaultLabel": "EmergencyExitPlan"
			,"description": "EmergencyExitPlan"
			,"fieldAlias2x": "EmergencyExitPlan"
			,"isSearchable": false
			,"picklistDescription": null
			,"picklistUri": null
			,"picklistParent": null
		},
"emergencyexitplanremarks": {
	"$ref": "#/definitions/text"
			,"defaultLabel": "EmergencyExitPlanRemarks"
			,"description": "EmergencyExitPlanRemarks"
			,"fieldAlias2x": "EmergencyExitPlanRemarks"
			,"isSearchable": false
			,"picklistDescription": null
			,"picklistUri": null
			,"picklistParent": null
		},
"emergencystairwellnumber": {
	"$ref": "#/definitions/longString"
			,"defaultLabel": "EmergencyStairwellNumber"
			,"description": "EmergencyStairwellNumber"
			,"fieldAlias2x": "EmergencyStairwellNumber"
			,"isSearchable": false
			,"picklistDescription": null
			,"picklistUri": null
			,"picklistParent": null
		},
"employeeaccess": {
	"$ref": "#/definitions/text"
			,"defaultLabel": "EmployeeAccess"
			,"description": "EmployeeAccess"
			,"fieldAlias2x": "EmployeeAccess"
			,"isSearchable": false
			,"picklistDescription": null
			,"picklistUri": null
			,"picklistParent": null
		},
"estimatedyearbuilt": {
	"$ref": "#/definitions/longString"
			,"defaultLabel": "EstimatedYearBuilt"
			,"description": "EstimatedYearBuilt"
			,"fieldAlias2x": "EstimatedYearBuilt"
			,"isSearchable": false
			,"picklistDescription": null
			,"picklistUri": null
			,"picklistParent": null
		},
"expired": {
	"type": "boolean"
			,"defaultLabel": "Expired"
			,"description": "Expired"
			,"fieldAlias2x": "Expired"
			,"isSearchable": false
			,"picklistDescription": null
			,"picklistUri": null
			,"picklistParent": null
		},
"floornumber": {
	"$ref": "#/definitions/longString"
			,"defaultLabel": "FloorNumber"
			,"description": "FloorNumber"
			,"fieldAlias2x": "FloorNumber"
			,"isSearchable": false
			,"picklistDescription": null
			,"picklistUri": null
			,"picklistParent": null
		},
"fuelhaveadditives": {
	"$ref": "#/definitions/longString"
			,"defaultLabel": "FuelHaveAdditives"
			,"description": "FuelHaveAdditives"
			,"fieldAlias2x": "FuelHaveAdditives"
			,"isSearchable": false
			,"picklistDescription": null
			,"picklistUri": null
			,"picklistParent": null
		},
"fuelhaveadditivesremarks": {
	"$ref": "#/definitions/longString"
			,"defaultLabel": "FuelHaveAdditivesRemarks"
			,"description": "FuelHaveAdditivesRemarks"
			,"fieldAlias2x": "FuelHaveAdditivesRemarks"
			,"isSearchable": false
			,"picklistDescription": null
			,"picklistUri": null
			,"picklistParent": null
		},
"fuelstationvisitfrequency": {
	"$ref": "#/definitions/longString"
			,"defaultLabel": "FuelStationVisitFrequency"
			,"description": "FuelStationVisitFrequency"
			,"fieldAlias2x": "FuelStationVisitFrequency"
			,"isSearchable": false
			,"picklistDescription": null
			,"picklistUri": null
			,"picklistParent": null
		},
"fueltested": {
	"$ref": "#/definitions/longString"
			,"defaultLabel": "FuelTested"
			,"description": "FuelTested"
			,"fieldAlias2x": "FuelTested"
			,"isSearchable": false
			,"picklistDescription": null
			,"picklistUri": null
			,"picklistParent": null
		},
"fueltestedremarks": {
	"$ref": "#/definitions/longString"
			,"defaultLabel": "FuelTestedRemarks"
			,"description": "FuelTestedRemarks"
			,"fieldAlias2x": "FuelTestedRemarks"
			,"isSearchable": false
			,"picklistDescription": null
			,"picklistUri": null
			,"picklistParent": null
		},
"guestaccess": {
	"$ref": "#/definitions/text"
			,"defaultLabel": "GuestAccess"
			,"description": "GuestAccess"
			,"fieldAlias2x": "GuestAccess"
			,"isSearchable": false
			,"picklistDescription": null
			,"picklistUri": null
			,"picklistParent": null
		},
"gym": {
	"$ref": "#/definitions/longString"
			,"defaultLabel": "Gym"
			,"description": "Gym"
			,"fieldAlias2x": "Gym"
			,"isSearchable": false
			,"picklistDescription": null
			,"picklistUri": null
			,"picklistParent": null
		},
"gymremarks": {
	"$ref": "#/definitions/text"
			,"defaultLabel": "GymRemarks"
			,"description": "GymRemarks"
			,"fieldAlias2x": "GymRemarks"
			,"isSearchable": false
			,"picklistDescription": null
			,"picklistUri": null
			,"picklistParent": null
		},
"heatdetection": {
	"$ref": "#/definitions/longString"
			,"defaultLabel": "HeatDetection"
			,"description": "HeatDetection"
			,"fieldAlias2x": "HeatDetection"
			,"isSearchable": false
			,"picklistDescription": null
			,"picklistUri": null
			,"picklistParent": null
		},
"heatdetectionremarks": {
	"$ref": "#/definitions/text"
			,"defaultLabel": "HeatDetectionRemarks"
			,"description": "HeatDetectionRemarks"
			,"fieldAlias2x": "HeatDetectionRemarks"
			,"isSearchable": false
			,"picklistDescription": null
			,"picklistUri": null
			,"picklistParent": null
		},
"horizonview": {
	"$ref": "#/definitions/longString"
			,"defaultLabel": "HorizonView"
			,"description": "HorizonView"
			,"fieldAlias2x": "HorizonView"
			,"isSearchable": false
			,"picklistDescription": "HorizonView"
			,"picklistUri": "SOFFuel-HorizonView"
			,"picklistParent": null
		},
"hotelsecurityaccess": {
	"$ref": "#/definitions/text"
			,"defaultLabel": "HotelSecurityAccess"
			,"description": "HotelSecurityAccess"
			,"fieldAlias2x": "HotelSecurityAccess"
			,"isSearchable": false
			,"picklistDescription": null
			,"picklistUri": null
			,"picklistParent": null
		},
"immediateneighborhood": {
	"$ref": "#/definitions/text"
			,"defaultLabel": "ImmediateNeighborhood"
			,"description": "ImmediateNeighborhood"
			,"fieldAlias2x": "ImmediateNeighborhood"
			,"isSearchable": false
			,"picklistDescription": null
			,"picklistUri": null
			,"picklistParent": null
		},
"incountryfax": {
	"$ref": "#/definitions/longString"
			,"defaultLabel": "InCountryFax"
			,"description": "InCountryFax"
			,"fieldAlias2x": "InCountryFax"
			,"isSearchable": false
			,"picklistDescription": null
			,"picklistUri": null
			,"picklistParent": null
		},
"incountrytelephone": {
	"$ref": "#/definitions/longString"
			,"defaultLabel": "InCountryTelephone"
			,"description": "InCountryTelephone"
			,"fieldAlias2x": "InCountryTelephone"
			,"isSearchable": false
			,"picklistDescription": null
			,"picklistUri": null
			,"picklistParent": null
		},
"keywords": {
	"$ref": "#/definitions/longString"
			,"defaultLabel": "Keywords"
			,"description": "Keywords"
			,"fieldAlias2x": "Keywords"
			,"isSearchable": false
			,"picklistDescription": null
			,"picklistUri": null
			,"picklistParent": null
		},
"languagesspoken": {
	"$ref": "#/definitions/longString"
			,"defaultLabel": "LanguagesSpoken"
			,"description": "LanguagesSpoken"
			,"fieldAlias2x": "LanguagesSpoken"
			,"isSearchable": false
			,"picklistDescription": null
			,"picklistUri": null
			,"picklistParent": null
		},
"latitude": {
	"$ref": "#/definitions/latitude_dds"
			,"defaultLabel": "Latitude"
			,"description": "Latitude"
			,"fieldAlias2x": "Latitude"
			,"isSearchable": false
			,"picklistDescription": null
			,"picklistUri": null
			,"picklistParent": null
		},
"laundry": {
	"$ref": "#/definitions/longString"
			,"defaultLabel": "Laundry"
			,"description": "Laundry"
			,"fieldAlias2x": "Laundry"
			,"isSearchable": false
			,"picklistDescription": null
			,"picklistUri": null
			,"picklistParent": null
		},
"laundryremarks": {
	"$ref": "#/definitions/text"
			,"defaultLabel": "LaundryRemarks"
			,"description": "LaundryRemarks"
			,"fieldAlias2x": "LaundryRemarks"
			,"isSearchable": false
			,"picklistDescription": null
			,"picklistUri": null
			,"picklistParent": null
		},
"linkstooutsidesecurityservices": {
	"$ref": "#/definitions/text"
			,"defaultLabel": "LinksToOutsideSecurityServices"
			,"description": "LinksToOutsideSecurityServices"
			,"fieldAlias2x": "LinksToOutsideSecurityServices"
			,"isSearchable": false
			,"picklistDescription": null
			,"picklistUri": null
			,"picklistParent": null
		},
"loadingdocks": {
	"$ref": "#/definitions/longString"
			,"defaultLabel": "LoadingDocks"
			,"description": "LoadingDocks"
			,"fieldAlias2x": "LoadingDocks"
			,"isSearchable": false
			,"picklistDescription": null
			,"picklistUri": null
			,"picklistParent": null
		},
"loadingdocksremarks": {
	"$ref": "#/definitions/text"
			,"defaultLabel": "LoadingDocksRemarks"
			,"description": "LoadingDocksRemarks"
			,"fieldAlias2x": "LoadingDocksRemarks"
			,"isSearchable": false
			,"picklistDescription": null
			,"picklistUri": null
			,"picklistParent": null
		},
"localeodservices": {
	"$ref": "#/definitions/text"
			,"defaultLabel": "LocalEODServices"
			,"description": "LocalEODServices"
			,"fieldAlias2x": "LocalEODServices"
			,"isSearchable": false
			,"picklistDescription": null
			,"picklistUri": null
			,"picklistParent": null
		},
"localeodservicesaddress": {
	"$ref": "#/definitions/text"
			,"defaultLabel": "LocalEODServicesAddress"
			,"description": "LocalEODServicesAddress"
			,"fieldAlias2x": "LocalEODServicesAddress"
			,"isSearchable": false
			,"picklistDescription": null
			,"picklistUri": null
			,"picklistParent": null
		},
"localeodservicestelephone": {
	"$ref": "#/definitions/longString"
			,"defaultLabel": "LocalEODServicesTelephone"
			,"description": "LocalEODServicesTelephone"
			,"fieldAlias2x": "LocalEODServicesTelephone"
			,"isSearchable": false
			,"picklistDescription": null
			,"picklistUri": null
			,"picklistParent": null
		},
"localfireservices": {
	"$ref": "#/definitions/text"
			,"defaultLabel": "LocalFireServices"
			,"description": "LocalFireServices"
			,"fieldAlias2x": "LocalFireServices"
			,"isSearchable": false
			,"picklistDescription": null
			,"picklistUri": null
			,"picklistParent": null
		},
"localfireservicesaddress": {
	"$ref": "#/definitions/text"
			,"defaultLabel": "LocalFireServicesAddress"
			,"description": "LocalFireServicesAddress"
			,"fieldAlias2x": "LocalFireServicesAddress"
			,"isSearchable": false
			,"picklistDescription": null
			,"picklistUri": null
			,"picklistParent": null
		},
"localfireservicestelephone": {
	"$ref": "#/definitions/longString"
			,"defaultLabel": "LocalFireServicesTelephone"
			,"description": "LocalFireServicesTelephone"
			,"fieldAlias2x": "LocalFireServicesTelephone"
			,"isSearchable": false
			,"picklistDescription": null
			,"picklistUri": null
			,"picklistParent": null
		},
"locationofopscenter": {
	"$ref": "#/definitions/text"
			,"defaultLabel": "LocationOfOpsCenter"
			,"description": "LocationOfOpsCenter"
			,"fieldAlias2x": "LocationOfOpsCenter"
			,"isSearchable": false
			,"picklistDescription": null
			,"picklistUri": null
			,"picklistParent": null
		},
"longitude": {
	"$ref": "#/definitions/longitude_dds"
			,"defaultLabel": "Longitude"
			,"description": "Longitude"
			,"fieldAlias2x": "Longitude"
			,"isSearchable": false
			,"picklistDescription": null
			,"picklistUri": null
			,"picklistParent": null
		},
"lrecommendedassemblyareatelephone": {
	"$ref": "#/definitions/longString"
			,"defaultLabel": "LRecommendedAssemblyAreaTelephone"
			,"description": "LRecommendedAssemblyAreaTelephone"
			,"fieldAlias2x": "LRecommendedAssemblyAreaTelephone"
			,"isSearchable": false
			,"picklistDescription": null
			,"picklistUri": null
			,"picklistParent": null
		},
"maxoccupancy": {
	"$ref": "#/definitions/longString"
			,"defaultLabel": "MaxOccupancy"
			,"description": "MaxOccupancy"
			,"fieldAlias2x": "MaxOccupancy"
			,"isSearchable": false
			,"picklistDescription": null
			,"picklistUri": null
			,"picklistParent": null
		},
"meterssetback": {
	"$ref": "#/definitions/longString"
			,"defaultLabel": "MetersSetBack"
			,"description": "MetersSetBack"
			,"fieldAlias2x": "MetersSetBack"
			,"isSearchable": false
			,"picklistDescription": null
			,"picklistUri": null
			,"picklistParent": null
		},
"mgrs": {
	"$ref": "#/definitions/longString"
			,"defaultLabel": "MGRS"
			,"description": "MGRS"
			,"fieldAlias2x": "MGRS"
			,"isSearchable": false
			,"picklistDescription": null
			,"picklistUri": null
			,"picklistParent": null
		},
"nearestmajorlandmark": {
	"$ref": "#/definitions/text"
			,"defaultLabel": "NearestMajorLandmark"
			,"description": "NearestMajorLandmark"
			,"fieldAlias2x": "NearestMajorLandmark"
			,"isSearchable": false
			,"picklistDescription": null
			,"picklistUri": null
			,"picklistParent": null
		},
"numberperfloor": {
	"$ref": "#/definitions/longString"
			,"defaultLabel": "NumberPerFloor"
			,"description": "NumberPerFloor"
			,"fieldAlias2x": "NumberPerFloor"
			,"isSearchable": false
			,"picklistDescription": null
			,"picklistUri": null
			,"picklistParent": null
		},
"openspaceareas": {
	"$ref": "#/definitions/text"
			,"defaultLabel": "OpenSpaceAreas"
			,"description": "OpenSpaceAreas"
			,"fieldAlias2x": "OpenSpaceAreas"
			,"isSearchable": false
			,"picklistDescription": null
			,"picklistUri": null
			,"picklistParent": null
		},
"otheramenities": {
	"$ref": "#/definitions/text"
			,"defaultLabel": "OtherAmenities"
			,"description": "OtherAmenities"
			,"fieldAlias2x": "OtherAmenities"
			,"isSearchable": false
			,"picklistDescription": null
			,"picklistUri": null
			,"picklistParent": null
		},
"outsidecountrytelephone": {
	"$ref": "#/definitions/longString"
			,"defaultLabel": "OutsideCountryTelephone"
			,"description": "OutsideCountryTelephone"
			,"fieldAlias2x": "OutsideCountryTelephone"
			,"isSearchable": false
			,"picklistDescription": null
			,"picklistUri": null
			,"picklistParent": null
		},
"parking": {
	"$ref": "#/definitions/longString"
			,"defaultLabel": "Parking"
			,"description": "Parking"
			,"fieldAlias2x": "Parking"
			,"isSearchable": false
			,"picklistDescription": null
			,"picklistUri": null
			,"picklistParent": null
		},
"parkingremarks": {
	"$ref": "#/definitions/text"
			,"defaultLabel": "ParkingRemarks"
			,"description": "ParkingRemarks"
			,"fieldAlias2x": "ParkingRemarks"
			,"isSearchable": false
			,"picklistDescription": null
			,"picklistUri": null
			,"picklistParent": null
		},
"perimeterconstruction": {
	"$ref": "#/definitions/text"
			,"defaultLabel": "PerimeterConstruction"
			,"description": "PerimeterConstruction"
			,"fieldAlias2x": "PerimeterConstruction"
			,"isSearchable": false
			,"picklistDescription": null
			,"picklistUri": null
			,"picklistParent": null
		},
"predominantethnicity": {
	"$ref": "#/definitions/longString"
			,"defaultLabel": "PredominantEthnicity"
			,"description": "PredominantEthnicity"
			,"fieldAlias2x": "PredominantEthnicity"
			,"isSearchable": false
			,"picklistDescription": null
			,"picklistUri": null
			,"picklistParent": null
		},
"predominantreligion": {
	"$ref": "#/definitions/longString"
			,"defaultLabel": "PredominantReligion"
			,"description": "PredominantReligion"
			,"fieldAlias2x": "PredominantReligion"
			,"isSearchable": false
			,"picklistDescription": null
			,"picklistUri": null
			,"picklistParent": null
		},
"primaryfuelstation": {
	"$ref": "#/definitions/longString"
			,"defaultLabel": "PrimaryFuelStation"
			,"description": "PrimaryFuelStation"
			,"fieldAlias2x": "PrimaryFuelStation"
			,"isSearchable": false
			,"picklistDescription": null
			,"picklistUri": null
			,"picklistParent": null
		},
"professional": {
	"$ref": "#/definitions/longString"
			,"defaultLabel": "Professional"
			,"description": "Professional"
			,"fieldAlias2x": "Professional"
			,"isSearchable": false
			,"picklistDescription": null
			,"picklistUri": null
			,"picklistParent": null
		},
"propertyarea": {
	"$ref": "#/definitions/longString"
			,"defaultLabel": "PropertyArea"
			,"description": "PropertyArea"
			,"fieldAlias2x": "PropertyArea"
			,"isSearchable": false
			,"picklistDescription": null
			,"picklistUri": null
			,"picklistParent": null
		},
"pumpquantity": {
	"$ref": "#/definitions/longString"
			,"defaultLabel": "PumpQuantity"
			,"description": "PumpQuantity"
			,"fieldAlias2x": "PumpQuantity"
			,"isSearchable": false
			,"picklistDescription": null
			,"picklistUri": null
			,"picklistParent": null
		},
"qualityissues": {
	"$ref": "#/definitions/longString"
			,"defaultLabel": "QualityIssues"
			,"description": "QualityIssues"
			,"fieldAlias2x": "QualityIssues"
			,"isSearchable": false
			,"picklistDescription": null
			,"picklistUri": null
			,"picklistParent": null
		},
"recommendedassemblyarea": {
	"$ref": "#/definitions/text"
			,"defaultLabel": "RecommendedAssemblyArea"
			,"description": "RecommendedAssemblyArea"
			,"fieldAlias2x": "RecommendedAssemblyArea"
			,"isSearchable": false
			,"picklistDescription": null
			,"picklistUri": null
			,"picklistParent": null
		},
"recommendedassemblyareaaddress": {
	"$ref": "#/definitions/text"
			,"defaultLabel": "RecommendedAssemblyAreaAddress"
			,"description": "RecommendedAssemblyAreaAddress"
			,"fieldAlias2x": "RecommendedAssemblyAreaAddress"
			,"isSearchable": false
			,"picklistDescription": null
			,"picklistUri": null
			,"picklistParent": null
		},
"recommendedassemblyareadirections": {
	"$ref": "#/definitions/text"
			,"defaultLabel": "RecommendedAssemblyAreaDirections"
			,"description": "RecommendedAssemblyAreaDirections"
			,"fieldAlias2x": "RecommendedAssemblyAreaDirections"
			,"isSearchable": false
			,"picklistDescription": null
			,"picklistUri": null
			,"picklistParent": null
		},
"recommendedbyembassy": {
	"$ref": "#/definitions/longString"
			,"defaultLabel": "RecommendedByEmbassy"
			,"description": "RecommendedByEmbassy"
			,"fieldAlias2x": "RecommendedByEmbassy"
			,"isSearchable": false
			,"picklistDescription": null
			,"picklistUri": null
			,"picklistParent": null
		},
"recommendedbyembassyremarks": {
	"$ref": "#/definitions/longString"
			,"defaultLabel": "RecommendedByEmbassyRemarks"
			,"description": "RecommendedByEmbassyRemarks"
			,"fieldAlias2x": "RecommendedByEmbassyRemarks"
			,"isSearchable": false
			,"picklistDescription": null
			,"picklistUri": null
			,"picklistParent": null
		},
"recordingssaved": {
	"$ref": "#/definitions/longString"
			,"defaultLabel": "RecordingsSaved"
			,"description": "RecordingsSaved"
			,"fieldAlias2x": "RecordingsSaved"
			,"isSearchable": false
			,"picklistDescription": null
			,"picklistUri": null
			,"picklistParent": null
		},
"recordingunits": {
	"$ref": "#/definitions/longString"
			,"defaultLabel": "RecordingUnits"
			,"description": "RecordingUnits"
			,"fieldAlias2x": "RecordingUnits"
			,"isSearchable": false
			,"picklistDescription": "RecordingUnits"
			,"picklistUri": "SOFFuel-RecordingUnits"
			,"picklistParent": null
		},
"refrigeration": {
	"$ref": "#/definitions/longString"
			,"defaultLabel": "Refrigeration"
			,"description": "Refrigeration"
			,"fieldAlias2x": "Refrigeration"
			,"isSearchable": false
			,"picklistDescription": null
			,"picklistUri": null
			,"picklistParent": null
		},
"refrigerationremarks": {
	"$ref": "#/definitions/text"
			,"defaultLabel": "RefrigerationRemarks"
			,"description": "RefrigerationRemarks"
			,"fieldAlias2x": "RefrigerationRemarks"
			,"isSearchable": false
			,"picklistDescription": null
			,"picklistUri": null
			,"picklistParent": null
		},
"reportcategory": {
	"$ref": "#/definitions/longString"
			,"defaultLabel": "ReportCategory"
			,"description": "ReportCategory"
			,"fieldAlias2x": "ReportCategory"
			,"isSearchable": false
			,"picklistDescription": null
			,"picklistUri": null
			,"picklistParent": null
		},
"reportstance": {
	"$ref": "#/definitions/longString"
			,"defaultLabel": "ReportStance"
			,"description": "ReportStance"
			,"fieldAlias2x": "ReportStance"
			,"isSearchable": false
			,"picklistDescription": null
			,"picklistUri": null
			,"picklistParent": null
		},
"reportstatus": {
	"$ref": "#/definitions/longString"
			,"defaultLabel": "ReportStatus"
			,"description": "ReportStatus"
			,"fieldAlias2x": "ReportStatus"
			,"isSearchable": false
			,"picklistDescription": null
			,"picklistUri": null
			,"picklistParent": null
		},
"reporttitle": {
	"$ref": "#/definitions/longString"
			,"defaultLabel": "ReportTitle"
			,"description": "ReportTitle"
			,"fieldAlias2x": "ReportTitle"
			,"isSearchable": false
			,"picklistDescription": null
			,"picklistUri": null
			,"picklistParent": null
		},
"reporttype": {
	"$ref": "#/definitions/longString"
			,"defaultLabel": "ReportType"
			,"description": "ReportType"
			,"fieldAlias2x": "ReportType"
			,"isSearchable": false
			,"picklistDescription": null
			,"picklistUri": null
			,"picklistParent": null
		},
"restaurants": {
	"$ref": "#/definitions/longString"
			,"defaultLabel": "Restaurants"
			,"description": "Restaurants"
			,"fieldAlias2x": "Restaurants"
			,"isSearchable": false
			,"picklistDescription": null
			,"picklistUri": null
			,"picklistParent": null
		},
"restaurantsremarks": {
	"$ref": "#/definitions/text"
			,"defaultLabel": "RestaurantsRemarks"
			,"description": "RestaurantsRemarks"
			,"fieldAlias2x": "RestaurantsRemarks"
			,"isSearchable": false
			,"picklistDescription": null
			,"picklistUri": null
			,"picklistParent": null
		},
"roomnumber": {
	"$ref": "#/definitions/longString"
			,"defaultLabel": "RoomNumber"
			,"description": "RoomNumber"
			,"fieldAlias2x": "RoomNumber"
			,"isSearchable": false
			,"picklistDescription": null
			,"picklistUri": null
			,"picklistParent": null
		},
"savedforhowlong": {
	"$ref": "#/definitions/longString"
			,"defaultLabel": "SavedForHowLong"
			,"description": "SavedForHowLong"
			,"fieldAlias2x": "SavedForHowLong"
			,"isSearchable": false
			,"picklistDescription": null
			,"picklistUri": null
			,"picklistParent": null
		},
"securitystaff": {
	"$ref": "#/definitions/longString"
			,"defaultLabel": "SecurityStaff"
			,"description": "SecurityStaff"
			,"fieldAlias2x": "SecurityStaff"
			,"isSearchable": false
			,"picklistDescription": null
			,"picklistUri": null
			,"picklistParent": null
		},
"securitystaffremarks": {
	"$ref": "#/definitions/text"
			,"defaultLabel": "SecurityStaffRemarks"
			,"description": "SecurityStaffRemarks"
			,"fieldAlias2x": "SecurityStaffRemarks"
			,"isSearchable": false
			,"picklistDescription": null
			,"picklistUri": null
			,"picklistParent": null
		},
"setbackfromstreet": {
	"$ref": "#/definitions/longString"
			,"defaultLabel": "SetBackFromStreet"
			,"description": "SetBackFromStreet"
			,"fieldAlias2x": "SetBackFromStreet"
			,"isSearchable": false
			,"picklistDescription": null
			,"picklistUri": null
			,"picklistParent": null
		},
"setbackfromstreetremarks": {
	"$ref": "#/definitions/text"
			,"defaultLabel": "SetBackFromStreetRemarks"
			,"description": "SetBackFromStreetRemarks"
			,"fieldAlias2x": "SetBackFromStreetRemarks"
			,"isSearchable": false
			,"picklistDescription": null
			,"picklistUri": null
			,"picklistParent": null
		},
"significance": {
	"$ref": "#/definitions/text"
			,"defaultLabel": "Significance"
			,"description": "Significance"
			,"fieldAlias2x": "Significance"
			,"isSearchable": false
			,"picklistDescription": null
			,"picklistUri": null
			,"picklistParent": null
		},
"smokedetection": {
	"$ref": "#/definitions/longString"
			,"defaultLabel": "SmokeDetection"
			,"description": "SmokeDetection"
			,"fieldAlias2x": "SmokeDetection"
			,"isSearchable": false
			,"picklistDescription": null
			,"picklistUri": null
			,"picklistParent": null
		},
"smokedetectionremarks": {
	"$ref": "#/definitions/text"
			,"defaultLabel": "SmokeDetectionRemarks"
			,"description": "SmokeDetectionRemarks"
			,"fieldAlias2x": "SmokeDetectionRemarks"
			,"isSearchable": false
			,"picklistDescription": null
			,"picklistUri": null
			,"picklistParent": null
		},
"sourceoffuel": {
	"$ref": "#/definitions/longString"
			,"defaultLabel": "SourceOfFuel"
			,"description": "SourceOfFuel"
			,"fieldAlias2x": "SourceOfFuel"
			,"isSearchable": false
			,"picklistDescription": null
			,"picklistUri": null
			,"picklistParent": null
		},
"sprinklers": {
	"$ref": "#/definitions/longString"
			,"defaultLabel": "Sprinklers"
			,"description": "Sprinklers"
			,"fieldAlias2x": "Sprinklers"
			,"isSearchable": false
			,"picklistDescription": null
			,"picklistUri": null
			,"picklistParent": null
		},
"sprinklersremarks": {
	"$ref": "#/definitions/text"
			,"defaultLabel": "SprinklersRemarks"
			,"description": "SprinklersRemarks"
			,"fieldAlias2x": "SprinklersRemarks"
			,"isSearchable": false
			,"picklistDescription": null
			,"picklistUri": null
			,"picklistParent": null
		},
"stationcapacity": {
	"$ref": "#/definitions/longString"
			,"defaultLabel": "StationCapacity"
			,"description": "StationCapacity"
			,"fieldAlias2x": "StationCapacity"
			,"isSearchable": false
			,"picklistDescription": null
			,"picklistUri": null
			,"picklistParent": null
		},
"stationrefuelfrequency": {
	"$ref": "#/definitions/longString"
			,"defaultLabel": "StationRefuelFrequency"
			,"description": "StationRefuelFrequency"
			,"fieldAlias2x": "StationRefuelFrequency"
			,"isSearchable": false
			,"picklistDescription": null
			,"picklistUri": null
			,"picklistParent": null
		},
"statusofreport": {
	"$ref": "#/definitions/longString"
			,"defaultLabel": "StatusOfReport"
			,"description": "StatusOfReport"
			,"fieldAlias2x": "StatusOfReport"
			,"isSearchable": false
			,"picklistDescription": null
			,"picklistUri": null
			,"picklistParent": null
		},
"structuredataremarks": {
	"$ref": "#/definitions/text"
			,"defaultLabel": "StructureDataRemarks"
			,"description": "StructureDataRemarks"
			,"fieldAlias2x": "StructureDataRemarks"
			,"isSearchable": false
			,"picklistDescription": null
			,"picklistUri": null
			,"picklistParent": null
		},
"submittedby": {
	"$ref": "#/definitions/longString"
			,"defaultLabel": "SubmittedBy"
			,"description": "SubmittedBy"
			,"fieldAlias2x": "SubmittedBy"
			,"isSearchable": false
			,"picklistDescription": null
			,"picklistUri": null
			,"picklistParent": null
		},
"submittedbyemail": {
	"$ref": "#/definitions/longString"
			,"defaultLabel": "SubmittedByEmail"
			,"description": "SubmittedByEmail"
			,"fieldAlias2x": "SubmittedByEmail"
			,"isSearchable": false
			,"picklistDescription": null
			,"picklistUri": null
			,"picklistParent": null
		},
"submittedbyphone": {
	"$ref": "#/definitions/longString"
			,"defaultLabel": "SubmittedByPhone"
			,"description": "SubmittedByPhone"
			,"fieldAlias2x": "SubmittedByPhone"
			,"isSearchable": false
			,"picklistDescription": null
			,"picklistUri": null
			,"picklistParent": null
		},
"suitableforopscomcenter": {
	"$ref": "#/definitions/longString"
			,"defaultLabel": "SuitableForOpsComCenter"
			,"description": "SuitableForOpsComCenter"
			,"fieldAlias2x": "SuitableForOpsComCenter"
			,"isSearchable": false
			,"picklistDescription": null
			,"picklistUri": null
			,"picklistParent": null
		},
"suitableforopscomcenterremarks": {
	"$ref": "#/definitions/text"
			,"defaultLabel": "SuitableForOpsComCenterRemarks"
			,"description": "SuitableForOpsComCenterRemarks"
			,"fieldAlias2x": "SuitableForOpsComCenterRemarks"
			,"isSearchable": false
			,"picklistDescription": null
			,"picklistUri": null
			,"picklistParent": null
		},
"uniformed": {
	"$ref": "#/definitions/longString"
			,"defaultLabel": "Uniformed"
			,"description": "Uniformed"
			,"fieldAlias2x": "Uniformed"
			,"isSearchable": false
			,"picklistDescription": null
			,"picklistUri": null
			,"picklistParent": null
		},
"unitofmeasurement": {
	"$ref": "#/definitions/longString"
			,"defaultLabel": "UnitOfMeasurement"
			,"description": "UnitOfMeasurement"
			,"fieldAlias2x": "UnitOfMeasurement"
			,"isSearchable": false
			,"picklistDescription": "UnitOfMeasurement"
			,"picklistUri": "SOFFuel-UnitOfMeasurement"
			,"picklistParent": null
		},
"usedforrefueling": {
	"$ref": "#/definitions/longString"
			,"defaultLabel": "UsedForRefueling"
			,"description": "UsedForRefueling"
			,"fieldAlias2x": "UsedForRefueling"
			,"isSearchable": false
			,"picklistDescription": null
			,"picklistUri": null
			,"picklistParent": null
		},
"usedforrefuelingremarks": {
	"$ref": "#/definitions/longString"
			,"defaultLabel": "UsedForRefuelingRemarks"
			,"description": "UsedForRefuelingRemarks"
			,"fieldAlias2x": "UsedForRefuelingRemarks"
			,"isSearchable": false
			,"picklistDescription": null
			,"picklistUri": null
			,"picklistParent": null
		},
"validationdate": {
	"$ref": "#/definitions/dateTime"
			,"defaultLabel": "ValidationDate"
			,"description": "ValidationDate"
			,"fieldAlias2x": "ValidationDate"
			,"isSearchable": false
			,"picklistDescription": null
			,"picklistUri": null
			,"picklistParent": null
		},
"vehicleaccess": {
	"$ref": "#/definitions/text"
			,"defaultLabel": "VehicleAccess"
			,"description": "VehicleAccess"
			,"fieldAlias2x": "VehicleAccess"
			,"isSearchable": false
			,"picklistDescription": null
			,"picklistUri": null
			,"picklistParent": null
		},
"webaddress": {
	"$ref": "#/definitions/longString"
			,"defaultLabel": "WebAddress"
			,"description": "WebAddress"
			,"fieldAlias2x": "WebAddress"
			,"isSearchable": false
			,"picklistDescription": null
			,"picklistUri": null
			,"picklistParent": null
		},
"whichfloors": {
	"$ref": "#/definitions/longString"
			,"defaultLabel": "WhichFloors"
			,"description": "WhichFloors"
			,"fieldAlias2x": "WhichFloors"
			,"isSearchable": false
			,"picklistDescription": null
			,"picklistUri": null
			,"picklistParent": null
		},
"windoworientation": {
	"$ref": "#/definitions/longString"
			,"defaultLabel": "WindowOrientation"
			,"description": "WindowOrientation"
			,"fieldAlias2x": "WindowOrientation"
			,"isSearchable": false
			,"picklistDescription": null
			,"picklistUri": null
			,"picklistParent": null
		},
			"buildingconstruction": {
				"type": "array",
				"description": "SOF Fuel Report BuildingConstruction specific details",
				"fieldAlias2x": "BuildingConstruction", 
					"items": {
						"type": "object",
						"properties": {
						
"referenceid": {
	"$ref": "#/definitions/longString"
			,"defaultLabel": "referenceId"
			,"description": "referenceId"
			,"fieldAlias2x": "BuildingConstructionKey"
			,"isSearchable": false
			,"picklistDescription": null
			,"picklistUri": null
			,"picklistParent": null
		},
"condition": {
	"$ref": "#/definitions/longString"
			,"defaultLabel": "Condition"
			,"description": "Condition"
			,"fieldAlias2x": "Condition"
			,"isSearchable": false
			,"picklistDescription": "Condition"
			,"picklistUri": "SOFFuel-Condition"
			,"picklistParent": null
		},
"constructionother": {
	"$ref": "#/definitions/longString"
			,"defaultLabel": "ConstructionOther"
			,"description": "ConstructionOther"
			,"fieldAlias2x": "ConstructionOther"
			,"isSearchable": false
			,"picklistDescription": null
			,"picklistUri": null
			,"picklistParent": null
		},
"constructionsubcategory": {
	"$ref": "#/definitions/longString"
			,"defaultLabel": "ConstructionSubCategory"
			,"description": "ConstructionSubCategory"
			,"fieldAlias2x": "ConstructionSubCategory"
			,"isSearchable": false
			,"picklistDescription": "ConstructionSubCategory"
			,"picklistUri": "SOFFuel-ConstructionSubCategory"
			,"picklistParent": null
		},
"constructiontype": {
	"$ref": "#/definitions/longString"
			,"defaultLabel": "ConstructionType"
			,"description": "ConstructionType"
			,"fieldAlias2x": "ConstructionType"
			,"isSearchable": false
			,"picklistDescription": "ConstructionType"
			,"picklistUri": "SOFFuel-ConstructionType"
			,"picklistParent": null
		},
"remarks": {
	"$ref": "#/definitions/text"
			,"defaultLabel": "Remarks"
			,"description": "Remarks"
			,"fieldAlias2x": "Remarks"
			,"isSearchable": false
			,"picklistDescription": null
			,"picklistUri": null
			,"picklistParent": null
		}
				}
			}
		},
			"electrical": {
				"type": "array",
				"description": "SOF Fuel Report Electrical specific details",
				"fieldAlias2x": "Electrical", 
					"items": {
						"type": "object",
						"properties": {
						
"referenceid": {
	"$ref": "#/definitions/longString"
			,"defaultLabel": "referenceId"
			,"description": "referenceId"
			,"fieldAlias2x": "ElectricalKey"
			,"isSearchable": false
			,"picklistDescription": null
			,"picklistUri": null
			,"picklistParent": null
		},
"frequency": {
	"$ref": "#/definitions/longString"
			,"defaultLabel": "Frequency"
			,"description": "Frequency"
			,"fieldAlias2x": "Frequency"
			,"isSearchable": false
			,"picklistDescription": "Frequency"
			,"picklistUri": "SOFFuel-Frequency"
			,"picklistParent": null
		},
"remarks": {
	"$ref": "#/definitions/text"
			,"defaultLabel": "Remarks"
			,"description": "Remarks"
			,"fieldAlias2x": "Remarks"
			,"isSearchable": false
			,"picklistDescription": null
			,"picklistUri": null
			,"picklistParent": null
		},
"sockettype": {
	"$ref": "#/definitions/longString"
			,"defaultLabel": "SocketType"
			,"description": "SocketType"
			,"fieldAlias2x": "SocketType"
			,"isSearchable": false
			,"picklistDescription": "SocketType"
			,"picklistUri": "SOFFuel-SocketType"
			,"picklistParent": null
		},
"voltage": {
	"$ref": "#/definitions/longString"
			,"defaultLabel": "Voltage"
			,"description": "Voltage"
			,"fieldAlias2x": "Voltage"
			,"isSearchable": false
			,"picklistDescription": "Voltage"
			,"picklistUri": "SOFFuel-Voltage"
			,"picklistParent": null
		},
"wiringcapabilities": {
	"$ref": "#/definitions/longString"
			,"defaultLabel": "WiringCapabilities"
			,"description": "WiringCapabilities"
			,"fieldAlias2x": "WiringCapabilities"
			,"isSearchable": false
			,"picklistDescription": null
			,"picklistUri": null
			,"picklistParent": null
		},
"wiringinfrastructure": {
	"$ref": "#/definitions/longString"
			,"defaultLabel": "WiringInfrastructure"
			,"description": "WiringInfrastructure"
			,"fieldAlias2x": "WiringInfrastructure"
			,"isSearchable": false
			,"picklistDescription": null
			,"picklistUri": null
			,"picklistParent": null
		}
				}
			}
		},
			"hoursofoperation": {
				"type": "array",
				"description": "SOF Fuel Report HoursOfOperation specific details",
				"fieldAlias2x": "HoursOfOperation", 
					"items": {
						"type": "object",
						"properties": {
						
"closetime": {
	"$ref": "#/definitions/longString"
			,"defaultLabel": "CloseTime"
			,"description": "CloseTime"
			,"fieldAlias2x": "CloseTime"
			,"isSearchable": false
			,"picklistDescription": null
			,"picklistUri": null
			,"picklistParent": null
		},
"creditcard": {
	"type": "boolean"
			,"defaultLabel": "CreditCard"
			,"description": "CreditCard"
			,"fieldAlias2x": "CreditCard"
			,"isSearchable": false
			,"picklistDescription": null
			,"picklistUri": null
			,"picklistParent": null
		},
"daysofweekfri": {
	"type": "boolean"
			,"defaultLabel": "DaysofWeekFri"
			,"description": "DaysofWeekFri"
			,"fieldAlias2x": "DaysofWeekFri"
			,"isSearchable": false
			,"picklistDescription": null
			,"picklistUri": null
			,"picklistParent": null
		},
"daysofweekmon": {
	"type": "boolean"
			,"defaultLabel": "DaysofWeekMon"
			,"description": "DaysofWeekMon"
			,"fieldAlias2x": "DaysofWeekMon"
			,"isSearchable": false
			,"picklistDescription": null
			,"picklistUri": null
			,"picklistParent": null
		},
"daysofweeksat": {
	"type": "boolean"
			,"defaultLabel": "DaysofWeekSat"
			,"description": "DaysofWeekSat"
			,"fieldAlias2x": "DaysofWeekSat"
			,"isSearchable": false
			,"picklistDescription": null
			,"picklistUri": null
			,"picklistParent": null
		},
"daysofweeksun": {
	"type": "boolean"
			,"defaultLabel": "DaysofWeekSun"
			,"description": "DaysofWeekSun"
			,"fieldAlias2x": "DaysofWeekSun"
			,"isSearchable": false
			,"picklistDescription": null
			,"picklistUri": null
			,"picklistParent": null
		},
"daysofweekthurs": {
	"type": "boolean"
			,"defaultLabel": "DaysofWeekThurs"
			,"description": "DaysofWeekThurs"
			,"fieldAlias2x": "DaysofWeekThurs"
			,"isSearchable": false
			,"picklistDescription": null
			,"picklistUri": null
			,"picklistParent": null
		},
"daysofweektues": {
	"type": "boolean"
			,"defaultLabel": "DaysofWeekTues"
			,"description": "DaysofWeekTues"
			,"fieldAlias2x": "DaysofWeekTues"
			,"isSearchable": false
			,"picklistDescription": null
			,"picklistUri": null
			,"picklistParent": null
		},
"daysofweekwed": {
	"type": "boolean"
			,"defaultLabel": "DaysofWeekWed"
			,"description": "DaysofWeekWed"
			,"fieldAlias2x": "DaysofWeekWed"
			,"isSearchable": false
			,"picklistDescription": null
			,"picklistUri": null
			,"picklistParent": null
		},
"dollar": {
	"type": "boolean"
			,"defaultLabel": "Dollar"
			,"description": "Dollar"
			,"fieldAlias2x": "Dollar"
			,"isSearchable": false
			,"picklistDescription": null
			,"picklistUri": null
			,"picklistParent": null
		},
"holidays": {
	"$ref": "#/definitions/longString"
			,"defaultLabel": "Holidays"
			,"description": "Holidays"
			,"fieldAlias2x": "Holidays"
			,"isSearchable": false
			,"picklistDescription": null
			,"picklistUri": null
			,"picklistParent": null
		},
"referenceid": {
	"$ref": "#/definitions/longString"
			,"defaultLabel": "referenceId"
			,"description": "referenceId"
			,"fieldAlias2x": "HoursOfOperationKey"
			,"isSearchable": false
			,"picklistDescription": null
			,"picklistUri": null
			,"picklistParent": null
		},
"localcurrency": {
	"type": "boolean"
			,"defaultLabel": "LocalCurrency"
			,"description": "LocalCurrency"
			,"fieldAlias2x": "LocalCurrency"
			,"isSearchable": false
			,"picklistDescription": null
			,"picklistUri": null
			,"picklistParent": null
		},
"opentime": {
	"$ref": "#/definitions/longString"
			,"defaultLabel": "OpenTime"
			,"description": "OpenTime"
			,"fieldAlias2x": "OpenTime"
			,"isSearchable": false
			,"picklistDescription": null
			,"picklistUri": null
			,"picklistParent": null
		},
"othercurrency": {
	"type": "boolean"
			,"defaultLabel": "OtherCurrency"
			,"description": "OtherCurrency"
			,"fieldAlias2x": "OtherCurrency"
			,"isSearchable": false
			,"picklistDescription": null
			,"picklistUri": null
			,"picklistParent": null
		},
"peakperiods": {
	"$ref": "#/definitions/longString"
			,"defaultLabel": "PeakPeriods"
			,"description": "PeakPeriods"
			,"fieldAlias2x": "PeakPeriods"
			,"isSearchable": false
			,"picklistDescription": null
			,"picklistUri": null
			,"picklistParent": null
		},
"price": {
	"$ref": "#/definitions/longString"
			,"defaultLabel": "Price"
			,"description": "Price"
			,"fieldAlias2x": "Price"
			,"isSearchable": false
			,"picklistDescription": null
			,"picklistUri": null
			,"picklistParent": null
		},
"remarks": {
	"$ref": "#/definitions/text"
			,"defaultLabel": "Remarks"
			,"description": "Remarks"
			,"fieldAlias2x": "Remarks"
			,"isSearchable": false
			,"picklistDescription": null
			,"picklistUri": null
			,"picklistParent": null
		}
				}
			}
		},
			"pmesii": {
				"type": "array",
				"description": "SOF Fuel Report PMESII specific details",
				"fieldAlias2x": "PMESII", 
					"items": {
						"type": "object",
						"properties": {
						
"ascope": {
	"$ref": "#/definitions/longString"
			,"defaultLabel": "ASCOPE"
			,"description": "ASCOPE"
			,"fieldAlias2x": "ASCOPE"
			,"isSearchable": false
			,"picklistDescription": null
			,"picklistUri": null
			,"picklistParent": null
		},
"dimelif": {
	"$ref": "#/definitions/longString"
			,"defaultLabel": "DIMELIF"
			,"description": "DIMELIF"
			,"fieldAlias2x": "DIMELIF"
			,"isSearchable": false
			,"picklistDescription": null
			,"picklistUri": null
			,"picklistParent": null
		},
"pmesii": {
	"$ref": "#/definitions/longString"
			,"defaultLabel": "PMESII"
			,"description": "PMESII"
			,"fieldAlias2x": "PMESII"
			,"isSearchable": false
			,"picklistDescription": null
			,"picklistUri": null
			,"picklistParent": null
		},
"referenceid": {
	"$ref": "#/definitions/longString"
			,"defaultLabel": "referenceId"
			,"description": "referenceId"
			,"fieldAlias2x": "PMESIIKey"
			,"isSearchable": false
			,"picklistDescription": null
			,"picklistUri": null
			,"picklistParent": null
		},
"remarks": {
	"$ref": "#/definitions/text"
			,"defaultLabel": "Remarks"
			,"description": "Remarks"
			,"fieldAlias2x": "Remarks"
			,"isSearchable": false
			,"picklistDescription": null
			,"picklistUri": null
			,"picklistParent": null
		},
"stance": {
	"$ref": "#/definitions/longString"
			,"defaultLabel": "Stance"
			,"description": "Stance"
			,"fieldAlias2x": "Stance"
			,"isSearchable": false
			,"picklistDescription": null
			,"picklistUri": null
			,"picklistParent": null
		}
				}
			}
		},
			"remarks": {
				"type": "array",
				"description": "SOF Fuel Report Remarks specific details",
				"fieldAlias2x": "Remarks", 
					"items": {
						"type": "object",
						"properties": {
						
"remarks": {
	"$ref": "#/definitions/text"
			,"defaultLabel": "Remarks"
			,"description": "Remarks"
			,"fieldAlias2x": "Remarks"
			,"isSearchable": false
			,"picklistDescription": null
			,"picklistUri": null
			,"picklistParent": null
		},
"referenceid": {
	"$ref": "#/definitions/longString"
			,"defaultLabel": "referenceId"
			,"description": "referenceId"
			,"fieldAlias2x": "RemarksKey"
			,"isSearchable": false
			,"picklistDescription": null
			,"picklistUri": null
			,"picklistParent": null
		}
				}
			}
		},
			"servicesoffered": {
				"type": "array",
				"description": "SOF Fuel Report ServicesOffered specific details",
				"fieldAlias2x": "ServicesOffered", 
					"items": {
						"type": "object",
						"properties": {
						
"fuelservice": {
	"$ref": "#/definitions/longString"
			,"defaultLabel": "FuelService"
			,"description": "FuelService"
			,"fieldAlias2x": "FuelService"
			,"isSearchable": false
			,"picklistDescription": "FuelService"
			,"picklistUri": "SOFFuel-FuelService"
			,"picklistParent": null
		},
"fueltypes": {
	"$ref": "#/definitions/longString"
			,"defaultLabel": "FuelTypes"
			,"description": "FuelTypes"
			,"fieldAlias2x": "FuelTypes"
			,"isSearchable": false
			,"picklistDescription": "FuelTypes"
			,"picklistUri": "SOFFuel-FuelTypes"
			,"picklistParent": null
		},
"remarks": {
	"$ref": "#/definitions/text"
			,"defaultLabel": "Remarks"
			,"description": "Remarks"
			,"fieldAlias2x": "Remarks"
			,"isSearchable": false
			,"picklistDescription": null
			,"picklistUri": null
			,"picklistParent": null
		},
"referenceid": {
	"$ref": "#/definitions/longString"
			,"defaultLabel": "referenceId"
			,"description": "referenceId"
			,"fieldAlias2x": "ServicesOfferedKey"
			,"isSearchable": false
			,"picklistDescription": null
			,"picklistUri": null
			,"picklistParent": null
		}
				}
			}
		},
			"transportation": {
				"type": "array",
				"description": "SOF Fuel Report Transportation specific details",
				"fieldAlias2x": "Transportation", 
					"items": {
						"type": "object",
						"properties": {
						
"address": {
	"$ref": "#/definitions/longString"
			,"defaultLabel": "Address"
			,"description": "Address"
			,"fieldAlias2x": "Address"
			,"isSearchable": false
			,"picklistDescription": null
			,"picklistUri": null
			,"picklistParent": null
		},
"telephone": {
	"$ref": "#/definitions/longString"
			,"defaultLabel": "Telephone"
			,"description": "Telephone"
			,"fieldAlias2x": "Telephone"
			,"isSearchable": false
			,"picklistDescription": null
			,"picklistUri": null
			,"picklistParent": null
		},
"referenceid": {
	"$ref": "#/definitions/longString"
			,"defaultLabel": "referenceId"
			,"description": "referenceId"
			,"fieldAlias2x": "TransportationKey"
			,"isSearchable": false
			,"picklistDescription": null
			,"picklistUri": null
			,"picklistParent": null
		},
"transportname": {
	"$ref": "#/definitions/longString"
			,"defaultLabel": "TransportName"
			,"description": "TransportName"
			,"fieldAlias2x": "TransportName"
			,"isSearchable": false
			,"picklistDescription": null
			,"picklistUri": null
			,"picklistParent": null
		},
"transportother": {
	"$ref": "#/definitions/longString"
			,"defaultLabel": "TransportOther"
			,"description": "TransportOther"
			,"fieldAlias2x": "TransportOther"
			,"isSearchable": false
			,"picklistDescription": null
			,"picklistUri": null
			,"picklistParent": null
		},
"transporttype": {
	"$ref": "#/definitions/longString"
			,"defaultLabel": "TransportType"
			,"description": "TransportType"
			,"fieldAlias2x": "TransportType"
			,"isSearchable": false
			,"picklistDescription": "TransportType"
			,"picklistUri": "SOFFuel-TransportType"
			,"picklistParent": null
		},
"url": {
	"$ref": "#/definitions/longString"
			,"defaultLabel": "URL"
			,"description": "URL"
			,"fieldAlias2x": "URL"
			,"isSearchable": false
			,"picklistDescription": null
			,"picklistUri": null
			,"picklistParent": null
		}
				}
			}
		}
				}
			}
	}
}
