	
{
    "type": "object",
    "id": "http://cidne.dae.smil.mil/schemas/SOF/OAA/CIDNEDM236",
    "description": "CIDNE SOF OAA Report Definition",
    "definitions": {
        "shortStringRequired": {
            "type": "string",
            "maxLength": 50
        },
        "longStringRequired": {
            "type": "string",
            "maxLength": 500
        },
        "textRequired": {
            "type": "string"
        },
        "textFieldLevelRequired": {
            "type": "object",
            "properties": {
                "objectValue": {
                    "type": "string"
                },
                "security": {
					"$ref": "#/definitions/security"
				}
            },
            "required": [
                "objectValue",
                "security"
            ]
        },
        "dateTimeRequired": {
            "type": "object",
            "properties": {
                "zuluDateTime": {
                    "type": "string",
                    "format": "date-time"
                },
                "zuluOffset": {
                    "type": "integer",
					"minimum": -840,
					"maximum": 840,
                    "description": "Offset in minutes from Zulu"
                }
            },
            "required": [
                "zuluDateTime",
                "zuluOffset"
            ]
        },
        "latitude_ddsRequired": {
            "type": "number",
            "minimum": -90,
            "maximum": 90
        },
        "longitude_ddsRequired": {
            "type": "number",
            "minimum": -180,
            "maximum": 180
        },
        "positive_intRequired": {
            "type": "integer",
            "minimum": 0
        },
        "positive_numRequired": {
            "type": "number",
            "minimum": 0
        },
        "positive_intRequired": {
            "type": "integer",
            "minimum": 0
        },
        "shortString": {
            "type": ["string","null"],
            "maxLength": 50
        },
        "longString": {
            "type": ["string","null"],
            "maxLength": 500
        },
        "text": {
            "type": ["string","null"]
        },
        "textFieldLevel": {
            "type": "object",
            "properties": {
                "objectValue": {
                    "type": ["string","null"]
                },
                "security": {
					"$ref": "#/definitions/securityOptional"
				}
            },
            "required": [
                "objectValue",
                "security"
            ]
        },
        "dateTime": {
            "type": ["object","null"],
            "properties": {
                "zuluDateTime": {
                    "type": "string",
                    "format": "date-time"
                },
                "zuluOffset": {
                    "type": "integer",
					"minimum": -840,
					"maximum": 840,
                    "description": "Offset in minutes from Zulu"
                }
            },
            "required": [
                "zuluDateTime",
                "zuluOffset"
            ]
        },
        "latitude_dds": {
            "type": ["number","null"],
            "minimum": -90,
            "maximum": 90
        },
        "longitude_dds": {
            "type": ["number","null"],
            "minimum": -180,
            "maximum": 180
        },
        "positive_int": {
            "type": ["integer","null"],
            "minimum": 0
        },
        "positive_num": {
            "type": ["number","null"],
            "minimum": 0
        },
        "num": {
            "type": ["number","null"]
        },
        "uniqueStringArray": {
            "type": "array",
            "uniqueItems": true,
            "items": {
                "type": "string"
            }
        },
        "securityOptional": {
            "oneOf": [
                {
                    "type": "null"
                },
                {
                    "$ref": "#/definitions/security"
                }
            ]
        },
        "security": {
            "type": "object",
            "properties": {
                "atomicEnergyMarkings": {
                    "$ref": "#/definitions/shortString",
                    "description": "Atomic Energy Act Information Markings"
                },
                "classificationReason": {
                    "$ref": "#/definitions/longString",
                    "description": ": Concise reason for classification"
                },
                "classification": {
                    "enum": [ "U", "TS", "S", "C" ],
                    "description": "Classification of information",
                    "defaultLabel": "Classification",
                    "isSearchable": false,
                    "picklistName": "classification",
                    "picklistUri": "http://cidne.dae.smil.mil/schemas/CAPCO/classification",
                    "picklistParent": null
                    
                },
                "classifiedBy": {
                    "$ref": "#/definitions/longString",
                    "description": "Identification by name and position, or personal identifier of the OCA"
                },
                "compilationReason": {
                    "$ref": "#/definitions/longString",
                    "description": "Reason why the compilation of information causes the classification"
                },
                "declassDate": {
                    "$ref": "#/definitions/dateTime",
                    "description": "Declassification date"
                },
                "declassEvent": {
                    "$ref": "#/definitions/shortString",
                    "description": "Declassification event"
                },
                "declassException": {
                    "$ref": "#/definitions/longString",
                    "description": "Declassification exception"
                },
                "derivativelyClassifiedBy": {
                    "$ref": "#/definitions/longString",
                    "description": "The derivative classifier’s identification by name and position, or by personal identifier, in a manner that is immediately apparent on each derivatively classified document. If not otherwise evident, the agency and office of origin shall be identified"
                },
                "derivedFrom": {
                    "$ref": "#/definitions/shortString",
                    "description": "Concisely identify the source document or the classification guide"
                },
                "displayOnlyTo": {
                    "$ref": "#/definitions/longString",
                    "description": "List of foreign country(ies)/international organization(s) authorized for disclosure without providing the recipient with a physical copy for retention, regardless of medium to the foreign country(ies)/international organization(s) indicated"
                },
                "disseminationControls": {
                    "$ref": "#/definitions/longString",
                    "description": "Control markings that identify the expansion or limitation on the distribution of information. These markings are in addition to and separate from the levels of classification"
                },
                "FGIsourceOpen": {
                    "$ref": "#/definitions/shortString",
                    "description": "Open Source Foreign Government Information"
                },
                "FGIsourceProtected": {
                    "$ref": "#/definitions/shortString",
                    "description": "Protected Source Foreign Government Information"
                },
                "nonICmarkings": {
                    "$ref": "#/definitions/text",
                    "description": "Markings authorized for use by entities outside of the Intelligence Community"
                },
                "nonUSControls": {
                    "$ref": "#/definitions/shortString",
                    "description": "Non-US protective markings"
                },
                "ownerProducer": {
                    "$ref": "#/definitions/shortStringRequired",
                    "description": "Owner/Producer",
                    "default": "USA",
                    "defaultLabel": "Owner Producer",
                    "isSearchable": false,
                    "picklistName": "ownerProducer",
                    "picklistUri": "http://cidne.dae.smil.mil/schemas/CAPCO/ownerProducer",
                    "picklistParent": null
                },
                "releasableToFilterField": {
                    "$ref": "#/definitions/shortString",
                    "description": "Need to add CAPCO Descriptions"
                },
                "releasableTo": {
                    "$ref": "#/definitions/text",
                    "description": "List of countries releasable to",
                    "defaultLabel": "Releasable To",
                    "isSearchable": false,
                    "picklistName": "releasableTo",
                    "picklistUri": "http://cidne.dae.smil.mil/schemas/CAPCO/releasableTo",
                    "picklistParent": null
                },
                "SARIdentifier": {
                    "$ref": "#/definitions/shortString",
                    "description": "Special access required programs"
                },
                "SCIcontrols": {
                    "$ref": "#/definitions/longString",
                    "description": "Sensitive Compartmented Information (SCI) control systems"
                }
            },
            "required": [
                "ownerProducer",
                "classification"
            ]
        },
        "actionInfo":{
            "type": "object",
            "properties": {
                "actionDate": {
                    "$ref": "#/definitions/dateTimeRequired",
                    "description": "Date Time Action was taken"
                },
                "group": {
                    "$ref": "#/definitions/longStringRequired",
                    "description": "User Group that performed action"
                },
                "parentGroup": {
                    "$ref": "#/definitions/longString",
                    "description": "User Group's Parent Group Name"
                },
                "nationality": {
                    "$ref": "#/definitions/shortStringRequired",
                    "description": "User Nationality"
                },
                "network": {
                    "$ref": "#/definitions/shortStringRequired",
                    "description": "Systems Network where action was taken"
                },
                "objectState": {
                    "description": "",
                    "enum": [
                        "CREATED",
                        "MODIFIED",
                        "TEMPLATE",
                        "SUBMITTED",
                        "PUBLISHED",
                        "VERSIONED",
                        "DEPRECATED",
                        "VALIDATING",
                        "RESTORED",
                        "MOVED"
                    ]
                },
                "site": {
                    "$ref": "#/definitions/shortStringRequired",
                    "description": "Systems Site"
                },
                "system": {
                    "$ref": "#/definitions/shortStringRequired",
                    "description": "System that provided the action"
                },
                "user": {
                    "$ref": "#/definitions/shortStringRequired",
                    "description": "User that performed action"
                }
            },
            "required": [
                "actionDate",
                "group",
                "parentGroup",
                "nationality",
                "network",
                "objectState",
                "site",
                "system",
                "user"
            ]
        },
        "position": {
            "description": "A single position. (order should be longitude,latitude)",
            "type": "array",
            "minItems": 2,
            "items": [
                {
                    "type": "number"
                },
                {
                    "type": "number"
                }
            ],
            "additionalItems": false
        },
        "positionArray": {
            "description": "An array of positions",
            "type": "array",
            "items": {
                "$ref": "#/definitions/position"
            }
        },
        "lineString": {
            "description": "An array of two or more positions",
            "allOf": [
                {
                    "type": "array",
                    "items": {
                        "$ref": "#/definitions/position"
                    }
                },
                {
                    "minItems": 2
                }
            ]
        },
        "linearRing": {
            "description": "An array of four positions where the first equals the last",
            "allOf": [
                {
                    "type": "array",
                    "items": {
                        "$ref": "#/definitions/position"
                    }
                },
                {
                    "minItems": 4
                }
            ]
        },
        "polygon": {
            "description": "An array of linear rings",
            "type": "array",
            "items": {
                "$ref": "#/definitions/linearRing"
            }
        },
        "geometry": {
            "title": "geometry",
            "description": "One geometry as defined by GeoJSON",
            "type": "object",
            "required": [
                "type",
                "coordinates"
            ],
            "oneOf": [
                {
                    "title": "Point",
                    "properties": {
                        "type": {
                            "enum": [
                                "Point"
                            ]
                        },
                        "coordinates": {
                            "$ref": "#/definitions/position"
                        }
                    }
                },
                {
                    "title": "MultiPoint",
                    "properties": {
                        "type": {
                            "enum": [
                                "MultiPoint"
                            ]
                        },
                        "coordinates": {
                            "type": "array",
                            "items": {
                                "$ref": "#/definitions/position"
                            }
                        }
                    }
                },
                {
                    "title": "LineString",
                    "properties": {
                        "type": {
                            "enum": [
                                "LineString"
                            ]
                        },
                        "coordinates": {
                            "$ref": "#/definitions/lineString"
                        }
                    }
                },
                {
                    "title": "MultiLineString",
                    "properties": {
                        "type": {
                            "enum": [
                                "MultiLineString"
                            ]
                        },
                        "coordinates": {
                            "type": "array",
                            "items": {
                                "$ref": "#/definitions/lineString"
                            }
                        }
                    }
                },
                {
                    "title": "Polygon",
                    "properties": {
                        "type": {
                            "enum": [
                                "Polygon"
                            ]
                        },
                        "coordinates": {
                            "$ref": "#/definitions/polygon"
                        }
                    }
                },
                {
                    "title": "MultiPolygon",
                    "properties": {
                        "type": {
                            "enum": [
                                "MultiPolygon"
                            ]
                        },
                        "coordinates": {
                            "type": "array",
                            "items": {
                                "$ref": "#/definitions/polygon"
                            }
                        }
                    }
                }
            ]
        },
        "geometryCollection": {
            "title": "GeometryCollection",
            "description": "A collection of geometry objects",
            "required": [
                "geometries"
            ],
            "properties": {
                "type": {
                    "enum": [
                        "GeometryCollection"
                    ]
                },
                "geometries": {
                    "type": "array",
                    "items": {
                        "$ref": "#/definitions/geometry"
                    }
                }
            }
        },
        "feature": {
            "title": "Feature",
            "description": "A Geo JSON feature object",
            "required": [
                "geometry"
            ],
            "properties": {
                "type": {
                    "enum": [
                        "Feature"
                    ]
                },
                "geometry": {
                    "oneOf": [
                        {
                            "type": "null"
                        },
                        {
                            "$ref": "#/definitions/geometry"
                        }
                    ]
                },
				"properties": { "type": [ "object", "null" ] },
                "id": { "type":["string"] }
            }
        },
        "featureCollection": {
            "description": "A GeoJSON feature collection",
            "required": [
                "features"
            ],
            "properties": {
                "type": {
                    "enum": [
                        "FeatureCollection"
                    ]
                },
                "features": {
                    "type": "array",
                    "items": {
                        "$ref": "#/definitions/feature"
                    }
                }
            }
        },
		"namedCrs": {
            "properties": {
                "type": { "enum": [ "name" ] },
                "properties": {
                    "required": [ "name" ],
                    "additionalProperties": false,
                    "properties": {
                        "name": {
                            "type": "string"
                        }
                    }
                }
            }
        },
        "linkedObject": {
            "type": "object",
            "required": [ "href" ],
            "properties": {
                "href": {
                    "type": "string",
                    "format": "uri"
                },
                "type": {
                    "type": "string",
                    "description": "Suggested values: proj4, ogjwkt, esriwkt"
                }
            }
        },
        "linkedCrs": {
            "properties": {
                "type": { "enum": [ "link" ] },
                "properties": { "$ref": "#/definitions/linkedObject" }
            }
        },	
		"crs":{
			"title": "crs",
			"description": "a Coordinate Reference System object",
			"type": [ "object", "null" ],
			"required": [ "type", "properties" ],
			"properties": {
				"type": { "type": "string" },
				"properties": { "type": "object" }
			},
			"additionalProperties": false,
			"oneOf": [
				{ "$ref": "#/definitions/namedCrs" },
				{ "$ref": "#/definitions/linkedCrs" }
			]
		},
		"bbox":{
		"description": "A bounding box as defined by GeoJSON",
			"type": "array",
			"items": { "type": "number" }
		},
        "geojson": {
            "title": "Geo JSON object",
            "description": "Schema for a Geo JSON object",
            "type": ["object","null"],
            "required": [
                "type"
            ],
			"properties": {
				"crs": { "$ref": "#/definitions/crs" },
				"bbox": { "$ref": "#/definitions/bbox" }
			},
            "anyOf": [
                {
                    "$ref": "#/definitions/geometry"
                },
                {
                    "$ref": "#/definitions/geometryCollection"
                },
                {
                    "$ref": "#/definitions/feature"
                },
                {
                    "$ref": "#/definitions/featureCollection"
                }
            ]
        }
    },
    "required": [
        "base",
        "datamodel",
        "formId",
        "location",
        "security",
        "details"
    ],	
    "properties": {
        "datamodel": {
            "$ref": "#/definitions/longString",
            "description": "Reference to the report definition."
        },
        "formId": {
            "$ref": "#/definitions/longString",
            "description": "Reference to the layout template identifier that this data was intended to be best visualized"
        },
        "base": {
            "type": "object",
            "description": "The core metadata used within all report definitions",
            "properties": {
                "objectId": {
                    "$ref": "#/definitions/shortStringRequired",
                    "description": "Report instance unique identifier"
                },
                "reportId": {
                    "$ref": "#/definitions/shortStringRequired",
                    "description": "Original report instance objectId for a report version grouping. (i.e. the root report identifier)"
                },
                "parentVersionId": {
                    "$ref": "#/definitions/shortString",
                    "description": "Report instance's objectId of the parent report. NOTE: If there is no parent, this value should be set to the report instance's own objectId. "
                },
                "module": {
                    "$ref": "#/definitions/shortStringRequired",
                    "description": "CIDNE community"
                },
                "reportType": {
                    "$ref": "#/definitions/shortStringRequired",
                    "description": "CIDNE report type (e.g. SIGACT)"
                },
                "reportSerial": {
                    "$ref": "#/definitions/textFieldLevel",
					"defaultLabel": "SOCOMOAANum",
					"description": "Report instance nomenclature (SOCOMOAANum)",
					"fieldAlias2x": "SOCOMOAANum"
                },
                "reportTitle": {
                    "$ref": "#/definitions/textFieldLevel",
					"defaultLabel": "OAAName",
					"description": "Report instance title text (OAAName)",
					"fieldAlias2x": "OAAName"
                },
                "reportSummary": {
                    "$ref": "#/definitions/textFieldLevel",
					"defaultLabel": "ReportMission",
					"description": "Report instance summary text block (ReportMission)",
					"fieldAlias2x": "ReportMission"
                },
                "reportDate": {
                    "$ref": "#/definitions/dateTimeRequired",
					"defaultLabel": "ReportDTG",
					"description": "Primary report instance date (r.ReportDTG)",
					"fieldAlias2x": "ReportDTG"
                },
                "reportSymbol": {
                    "$ref": "#/definitions/longString",
                    "description": "Report instance symbology"
                },
                "reportImage": {
                    "$ref": "#/definitions/longString",
                    "description": "Primary image of report instance"
                },
                "reportCountry": {
                    "$ref": "#/definitions/shortString",
                    "description": "Country value of report instance's primary location"
                },
                "reportLatitude": {
                    "$ref": "#/definitions/latitude_dds",
                    "description": "Latitude value of report instance's primary location"
                },
                "reportLongitude": {
                    "$ref": "#/definitions/longitude_dds",
                    "description": "Longitude value of report instance's primary location"
                },
				"geoLocation":{
					"$ref":"#/definitions/geojson"
				},
                "currentObjectState":{
                        "$ref": "#/definitions/actionInfo"
                },
                "originatingGroup": {
                    "$ref": "#/definitions/longStringRequired",
                    "description": "Original creator's group"
                },  
                "originatingUser": {
                    "$ref": "#/definitions/longStringRequired",
                    "description": "Original creator's User Name or email address"
                },  
				"isTearline": {
                    "type": "boolean",
                    "description": "Determines whether a report is a tearline"
                },
				"tearlineId": {
					"$ref": "#/definitions/shortString",
                    "description": "The reportId of the parent, used as a tearline group binding"
				},
                "theaterFilter": {
                    "$ref": "#/definitions/shortStringRequired",
                    "description": "Report instance theater of relevance"
                },
                "warehouseUri": {
                    "$ref": "#/definitions/longStringRequired",
                    "description": "Data warehouse location for report instance",
                    "format": "uri"
                }
            },
            "required": [
                "isTearline",
                "module",
                "objectId",
                "currentObjectState",
                "originatingGroup",
                "originatingUser",
                "reportId",
                "reportSerial",
                "reportDate",
                "theaterFilter",
                "reportType",
                "reportTitle",
                "reportSummary"
            ]
        },
        "location": {
            "type": "array",
            "description": "All locations for the report instance",
            "items": {
                "type": "object",
                "properties": {
                    "objectId": {
                        "$ref": "#/definitions/shortStringRequired",
                        "description": "objectId required for Edit Purposes"
                    },
                    "address": {
                        "$ref": "#/definitions/longString",
                        "description": "Address Details"
                    },
                    "alternateRoute": {
                        "$ref": "#/definitions/longString",
                        "description": "Alternate Route for location"
                    },
                    "ao": {
                        "$ref": "#/definitions/shortString",
                        "description": "Area of Operations"
                    },
                    "basecamp": {
                        "$ref": "#/definitions/shortString",
                        "description": "Base Camp"
                    },
                    "city": {
                        "$ref": "#/definitions/shortString",
                        "description": "City for Location"
                    },
                    "confidence": {
                        "$ref": "#/definitions/shortString",
                        "description": "Reporters Confidence in Location Value"
                    },
                    "country": {
                        "$ref": "#/definitions/shortString",
                        "description": "Location Country"
                    },
                    "customGeom": {
                        "type": "object",
                        "description": "Custom Geometry Object for Location",
                        "properties": {
                            "customGeomObjectId": {
                                "$ref": "#/definitions/shortString",
                                "description": "objectId for Custom Geometry Object"
                            },
                            "geomType": {
                                "$ref": "#/definitions/shortString",
                                "description": "Geometry Type for custom geometry object (e.g. Point, Multi-polygon"
                            },
                            "geom": {
                                "$ref": "#/definitions/shortString",
                                "description": "TBD GEOM Object for Custom Location Object"
                            },
                            "name": {
                                "$ref": "#/definitions/shortString",
                                "description": "Custom Location Name"
                            }
                        }
                    },
                    "dateEndLocation": {
                        "$ref": "#/definitions/dateTime",
                        "description": "Ending Date Time for location"
                    },
                    "dateStartLocation": {
                        "$ref": "#/definitions/dateTime",
                        "description": "Starting Date Time for location"
                    },
                    "derivedLocation": {
                        "type": "boolean",
                        "description": "Was Location Lat/Long derived from user picklists?"
                    },
                    "description": {
                        "$ref": "#/definitions/text",
                        "description": "Location Description"
                    },
                    "distanceFromCityCenter": {
                        "$ref": "#/definitions/positive_int",
                        "description": "Distance in meters to nearest city center"
                    },
                    "distanceToNearestFOB": {
                        "$ref": "#/definitions/positive_num",
                        "description": "Distance in meters to nearest FOB"
                    },
                    "distanceToNearestRoute": {
                        "$ref": "#/definitions/positive_num",
                        "description": "Distance in meters to nearest Route"
                    },
                    "district": {
                        "$ref": "#/definitions/shortString",
                        "description": "District"
                    },
                    "fob": {
                        "$ref": "#/definitions/shortString",
                        "description": "FOB"
                    },
					"geoLocation":{
						"$ref":"#/definitions/geojson"
					},
					"house": {
                        "$ref": "#/definitions/shortString",
                        "description": "HOUSE"
                    },
                    "isPrimaryLocation": {
                        "type": "boolean",
                        "description": "Marks Primary Location"
                    },
                    "latitude": {
                        "$ref": "#/definitions/latitude_ddsRequired",
                        "description": "Latitude of Location in Degree Decimal Seconds"
                    },
                    "locationActive": {
                        "type": "boolean",
                        "description": "Is Location Active?"
                    },
                    "locationType": {
                        "$ref": "#/definitions/shortString",
                        "description": "Location Type"
                    },
                    "longitude": {
                        "$ref": "#/definitions/longitude_ddsRequired",
                        "description": "Longitude of Location in Degree Decimal Seconds"
                    },
                    "mscCurrent": {
                        "$ref": "#/definitions/shortString",
                        "description": "Current Major Supporting Command responsible for location"
                    },
                    "mscDateOfCurrent": {
                        "$ref": "#/definitions/dateTime",
                        "description": "Date Of Current Major Supporting Command's Control of location"
                    },
                    "msc": {
                        "$ref": "#/definitions/shortString",
                        "description": "Major Supporting Command responsible for location"
                    },
                    "nai": {
                        "$ref": "#/definitions/shortString",
                        "description": "Named Area of Interest"
                    },
                    "nearestCity": {
                        "$ref": "#/definitions/shortString",
                        "description": "Nearest City"
                    },
                    "nearestFOB": {
                        "$ref": "#/definitions/shortString",
                        "description": "Nearest FOB"
                    },
                    "nearestRoute": {
                        "$ref": "#/definitions/shortString",
                        "description": "Nearest Route"
                    },
                    "neighborhood": {
                        "$ref": "#/definitions/shortString",
                        "description": "Neighborhood for location"
                    },
                    "populationCenterType": {
                        "$ref": "#/definitions/shortString",
                        "description": "Population Center Type"
                    },
                    "populationCenter": {
                        "$ref": "#/definitions/shortString",
                        "description": "Population Center"
                    },
                    "province": {
                        "$ref": "#/definitions/shortString",
                        "description": "Province"
                    },
                    "referenceId": {
                        "$ref": "#/definitions/shortString",
                        "description": "Reference to any subelement with in current report instance (e.g. Event Object ID)"
                    },
                    "route": {
                        "$ref": "#/definitions/shortString",
                        "description": "Route"
                    },
                    "security": {
                        "$ref": "#/definitions/securityOptional"
                    },
                    "street": {
                        "$ref": "#/definitions/shortString",
                        "description": "Street"
                    },
                    "structure": {
                        "$ref": "#/definitions/shortString",
                        "description": "Structure"
                    },
                    "village": {
                        "$ref": "#/definitions/shortString",
                        "description": "Village"
                    },
                    "zone": {
                        "$ref": "#/definitions/shortString",
                        "description": "City Zone"
                    }
                },
				"required": [
					"objectId",
					"isPrimaryLocation",
					"latitude",
					"longitude"
				]
            }
        },
        "remarks": {
            "type": "array",
            "items": {
                "type": "object",
                "properties": {
                    "objectId": {
                        "$ref": "#/definitions/shortStringRequired",
                        "description": "objectId required for Edit Purposes"
                    },
                    "referenceId": {
                        "$ref": "#/definitions/shortString",
                        "description": "Reference to any subelement with in current report instance (e.g. Event Object ID)"
                    },
                    "remarkText": {
                        "$ref": "#/definitions/text",
                        "description": "Remark Text"
                    },
                    "remarkType": {
                        "$ref": "#/definitions/shortString",
                        "description": "Remark Type"
                    },
                    "remarkOrder": {
                        "$ref": "#/definitions/positive_num",
                        "description": "Remark Order"
                    },
                    "security": {
                        "$ref": "#/definitions/securityOptional"
                    }
                },
                "required": [
                    "objectId",
                    "remarkText",
                    "remarkType",
                    "security"
                ]
            }
        },
        "requirements": {
            "type": "array",
            "items": {
                "type": "object",
                "properties": {
                    "objectId": {
                        "$ref": "#/definitions/shortStringRequired",
                        "description": "objectId required for Edit Purposes"
                    },
                    "referenceId": {
                        "$ref": "#/definitions/shortString",
                        "description": "Reference to any subelement with in current report instance (e.g. Event Object ID)"
                    },
                    "requirement": {
                        "$ref": "#/definitions/longString",
                        "description": "Requirement sub based on Requirement Type"
                    },
                    "requirementType": {
                        "$ref": "#/definitions/shortString",
                        "description": "Requirement Type"
                    },
                    "comment": {
                        "$ref": "#/definitions/text",
                        "description": "Requirement Comment"
                    },
                    "security": {
                        "$ref": "#/definitions/securityOptional"
                    }
                },
                "required": [
                    "objectId",
                    "requirementType",
                    "requirement",
                    "comment"
                ]
            }
        },
        "security": {
                        "$ref": "#/definitions/security"
        },
        "objectHistory": {
            "type": "array",
            "items":
                    {
                        "$ref": "#/definitions/actionInfo"
                    }       
		},
			"details": {
				"type": "object",
				"description": "SOF OAA Report details specific details",
				"fieldAlias2x": "details", 
						"properties": {
						
"advondate": {
	"$ref": "#/definitions/dateTime"
			,"defaultLabel": "AdvonDate"
			,"description": "AdvonDate"
			,"fieldAlias2x": "AdvonDate"
			,"isSearchable": false
			,"picklistDescription": null
			,"picklistUri": null
			,"picklistParent": null
		},
"annexydate": {
	"$ref": "#/definitions/dateTime"
			,"defaultLabel": "AnnexYDate"
			,"description": "AnnexYDate"
			,"fieldAlias2x": "AnnexYDate"
			,"isSearchable": false
			,"picklistDescription": null
			,"picklistUri": null
			,"picklistParent": null
		},
"annexydatereceived": {
	"$ref": "#/definitions/longString"
			,"defaultLabel": "AnnexYDateReceived"
			,"description": "AnnexYDateReceived"
			,"fieldAlias2x": "AnnexYDateReceived"
			,"isSearchable": false
			,"picklistDescription": null
			,"picklistUri": null
			,"picklistParent": null
		},
"annexydatesent": {
	"$ref": "#/definitions/longString"
			,"defaultLabel": "AnnexYDateSent"
			,"description": "AnnexYDateSent"
			,"fieldAlias2x": "AnnexYDateSent"
			,"isSearchable": false
			,"picklistDescription": null
			,"picklistUri": null
			,"picklistParent": null
		},
"annexyreceived": {
	"type": "boolean"
			,"defaultLabel": "AnnexYReceived"
			,"description": "AnnexYReceived"
			,"fieldAlias2x": "AnnexYReceived"
			,"isSearchable": false
			,"picklistDescription": null
			,"picklistUri": null
			,"picklistParent": null
		},
"annexysent": {
	"type": "boolean"
			,"defaultLabel": "AnnexYSent"
			,"description": "AnnexYSent"
			,"fieldAlias2x": "AnnexYSent"
			,"isSearchable": false
			,"picklistDescription": null
			,"picklistUri": null
			,"picklistParent": null
		},
"approvedbudget": {
	"$ref": "#/definitions/num"
			,"defaultLabel": "ApprovedBudget"
			,"description": "ApprovedBudget"
			,"fieldAlias2x": "ApprovedBudget"
			,"isSearchable": false
			,"picklistDescription": null
			,"picklistUri": null
			,"picklistParent": null
		},
"benumber": {
	"$ref": "#/definitions/text"
			,"defaultLabel": "BENumber"
			,"description": "BENumber"
			,"fieldAlias2x": "BENumber"
			,"isSearchable": false
			,"picklistDescription": null
			,"picklistUri": null
			,"picklistParent": null
		},
"budgettypeother": {
	"$ref": "#/definitions/longString"
			,"defaultLabel": "BudgetTypeOther"
			,"description": "BudgetTypeOther"
			,"fieldAlias2x": "BudgetTypeOther"
			,"isSearchable": false
			,"picklistDescription": null
			,"picklistUri": null
			,"picklistParent": null
		},
"cargocomments": {
	"$ref": "#/definitions/longString"
			,"defaultLabel": "CargoComments"
			,"description": "CargoComments"
			,"fieldAlias2x": "CargoComments"
			,"isSearchable": false
			,"picklistDescription": null
			,"picklistUri": null
			,"picklistParent": null
		},
"cargonumofpallets": {
	"$ref": "#/definitions/longString"
			,"defaultLabel": "CargoNumOfPallets"
			,"description": "CargoNumOfPallets"
			,"fieldAlias2x": "CargoNumOfPallets"
			,"isSearchable": false
			,"picklistDescription": null
			,"picklistUri": null
			,"picklistParent": null
		},
"cargoweight": {
	"$ref": "#/definitions/num"
			,"defaultLabel": "CargoWeight"
			,"description": "CargoWeight"
			,"fieldAlias2x": "CargoWeight"
			,"isSearchable": false
			,"picklistDescription": null
			,"picklistUri": null
			,"picklistParent": null
		},
"commentslog": {
	"$ref": "#/definitions/text"
			,"defaultLabel": "CommentsLog"
			,"description": "CommentsLog"
			,"fieldAlias2x": "CommentsLog"
			,"isSearchable": false
			,"picklistDescription": null
			,"picklistUri": null
			,"picklistParent": null
		},
"conopcomplete": {
	"type": "boolean"
			,"defaultLabel": "CONOPComplete"
			,"description": "CONOPComplete"
			,"fieldAlias2x": "CONOPComplete"
			,"isSearchable": false
			,"picklistDescription": null
			,"picklistUri": null
			,"picklistParent": null
		},
"debriefcomplete": {
	"type": "boolean"
			,"defaultLabel": "DebriefComplete"
			,"description": "DebriefComplete"
			,"fieldAlias2x": "DebriefComplete"
			,"isSearchable": false
			,"picklistDescription": null
			,"picklistUri": null
			,"picklistParent": null
		},
"debriefdate": {
	"$ref": "#/definitions/dateTime"
			,"defaultLabel": "DebriefDate"
			,"description": "DebriefDate"
			,"fieldAlias2x": "DebriefDate"
			,"isSearchable": false
			,"picklistDescription": null
			,"picklistUri": null
			,"picklistParent": null
		},
"debriefdatecomplete": {
	"$ref": "#/definitions/longString"
			,"defaultLabel": "DebriefDateComplete"
			,"description": "DebriefDateComplete"
			,"fieldAlias2x": "DebriefDateComplete"
			,"isSearchable": false
			,"picklistDescription": null
			,"picklistUri": null
			,"picklistParent": null
		},
"disseminationmethod": {
	"$ref": "#/definitions/longString"
			,"defaultLabel": "DisseminationMethod"
			,"description": "DisseminationMethod"
			,"fieldAlias2x": "DisseminationMethod"
			,"isSearchable": false
			,"picklistDescription": "DisseminationMethod"
			,"picklistUri": "SOFOAA-DisseminationMethod"
			,"picklistParent": null
		},
"emergentevent": {
	"type": "boolean"
			,"defaultLabel": "EmergentEvent"
			,"description": "EmergentEvent"
			,"fieldAlias2x": "EmergentEvent"
			,"isSearchable": false
			,"picklistDescription": null
			,"picklistUri": null
			,"picklistParent": null
		},
"endfpc": {
	"$ref": "#/definitions/dateTime"
			,"defaultLabel": "EndFPC"
			,"description": "EndFPC"
			,"fieldAlias2x": "EndFPC"
			,"isSearchable": false
			,"picklistDescription": null
			,"picklistUri": null
			,"picklistParent": null
		},
"endipc": {
	"$ref": "#/definitions/dateTime"
			,"defaultLabel": "EndIPC"
			,"description": "EndIPC"
			,"fieldAlias2x": "EndIPC"
			,"isSearchable": false
			,"picklistDescription": null
			,"picklistUri": null
			,"picklistParent": null
		},
"endmpc": {
	"$ref": "#/definitions/dateTime"
			,"defaultLabel": "EndMPC"
			,"description": "EndMPC"
			,"fieldAlias2x": "EndMPC"
			,"isSearchable": false
			,"picklistDescription": null
			,"picklistUri": null
			,"picklistParent": null
		},
"eventconopdate": {
	"$ref": "#/definitions/dateTime"
			,"defaultLabel": "EventCONOPDate"
			,"description": "EventCONOPDate"
			,"fieldAlias2x": "EventCONOPDate"
			,"isSearchable": false
			,"picklistDescription": null
			,"picklistUri": null
			,"picklistParent": null
		},
"executingunit": {
	"$ref": "#/definitions/longString"
			,"defaultLabel": "ExecutingUnit"
			,"description": "ExecutingUnit"
			,"fieldAlias2x": "ExecutingUnit"
			,"isSearchable": false
			,"picklistDescription": null
			,"picklistUri": null
			,"picklistParent": null
		},
"executingunitcategory": {
	"$ref": "#/definitions/longString"
			,"defaultLabel": "ExecutingUnitCategory"
			,"description": "ExecutingUnitCategory"
			,"fieldAlias2x": "ExecutingUnitCategory"
			,"isSearchable": false
			,"picklistDescription": "ExecutingUnitCategory"
			,"picklistUri": "SOFOAA-ExecutingUnitCategory"
			,"picklistParent": null
		},
"exordcomplete": {
	"type": "boolean"
			,"defaultLabel": "EXORDComplete"
			,"description": "EXORDComplete"
			,"fieldAlias2x": "EXORDComplete"
			,"isSearchable": false
			,"picklistDescription": null
			,"picklistUri": null
			,"picklistParent": null
		},
"exorddate": {
	"$ref": "#/definitions/dateTime"
			,"defaultLabel": "EXORDDate"
			,"description": "EXORDDate"
			,"fieldAlias2x": "EXORDDate"
			,"isSearchable": false
			,"picklistDescription": null
			,"picklistUri": null
			,"picklistParent": null
		},
"hazardouscargo": {
	"type": "boolean"
			,"defaultLabel": "HazardousCargo"
			,"description": "HazardousCargo"
			,"fieldAlias2x": "HazardousCargo"
			,"isSearchable": false
			,"picklistDescription": null
			,"picklistUri": null
			,"picklistParent": null
		},
"hnunitname": {
	"$ref": "#/definitions/longString"
			,"defaultLabel": "HNUnitName"
			,"description": "HNUnitName"
			,"fieldAlias2x": "HNUnitName"
			,"isSearchable": false
			,"picklistDescription": null
			,"picklistUri": null
			,"picklistParent": null
		},
"hrvcomplete": {
	"type": "boolean"
			,"defaultLabel": "HRVComplete"
			,"description": "HRVComplete"
			,"fieldAlias2x": "HRVComplete"
			,"isSearchable": false
			,"picklistDescription": null
			,"picklistUri": null
			,"picklistParent": null
		},
"humanrightsvettingdate": {
	"$ref": "#/definitions/dateTime"
			,"defaultLabel": "HumanRightsVettingDate"
			,"description": "HumanRightsVettingDate"
			,"fieldAlias2x": "HumanRightsVettingDate"
			,"isSearchable": false
			,"picklistDescription": null
			,"picklistUri": null
			,"picklistParent": null
		},
"icddate": {
	"$ref": "#/definitions/dateTime"
			,"defaultLabel": "ICDDate"
			,"description": "ICDDate"
			,"fieldAlias2x": "ICDDate"
			,"isSearchable": false
			,"picklistDescription": null
			,"picklistUri": null
			,"picklistParent": null
		},
"icddatereceived": {
	"$ref": "#/definitions/longString"
			,"defaultLabel": "ICDDateReceived"
			,"description": "ICDDateReceived"
			,"fieldAlias2x": "ICDDateReceived"
			,"isSearchable": false
			,"picklistDescription": null
			,"picklistUri": null
			,"picklistParent": null
		},
"icddatesent": {
	"$ref": "#/definitions/longString"
			,"defaultLabel": "ICDDateSent"
			,"description": "ICDDateSent"
			,"fieldAlias2x": "ICDDateSent"
			,"isSearchable": false
			,"picklistDescription": null
			,"picklistUri": null
			,"picklistParent": null
		},
"icdreceived": {
	"type": "boolean"
			,"defaultLabel": "ICDReceived"
			,"description": "ICDReceived"
			,"fieldAlias2x": "ICDReceived"
			,"isSearchable": false
			,"picklistDescription": null
			,"picklistUri": null
			,"picklistParent": null
		},
"icdsent": {
	"type": "boolean"
			,"defaultLabel": "ICDSent"
			,"description": "ICDSent"
			,"fieldAlias2x": "ICDSent"
			,"isSearchable": false
			,"picklistDescription": null
			,"picklistUri": null
			,"picklistParent": null
		},
"idtocomplete": {
	"type": "boolean"
			,"defaultLabel": "IDTOComplete"
			,"description": "IDTOComplete"
			,"fieldAlias2x": "IDTOComplete"
			,"isSearchable": false
			,"picklistDescription": null
			,"picklistUri": null
			,"picklistParent": null
		},
"jadcomplete": {
	"type": "boolean"
			,"defaultLabel": "JADComplete"
			,"description": "JADComplete"
			,"fieldAlias2x": "JADComplete"
			,"isSearchable": false
			,"picklistDescription": null
			,"picklistUri": null
			,"picklistParent": null
		},
"jointapprovaldate": {
	"$ref": "#/definitions/dateTime"
			,"defaultLabel": "JointApprovalDate"
			,"description": "JointApprovalDate"
			,"fieldAlias2x": "JointApprovalDate"
			,"isSearchable": false
			,"picklistDescription": null
			,"picklistUri": null
			,"picklistParent": null
		},
"keytasks": {
	"$ref": "#/definitions/text"
			,"defaultLabel": "KeyTasks"
			,"description": "KeyTasks"
			,"fieldAlias2x": "KeyTasks"
			,"isSearchable": false
			,"picklistDescription": null
			,"picklistUri": null
			,"picklistParent": null
		},
"logcomplete": {
	"type": "boolean"
			,"defaultLabel": "LOGComplete"
			,"description": "LOGComplete"
			,"fieldAlias2x": "LOGComplete"
			,"isSearchable": false
			,"picklistDescription": null
			,"picklistUri": null
			,"picklistParent": null
		},
"logisticsdate": {
	"$ref": "#/definitions/dateTime"
			,"defaultLabel": "LogisticsDate"
			,"description": "LogisticsDate"
			,"fieldAlias2x": "LogisticsDate"
			,"isSearchable": false
			,"picklistDescription": null
			,"picklistUri": null
			,"picklistParent": null
		},
"mainbodydeploymentdate": {
	"$ref": "#/definitions/dateTime"
			,"defaultLabel": "MainBodyDeploymentDate"
			,"description": "MainBodyDeploymentDate"
			,"fieldAlias2x": "MainBodyDeploymentDate"
			,"isSearchable": false
			,"picklistDescription": null
			,"picklistUri": null
			,"picklistParent": null
		},
"mainbodyredeploymentdate": {
	"$ref": "#/definitions/dateTime"
			,"defaultLabel": "MainBodyRedeploymentDate"
			,"description": "MainBodyRedeploymentDate"
			,"fieldAlias2x": "MainBodyRedeploymentDate"
			,"isSearchable": false
			,"picklistDescription": null
			,"picklistUri": null
			,"picklistParent": null
		},
"missioncompletedate": {
	"$ref": "#/definitions/dateTime"
			,"defaultLabel": "MissionCompleteDate"
			,"description": "MissionCompleteDate"
			,"fieldAlias2x": "MissionCompleteDate"
			,"isSearchable": false
			,"picklistDescription": null
			,"picklistUri": null
			,"picklistParent": null
		},
"mspdate": {
	"$ref": "#/definitions/dateTime"
			,"defaultLabel": "MSPDate"
			,"description": "MSPDate"
			,"fieldAlias2x": "MSPDate"
			,"isSearchable": false
			,"picklistDescription": null
			,"picklistUri": null
			,"picklistParent": null
		},
"mspdatereceived": {
	"$ref": "#/definitions/longString"
			,"defaultLabel": "MSPDateReceived"
			,"description": "MSPDateReceived"
			,"fieldAlias2x": "MSPDateReceived"
			,"isSearchable": false
			,"picklistDescription": null
			,"picklistUri": null
			,"picklistParent": null
		},
"mspdatesent": {
	"$ref": "#/definitions/longString"
			,"defaultLabel": "MSPDateSent"
			,"description": "MSPDateSent"
			,"fieldAlias2x": "MSPDateSent"
			,"isSearchable": false
			,"picklistDescription": null
			,"picklistUri": null
			,"picklistParent": null
		},
"mspreceived": {
	"type": "boolean"
			,"defaultLabel": "MSPReceived"
			,"description": "MSPReceived"
			,"fieldAlias2x": "MSPReceived"
			,"isSearchable": false
			,"picklistDescription": null
			,"picklistUri": null
			,"picklistParent": null
		},
"mspsent": {
	"type": "boolean"
			,"defaultLabel": "MSPSent"
			,"description": "MSPSent"
			,"fieldAlias2x": "MSPSent"
			,"isSearchable": false
			,"picklistDescription": null
			,"picklistUri": null
			,"picklistParent": null
		},
"msrcomplete": {
	"type": "boolean"
			,"defaultLabel": "MSRComplete"
			,"description": "MSRComplete"
			,"fieldAlias2x": "MSRComplete"
			,"isSearchable": false
			,"picklistDescription": null
			,"picklistUri": null
			,"picklistParent": null
		},
"msrdate": {
	"$ref": "#/definitions/dateTime"
			,"defaultLabel": "MSRDate"
			,"description": "MSRDate"
			,"fieldAlias2x": "MSRDate"
			,"isSearchable": false
			,"picklistDescription": null
			,"picklistUri": null
			,"picklistParent": null
		},
"numberhnpersonnel": {
	"$ref": "#/definitions/positive_int"
			,"defaultLabel": "NumberHNPersonnel"
			,"description": "NumberHNPersonnel"
			,"fieldAlias2x": "NumberHNPersonnel"
			,"isSearchable": false
			,"picklistDescription": null
			,"picklistUri": null
			,"picklistParent": null
		},
"numberpersonnel": {
	"$ref": "#/definitions/positive_int"
			,"defaultLabel": "NumberPersonnel"
			,"description": "NumberPersonnel"
			,"fieldAlias2x": "NumberPersonnel"
			,"isSearchable": false
			,"picklistDescription": null
			,"picklistUri": null
			,"picklistParent": null
		},
"oaastatus": {
	"$ref": "#/definitions/longString"
			,"defaultLabel": "OAAStatus"
			,"description": "OAAStatus"
			,"fieldAlias2x": "OAAStatus"
			,"isSearchable": false
			,"picklistDescription": "OAAStatus"
			,"picklistUri": "SOFOAA-OAAStatus"
			,"picklistParent": null
		},
"oaasubcategory": {
	"$ref": "#/definitions/longString"
			,"defaultLabel": "OAASubCategory"
			,"description": "OAASubCategory"
			,"fieldAlias2x": "OAASubCategory"
			,"isSearchable": false
			,"picklistDescription": "OAASubCategory"
			,"picklistUri": "SOFOAA-OAASubCategory-OAAType"
			,"picklistParent": "SOFOAA-OAAType"
		},
"oaasubcategoryother": {
	"$ref": "#/definitions/longString"
			,"defaultLabel": "OAASubCategoryOther"
			,"description": "OAASubCategoryOther"
			,"fieldAlias2x": "OAASubCategoryOther"
			,"isSearchable": false
			,"picklistDescription": null
			,"picklistUri": null
			,"picklistParent": null
		},
"oaatype": {
	"$ref": "#/definitions/longString"
			,"defaultLabel": "OAAType"
			,"description": "OAAType"
			,"fieldAlias2x": "OAAType"
			,"isSearchable": false
			,"picklistDescription": "OAAType"
			,"picklistUri": "SOFOAA-OAAType"
			,"picklistParent": null
		},
"oaatypeother": {
	"$ref": "#/definitions/longString"
			,"defaultLabel": "OAATypeOther"
			,"description": "OAATypeOther"
			,"fieldAlias2x": "OAATypeOther"
			,"isSearchable": false
			,"picklistDescription": null
			,"picklistUri": null
			,"picklistParent": null
		},
"ope": {
	"type": "boolean"
			,"defaultLabel": "OPE"
			,"description": "OPE"
			,"fieldAlias2x": "OPE"
			,"isSearchable": false
			,"picklistDescription": null
			,"picklistUri": null
			,"picklistParent": null
		},
"operationalvalue": {
	"$ref": "#/definitions/longString"
			,"defaultLabel": "OperationalValue"
			,"description": "OperationalValue"
			,"fieldAlias2x": "OperationalValue"
			,"isSearchable": false
			,"picklistDescription": null
			,"picklistUri": null
			,"picklistParent": null
		},
"peactivityname": {
	"$ref": "#/definitions/longString"
			,"defaultLabel": "PEActivityName"
			,"description": "PEActivityName"
			,"fieldAlias2x": "PEActivityName"
			,"isSearchable": false
			,"picklistDescription": null
			,"picklistUri": null
			,"picklistParent": null
		},
"peconopdate": {
	"$ref": "#/definitions/dateTime"
			,"defaultLabel": "PECONOPDate"
			,"description": "PECONOPDate"
			,"fieldAlias2x": "PECONOPDate"
			,"isSearchable": false
			,"picklistDescription": null
			,"picklistUri": null
			,"picklistParent": null
		},
"peconopdatereceived": {
	"$ref": "#/definitions/longString"
			,"defaultLabel": "PECONOPDateReceived"
			,"description": "PECONOPDateReceived"
			,"fieldAlias2x": "PECONOPDateReceived"
			,"isSearchable": false
			,"picklistDescription": null
			,"picklistUri": null
			,"picklistParent": null
		},
"peconopdatesent": {
	"$ref": "#/definitions/longString"
			,"defaultLabel": "PECONOPDateSent"
			,"description": "PECONOPDateSent"
			,"fieldAlias2x": "PECONOPDateSent"
			,"isSearchable": false
			,"picklistDescription": null
			,"picklistUri": null
			,"picklistParent": null
		},
"peconopreceived": {
	"type": "boolean"
			,"defaultLabel": "PECONOPReceived"
			,"description": "PECONOPReceived"
			,"fieldAlias2x": "PECONOPReceived"
			,"isSearchable": false
			,"picklistDescription": null
			,"picklistUri": null
			,"picklistParent": null
		},
"peconopsent": {
	"type": "boolean"
			,"defaultLabel": "PECONOPSent"
			,"description": "PECONOPSent"
			,"fieldAlias2x": "PECONOPSent"
			,"isSearchable": false
			,"picklistDescription": null
			,"picklistUri": null
			,"picklistParent": null
		},
"peexorddate": {
	"$ref": "#/definitions/dateTime"
			,"defaultLabel": "PEEXORDDate"
			,"description": "PEEXORDDate"
			,"fieldAlias2x": "PEEXORDDate"
			,"isSearchable": false
			,"picklistDescription": null
			,"picklistUri": null
			,"picklistParent": null
		},
"peexorddatereceived": {
	"$ref": "#/definitions/longString"
			,"defaultLabel": "PEEXORDDateReceived"
			,"description": "PEEXORDDateReceived"
			,"fieldAlias2x": "PEEXORDDateReceived"
			,"isSearchable": false
			,"picklistDescription": null
			,"picklistUri": null
			,"picklistParent": null
		},
"peexorddatesent": {
	"$ref": "#/definitions/longString"
			,"defaultLabel": "PEEXORDDateSent"
			,"description": "PEEXORDDateSent"
			,"fieldAlias2x": "PEEXORDDateSent"
			,"isSearchable": false
			,"picklistDescription": null
			,"picklistUri": null
			,"picklistParent": null
		},
"peexordreceived": {
	"type": "boolean"
			,"defaultLabel": "PEEXORDReceived"
			,"description": "PEEXORDReceived"
			,"fieldAlias2x": "PEEXORDReceived"
			,"isSearchable": false
			,"picklistDescription": null
			,"picklistUri": null
			,"picklistParent": null
		},
"peexordsent": {
	"type": "boolean"
			,"defaultLabel": "PEEXORDSent"
			,"description": "PEEXORDSent"
			,"fieldAlias2x": "PEEXORDSent"
			,"isSearchable": false
			,"picklistDescription": null
			,"picklistUri": null
			,"picklistParent": null
		},
"peopordatereceived": {
	"$ref": "#/definitions/longString"
			,"defaultLabel": "PEOPORDateReceived"
			,"description": "PEOPORDateReceived"
			,"fieldAlias2x": "PEOPORDateReceived"
			,"isSearchable": false
			,"picklistDescription": null
			,"picklistUri": null
			,"picklistParent": null
		},
"peopordatesent": {
	"$ref": "#/definitions/longString"
			,"defaultLabel": "PEOPORDateSent"
			,"description": "PEOPORDateSent"
			,"fieldAlias2x": "PEOPORDateSent"
			,"isSearchable": false
			,"picklistDescription": null
			,"picklistUri": null
			,"picklistParent": null
		},
"peoporddate": {
	"$ref": "#/definitions/dateTime"
			,"defaultLabel": "PEOPORDDate"
			,"description": "PEOPORDDate"
			,"fieldAlias2x": "PEOPORDDate"
			,"isSearchable": false
			,"picklistDescription": null
			,"picklistUri": null
			,"picklistParent": null
		},
"peopordreceived": {
	"type": "boolean"
			,"defaultLabel": "PEOPORDReceived"
			,"description": "PEOPORDReceived"
			,"fieldAlias2x": "PEOPORDReceived"
			,"isSearchable": false
			,"picklistDescription": null
			,"picklistUri": null
			,"picklistParent": null
		},
"peopordsent": {
	"type": "boolean"
			,"defaultLabel": "PEOPORDSent"
			,"description": "PEOPORDSent"
			,"fieldAlias2x": "PEOPORDSent"
			,"isSearchable": false
			,"picklistDescription": null
			,"picklistUri": null
			,"picklistParent": null
		},
"petaskorddate": {
	"$ref": "#/definitions/dateTime"
			,"defaultLabel": "PETASKORDDate"
			,"description": "PETASKORDDate"
			,"fieldAlias2x": "PETASKORDDate"
			,"isSearchable": false
			,"picklistDescription": null
			,"picklistUri": null
			,"picklistParent": null
		},
"petaskorddatereceived": {
	"$ref": "#/definitions/longString"
			,"defaultLabel": "PETASKORDDateReceived"
			,"description": "PETASKORDDateReceived"
			,"fieldAlias2x": "PETASKORDDateReceived"
			,"isSearchable": false
			,"picklistDescription": null
			,"picklistUri": null
			,"picklistParent": null
		},
"petaskorddatesent": {
	"$ref": "#/definitions/longString"
			,"defaultLabel": "PETASKORDDateSent"
			,"description": "PETASKORDDateSent"
			,"fieldAlias2x": "PETASKORDDateSent"
			,"isSearchable": false
			,"picklistDescription": null
			,"picklistUri": null
			,"picklistParent": null
		},
"petaskordreceived": {
	"type": "boolean"
			,"defaultLabel": "PETASKORDReceived"
			,"description": "PETASKORDReceived"
			,"fieldAlias2x": "PETASKORDReceived"
			,"isSearchable": false
			,"picklistDescription": null
			,"picklistUri": null
			,"picklistParent": null
		},
"petaskordsent": {
	"type": "boolean"
			,"defaultLabel": "PETASKORDSent"
			,"description": "PETASKORDSent"
			,"fieldAlias2x": "PETASKORDSent"
			,"isSearchable": false
			,"picklistDescription": null
			,"picklistUri": null
			,"picklistParent": null
		},
"portofdebarkation": {
	"$ref": "#/definitions/longString"
			,"defaultLabel": "PortOfDebarkation"
			,"description": "PortOfDebarkation"
			,"fieldAlias2x": "PortOfDebarkation"
			,"isSearchable": false
			,"picklistDescription": null
			,"picklistUri": null
			,"picklistParent": null
		},
"portofembarkation": {
	"$ref": "#/definitions/longString"
			,"defaultLabel": "PortOfEmbarkation"
			,"description": "PortOfEmbarkation"
			,"fieldAlias2x": "PortOfEmbarkation"
			,"isSearchable": false
			,"picklistDescription": null
			,"picklistUri": null
			,"picklistParent": null
		},
"primarypurpose": {
	"$ref": "#/definitions/longString"
			,"defaultLabel": "PrimaryPurpose"
			,"description": "PrimaryPurpose"
			,"fieldAlias2x": "PrimaryPurpose"
			,"isSearchable": false
			,"picklistDescription": "PrimaryPurpose"
			,"picklistUri": "SOFOAA-PrimaryPurpose"
			,"picklistParent": null
		},
"programofinstruction": {
	"$ref": "#/definitions/longString"
			,"defaultLabel": "ProgramOfInstruction"
			,"description": "ProgramOfInstruction"
			,"fieldAlias2x": "ProgramOfInstruction"
			,"isSearchable": false
			,"picklistDescription": null
			,"picklistUri": null
			,"picklistParent": null
		},
"proposedbudget": {
	"$ref": "#/definitions/num"
			,"defaultLabel": "ProposedBudget"
			,"description": "ProposedBudget"
			,"fieldAlias2x": "ProposedBudget"
			,"isSearchable": false
			,"picklistDescription": null
			,"picklistUri": null
			,"picklistParent": null
		},
"rearvondate": {
	"$ref": "#/definitions/dateTime"
			,"defaultLabel": "REARVONDate"
			,"description": "REARVONDate"
			,"fieldAlias2x": "REARVONDate"
			,"isSearchable": false
			,"picklistDescription": null
			,"picklistUri": null
			,"picklistParent": null
		},
"reportissues": {
	"$ref": "#/definitions/text"
			,"defaultLabel": "ReportIssues"
			,"description": "ReportIssues"
			,"fieldAlias2x": "ReportIssues"
			,"isSearchable": false
			,"picklistDescription": null
			,"picklistUri": null
			,"picklistParent": null
		},
"reportpurpose": {
	"$ref": "#/definitions/text"
			,"defaultLabel": "ReportPurpose"
			,"description": "ReportPurpose"
			,"fieldAlias2x": "ReportPurpose"
			,"isSearchable": false
			,"picklistDescription": null
			,"picklistUri": null
			,"picklistParent": null
		},
"routineope": {
	"type": "boolean"
			,"defaultLabel": "RoutineOPE"
			,"description": "RoutineOPE"
			,"fieldAlias2x": "RoutineOPE"
			,"isSearchable": false
			,"picklistDescription": null
			,"picklistUri": null
			,"picklistParent": null
		},
"secondarypurpose": {
	"$ref": "#/definitions/longString"
			,"defaultLabel": "SecondaryPurpose"
			,"description": "SecondaryPurpose"
			,"fieldAlias2x": "SecondaryPurpose"
			,"isSearchable": false
			,"picklistDescription": "SecondaryPurpose"
			,"picklistUri": "SOFOAA-SecondaryPurpose"
			,"picklistParent": null
		},
"sendmpadate": {
	"$ref": "#/definitions/dateTime"
			,"defaultLabel": "SendMPADate"
			,"description": "SendMPADate"
			,"fieldAlias2x": "SendMPADate"
			,"isSearchable": false
			,"picklistDescription": null
			,"picklistUri": null
			,"picklistParent": null
		},
"sendmpadatereceived": {
	"$ref": "#/definitions/longString"
			,"defaultLabel": "SendMPADateReceived"
			,"description": "SendMPADateReceived"
			,"fieldAlias2x": "SendMPADateReceived"
			,"isSearchable": false
			,"picklistDescription": null
			,"picklistUri": null
			,"picklistParent": null
		},
"sendmpadatesent": {
	"$ref": "#/definitions/longString"
			,"defaultLabel": "SendMPADateSent"
			,"description": "SendMPADateSent"
			,"fieldAlias2x": "SendMPADateSent"
			,"isSearchable": false
			,"picklistDescription": null
			,"picklistUri": null
			,"picklistParent": null
		},
"sendmpareceived": {
	"type": "boolean"
			,"defaultLabel": "SendMPAReceived"
			,"description": "SendMPAReceived"
			,"fieldAlias2x": "SendMPAReceived"
			,"isSearchable": false
			,"picklistDescription": null
			,"picklistUri": null
			,"picklistParent": null
		},
"sendmpasent": {
	"type": "boolean"
			,"defaultLabel": "SendMPASent"
			,"description": "SendMPASent"
			,"fieldAlias2x": "SendMPASent"
			,"isSearchable": false
			,"picklistDescription": null
			,"picklistUri": null
			,"picklistParent": null
		},
"sequencenum": {
	"$ref": "#/definitions/longString"
			,"defaultLabel": "SequenceNum"
			,"description": "SequenceNum"
			,"fieldAlias2x": "SequenceNum"
			,"isSearchable": false
			,"picklistDescription": null
			,"picklistUri": null
			,"picklistParent": null
		},
"service": {
	"$ref": "#/definitions/longString"
			,"defaultLabel": "Service"
			,"description": "Service"
			,"fieldAlias2x": "Service"
			,"isSearchable": false
			,"picklistDescription": "Service"
			,"picklistUri": "SOFOAA-Service"
			,"picklistParent": null
		},
"sofreportsduedate": {
	"$ref": "#/definitions/dateTime"
			,"defaultLabel": "SOFReportsDueDate"
			,"description": "SOFReportsDueDate"
			,"fieldAlias2x": "SOFReportsDueDate"
			,"isSearchable": false
			,"picklistDescription": null
			,"picklistUri": null
			,"picklistParent": null
		},
"sofreportsduedatereceived": {
	"$ref": "#/definitions/longString"
			,"defaultLabel": "SOFReportsDueDateReceived"
			,"description": "SOFReportsDueDateReceived"
			,"fieldAlias2x": "SOFReportsDueDateReceived"
			,"isSearchable": false
			,"picklistDescription": null
			,"picklistUri": null
			,"picklistParent": null
		},
"sofreportsduedatesent": {
	"$ref": "#/definitions/longString"
			,"defaultLabel": "SOFReportsDueDateSent"
			,"description": "SOFReportsDueDateSent"
			,"fieldAlias2x": "SOFReportsDueDateSent"
			,"isSearchable": false
			,"picklistDescription": null
			,"picklistUri": null
			,"picklistParent": null
		},
"sofreportsduereceived": {
	"type": "boolean"
			,"defaultLabel": "SOFReportsDueReceived"
			,"description": "SOFReportsDueReceived"
			,"fieldAlias2x": "SOFReportsDueReceived"
			,"isSearchable": false
			,"picklistDescription": null
			,"picklistUri": null
			,"picklistParent": null
		},
"sofreportsduesent": {
	"type": "boolean"
			,"defaultLabel": "SOFReportsDueSent"
			,"description": "SOFReportsDueSent"
			,"fieldAlias2x": "SOFReportsDueSent"
			,"isSearchable": false
			,"picklistDescription": null
			,"picklistUri": null
			,"picklistParent": null
		},
"sp009date": {
	"$ref": "#/definitions/dateTime"
			,"defaultLabel": "SP009Date"
			,"description": "SP009Date"
			,"fieldAlias2x": "SP009Date"
			,"isSearchable": false
			,"picklistDescription": null
			,"picklistUri": null
			,"picklistParent": null
		},
"sp009datereceived": {
	"$ref": "#/definitions/longString"
			,"defaultLabel": "SP009DateReceived"
			,"description": "SP009DateReceived"
			,"fieldAlias2x": "SP009DateReceived"
			,"isSearchable": false
			,"picklistDescription": null
			,"picklistUri": null
			,"picklistParent": null
		},
"sp009datesent": {
	"$ref": "#/definitions/longString"
			,"defaultLabel": "SP009DateSent"
			,"description": "SP009DateSent"
			,"fieldAlias2x": "SP009DateSent"
			,"isSearchable": false
			,"picklistDescription": null
			,"picklistUri": null
			,"picklistParent": null
		},
"sp009received": {
	"type": "boolean"
			,"defaultLabel": "SP009Received"
			,"description": "SP009Received"
			,"fieldAlias2x": "SP009Received"
			,"isSearchable": false
			,"picklistDescription": null
			,"picklistUri": null
			,"picklistParent": null
		},
"sp009sent": {
	"type": "boolean"
			,"defaultLabel": "SP009Sent"
			,"description": "SP009Sent"
			,"fieldAlias2x": "SP009Sent"
			,"isSearchable": false
			,"picklistDescription": null
			,"picklistUri": null
			,"picklistParent": null
		},
"startdate": {
	"$ref": "#/definitions/dateTime"
			,"defaultLabel": "StartDate"
			,"description": "StartDate"
			,"fieldAlias2x": "StartDate"
			,"isSearchable": false
			,"picklistDescription": null
			,"picklistUri": null
			,"picklistParent": null
		},
"startfpc": {
	"$ref": "#/definitions/dateTime"
			,"defaultLabel": "StartFPC"
			,"description": "StartFPC"
			,"fieldAlias2x": "StartFPC"
			,"isSearchable": false
			,"picklistDescription": null
			,"picklistUri": null
			,"picklistParent": null
		},
"startipc": {
	"$ref": "#/definitions/dateTime"
			,"defaultLabel": "StartIPC"
			,"description": "StartIPC"
			,"fieldAlias2x": "StartIPC"
			,"isSearchable": false
			,"picklistDescription": null
			,"picklistUri": null
			,"picklistParent": null
		},
"startmpc": {
	"$ref": "#/definitions/dateTime"
			,"defaultLabel": "StartMPC"
			,"description": "StartMPC"
			,"fieldAlias2x": "StartMPC"
			,"isSearchable": false
			,"picklistDescription": null
			,"picklistUri": null
			,"picklistParent": null
		},
"stratcomeffectshn": {
	"$ref": "#/definitions/text"
			,"defaultLabel": "StratcomEffectsHN"
			,"description": "StratcomEffectsHN"
			,"fieldAlias2x": "StratcomEffectsHN"
			,"isSearchable": false
			,"picklistDescription": null
			,"picklistUri": null
			,"picklistParent": null
		},
"stratcomeffectsus": {
	"$ref": "#/definitions/text"
			,"defaultLabel": "StratcomEffectsUS"
			,"description": "StratcomEffectsUS"
			,"fieldAlias2x": "StratcomEffectsUS"
			,"isSearchable": false
			,"picklistDescription": null
			,"picklistUri": null
			,"picklistParent": null
		},
"supportinformation": {
	"$ref": "#/definitions/text"
			,"defaultLabel": "SupportInformation"
			,"description": "SupportInformation"
			,"fieldAlias2x": "SupportInformation"
			,"isSearchable": false
			,"picklistDescription": null
			,"picklistUri": null
			,"picklistParent": null
		},
"taskorddate": {
	"$ref": "#/definitions/dateTime"
			,"defaultLabel": "TASKORDDate"
			,"description": "TASKORDDate"
			,"fieldAlias2x": "TASKORDDate"
			,"isSearchable": false
			,"picklistDescription": null
			,"picklistUri": null
			,"picklistParent": null
		},
"tertiarypurpose": {
	"$ref": "#/definitions/longString"
			,"defaultLabel": "TertiaryPurpose"
			,"description": "TertiaryPurpose"
			,"fieldAlias2x": "TertiaryPurpose"
			,"isSearchable": false
			,"picklistDescription": "TertiaryPurpose"
			,"picklistUri": "SOFOAA-TertiaryPurpose"
			,"picklistParent": null
		},
"tier1command": {
	"$ref": "#/definitions/longString"
			,"defaultLabel": "Tier1Command"
			,"description": "Tier1Command"
			,"fieldAlias2x": "Tier1Command"
			,"isSearchable": false
			,"picklistDescription": null
			,"picklistUri": null
			,"picklistParent": null
		},
"tier2command": {
	"$ref": "#/definitions/longString"
			,"defaultLabel": "Tier2Command"
			,"description": "Tier2Command"
			,"fieldAlias2x": "Tier2Command"
			,"isSearchable": false
			,"picklistDescription": null
			,"picklistUri": null
			,"picklistParent": null
		},
"tier3command": {
	"$ref": "#/definitions/longString"
			,"defaultLabel": "Tier3Command"
			,"description": "Tier3Command"
			,"fieldAlias2x": "Tier3Command"
			,"isSearchable": false
			,"picklistDescription": null
			,"picklistUri": null
			,"picklistParent": null
		},
"totaldays": {
	"$ref": "#/definitions/positive_int"
			,"defaultLabel": "TotalDays"
			,"description": "TotalDays"
			,"fieldAlias2x": "TotalDays"
			,"isSearchable": false
			,"picklistDescription": null
			,"picklistUri": null
			,"picklistParent": null
		},
			"budgettype": {
				"type": "array",
				"description": "SOF OAA Report BudgetType specific details",
				"fieldAlias2x": "BudgetType", 
					"items": {
						"type": "object",
						"properties": {
						
"budgettype": {
	"$ref": "#/definitions/longString"
			,"defaultLabel": "BudgetType"
			,"description": "BudgetType"
			,"fieldAlias2x": "BudgetType"
			,"isSearchable": false
			,"picklistDescription": null
			,"picklistUri": null
			,"picklistParent": null
		},
"referenceid": {
	"$ref": "#/definitions/longString"
			,"defaultLabel": "referenceId"
			,"description": "referenceId"
			,"fieldAlias2x": "BudgetTypeKey"
			,"isSearchable": false
			,"picklistDescription": null
			,"picklistUri": null
			,"picklistParent": null
		}
				}
			}
		},
			"bundledwith": {
				"type": "array",
				"description": "SOF OAA Report BundledWith specific details",
				"fieldAlias2x": "BundledWith", 
					"items": {
						"type": "object",
						"properties": {
						
"bundledwith": {
	"$ref": "#/definitions/longString"
			,"defaultLabel": "BundledWith"
			,"description": "BundledWith"
			,"fieldAlias2x": "BundledWith"
			,"isSearchable": false
			,"picklistDescription": null
			,"picklistUri": null
			,"picklistParent": null
		},
"referenceid": {
	"$ref": "#/definitions/longString"
			,"defaultLabel": "referenceId"
			,"description": "referenceId"
			,"fieldAlias2x": "BundledWithKey"
			,"isSearchable": false
			,"picklistDescription": null
			,"picklistUri": null
			,"picklistParent": null
		},
"datereported": {
	"$ref": "#/definitions/dateTime"
			,"defaultLabel": "DateReported"
			,"description": "DateReported"
			,"fieldAlias2x": "DateReported"
			,"isSearchable": false
			,"picklistDescription": null
			,"picklistUri": null
			,"picklistParent": null
		}
				}
			}
		},
			"component": {
				"type": "array",
				"description": "SOF OAA Report Component specific details",
				"fieldAlias2x": "Component", 
					"items": {
						"type": "object",
						"properties": {
						
"component": {
	"$ref": "#/definitions/longString"
			,"defaultLabel": "Component"
			,"description": "Component"
			,"fieldAlias2x": "Component"
			,"isSearchable": false
			,"picklistDescription": null
			,"picklistUri": null
			,"picklistParent": null
		},
"referenceid": {
	"$ref": "#/definitions/longString"
			,"defaultLabel": "referenceId"
			,"description": "referenceId"
			,"fieldAlias2x": "ComponentKey"
			,"isSearchable": false
			,"picklistDescription": null
			,"picklistUri": null
			,"picklistParent": null
		},
"datereported": {
	"$ref": "#/definitions/dateTime"
			,"defaultLabel": "DateReported"
			,"description": "DateReported"
			,"fieldAlias2x": "DateReported"
			,"isSearchable": false
			,"picklistDescription": null
			,"picklistUri": null
			,"picklistParent": null
		},
"qty": {
	"$ref": "#/definitions/positive_int"
			,"defaultLabel": "Qty"
			,"description": "Qty"
			,"fieldAlias2x": "Qty"
			,"isSearchable": false
			,"picklistDescription": null
			,"picklistUri": null
			,"picklistParent": null
		},
"unitname": {
	"$ref": "#/definitions/longString"
			,"defaultLabel": "UnitName"
			,"description": "UnitName"
			,"fieldAlias2x": "UnitName"
			,"isSearchable": false
			,"picklistDescription": null
			,"picklistUri": null
			,"picklistParent": null
		},
"unittype": {
	"$ref": "#/definitions/longString"
			,"defaultLabel": "UnitType"
			,"description": "UnitType"
			,"fieldAlias2x": "UnitType"
			,"isSearchable": false
			,"picklistDescription": null
			,"picklistUri": null
			,"picklistParent": null
		},
			"asset": {
				"type": "array",
				"description": "SOF OAA Report Asset specific details",
				"fieldAlias2x": "Asset", 
					"items": {
						"type": "object",
						"properties": {
						
"asset": {
	"$ref": "#/definitions/longString"
			,"defaultLabel": "Asset"
			,"description": "Asset"
			,"fieldAlias2x": "Asset"
			,"isSearchable": false
			,"picklistDescription": null
			,"picklistUri": null
			,"picklistParent": null
		},
"referenceid": {
	"$ref": "#/definitions/longString"
			,"defaultLabel": "referenceId"
			,"description": "referenceId"
			,"fieldAlias2x": "AssetKey"
			,"isSearchable": false
			,"picklistDescription": null
			,"picklistUri": null
			,"picklistParent": null
		},
"datereported": {
	"$ref": "#/definitions/dateTime"
			,"defaultLabel": "DateReported"
			,"description": "DateReported"
			,"fieldAlias2x": "DateReported"
			,"isSearchable": false
			,"picklistDescription": null
			,"picklistUri": null
			,"picklistParent": null
		},
"description": {
	"$ref": "#/definitions/longString"
			,"defaultLabel": "Description"
			,"description": "Description"
			,"fieldAlias2x": "Description"
			,"isSearchable": false
			,"picklistDescription": null
			,"picklistUri": null
			,"picklistParent": null
		},
"owner": {
	"$ref": "#/definitions/longString"
			,"defaultLabel": "Owner"
			,"description": "Owner"
			,"fieldAlias2x": "Owner"
			,"isSearchable": false
			,"picklistDescription": null
			,"picklistUri": null
			,"picklistParent": null
		}
				}
			}
		}
				}
			}
		},
			"componentobjectives": {
				"type": "array",
				"description": "SOF OAA Report ComponentObjectives specific details",
				"fieldAlias2x": "ComponentObjectives", 
					"items": {
						"type": "object",
						"properties": {
						
"componentobjectives": {
	"$ref": "#/definitions/longString"
			,"defaultLabel": "ComponentObjectives"
			,"description": "ComponentObjectives"
			,"fieldAlias2x": "ComponentObjectives"
			,"isSearchable": false
			,"picklistDescription": null
			,"picklistUri": null
			,"picklistParent": null
		},
"referenceid": {
	"$ref": "#/definitions/longString"
			,"defaultLabel": "referenceId"
			,"description": "referenceId"
			,"fieldAlias2x": "ComponentObjectivesKey"
			,"isSearchable": false
			,"picklistDescription": null
			,"picklistUri": null
			,"picklistParent": null
		}
				}
			}
		},
			"ftn": {
				"type": "array",
				"description": "SOF OAA Report FTN specific details",
				"fieldAlias2x": "FTN", 
					"items": {
						"type": "object",
						"properties": {
						
"ftn": {
	"$ref": "#/definitions/text"
			,"defaultLabel": "FTN"
			,"description": "FTN"
			,"fieldAlias2x": "FTN"
			,"isSearchable": false
			,"picklistDescription": null
			,"picklistUri": null
			,"picklistParent": null
		},
"referenceid": {
	"$ref": "#/definitions/longString"
			,"defaultLabel": "referenceId"
			,"description": "referenceId"
			,"fieldAlias2x": "FTNKey"
			,"isSearchable": false
			,"picklistDescription": null
			,"picklistUri": null
			,"picklistParent": null
		}
				}
			}
		},
			"gccsupportedplans": {
				"type": "array",
				"description": "SOF OAA Report GCCSupportedPlans specific details",
				"fieldAlias2x": "GCCSupportedPlans", 
					"items": {
						"type": "object",
						"properties": {
						
"gccsupportedplans": {
	"$ref": "#/definitions/longString"
			,"defaultLabel": "GCCSupportedPlans"
			,"description": "GCCSupportedPlans"
			,"fieldAlias2x": "GCCSupportedPlans"
			,"isSearchable": false
			,"picklistDescription": null
			,"picklistUri": null
			,"picklistParent": null
		},
"referenceid": {
	"$ref": "#/definitions/longString"
			,"defaultLabel": "referenceId"
			,"description": "referenceId"
			,"fieldAlias2x": "GCCSupportedPlansKey"
			,"isSearchable": false
			,"picklistDescription": null
			,"picklistUri": null
			,"picklistParent": null
		}
				}
			}
		},
			"hazardouscargoclasses": {
				"type": "array",
				"description": "SOF OAA Report HazardousCargoClasses specific details",
				"fieldAlias2x": "HazardousCargoClasses", 
					"items": {
						"type": "object",
						"properties": {
						
"datereported": {
	"$ref": "#/definitions/dateTime"
			,"defaultLabel": "DateReported"
			,"description": "DateReported"
			,"fieldAlias2x": "DateReported"
			,"isSearchable": false
			,"picklistDescription": null
			,"picklistUri": null
			,"picklistParent": null
		},
"hazardouscargoclasses": {
	"$ref": "#/definitions/longString"
			,"defaultLabel": "HazardousCargoClasses"
			,"description": "HazardousCargoClasses"
			,"fieldAlias2x": "HazardousCargoClasses"
			,"isSearchable": false
			,"picklistDescription": null
			,"picklistUri": null
			,"picklistParent": null
		},
"referenceid": {
	"$ref": "#/definitions/longString"
			,"defaultLabel": "referenceId"
			,"description": "referenceId"
			,"fieldAlias2x": "HazardousCargoClassesKey"
			,"isSearchable": false
			,"picklistDescription": null
			,"picklistUri": null
			,"picklistParent": null
		}
				}
			}
		},
			"looloe": {
				"type": "array",
				"description": "SOF OAA Report LOOLOE specific details",
				"fieldAlias2x": "LOOLOE", 
					"items": {
						"type": "object",
						"properties": {
						
"looloe": {
	"$ref": "#/definitions/longString"
			,"defaultLabel": "LOOLOE"
			,"description": "LOOLOE"
			,"fieldAlias2x": "LOOLOE"
			,"isSearchable": false
			,"picklistDescription": null
			,"picklistUri": null
			,"picklistParent": null
		},
"referenceid": {
	"$ref": "#/definitions/longString"
			,"defaultLabel": "referenceId"
			,"description": "referenceId"
			,"fieldAlias2x": "LOOLOEKey"
			,"isSearchable": false
			,"picklistDescription": null
			,"picklistUri": null
			,"picklistParent": null
		}
				}
			}
		},
			"opedocuments": {
				"type": "array",
				"description": "SOF OAA Report OPEDocuments specific details",
				"fieldAlias2x": "OPEDocuments", 
					"items": {
						"type": "object",
						"properties": {
						
"documentcomplete": {
	"type": "boolean"
			,"defaultLabel": "DocumentComplete"
			,"description": "DocumentComplete"
			,"fieldAlias2x": "DocumentComplete"
			,"isSearchable": false
			,"picklistDescription": null
			,"picklistUri": null
			,"picklistParent": null
		},
"documentdate": {
	"$ref": "#/definitions/dateTime"
			,"defaultLabel": "DocumentDate"
			,"description": "DocumentDate"
			,"fieldAlias2x": "DocumentDate"
			,"isSearchable": false
			,"picklistDescription": null
			,"picklistUri": null
			,"picklistParent": null
		},
"documentdesc": {
	"$ref": "#/definitions/longString"
			,"defaultLabel": "DocumentDesc"
			,"description": "DocumentDesc"
			,"fieldAlias2x": "DocumentDesc"
			,"isSearchable": false
			,"picklistDescription": null
			,"picklistUri": null
			,"picklistParent": null
		},
"documenttype": {
	"$ref": "#/definitions/longString"
			,"defaultLabel": "DocumentType"
			,"description": "DocumentType"
			,"fieldAlias2x": "DocumentType"
			,"isSearchable": false
			,"picklistDescription": null
			,"picklistUri": null
			,"picklistParent": null
		},
"referenceid": {
	"$ref": "#/definitions/longString"
			,"defaultLabel": "referenceId"
			,"description": "referenceId"
			,"fieldAlias2x": "OPEDocumentsKey"
			,"isSearchable": false
			,"picklistDescription": null
			,"picklistUri": null
			,"picklistParent": null
		}
				}
			}
		},
			"planningdocuments": {
				"type": "array",
				"description": "SOF OAA Report PlanningDocuments specific details",
				"fieldAlias2x": "PlanningDocuments", 
					"items": {
						"type": "object",
						"properties": {
						
"datereported": {
	"$ref": "#/definitions/dateTime"
			,"defaultLabel": "DateReported"
			,"description": "DateReported"
			,"fieldAlias2x": "DateReported"
			,"isSearchable": false
			,"picklistDescription": null
			,"picklistUri": null
			,"picklistParent": null
		},
"displayonquad": {
	"type": "boolean"
			,"defaultLabel": "DisplayOnQuad"
			,"description": "DisplayOnQuad"
			,"fieldAlias2x": "DisplayOnQuad"
			,"isSearchable": false
			,"picklistDescription": null
			,"picklistUri": null
			,"picklistParent": null
		},
"documentcomplete": {
	"type": "boolean"
			,"defaultLabel": "DocumentComplete"
			,"description": "DocumentComplete"
			,"fieldAlias2x": "DocumentComplete"
			,"isSearchable": false
			,"picklistDescription": null
			,"picklistUri": null
			,"picklistParent": null
		},
"documentdate": {
	"$ref": "#/definitions/dateTime"
			,"defaultLabel": "DocumentDate"
			,"description": "DocumentDate"
			,"fieldAlias2x": "DocumentDate"
			,"isSearchable": false
			,"picklistDescription": null
			,"picklistUri": null
			,"picklistParent": null
		},
"documentdesc": {
	"$ref": "#/definitions/longString"
			,"defaultLabel": "DocumentDesc"
			,"description": "DocumentDesc"
			,"fieldAlias2x": "DocumentDesc"
			,"isSearchable": false
			,"picklistDescription": null
			,"picklistUri": null
			,"picklistParent": null
		},
"documenttype": {
	"$ref": "#/definitions/longString"
			,"defaultLabel": "DocumentType"
			,"description": "DocumentType"
			,"fieldAlias2x": "DocumentType"
			,"isSearchable": false
			,"picklistDescription": null
			,"picklistUri": null
			,"picklistParent": null
		},
"referenceid": {
	"$ref": "#/definitions/longString"
			,"defaultLabel": "referenceId"
			,"description": "referenceId"
			,"fieldAlias2x": "PlanningDocumentsKey"
			,"isSearchable": false
			,"picklistDescription": null
			,"picklistUri": null
			,"picklistParent": null
		}
				}
			}
		}
				}
			}
	}
}
