	
{
    "type": "object",
    "id": "http://cidne.dae.smil.mil/schemas/SOF/OAAAAR/CIDNEDM236",
    "description": "CIDNE SOF OAAAAR Report Definition",
    "definitions": {
        "shortStringRequired": {
            "type": "string",
            "maxLength": 50
        },
        "longStringRequired": {
            "type": "string",
            "maxLength": 500
        },
        "textRequired": {
            "type": "string"
        },
        "textFieldLevelRequired": {
            "type": "object",
            "properties": {
                "objectValue": {
                    "type": "string"
                },
                "security": {
					"$ref": "#/definitions/security"
				}
            },
            "required": [
                "objectValue",
                "security"
            ]
        },
        "dateTimeRequired": {
            "type": "object",
            "properties": {
                "zuluDateTime": {
                    "type": "string",
                    "format": "date-time"
                },
                "zuluOffset": {
                    "type": "integer",
					"minimum": -840,
					"maximum": 840,
                    "description": "Offset in minutes from Zulu"
                }
            },
            "required": [
                "zuluDateTime",
                "zuluOffset"
            ]
        },
        "latitude_ddsRequired": {
            "type": "number",
            "minimum": -90,
            "maximum": 90
        },
        "longitude_ddsRequired": {
            "type": "number",
            "minimum": -180,
            "maximum": 180
        },
        "positive_intRequired": {
            "type": "integer",
            "minimum": 0
        },
        "positive_numRequired": {
            "type": "number",
            "minimum": 0
        },
        "positive_intRequired": {
            "type": "integer",
            "minimum": 0
        },
        "shortString": {
            "type": ["string","null"],
            "maxLength": 50
        },
        "longString": {
            "type": ["string","null"],
            "maxLength": 500
        },
        "text": {
            "type": ["string","null"]
        },
        "textFieldLevel": {
            "type": "object",
            "properties": {
                "objectValue": {
                    "type": ["string","null"]
                },
                "security": {
					"$ref": "#/definitions/securityOptional"
				}
            },
            "required": [
                "objectValue",
                "security"
            ]
        },
        "dateTime": {
            "type": ["object","null"],
            "properties": {
                "zuluDateTime": {
                    "type": "string",
                    "format": "date-time"
                },
                "zuluOffset": {
                    "type": "integer",
					"minimum": -840,
					"maximum": 840,
                    "description": "Offset in minutes from Zulu"
                }
            },
            "required": [
                "zuluDateTime",
                "zuluOffset"
            ]
        },
        "latitude_dds": {
            "type": ["number","null"],
            "minimum": -90,
            "maximum": 90
        },
        "longitude_dds": {
            "type": ["number","null"],
            "minimum": -180,
            "maximum": 180
        },
        "positive_int": {
            "type": ["integer","null"],
            "minimum": 0
        },
        "positive_num": {
            "type": ["number","null"],
            "minimum": 0
        },
        "num": {
            "type": ["number","null"]
        },
        "uniqueStringArray": {
            "type": "array",
            "uniqueItems": true,
            "items": {
                "type": "string"
            }
        },
        "securityOptional": {
            "oneOf": [
                {
                    "type": "null"
                },
                {
                    "$ref": "#/definitions/security"
                }
            ]
        },
        "security": {
            "type": "object",
            "properties": {
                "atomicEnergyMarkings": {
                    "$ref": "#/definitions/shortString",
                    "description": "Atomic Energy Act Information Markings"
                },
                "classificationReason": {
                    "$ref": "#/definitions/longString",
                    "description": ": Concise reason for classification"
                },
                "classification": {
                    "enum": [ "U", "TS", "S", "C" ],
                    "description": "Classification of information",
                    "defaultLabel": "Classification",
                    "isSearchable": false,
                    "picklistName": "classification",
                    "picklistUri": "http://cidne.dae.smil.mil/schemas/CAPCO/classification",
                    "picklistParent": null
                    
                },
                "classifiedBy": {
                    "$ref": "#/definitions/longString",
                    "description": "Identification by name and position, or personal identifier of the OCA"
                },
                "compilationReason": {
                    "$ref": "#/definitions/longString",
                    "description": "Reason why the compilation of information causes the classification"
                },
                "declassDate": {
                    "$ref": "#/definitions/dateTime",
                    "description": "Declassification date"
                },
                "declassEvent": {
                    "$ref": "#/definitions/shortString",
                    "description": "Declassification event"
                },
                "declassException": {
                    "$ref": "#/definitions/longString",
                    "description": "Declassification exception"
                },
                "derivativelyClassifiedBy": {
                    "$ref": "#/definitions/longString",
                    "description": "The derivative classifier’s identification by name and position, or by personal identifier, in a manner that is immediately apparent on each derivatively classified document. If not otherwise evident, the agency and office of origin shall be identified"
                },
                "derivedFrom": {
                    "$ref": "#/definitions/shortString",
                    "description": "Concisely identify the source document or the classification guide"
                },
                "displayOnlyTo": {
                    "$ref": "#/definitions/longString",
                    "description": "List of foreign country(ies)/international organization(s) authorized for disclosure without providing the recipient with a physical copy for retention, regardless of medium to the foreign country(ies)/international organization(s) indicated"
                },
                "disseminationControls": {
                    "$ref": "#/definitions/longString",
                    "description": "Control markings that identify the expansion or limitation on the distribution of information. These markings are in addition to and separate from the levels of classification"
                },
                "FGIsourceOpen": {
                    "$ref": "#/definitions/shortString",
                    "description": "Open Source Foreign Government Information"
                },
                "FGIsourceProtected": {
                    "$ref": "#/definitions/shortString",
                    "description": "Protected Source Foreign Government Information"
                },
                "nonICmarkings": {
                    "$ref": "#/definitions/text",
                    "description": "Markings authorized for use by entities outside of the Intelligence Community"
                },
                "nonUSControls": {
                    "$ref": "#/definitions/shortString",
                    "description": "Non-US protective markings"
                },
                "ownerProducer": {
                    "$ref": "#/definitions/shortStringRequired",
                    "description": "Owner/Producer",
                    "default": "USA",
                    "defaultLabel": "Owner Producer",
                    "isSearchable": false,
                    "picklistName": "ownerProducer",
                    "picklistUri": "http://cidne.dae.smil.mil/schemas/CAPCO/ownerProducer",
                    "picklistParent": null
                },
                "releasableToFilterField": {
                    "$ref": "#/definitions/shortString",
                    "description": "Need to add CAPCO Descriptions"
                },
                "releasableTo": {
                    "$ref": "#/definitions/text",
                    "description": "List of countries releasable to",
                    "defaultLabel": "Releasable To",
                    "isSearchable": false,
                    "picklistName": "releasableTo",
                    "picklistUri": "http://cidne.dae.smil.mil/schemas/CAPCO/releasableTo",
                    "picklistParent": null
                },
                "SARIdentifier": {
                    "$ref": "#/definitions/shortString",
                    "description": "Special access required programs"
                },
                "SCIcontrols": {
                    "$ref": "#/definitions/longString",
                    "description": "Sensitive Compartmented Information (SCI) control systems"
                }
            },
            "required": [
                "ownerProducer",
                "classification"
            ]
        },
        "actionInfo":{
            "type": "object",
            "properties": {
                "actionDate": {
                    "$ref": "#/definitions/dateTimeRequired",
                    "description": "Date Time Action was taken"
                },
                "group": {
                    "$ref": "#/definitions/longStringRequired",
                    "description": "User Group that performed action"
                },
                "parentGroup": {
                    "$ref": "#/definitions/longString",
                    "description": "User Group's Parent Group Name"
                },
                "nationality": {
                    "$ref": "#/definitions/shortStringRequired",
                    "description": "User Nationality"
                },
                "network": {
                    "$ref": "#/definitions/shortStringRequired",
                    "description": "Systems Network where action was taken"
                },
                "objectState": {
                    "description": "",
                    "enum": [
                        "CREATED",
                        "MODIFIED",
                        "TEMPLATE",
                        "SUBMITTED",
                        "PUBLISHED",
                        "VERSIONED",
                        "DEPRECATED",
                        "VALIDATING",
                        "RESTORED",
                        "MOVED"
                    ]
                },
                "site": {
                    "$ref": "#/definitions/shortStringRequired",
                    "description": "Systems Site"
                },
                "system": {
                    "$ref": "#/definitions/shortStringRequired",
                    "description": "System that provided the action"
                },
                "user": {
                    "$ref": "#/definitions/shortStringRequired",
                    "description": "User that performed action"
                }
            },
            "required": [
                "actionDate",
                "group",
                "parentGroup",
                "nationality",
                "network",
                "objectState",
                "site",
                "system",
                "user"
            ]
        },
        "position": {
            "description": "A single position. (order should be longitude,latitude)",
            "type": "array",
            "minItems": 2,
            "items": [
                {
                    "type": "number"
                },
                {
                    "type": "number"
                }
            ],
            "additionalItems": false
        },
        "positionArray": {
            "description": "An array of positions",
            "type": "array",
            "items": {
                "$ref": "#/definitions/position"
            }
        },
        "lineString": {
            "description": "An array of two or more positions",
            "allOf": [
                {
                    "type": "array",
                    "items": {
                        "$ref": "#/definitions/position"
                    }
                },
                {
                    "minItems": 2
                }
            ]
        },
        "linearRing": {
            "description": "An array of four positions where the first equals the last",
            "allOf": [
                {
                    "type": "array",
                    "items": {
                        "$ref": "#/definitions/position"
                    }
                },
                {
                    "minItems": 4
                }
            ]
        },
        "polygon": {
            "description": "An array of linear rings",
            "type": "array",
            "items": {
                "$ref": "#/definitions/linearRing"
            }
        },
        "geometry": {
            "title": "geometry",
            "description": "One geometry as defined by GeoJSON",
            "type": "object",
            "required": [
                "type",
                "coordinates"
            ],
            "oneOf": [
                {
                    "title": "Point",
                    "properties": {
                        "type": {
                            "enum": [
                                "Point"
                            ]
                        },
                        "coordinates": {
                            "$ref": "#/definitions/position"
                        }
                    }
                },
                {
                    "title": "MultiPoint",
                    "properties": {
                        "type": {
                            "enum": [
                                "MultiPoint"
                            ]
                        },
                        "coordinates": {
                            "type": "array",
                            "items": {
                                "$ref": "#/definitions/position"
                            }
                        }
                    }
                },
                {
                    "title": "LineString",
                    "properties": {
                        "type": {
                            "enum": [
                                "LineString"
                            ]
                        },
                        "coordinates": {
                            "$ref": "#/definitions/lineString"
                        }
                    }
                },
                {
                    "title": "MultiLineString",
                    "properties": {
                        "type": {
                            "enum": [
                                "MultiLineString"
                            ]
                        },
                        "coordinates": {
                            "type": "array",
                            "items": {
                                "$ref": "#/definitions/lineString"
                            }
                        }
                    }
                },
                {
                    "title": "Polygon",
                    "properties": {
                        "type": {
                            "enum": [
                                "Polygon"
                            ]
                        },
                        "coordinates": {
                            "$ref": "#/definitions/polygon"
                        }
                    }
                },
                {
                    "title": "MultiPolygon",
                    "properties": {
                        "type": {
                            "enum": [
                                "MultiPolygon"
                            ]
                        },
                        "coordinates": {
                            "type": "array",
                            "items": {
                                "$ref": "#/definitions/polygon"
                            }
                        }
                    }
                }
            ]
        },
        "geometryCollection": {
            "title": "GeometryCollection",
            "description": "A collection of geometry objects",
            "required": [
                "geometries"
            ],
            "properties": {
                "type": {
                    "enum": [
                        "GeometryCollection"
                    ]
                },
                "geometries": {
                    "type": "array",
                    "items": {
                        "$ref": "#/definitions/geometry"
                    }
                }
            }
        },
        "feature": {
            "title": "Feature",
            "description": "A Geo JSON feature object",
            "required": [
                "geometry"
            ],
            "properties": {
                "type": {
                    "enum": [
                        "Feature"
                    ]
                },
                "geometry": {
                    "oneOf": [
                        {
                            "type": "null"
                        },
                        {
                            "$ref": "#/definitions/geometry"
                        }
                    ]
                },
				"properties": { "type": [ "object", "null" ] },
                "id": { "type":["string"] }
            }
        },
        "featureCollection": {
            "description": "A GeoJSON feature collection",
            "required": [
                "features"
            ],
            "properties": {
                "type": {
                    "enum": [
                        "FeatureCollection"
                    ]
                },
                "features": {
                    "type": "array",
                    "items": {
                        "$ref": "#/definitions/feature"
                    }
                }
            }
        },
		"namedCrs": {
            "properties": {
                "type": { "enum": [ "name" ] },
                "properties": {
                    "required": [ "name" ],
                    "additionalProperties": false,
                    "properties": {
                        "name": {
                            "type": "string"
                        }
                    }
                }
            }
        },
        "linkedObject": {
            "type": "object",
            "required": [ "href" ],
            "properties": {
                "href": {
                    "type": "string",
                    "format": "uri"
                },
                "type": {
                    "type": "string",
                    "description": "Suggested values: proj4, ogjwkt, esriwkt"
                }
            }
        },
        "linkedCrs": {
            "properties": {
                "type": { "enum": [ "link" ] },
                "properties": { "$ref": "#/definitions/linkedObject" }
            }
        },	
		"crs":{
			"title": "crs",
			"description": "a Coordinate Reference System object",
			"type": [ "object", "null" ],
			"required": [ "type", "properties" ],
			"properties": {
				"type": { "type": "string" },
				"properties": { "type": "object" }
			},
			"additionalProperties": false,
			"oneOf": [
				{ "$ref": "#/definitions/namedCrs" },
				{ "$ref": "#/definitions/linkedCrs" }
			]
		},
		"bbox":{
		"description": "A bounding box as defined by GeoJSON",
			"type": "array",
			"items": { "type": "number" }
		},
        "geojson": {
            "title": "Geo JSON object",
            "description": "Schema for a Geo JSON object",
            "type": ["object","null"],
            "required": [
                "type"
            ],
			"properties": {
				"crs": { "$ref": "#/definitions/crs" },
				"bbox": { "$ref": "#/definitions/bbox" }
			},
            "anyOf": [
                {
                    "$ref": "#/definitions/geometry"
                },
                {
                    "$ref": "#/definitions/geometryCollection"
                },
                {
                    "$ref": "#/definitions/feature"
                },
                {
                    "$ref": "#/definitions/featureCollection"
                }
            ]
        }
    },
    "required": [
        "base",
        "datamodel",
        "formId",
        "location",
        "security",
        "details"
    ],	
    "properties": {
        "datamodel": {
            "$ref": "#/definitions/longString",
            "description": "Reference to the report definition."
        },
        "formId": {
            "$ref": "#/definitions/longString",
            "description": "Reference to the layout template identifier that this data was intended to be best visualized"
        },
        "base": {
            "type": "object",
            "description": "The core metadata used within all report definitions",
            "properties": {
                "objectId": {
                    "$ref": "#/definitions/shortStringRequired",
                    "description": "Report instance unique identifier"
                },
                "reportId": {
                    "$ref": "#/definitions/shortStringRequired",
                    "description": "Original report instance objectId for a report version grouping. (i.e. the root report identifier)"
                },
                "parentVersionId": {
                    "$ref": "#/definitions/shortString",
                    "description": "Report instance's objectId of the parent report. NOTE: If there is no parent, this value should be set to the report instance's own objectId. "
                },
                "module": {
                    "$ref": "#/definitions/shortStringRequired",
                    "description": "CIDNE community"
                },
                "reportType": {
                    "$ref": "#/definitions/shortStringRequired",
                    "description": "CIDNE report type (e.g. SIGACT)"
                },
                "reportSerial": {
                    "$ref": "#/definitions/textFieldLevel",
					"defaultLabel": "DisplaySerial",
					"description": "Report instance nomenclature (DisplaySerial)",
					"fieldAlias2x": "DisplaySerial"
                },
                "reportTitle": {
                    "$ref": "#/definitions/textFieldLevel",
					"defaultLabel": "DisplayTitle",
					"description": "Report instance title text (DisplayTitle)",
					"fieldAlias2x": "DisplayTitle"
                },
                "reportSummary": {
                    "$ref": "#/definitions/textFieldLevel",
					"defaultLabel": "DisplaySummary",
					"description": "Report instance summary text block (DisplaySummary)",
					"fieldAlias2x": "DisplaySummary"
                },
                "reportDate": {
                    "$ref": "#/definitions/dateTimeRequired",
					"defaultLabel": "DatePosted",
					"description": "Primary report instance date (DatePosted)",
					"fieldAlias2x": "DatePosted"
                },
                "reportSymbol": {
                    "$ref": "#/definitions/longString",
                    "description": "Report instance symbology"
                },
                "reportImage": {
                    "$ref": "#/definitions/longString",
                    "description": "Primary image of report instance"
                },
                "reportCountry": {
                    "$ref": "#/definitions/shortString",
                    "description": "Country value of report instance's primary location"
                },
                "reportLatitude": {
                    "$ref": "#/definitions/latitude_dds",
                    "description": "Latitude value of report instance's primary location"
                },
                "reportLongitude": {
                    "$ref": "#/definitions/longitude_dds",
                    "description": "Longitude value of report instance's primary location"
                },
				"geoLocation":{
					"$ref":"#/definitions/geojson"
				},
                "currentObjectState":{
                        "$ref": "#/definitions/actionInfo"
                },
                "originatingGroup": {
                    "$ref": "#/definitions/longStringRequired",
                    "description": "Original creator's group"
                },  
                "originatingUser": {
                    "$ref": "#/definitions/longStringRequired",
                    "description": "Original creator's User Name or email address"
                },  
				"isTearline": {
                    "type": "boolean",
                    "description": "Determines whether a report is a tearline"
                },
				"tearlineId": {
					"$ref": "#/definitions/shortString",
                    "description": "The reportId of the parent, used as a tearline group binding"
				},
                "theaterFilter": {
                    "$ref": "#/definitions/shortStringRequired",
                    "description": "Report instance theater of relevance"
                },
                "warehouseUri": {
                    "$ref": "#/definitions/longStringRequired",
                    "description": "Data warehouse location for report instance",
                    "format": "uri"
                }
            },
            "required": [
                "isTearline",
                "module",
                "objectId",
                "currentObjectState",
                "originatingGroup",
                "originatingUser",
                "reportId",
                "reportSerial",
                "reportDate",
                "theaterFilter",
                "reportType",
                "reportTitle",
                "reportSummary"
            ]
        },
        "location": {
            "type": "array",
            "description": "All locations for the report instance",
            "items": {
                "type": "object",
                "properties": {
                    "objectId": {
                        "$ref": "#/definitions/shortStringRequired",
                        "description": "objectId required for Edit Purposes"
                    },
                    "address": {
                        "$ref": "#/definitions/longString",
                        "description": "Address Details"
                    },
                    "alternateRoute": {
                        "$ref": "#/definitions/longString",
                        "description": "Alternate Route for location"
                    },
                    "ao": {
                        "$ref": "#/definitions/shortString",
                        "description": "Area of Operations"
                    },
                    "basecamp": {
                        "$ref": "#/definitions/shortString",
                        "description": "Base Camp"
                    },
                    "city": {
                        "$ref": "#/definitions/shortString",
                        "description": "City for Location"
                    },
                    "confidence": {
                        "$ref": "#/definitions/shortString",
                        "description": "Reporters Confidence in Location Value"
                    },
                    "country": {
                        "$ref": "#/definitions/shortString",
                        "description": "Location Country"
                    },
                    "customGeom": {
                        "type": "object",
                        "description": "Custom Geometry Object for Location",
                        "properties": {
                            "customGeomObjectId": {
                                "$ref": "#/definitions/shortString",
                                "description": "objectId for Custom Geometry Object"
                            },
                            "geomType": {
                                "$ref": "#/definitions/shortString",
                                "description": "Geometry Type for custom geometry object (e.g. Point, Multi-polygon"
                            },
                            "geom": {
                                "$ref": "#/definitions/shortString",
                                "description": "TBD GEOM Object for Custom Location Object"
                            },
                            "name": {
                                "$ref": "#/definitions/shortString",
                                "description": "Custom Location Name"
                            }
                        }
                    },
                    "dateEndLocation": {
                        "$ref": "#/definitions/dateTime",
                        "description": "Ending Date Time for location"
                    },
                    "dateStartLocation": {
                        "$ref": "#/definitions/dateTime",
                        "description": "Starting Date Time for location"
                    },
                    "derivedLocation": {
                        "type": "boolean",
                        "description": "Was Location Lat/Long derived from user picklists?"
                    },
                    "description": {
                        "$ref": "#/definitions/text",
                        "description": "Location Description"
                    },
                    "distanceFromCityCenter": {
                        "$ref": "#/definitions/positive_int",
                        "description": "Distance in meters to nearest city center"
                    },
                    "distanceToNearestFOB": {
                        "$ref": "#/definitions/positive_num",
                        "description": "Distance in meters to nearest FOB"
                    },
                    "distanceToNearestRoute": {
                        "$ref": "#/definitions/positive_num",
                        "description": "Distance in meters to nearest Route"
                    },
                    "district": {
                        "$ref": "#/definitions/shortString",
                        "description": "District"
                    },
                    "fob": {
                        "$ref": "#/definitions/shortString",
                        "description": "FOB"
                    },
					"geoLocation":{
						"$ref":"#/definitions/geojson"
					},
					"house": {
                        "$ref": "#/definitions/shortString",
                        "description": "HOUSE"
                    },
                    "isPrimaryLocation": {
                        "type": "boolean",
                        "description": "Marks Primary Location"
                    },
                    "latitude": {
                        "$ref": "#/definitions/latitude_ddsRequired",
                        "description": "Latitude of Location in Degree Decimal Seconds"
                    },
                    "locationActive": {
                        "type": "boolean",
                        "description": "Is Location Active?"
                    },
                    "locationType": {
                        "$ref": "#/definitions/shortString",
                        "description": "Location Type"
                    },
                    "longitude": {
                        "$ref": "#/definitions/longitude_ddsRequired",
                        "description": "Longitude of Location in Degree Decimal Seconds"
                    },
                    "mscCurrent": {
                        "$ref": "#/definitions/shortString",
                        "description": "Current Major Supporting Command responsible for location"
                    },
                    "mscDateOfCurrent": {
                        "$ref": "#/definitions/dateTime",
                        "description": "Date Of Current Major Supporting Command's Control of location"
                    },
                    "msc": {
                        "$ref": "#/definitions/shortString",
                        "description": "Major Supporting Command responsible for location"
                    },
                    "nai": {
                        "$ref": "#/definitions/shortString",
                        "description": "Named Area of Interest"
                    },
                    "nearestCity": {
                        "$ref": "#/definitions/shortString",
                        "description": "Nearest City"
                    },
                    "nearestFOB": {
                        "$ref": "#/definitions/shortString",
                        "description": "Nearest FOB"
                    },
                    "nearestRoute": {
                        "$ref": "#/definitions/shortString",
                        "description": "Nearest Route"
                    },
                    "neighborhood": {
                        "$ref": "#/definitions/shortString",
                        "description": "Neighborhood for location"
                    },
                    "populationCenterType": {
                        "$ref": "#/definitions/shortString",
                        "description": "Population Center Type"
                    },
                    "populationCenter": {
                        "$ref": "#/definitions/shortString",
                        "description": "Population Center"
                    },
                    "province": {
                        "$ref": "#/definitions/shortString",
                        "description": "Province"
                    },
                    "referenceId": {
                        "$ref": "#/definitions/shortString",
                        "description": "Reference to any subelement with in current report instance (e.g. Event Object ID)"
                    },
                    "route": {
                        "$ref": "#/definitions/shortString",
                        "description": "Route"
                    },
                    "security": {
                        "$ref": "#/definitions/securityOptional"
                    },
                    "street": {
                        "$ref": "#/definitions/shortString",
                        "description": "Street"
                    },
                    "structure": {
                        "$ref": "#/definitions/shortString",
                        "description": "Structure"
                    },
                    "village": {
                        "$ref": "#/definitions/shortString",
                        "description": "Village"
                    },
                    "zone": {
                        "$ref": "#/definitions/shortString",
                        "description": "City Zone"
                    }
                },
				"required": [
					"objectId",
					"isPrimaryLocation",
					"latitude",
					"longitude"
				]
            }
        },
        "remarks": {
            "type": "array",
            "items": {
                "type": "object",
                "properties": {
                    "objectId": {
                        "$ref": "#/definitions/shortStringRequired",
                        "description": "objectId required for Edit Purposes"
                    },
                    "referenceId": {
                        "$ref": "#/definitions/shortString",
                        "description": "Reference to any subelement with in current report instance (e.g. Event Object ID)"
                    },
                    "remarkText": {
                        "$ref": "#/definitions/text",
                        "description": "Remark Text"
                    },
                    "remarkType": {
                        "$ref": "#/definitions/shortString",
                        "description": "Remark Type"
                    },
                    "remarkOrder": {
                        "$ref": "#/definitions/positive_num",
                        "description": "Remark Order"
                    },
                    "security": {
                        "$ref": "#/definitions/securityOptional"
                    }
                },
                "required": [
                    "objectId",
                    "remarkText",
                    "remarkType",
                    "security"
                ]
            }
        },
        "requirements": {
            "type": "array",
            "items": {
                "type": "object",
                "properties": {
                    "objectId": {
                        "$ref": "#/definitions/shortStringRequired",
                        "description": "objectId required for Edit Purposes"
                    },
                    "referenceId": {
                        "$ref": "#/definitions/shortString",
                        "description": "Reference to any subelement with in current report instance (e.g. Event Object ID)"
                    },
                    "requirement": {
                        "$ref": "#/definitions/longString",
                        "description": "Requirement sub based on Requirement Type"
                    },
                    "requirementType": {
                        "$ref": "#/definitions/shortString",
                        "description": "Requirement Type"
                    },
                    "comment": {
                        "$ref": "#/definitions/text",
                        "description": "Requirement Comment"
                    },
                    "security": {
                        "$ref": "#/definitions/securityOptional"
                    }
                },
                "required": [
                    "objectId",
                    "requirementType",
                    "requirement",
                    "comment"
                ]
            }
        },
        "security": {
                        "$ref": "#/definitions/security"
        },
        "objectHistory": {
            "type": "array",
            "items":
                    {
                        "$ref": "#/definitions/actionInfo"
                    }       
		},
			"details": {
				"type": "object",
				"description": "SOF OAAAAR Report details specific details",
				"fieldAlias2x": "details", 
						"properties": {
						
"additionalremarks": {
	"$ref": "#/definitions/text"
			,"defaultLabel": "AdditionalRemarks"
			,"description": "AdditionalRemarks"
			,"fieldAlias2x": "AdditionalRemarks"
			,"isSearchable": false
			,"picklistDescription": null
			,"picklistUri": null
			,"picklistParent": null
		},
"advondate": {
	"$ref": "#/definitions/dateTime"
			,"defaultLabel": "AdvonDate"
			,"description": "AdvonDate"
			,"fieldAlias2x": "AdvonDate"
			,"isSearchable": false
			,"picklistDescription": null
			,"picklistUri": null
			,"picklistParent": null
		},
"approvedbudget": {
	"$ref": "#/definitions/num"
			,"defaultLabel": "ApprovedBudget"
			,"description": "ApprovedBudget"
			,"fieldAlias2x": "ApprovedBudget"
			,"isSearchable": false
			,"picklistDescription": null
			,"picklistUri": null
			,"picklistParent": null
		},
"attitude": {
	"$ref": "#/definitions/longString"
			,"defaultLabel": "Attitude"
			,"description": "Attitude"
			,"fieldAlias2x": "Attitude"
			,"isSearchable": false
			,"picklistDescription": null
			,"picklistUri": null
			,"picklistParent": null
		},
"benumber": {
	"$ref": "#/definitions/text"
			,"defaultLabel": "BENumber"
			,"description": "BENumber"
			,"fieldAlias2x": "BENumber"
			,"isSearchable": false
			,"picklistDescription": null
			,"picklistUri": null
			,"picklistParent": null
		},
"dateofreport": {
	"$ref": "#/definitions/dateTime"
			,"defaultLabel": "DateOfReport"
			,"description": "DateOfReport"
			,"fieldAlias2x": "DateOfReport"
			,"isSearchable": false
			,"picklistDescription": null
			,"picklistUri": null
			,"picklistParent": null
		},
"disseminationmethod": {
	"$ref": "#/definitions/longString"
			,"defaultLabel": "DisseminationMethod"
			,"description": "DisseminationMethod"
			,"fieldAlias2x": "DisseminationMethod"
			,"isSearchable": false
			,"picklistDescription": null
			,"picklistUri": null
			,"picklistParent": null
		},
"duration": {
	"$ref": "#/definitions/longString"
			,"defaultLabel": "Duration"
			,"description": "Duration"
			,"fieldAlias2x": "Duration"
			,"isSearchable": false
			,"picklistDescription": null
			,"picklistUri": null
			,"picklistParent": null
		},
"effectiveness": {
	"$ref": "#/definitions/longString"
			,"defaultLabel": "Effectiveness"
			,"description": "Effectiveness"
			,"fieldAlias2x": "Effectiveness"
			,"isSearchable": false
			,"picklistDescription": null
			,"picklistUri": null
			,"picklistParent": null
		},
"engagementremarks": {
	"$ref": "#/definitions/text"
			,"defaultLabel": "EngagementRemarks"
			,"description": "EngagementRemarks"
			,"fieldAlias2x": "EngagementRemarks"
			,"isSearchable": false
			,"picklistDescription": null
			,"picklistUri": null
			,"picklistParent": null
		},
"engagementtype": {
	"$ref": "#/definitions/longString"
			,"defaultLabel": "EngagementType"
			,"description": "EngagementType"
			,"fieldAlias2x": "EngagementType"
			,"isSearchable": false
			,"picklistDescription": null
			,"picklistUri": null
			,"picklistParent": null
		},
"executingunit": {
	"$ref": "#/definitions/longString"
			,"defaultLabel": "ExecutingUnit"
			,"description": "ExecutingUnit"
			,"fieldAlias2x": "ExecutingUnit"
			,"isSearchable": false
			,"picklistDescription": null
			,"picklistUri": null
			,"picklistParent": null
		},
"executingunitcategory": {
	"$ref": "#/definitions/longString"
			,"defaultLabel": "ExecutingUnitCategory"
			,"description": "ExecutingUnitCategory"
			,"fieldAlias2x": "ExecutingUnitCategory"
			,"isSearchable": false
			,"picklistDescription": null
			,"picklistUri": null
			,"picklistParent": null
		},
"followonactionfield": {
	"type": "boolean"
			,"defaultLabel": "FollowOnActionField"
			,"description": "FollowOnActionField"
			,"fieldAlias2x": "FollowOnAction"
			,"isSearchable": false
			,"picklistDescription": null
			,"picklistUri": null
			,"picklistParent": null
		},
"hnunitname": {
	"$ref": "#/definitions/longString"
			,"defaultLabel": "HNUnitName"
			,"description": "HNUnitName"
			,"fieldAlias2x": "HNUnitName"
			,"isSearchable": false
			,"picklistDescription": null
			,"picklistUri": null
			,"picklistParent": null
		},
"impact": {
	"$ref": "#/definitions/longString"
			,"defaultLabel": "Impact"
			,"description": "Impact"
			,"fieldAlias2x": "Impact"
			,"isSearchable": false
			,"picklistDescription": null
			,"picklistUri": null
			,"picklistParent": null
		},
"influence": {
	"$ref": "#/definitions/longString"
			,"defaultLabel": "Influence"
			,"description": "Influence"
			,"fieldAlias2x": "Influence"
			,"isSearchable": false
			,"picklistDescription": null
			,"picklistUri": null
			,"picklistParent": null
		},
"keytasks": {
	"$ref": "#/definitions/text"
			,"defaultLabel": "KeyTasks"
			,"description": "KeyTasks"
			,"fieldAlias2x": "KeyTasks"
			,"isSearchable": false
			,"picklistDescription": null
			,"picklistUri": null
			,"picklistParent": null
		},
"meetingfrequency": {
	"$ref": "#/definitions/longString"
			,"defaultLabel": "MeetingFrequency"
			,"description": "MeetingFrequency"
			,"fieldAlias2x": "MeetingFrequency"
			,"isSearchable": false
			,"picklistDescription": null
			,"picklistUri": null
			,"picklistParent": null
		},
"meetingobjective": {
	"$ref": "#/definitions/longString"
			,"defaultLabel": "MeetingObjective"
			,"description": "MeetingObjective"
			,"fieldAlias2x": "MeetingObjective"
			,"isSearchable": false
			,"picklistDescription": null
			,"picklistUri": null
			,"picklistParent": null
		},
"mission": {
	"$ref": "#/definitions/text"
			,"defaultLabel": "Mission"
			,"description": "Mission"
			,"fieldAlias2x": "Mission"
			,"isSearchable": false
			,"picklistDescription": null
			,"picklistUri": null
			,"picklistParent": null
		},
"missioncompletedate": {
	"$ref": "#/definitions/dateTime"
			,"defaultLabel": "MissionCompleteDate"
			,"description": "MissionCompleteDate"
			,"fieldAlias2x": "MissionCompleteDate"
			,"isSearchable": false
			,"picklistDescription": null
			,"picklistUri": null
			,"picklistParent": null
		},
"numberofexecutingunitpersonnel": {
	"$ref": "#/definitions/positive_int"
			,"defaultLabel": "NumberOfExecutingUnitPersonnel"
			,"description": "NumberOfExecutingUnitPersonnel"
			,"fieldAlias2x": "NumberOfExecutingUnitPersonnel"
			,"isSearchable": false
			,"picklistDescription": null
			,"picklistUri": null
			,"picklistParent": null
		},
"numberofhnpersonnel": {
	"$ref": "#/definitions/positive_int"
			,"defaultLabel": "NumberOfHNPersonnel"
			,"description": "NumberOfHNPersonnel"
			,"fieldAlias2x": "NumberOfHNPersonnel"
			,"isSearchable": false
			,"picklistDescription": null
			,"picklistUri": null
			,"picklistParent": null
		},
"oaaname": {
	"$ref": "#/definitions/longString"
			,"defaultLabel": "OAAName"
			,"description": "OAAName"
			,"fieldAlias2x": "OAAName"
			,"isSearchable": false
			,"picklistDescription": null
			,"picklistUri": null
			,"picklistParent": null
		},
"oaasubcategory": {
	"$ref": "#/definitions/longString"
			,"defaultLabel": "OAASubCategory"
			,"description": "OAASubCategory"
			,"fieldAlias2x": "OAASubCategory"
			,"isSearchable": false
			,"picklistDescription": null
			,"picklistUri": null
			,"picklistParent": null
		},
"oaasubcategoryother": {
	"$ref": "#/definitions/longString"
			,"defaultLabel": "OAASubCategoryOther"
			,"description": "OAASubCategoryOther"
			,"fieldAlias2x": "OAASubCategoryOther"
			,"isSearchable": false
			,"picklistDescription": null
			,"picklistUri": null
			,"picklistParent": null
		},
"oaatype": {
	"$ref": "#/definitions/longString"
			,"defaultLabel": "OAAType"
			,"description": "OAAType"
			,"fieldAlias2x": "OAAType"
			,"isSearchable": false
			,"picklistDescription": null
			,"picklistUri": null
			,"picklistParent": null
		},
"oaatypeother": {
	"$ref": "#/definitions/longString"
			,"defaultLabel": "OAATypeOther"
			,"description": "OAATypeOther"
			,"fieldAlias2x": "OAATypeOther"
			,"isSearchable": false
			,"picklistDescription": null
			,"picklistUri": null
			,"picklistParent": null
		},
"objectiveaccomplished": {
	"type": "boolean"
			,"defaultLabel": "ObjectiveAccomplished"
			,"description": "ObjectiveAccomplished"
			,"fieldAlias2x": "ObjectiveAccomplished"
			,"isSearchable": false
			,"picklistDescription": null
			,"picklistUri": null
			,"picklistParent": null
		},
"organizationengaged": {
	"$ref": "#/definitions/longString"
			,"defaultLabel": "OrganizationEngaged"
			,"description": "OrganizationEngaged"
			,"fieldAlias2x": "OrganizationEngaged"
			,"isSearchable": false
			,"picklistDescription": null
			,"picklistUri": null
			,"picklistParent": null
		},
"poi": {
	"$ref": "#/definitions/longString"
			,"defaultLabel": "POI"
			,"description": "POI"
			,"fieldAlias2x": "POI"
			,"isSearchable": false
			,"picklistDescription": null
			,"picklistUri": null
			,"picklistParent": null
		},
"primarypurpose": {
	"$ref": "#/definitions/longString"
			,"defaultLabel": "PrimaryPurpose"
			,"description": "PrimaryPurpose"
			,"fieldAlias2x": "PrimaryPurpose"
			,"isSearchable": false
			,"picklistDescription": null
			,"picklistUri": null
			,"picklistParent": null
		},
"purpose": {
	"$ref": "#/definitions/text"
			,"defaultLabel": "Purpose"
			,"description": "Purpose"
			,"fieldAlias2x": "Purpose"
			,"isSearchable": false
			,"picklistDescription": null
			,"picklistUri": null
			,"picklistParent": null
		},
"reportingunit": {
	"$ref": "#/definitions/longString"
			,"defaultLabel": "ReportingUnit"
			,"description": "ReportingUnit"
			,"fieldAlias2x": "ReportingUnit"
			,"isSearchable": false
			,"picklistDescription": null
			,"picklistUri": null
			,"picklistParent": null
		},
"secondarypurpose": {
	"$ref": "#/definitions/longString"
			,"defaultLabel": "SecondaryPurpose"
			,"description": "SecondaryPurpose"
			,"fieldAlias2x": "SecondaryPurpose"
			,"isSearchable": false
			,"picklistDescription": null
			,"picklistUri": null
			,"picklistParent": null
		},
"service": {
	"$ref": "#/definitions/longString"
			,"defaultLabel": "Service"
			,"description": "Service"
			,"fieldAlias2x": "Service"
			,"isSearchable": false
			,"picklistDescription": null
			,"picklistUri": null
			,"picklistParent": null
		},
"socomoaanum": {
	"$ref": "#/definitions/longString"
			,"defaultLabel": "SOCOMOAANum"
			,"description": "SOCOMOAANum"
			,"fieldAlias2x": "SOCOMOAANum"
			,"isSearchable": false
			,"picklistDescription": null
			,"picklistUri": null
			,"picklistParent": null
		},
"startdate": {
	"$ref": "#/definitions/dateTime"
			,"defaultLabel": "StartDate"
			,"description": "StartDate"
			,"fieldAlias2x": "StartDate"
			,"isSearchable": false
			,"picklistDescription": null
			,"picklistUri": null
			,"picklistParent": null
		},
"stratcomeffectshn": {
	"$ref": "#/definitions/text"
			,"defaultLabel": "STRATCOMEffectsHN"
			,"description": "STRATCOMEffectsHN"
			,"fieldAlias2x": "STRATCOMEffectsHN"
			,"isSearchable": false
			,"picklistDescription": null
			,"picklistUri": null
			,"picklistParent": null
		},
"stratcomeffectsus": {
	"$ref": "#/definitions/text"
			,"defaultLabel": "STRATCOMEffectsUS"
			,"description": "STRATCOMEffectsUS"
			,"fieldAlias2x": "STRATCOMEffectsUS"
			,"isSearchable": false
			,"picklistDescription": null
			,"picklistUri": null
			,"picklistParent": null
		},
"submittedby": {
	"$ref": "#/definitions/longString"
			,"defaultLabel": "SubmittedBy"
			,"description": "SubmittedBy"
			,"fieldAlias2x": "SubmittedBy"
			,"isSearchable": false
			,"picklistDescription": null
			,"picklistUri": null
			,"picklistParent": null
		},
"summaryofevents": {
	"$ref": "#/definitions/text"
			,"defaultLabel": "SummaryofEvents"
			,"description": "SummaryofEvents"
			,"fieldAlias2x": "SummaryofEvents"
			,"isSearchable": false
			,"picklistDescription": null
			,"picklistUri": null
			,"picklistParent": null
		},
"supportinformation": {
	"$ref": "#/definitions/text"
			,"defaultLabel": "SupportInformation"
			,"description": "SupportInformation"
			,"fieldAlias2x": "SupportInformation"
			,"isSearchable": false
			,"picklistDescription": null
			,"picklistUri": null
			,"picklistParent": null
		},
"supportingunit": {
	"$ref": "#/definitions/longString"
			,"defaultLabel": "SupportingUnit"
			,"description": "SupportingUnit"
			,"fieldAlias2x": "SupportingUnit"
			,"isSearchable": false
			,"picklistDescription": null
			,"picklistUri": null
			,"picklistParent": null
		},
"supportingunitcategory": {
	"$ref": "#/definitions/longString"
			,"defaultLabel": "SupportingUnitCategory"
			,"description": "SupportingUnitCategory"
			,"fieldAlias2x": "SupportingUnitCategory"
			,"isSearchable": false
			,"picklistDescription": null
			,"picklistUri": null
			,"picklistParent": null
		},
"tertiarypurpose": {
	"$ref": "#/definitions/longString"
			,"defaultLabel": "TertiaryPurpose"
			,"description": "TertiaryPurpose"
			,"fieldAlias2x": "TertiaryPurpose"
			,"isSearchable": false
			,"picklistDescription": null
			,"picklistUri": null
			,"picklistParent": null
		},
			"airassessment": {
				"type": "array",
				"description": "SOF OAAAAR Report AirAssessment specific details",
				"fieldAlias2x": "AirAssessment", 
					"items": {
						"type": "object",
						"properties": {
						
"affiliation": {
	"$ref": "#/definitions/longString"
			,"defaultLabel": "Affiliation"
			,"description": "Affiliation"
			,"fieldAlias2x": "Affiliation"
			,"isSearchable": false
			,"picklistDescription": null
			,"picklistUri": null
			,"picklistParent": null
		},
"referenceid": {
	"$ref": "#/definitions/longString"
			,"defaultLabel": "referenceId"
			,"description": "referenceId"
			,"fieldAlias2x": "AirAssessmentKey"
			,"isSearchable": false
			,"picklistDescription": null
			,"picklistUri": null
			,"picklistParent": null
		},
"aircraftproblems": {
	"$ref": "#/definitions/text"
			,"defaultLabel": "AircraftProblems"
			,"description": "AircraftProblems"
			,"fieldAlias2x": "AircraftProblems"
			,"isSearchable": false
			,"picklistDescription": null
			,"picklistUri": null
			,"picklistParent": null
		},
"approxflighttime": {
	"$ref": "#/definitions/num"
			,"defaultLabel": "ApproxFlightTime"
			,"description": "ApproxFlightTime"
			,"fieldAlias2x": "ApproxFlightTime"
			,"isSearchable": false
			,"picklistDescription": null
			,"picklistUri": null
			,"picklistParent": null
		},
"enddate": {
	"$ref": "#/definitions/dateTime"
			,"defaultLabel": "EndDate"
			,"description": "EndDate"
			,"fieldAlias2x": "EndDate"
			,"isSearchable": false
			,"picklistDescription": null
			,"picklistUri": null
			,"picklistParent": null
		},
"objectivesmet": {
	"$ref": "#/definitions/text"
			,"defaultLabel": "ObjectivesMet"
			,"description": "ObjectivesMet"
			,"fieldAlias2x": "ObjectivesMet"
			,"isSearchable": false
			,"picklistDescription": null
			,"picklistUri": null
			,"picklistParent": null
		},
"startdate": {
	"$ref": "#/definitions/dateTime"
			,"defaultLabel": "StartDate"
			,"description": "StartDate"
			,"fieldAlias2x": "StartDate"
			,"isSearchable": false
			,"picklistDescription": null
			,"picklistUri": null
			,"picklistParent": null
		},
"typeofaircraft": {
	"$ref": "#/definitions/longString"
			,"defaultLabel": "TypeOfAircraft"
			,"description": "TypeOfAircraft"
			,"fieldAlias2x": "TypeOfAircraft"
			,"isSearchable": false
			,"picklistDescription": null
			,"picklistUri": null
			,"picklistParent": null
		},
"typeofoperation": {
	"$ref": "#/definitions/longString"
			,"defaultLabel": "TypeOfOperation"
			,"description": "TypeOfOperation"
			,"fieldAlias2x": "TypeOfOperation"
			,"isSearchable": false
			,"picklistDescription": null
			,"picklistUri": null
			,"picklistParent": null
		},
"unitname": {
	"$ref": "#/definitions/longString"
			,"defaultLabel": "UnitName"
			,"description": "UnitName"
			,"fieldAlias2x": "UnitName"
			,"isSearchable": false
			,"picklistDescription": null
			,"picklistUri": null
			,"picklistParent": null
		}
				}
			}
		},
			"airassessmentaircraft": {
				"type": "array",
				"description": "SOF OAAAAR Report AirAssessmentAircraft specific details",
				"fieldAlias2x": "AirAssessmentAircraft", 
					"items": {
						"type": "object",
						"properties": {
						
"referenceid": {
	"$ref": "#/definitions/longString"
			,"defaultLabel": "referenceId"
			,"description": "referenceId"
			,"fieldAlias2x": "AircraftKey"
			,"isSearchable": false
			,"picklistDescription": null
			,"picklistUri": null
			,"picklistParent": null
		},
"modelaircraftused": {
	"$ref": "#/definitions/longString"
			,"defaultLabel": "ModelAircraftUsed"
			,"description": "ModelAircraftUsed"
			,"fieldAlias2x": "ModelAircraftUsed"
			,"isSearchable": false
			,"picklistDescription": null
			,"picklistUri": null
			,"picklistParent": null
		},
"modelaircraftusedother": {
	"$ref": "#/definitions/longString"
			,"defaultLabel": "ModelAircraftUsedOther"
			,"description": "ModelAircraftUsedOther"
			,"fieldAlias2x": "ModelAircraftUsedOther"
			,"isSearchable": false
			,"picklistDescription": null
			,"picklistUri": null
			,"picklistParent": null
		},
"numberaircraftused": {
	"$ref": "#/definitions/positive_int"
			,"defaultLabel": "NumberAircraftUsed"
			,"description": "NumberAircraftUsed"
			,"fieldAlias2x": "NumberAircraftUsed"
			,"isSearchable": false
			,"picklistDescription": null
			,"picklistUri": null
			,"picklistParent": null
		}
				}
			}
		},
			"followonaction": {
				"type": "array",
				"description": "SOF OAAAAR Report FollowOnAction specific details",
				"fieldAlias2x": "FollowOnAction", 
					"items": {
						"type": "object",
						"properties": {
						
"datedelivered": {
	"$ref": "#/definitions/dateTime"
			,"defaultLabel": "DateDelivered"
			,"description": "DateDelivered"
			,"fieldAlias2x": "DateDelivered"
			,"isSearchable": false
			,"picklistDescription": null
			,"picklistUri": null
			,"picklistParent": null
		},
"referenceid": {
	"$ref": "#/definitions/longString"
			,"defaultLabel": "referenceId"
			,"description": "referenceId"
			,"fieldAlias2x": "FollowOnActionKey"
			,"isSearchable": false
			,"picklistDescription": null
			,"picklistUri": null
			,"picklistParent": null
		},
"followthrurequired": {
	"$ref": "#/definitions/longString"
			,"defaultLabel": "FollowThruRequired"
			,"description": "FollowThruRequired"
			,"fieldAlias2x": "FollowThruRequired"
			,"isSearchable": false
			,"picklistDescription": null
			,"picklistUri": null
			,"picklistParent": null
		},
"followupcontact": {
	"$ref": "#/definitions/longString"
			,"defaultLabel": "FollowUpContact"
			,"description": "FollowUpContact"
			,"fieldAlias2x": "FollowUpContact"
			,"isSearchable": false
			,"picklistDescription": null
			,"picklistUri": null
			,"picklistParent": null
		},
"followupnature": {
	"$ref": "#/definitions/longString"
			,"defaultLabel": "FollowUpNature"
			,"description": "FollowUpNature"
			,"fieldAlias2x": "FollowUpNature"
			,"isSearchable": false
			,"picklistDescription": null
			,"picklistUri": null
			,"picklistParent": null
		},
"followupremarks": {
	"$ref": "#/definitions/text"
			,"defaultLabel": "FollowUpRemarks"
			,"description": "FollowUpRemarks"
			,"fieldAlias2x": "FollowUpRemarks"
			,"isSearchable": false
			,"picklistDescription": null
			,"picklistUri": null
			,"picklistParent": null
		},
"status": {
	"$ref": "#/definitions/longString"
			,"defaultLabel": "Status"
			,"description": "Status"
			,"fieldAlias2x": "Status"
			,"isSearchable": false
			,"picklistDescription": null
			,"picklistUri": null
			,"picklistParent": null
		},
"suspense": {
	"$ref": "#/definitions/dateTime"
			,"defaultLabel": "Suspense"
			,"description": "Suspense"
			,"fieldAlias2x": "Suspense"
			,"isSearchable": false
			,"picklistDescription": null
			,"picklistUri": null
			,"picklistParent": null
		}
				}
			}
		},
			"issues": {
				"type": "array",
				"description": "SOF OAAAAR Report Issues specific details",
				"fieldAlias2x": "Issues", 
					"items": {
						"type": "object",
						"properties": {
						
"discussion": {
	"$ref": "#/definitions/text"
			,"defaultLabel": "Discussion"
			,"description": "Discussion"
			,"fieldAlias2x": "Discussion"
			,"isSearchable": false
			,"picklistDescription": null
			,"picklistUri": null
			,"picklistParent": null
		},
"issue": {
	"$ref": "#/definitions/longString"
			,"defaultLabel": "Issue"
			,"description": "Issue"
			,"fieldAlias2x": "Issue"
			,"isSearchable": false
			,"picklistDescription": null
			,"picklistUri": null
			,"picklistParent": null
		},
"referenceid": {
	"$ref": "#/definitions/longString"
			,"defaultLabel": "referenceId"
			,"description": "referenceId"
			,"fieldAlias2x": "IssuesKey"
			,"isSearchable": false
			,"picklistDescription": null
			,"picklistUri": null
			,"picklistParent": null
		},
"recommendation": {
	"$ref": "#/definitions/text"
			,"defaultLabel": "Recommendation"
			,"description": "Recommendation"
			,"fieldAlias2x": "Recommendation"
			,"isSearchable": false
			,"picklistDescription": null
			,"picklistUri": null
			,"picklistParent": null
		}
				}
			}
		},
			"metstrained": {
				"type": "array",
				"description": "SOF OAAAAR Report MetsTrained specific details",
				"fieldAlias2x": "MetsTrained", 
					"items": {
						"type": "object",
						"properties": {
						
"datereported": {
	"$ref": "#/definitions/dateTime"
			,"defaultLabel": "DateReported"
			,"description": "DateReported"
			,"fieldAlias2x": "DateReported"
			,"isSearchable": false
			,"picklistDescription": null
			,"picklistUri": null
			,"picklistParent": null
		},
"measurementsuccesscriteria": {
	"$ref": "#/definitions/longString"
			,"defaultLabel": "MeasurementSuccessCriteria"
			,"description": "MeasurementSuccessCriteria"
			,"fieldAlias2x": "MeasurementSuccessCriteria"
			,"isSearchable": false
			,"picklistDescription": null
			,"picklistUri": null
			,"picklistParent": null
		},
"metsname": {
	"$ref": "#/definitions/longString"
			,"defaultLabel": "METSName"
			,"description": "METSName"
			,"fieldAlias2x": "METSName"
			,"isSearchable": false
			,"picklistDescription": null
			,"picklistUri": null
			,"picklistParent": null
		},
"referenceid": {
	"$ref": "#/definitions/longString"
			,"defaultLabel": "referenceId"
			,"description": "referenceId"
			,"fieldAlias2x": "MetsTrainedKey"
			,"isSearchable": false
			,"picklistDescription": null
			,"picklistUri": null
			,"picklistParent": null
		}
				}
			}
		},
			"missionmembers": {
				"type": "array",
				"description": "SOF OAAAAR Report MissionMembers specific details",
				"fieldAlias2x": "MissionMembers", 
					"items": {
						"type": "object",
						"properties": {
						
"dutyphone": {
	"$ref": "#/definitions/longString"
			,"defaultLabel": "DutyPhone"
			,"description": "DutyPhone"
			,"fieldAlias2x": "DutyPhone"
			,"isSearchable": false
			,"picklistDescription": null
			,"picklistUri": null
			,"picklistParent": null
		},
"firstname": {
	"$ref": "#/definitions/longString"
			,"defaultLabel": "FirstName"
			,"description": "FirstName"
			,"fieldAlias2x": "FirstName"
			,"isSearchable": false
			,"picklistDescription": null
			,"picklistUri": null
			,"picklistParent": null
		},
"grade": {
	"$ref": "#/definitions/longString"
			,"defaultLabel": "Grade"
			,"description": "Grade"
			,"fieldAlias2x": "Grade"
			,"isSearchable": false
			,"picklistDescription": "Grade"
			,"picklistUri": "SOFOAAAAR-Grade"
			,"picklistParent": null
		},
"lastname": {
	"$ref": "#/definitions/longString"
			,"defaultLabel": "LastName"
			,"description": "LastName"
			,"fieldAlias2x": "LastName"
			,"isSearchable": false
			,"picklistDescription": null
			,"picklistUri": null
			,"picklistParent": null
		},
"middleinitial": {
	"$ref": "#/definitions/longString"
			,"defaultLabel": "MiddleInitial"
			,"description": "MiddleInitial"
			,"fieldAlias2x": "MiddleInitial"
			,"isSearchable": false
			,"picklistDescription": null
			,"picklistUri": null
			,"picklistParent": null
		},
"referenceid": {
	"$ref": "#/definitions/longString"
			,"defaultLabel": "referenceId"
			,"description": "referenceId"
			,"fieldAlias2x": "MissionMembersKey"
			,"isSearchable": false
			,"picklistDescription": null
			,"picklistUri": null
			,"picklistParent": null
		},
"mosnecafsc": {
	"$ref": "#/definitions/longString"
			,"defaultLabel": "MOSNECAFSC"
			,"description": "MOSNECAFSC"
			,"fieldAlias2x": "MOSNECAFSC"
			,"isSearchable": false
			,"picklistDescription": null
			,"picklistUri": null
			,"picklistParent": null
		},
"rank": {
	"$ref": "#/definitions/longString"
			,"defaultLabel": "Rank"
			,"description": "Rank"
			,"fieldAlias2x": "Rank"
			,"isSearchable": false
			,"picklistDescription": null
			,"picklistUri": null
			,"picklistParent": null
		},
"serviceorg": {
	"$ref": "#/definitions/longString"
			,"defaultLabel": "ServiceOrg"
			,"description": "ServiceOrg"
			,"fieldAlias2x": "ServiceOrg"
			,"isSearchable": false
			,"picklistDescription": null
			,"picklistUri": null
			,"picklistParent": null
		},
"unclassemail": {
	"$ref": "#/definitions/longString"
			,"defaultLabel": "UnclassEmail"
			,"description": "UnclassEmail"
			,"fieldAlias2x": "UnclassEmail"
			,"isSearchable": false
			,"picklistDescription": null
			,"picklistUri": null
			,"picklistParent": null
		}
				}
			}
		},
			"otherkeyparticipants": {
				"type": "array",
				"description": "SOF OAAAAR Report OtherKeyParticipants specific details",
				"fieldAlias2x": "OtherKeyParticipants", 
					"items": {
						"type": "object",
						"properties": {
						
"dutyphone": {
	"$ref": "#/definitions/longString"
			,"defaultLabel": "DutyPhone"
			,"description": "DutyPhone"
			,"fieldAlias2x": "DutyPhone"
			,"isSearchable": false
			,"picklistDescription": null
			,"picklistUri": null
			,"picklistParent": null
		},
"firstname": {
	"$ref": "#/definitions/longString"
			,"defaultLabel": "FirstName"
			,"description": "FirstName"
			,"fieldAlias2x": "FirstName"
			,"isSearchable": false
			,"picklistDescription": null
			,"picklistUri": null
			,"picklistParent": null
		},
"grade": {
	"$ref": "#/definitions/longString"
			,"defaultLabel": "Grade"
			,"description": "Grade"
			,"fieldAlias2x": "Grade"
			,"isSearchable": false
			,"picklistDescription": "Grade"
			,"picklistUri": "SOFOAAAAR-Grade"
			,"picklistParent": null
		},
"lastname": {
	"$ref": "#/definitions/longString"
			,"defaultLabel": "LastName"
			,"description": "LastName"
			,"fieldAlias2x": "LastName"
			,"isSearchable": false
			,"picklistDescription": null
			,"picklistUri": null
			,"picklistParent": null
		},
"middleinitial": {
	"$ref": "#/definitions/longString"
			,"defaultLabel": "MiddleInitial"
			,"description": "MiddleInitial"
			,"fieldAlias2x": "MiddleInitial"
			,"isSearchable": false
			,"picklistDescription": null
			,"picklistUri": null
			,"picklistParent": null
		},
"nationality": {
	"$ref": "#/definitions/longString"
			,"defaultLabel": "Nationality"
			,"description": "Nationality"
			,"fieldAlias2x": "Nationality"
			,"isSearchable": false
			,"picklistDescription": null
			,"picklistUri": null
			,"picklistParent": null
		},
"referenceid": {
	"$ref": "#/definitions/longString"
			,"defaultLabel": "referenceId"
			,"description": "referenceId"
			,"fieldAlias2x": "OtherKeyParticipantsKey"
			,"isSearchable": false
			,"picklistDescription": null
			,"picklistUri": null
			,"picklistParent": null
		},
"rank": {
	"$ref": "#/definitions/longString"
			,"defaultLabel": "Rank"
			,"description": "Rank"
			,"fieldAlias2x": "Rank"
			,"isSearchable": false
			,"picklistDescription": null
			,"picklistUri": null
			,"picklistParent": null
		},
"serviceorg": {
	"$ref": "#/definitions/longString"
			,"defaultLabel": "ServiceOrg"
			,"description": "ServiceOrg"
			,"fieldAlias2x": "ServiceOrg"
			,"isSearchable": false
			,"picklistDescription": null
			,"picklistUri": null
			,"picklistParent": null
		},
"unclassemail": {
	"$ref": "#/definitions/longString"
			,"defaultLabel": "UnclassEmail"
			,"description": "UnclassEmail"
			,"fieldAlias2x": "UnclassEmail"
			,"isSearchable": false
			,"picklistDescription": null
			,"picklistUri": null
			,"picklistParent": null
		}
				}
			}
		}
				}
			}
	}
}
