	
{
    "type": "object",
    "id": "http://cidne.dae.smil.mil/schemas/Transition/ROLPersonnelAssessment/CIDNEDM236",
    "description": "CIDNE Transition ROLPersonnelAssessment Report Definition",
    "definitions": {
        "shortStringRequired": {
            "type": "string",
            "maxLength": 50
        },
        "longStringRequired": {
            "type": "string",
            "maxLength": 500
        },
        "textRequired": {
            "type": "string"
        },
        "textFieldLevelRequired": {
            "type": "object",
            "properties": {
                "objectValue": {
                    "type": "string"
                },
                "security": {
					"$ref": "#/definitions/security"
				}
            },
            "required": [
                "objectValue",
                "security"
            ]
        },
        "dateTimeRequired": {
            "type": "object",
            "properties": {
                "zuluDateTime": {
                    "type": "string",
                    "format": "date-time"
                },
                "zuluOffset": {
                    "type": "integer",
					"minimum": -840,
					"maximum": 840,
                    "description": "Offset in minutes from Zulu"
                }
            },
            "required": [
                "zuluDateTime",
                "zuluOffset"
            ]
        },
        "latitude_ddsRequired": {
            "type": "number",
            "minimum": -90,
            "maximum": 90
        },
        "longitude_ddsRequired": {
            "type": "number",
            "minimum": -180,
            "maximum": 180
        },
        "positive_intRequired": {
            "type": "integer",
            "minimum": 0
        },
        "positive_numRequired": {
            "type": "number",
            "minimum": 0
        },
        "positive_intRequired": {
            "type": "integer",
            "minimum": 0
        },
        "shortString": {
            "type": ["string","null"],
            "maxLength": 50
        },
        "longString": {
            "type": ["string","null"],
            "maxLength": 500
        },
        "text": {
            "type": ["string","null"]
        },
        "textFieldLevel": {
            "type": "object",
            "properties": {
                "objectValue": {
                    "type": ["string","null"]
                },
                "security": {
					"$ref": "#/definitions/securityOptional"
				}
            },
            "required": [
                "objectValue",
                "security"
            ]
        },
        "dateTime": {
            "type": ["object","null"],
            "properties": {
                "zuluDateTime": {
                    "type": "string",
                    "format": "date-time"
                },
                "zuluOffset": {
                    "type": "integer",
					"minimum": -840,
					"maximum": 840,
                    "description": "Offset in minutes from Zulu"
                }
            },
            "required": [
                "zuluDateTime",
                "zuluOffset"
            ]
        },
        "latitude_dds": {
            "type": ["number","null"],
            "minimum": -90,
            "maximum": 90
        },
        "longitude_dds": {
            "type": ["number","null"],
            "minimum": -180,
            "maximum": 180
        },
        "positive_int": {
            "type": ["integer","null"],
            "minimum": 0
        },
        "positive_num": {
            "type": ["number","null"],
            "minimum": 0
        },
        "num": {
            "type": ["number","null"]
        },
        "uniqueStringArray": {
            "type": "array",
            "uniqueItems": true,
            "items": {
                "type": "string"
            }
        },
        "securityOptional": {
            "oneOf": [
                {
                    "type": "null"
                },
                {
                    "$ref": "#/definitions/security"
                }
            ]
        },
        "security": {
            "type": "object",
            "properties": {
                "atomicEnergyMarkings": {
                    "$ref": "#/definitions/shortString",
                    "description": "Atomic Energy Act Information Markings"
                },
                "classificationReason": {
                    "$ref": "#/definitions/longString",
                    "description": ": Concise reason for classification"
                },
                "classification": {
                    "enum": [ "U", "TS", "S", "C" ],
                    "description": "Classification of information",
                    "defaultLabel": "Classification",
                    "isSearchable": false,
                    "picklistName": "classification",
                    "picklistUri": "http://cidne.dae.smil.mil/schemas/CAPCO/classification",
                    "picklistParent": null
                    
                },
                "classifiedBy": {
                    "$ref": "#/definitions/longString",
                    "description": "Identification by name and position, or personal identifier of the OCA"
                },
                "compilationReason": {
                    "$ref": "#/definitions/longString",
                    "description": "Reason why the compilation of information causes the classification"
                },
                "declassDate": {
                    "$ref": "#/definitions/dateTime",
                    "description": "Declassification date"
                },
                "declassEvent": {
                    "$ref": "#/definitions/shortString",
                    "description": "Declassification event"
                },
                "declassException": {
                    "$ref": "#/definitions/longString",
                    "description": "Declassification exception"
                },
                "derivativelyClassifiedBy": {
                    "$ref": "#/definitions/longString",
                    "description": "The derivative classifier’s identification by name and position, or by personal identifier, in a manner that is immediately apparent on each derivatively classified document. If not otherwise evident, the agency and office of origin shall be identified"
                },
                "derivedFrom": {
                    "$ref": "#/definitions/shortString",
                    "description": "Concisely identify the source document or the classification guide"
                },
                "displayOnlyTo": {
                    "$ref": "#/definitions/longString",
                    "description": "List of foreign country(ies)/international organization(s) authorized for disclosure without providing the recipient with a physical copy for retention, regardless of medium to the foreign country(ies)/international organization(s) indicated"
                },
                "disseminationControls": {
                    "$ref": "#/definitions/longString",
                    "description": "Control markings that identify the expansion or limitation on the distribution of information. These markings are in addition to and separate from the levels of classification"
                },
                "FGIsourceOpen": {
                    "$ref": "#/definitions/shortString",
                    "description": "Open Source Foreign Government Information"
                },
                "FGIsourceProtected": {
                    "$ref": "#/definitions/shortString",
                    "description": "Protected Source Foreign Government Information"
                },
                "nonICmarkings": {
                    "$ref": "#/definitions/text",
                    "description": "Markings authorized for use by entities outside of the Intelligence Community"
                },
                "nonUSControls": {
                    "$ref": "#/definitions/shortString",
                    "description": "Non-US protective markings"
                },
                "ownerProducer": {
                    "$ref": "#/definitions/shortStringRequired",
                    "description": "Owner/Producer",
                    "default": "USA",
                    "defaultLabel": "Owner Producer",
                    "isSearchable": false,
                    "picklistName": "ownerProducer",
                    "picklistUri": "http://cidne.dae.smil.mil/schemas/CAPCO/ownerProducer",
                    "picklistParent": null
                },
                "releasableToFilterField": {
                    "$ref": "#/definitions/shortString",
                    "description": "Need to add CAPCO Descriptions"
                },
                "releasableTo": {
                    "$ref": "#/definitions/text",
                    "description": "List of countries releasable to",
                    "defaultLabel": "Releasable To",
                    "isSearchable": false,
                    "picklistName": "releasableTo",
                    "picklistUri": "http://cidne.dae.smil.mil/schemas/CAPCO/releasableTo",
                    "picklistParent": null
                },
                "SARIdentifier": {
                    "$ref": "#/definitions/shortString",
                    "description": "Special access required programs"
                },
                "SCIcontrols": {
                    "$ref": "#/definitions/longString",
                    "description": "Sensitive Compartmented Information (SCI) control systems"
                }
            },
            "required": [
                "ownerProducer",
                "classification"
            ]
        },
        "actionInfo":{
            "type": "object",
            "properties": {
                "actionDate": {
                    "$ref": "#/definitions/dateTimeRequired",
                    "description": "Date Time Action was taken"
                },
                "group": {
                    "$ref": "#/definitions/longStringRequired",
                    "description": "User Group that performed action"
                },
                "parentGroup": {
                    "$ref": "#/definitions/longString",
                    "description": "User Group's Parent Group Name"
                },
                "nationality": {
                    "$ref": "#/definitions/shortStringRequired",
                    "description": "User Nationality"
                },
                "network": {
                    "$ref": "#/definitions/shortStringRequired",
                    "description": "Systems Network where action was taken"
                },
                "objectState": {
                    "description": "",
                    "enum": [
                        "CREATED",
                        "MODIFIED",
                        "TEMPLATE",
                        "SUBMITTED",
                        "PUBLISHED",
                        "VERSIONED",
                        "DEPRECATED",
                        "VALIDATING",
                        "RESTORED",
                        "MOVED"
                    ]
                },
                "site": {
                    "$ref": "#/definitions/shortStringRequired",
                    "description": "Systems Site"
                },
                "system": {
                    "$ref": "#/definitions/shortStringRequired",
                    "description": "System that provided the action"
                },
                "user": {
                    "$ref": "#/definitions/shortStringRequired",
                    "description": "User that performed action"
                }
            },
            "required": [
                "actionDate",
                "group",
                "parentGroup",
                "nationality",
                "network",
                "objectState",
                "site",
                "system",
                "user"
            ]
        },
        "position": {
            "description": "A single position. (order should be longitude,latitude)",
            "type": "array",
            "minItems": 2,
            "items": [
                {
                    "type": "number"
                },
                {
                    "type": "number"
                }
            ],
            "additionalItems": false
        },
        "positionArray": {
            "description": "An array of positions",
            "type": "array",
            "items": {
                "$ref": "#/definitions/position"
            }
        },
        "lineString": {
            "description": "An array of two or more positions",
            "allOf": [
                {
                    "type": "array",
                    "items": {
                        "$ref": "#/definitions/position"
                    }
                },
                {
                    "minItems": 2
                }
            ]
        },
        "linearRing": {
            "description": "An array of four positions where the first equals the last",
            "allOf": [
                {
                    "type": "array",
                    "items": {
                        "$ref": "#/definitions/position"
                    }
                },
                {
                    "minItems": 4
                }
            ]
        },
        "polygon": {
            "description": "An array of linear rings",
            "type": "array",
            "items": {
                "$ref": "#/definitions/linearRing"
            }
        },
        "geometry": {
            "title": "geometry",
            "description": "One geometry as defined by GeoJSON",
            "type": "object",
            "required": [
                "type",
                "coordinates"
            ],
            "oneOf": [
                {
                    "title": "Point",
                    "properties": {
                        "type": {
                            "enum": [
                                "Point"
                            ]
                        },
                        "coordinates": {
                            "$ref": "#/definitions/position"
                        }
                    }
                },
                {
                    "title": "MultiPoint",
                    "properties": {
                        "type": {
                            "enum": [
                                "MultiPoint"
                            ]
                        },
                        "coordinates": {
                            "type": "array",
                            "items": {
                                "$ref": "#/definitions/position"
                            }
                        }
                    }
                },
                {
                    "title": "LineString",
                    "properties": {
                        "type": {
                            "enum": [
                                "LineString"
                            ]
                        },
                        "coordinates": {
                            "$ref": "#/definitions/lineString"
                        }
                    }
                },
                {
                    "title": "MultiLineString",
                    "properties": {
                        "type": {
                            "enum": [
                                "MultiLineString"
                            ]
                        },
                        "coordinates": {
                            "type": "array",
                            "items": {
                                "$ref": "#/definitions/lineString"
                            }
                        }
                    }
                },
                {
                    "title": "Polygon",
                    "properties": {
                        "type": {
                            "enum": [
                                "Polygon"
                            ]
                        },
                        "coordinates": {
                            "$ref": "#/definitions/polygon"
                        }
                    }
                },
                {
                    "title": "MultiPolygon",
                    "properties": {
                        "type": {
                            "enum": [
                                "MultiPolygon"
                            ]
                        },
                        "coordinates": {
                            "type": "array",
                            "items": {
                                "$ref": "#/definitions/polygon"
                            }
                        }
                    }
                }
            ]
        },
        "geometryCollection": {
            "title": "GeometryCollection",
            "description": "A collection of geometry objects",
            "required": [
                "geometries"
            ],
            "properties": {
                "type": {
                    "enum": [
                        "GeometryCollection"
                    ]
                },
                "geometries": {
                    "type": "array",
                    "items": {
                        "$ref": "#/definitions/geometry"
                    }
                }
            }
        },
        "feature": {
            "title": "Feature",
            "description": "A Geo JSON feature object",
            "required": [
                "geometry"
            ],
            "properties": {
                "type": {
                    "enum": [
                        "Feature"
                    ]
                },
                "geometry": {
                    "oneOf": [
                        {
                            "type": "null"
                        },
                        {
                            "$ref": "#/definitions/geometry"
                        }
                    ]
                },
				"properties": { "type": [ "object", "null" ] },
                "id": { "type":["string"] }
            }
        },
        "featureCollection": {
            "description": "A GeoJSON feature collection",
            "required": [
                "features"
            ],
            "properties": {
                "type": {
                    "enum": [
                        "FeatureCollection"
                    ]
                },
                "features": {
                    "type": "array",
                    "items": {
                        "$ref": "#/definitions/feature"
                    }
                }
            }
        },
		"namedCrs": {
            "properties": {
                "type": { "enum": [ "name" ] },
                "properties": {
                    "required": [ "name" ],
                    "additionalProperties": false,
                    "properties": {
                        "name": {
                            "type": "string"
                        }
                    }
                }
            }
        },
        "linkedObject": {
            "type": "object",
            "required": [ "href" ],
            "properties": {
                "href": {
                    "type": "string",
                    "format": "uri"
                },
                "type": {
                    "type": "string",
                    "description": "Suggested values: proj4, ogjwkt, esriwkt"
                }
            }
        },
        "linkedCrs": {
            "properties": {
                "type": { "enum": [ "link" ] },
                "properties": { "$ref": "#/definitions/linkedObject" }
            }
        },	
		"crs":{
			"title": "crs",
			"description": "a Coordinate Reference System object",
			"type": [ "object", "null" ],
			"required": [ "type", "properties" ],
			"properties": {
				"type": { "type": "string" },
				"properties": { "type": "object" }
			},
			"additionalProperties": false,
			"oneOf": [
				{ "$ref": "#/definitions/namedCrs" },
				{ "$ref": "#/definitions/linkedCrs" }
			]
		},
		"bbox":{
		"description": "A bounding box as defined by GeoJSON",
			"type": "array",
			"items": { "type": "number" }
		},
        "geojson": {
            "title": "Geo JSON object",
            "description": "Schema for a Geo JSON object",
            "type": ["object","null"],
            "required": [
                "type"
            ],
			"properties": {
				"crs": { "$ref": "#/definitions/crs" },
				"bbox": { "$ref": "#/definitions/bbox" }
			},
            "anyOf": [
                {
                    "$ref": "#/definitions/geometry"
                },
                {
                    "$ref": "#/definitions/geometryCollection"
                },
                {
                    "$ref": "#/definitions/feature"
                },
                {
                    "$ref": "#/definitions/featureCollection"
                }
            ]
        }
    },
    "required": [
        "base",
        "datamodel",
        "formId",
        "location",
        "security",
        "details"
    ],	
    "properties": {
        "datamodel": {
            "$ref": "#/definitions/longString",
            "description": "Reference to the report definition."
        },
        "formId": {
            "$ref": "#/definitions/longString",
            "description": "Reference to the layout template identifier that this data was intended to be best visualized"
        },
        "base": {
            "type": "object",
            "description": "The core metadata used within all report definitions",
            "properties": {
                "objectId": {
                    "$ref": "#/definitions/shortStringRequired",
                    "description": "Report instance unique identifier"
                },
                "reportId": {
                    "$ref": "#/definitions/shortStringRequired",
                    "description": "Original report instance objectId for a report version grouping. (i.e. the root report identifier)"
                },
                "parentVersionId": {
                    "$ref": "#/definitions/shortString",
                    "description": "Report instance's objectId of the parent report. NOTE: If there is no parent, this value should be set to the report instance's own objectId. "
                },
                "module": {
                    "$ref": "#/definitions/shortStringRequired",
                    "description": "CIDNE community"
                },
                "reportType": {
                    "$ref": "#/definitions/shortStringRequired",
                    "description": "CIDNE report type (e.g. SIGACT)"
                },
                "reportSerial": {
                    "$ref": "#/definitions/textFieldLevel",
					"defaultLabel": "DisplaySerial",
					"description": "Report instance nomenclature (DisplaySerial)",
					"fieldAlias2x": "DisplaySerial"
                },
                "reportTitle": {
                    "$ref": "#/definitions/textFieldLevel",
					"defaultLabel": "DisplayTitle",
					"description": "Report instance title text (DisplayTitle)",
					"fieldAlias2x": "DisplayTitle"
                },
                "reportSummary": {
                    "$ref": "#/definitions/textFieldLevel",
					"defaultLabel": "DisplaySummary",
					"description": "Report instance summary text block (DisplaySummary)",
					"fieldAlias2x": "DisplaySummary"
                },
                "reportDate": {
                    "$ref": "#/definitions/dateTimeRequired",
					"defaultLabel": "DatePosted",
					"description": "Primary report instance date (DatePosted)",
					"fieldAlias2x": "DatePosted"
                },
                "reportSymbol": {
                    "$ref": "#/definitions/longString",
                    "description": "Report instance symbology"
                },
                "reportImage": {
                    "$ref": "#/definitions/longString",
                    "description": "Primary image of report instance"
                },
                "reportCountry": {
                    "$ref": "#/definitions/shortString",
                    "description": "Country value of report instance's primary location"
                },
                "reportLatitude": {
                    "$ref": "#/definitions/latitude_dds",
                    "description": "Latitude value of report instance's primary location"
                },
                "reportLongitude": {
                    "$ref": "#/definitions/longitude_dds",
                    "description": "Longitude value of report instance's primary location"
                },
				"geoLocation":{
					"$ref":"#/definitions/geojson"
				},
                "currentObjectState":{
                        "$ref": "#/definitions/actionInfo"
                },
                "originatingGroup": {
                    "$ref": "#/definitions/longStringRequired",
                    "description": "Original creator's group"
                },  
                "originatingUser": {
                    "$ref": "#/definitions/longStringRequired",
                    "description": "Original creator's User Name or email address"
                },  
				"isTearline": {
                    "type": "boolean",
                    "description": "Determines whether a report is a tearline"
                },
				"tearlineId": {
					"$ref": "#/definitions/shortString",
                    "description": "The reportId of the parent, used as a tearline group binding"
				},
                "theaterFilter": {
                    "$ref": "#/definitions/shortStringRequired",
                    "description": "Report instance theater of relevance"
                },
                "warehouseUri": {
                    "$ref": "#/definitions/longStringRequired",
                    "description": "Data warehouse location for report instance",
                    "format": "uri"
                }
            },
            "required": [
                "isTearline",
                "module",
                "objectId",
                "currentObjectState",
                "originatingGroup",
                "originatingUser",
                "reportId",
                "reportSerial",
                "reportDate",
                "theaterFilter",
                "reportType",
                "reportTitle",
                "reportSummary"
            ]
        },
        "location": {
            "type": "array",
            "description": "All locations for the report instance",
            "items": {
                "type": "object",
                "properties": {
                    "objectId": {
                        "$ref": "#/definitions/shortStringRequired",
                        "description": "objectId required for Edit Purposes"
                    },
                    "address": {
                        "$ref": "#/definitions/longString",
                        "description": "Address Details"
                    },
                    "alternateRoute": {
                        "$ref": "#/definitions/longString",
                        "description": "Alternate Route for location"
                    },
                    "ao": {
                        "$ref": "#/definitions/shortString",
                        "description": "Area of Operations"
                    },
                    "basecamp": {
                        "$ref": "#/definitions/shortString",
                        "description": "Base Camp"
                    },
                    "city": {
                        "$ref": "#/definitions/shortString",
                        "description": "City for Location"
                    },
                    "confidence": {
                        "$ref": "#/definitions/shortString",
                        "description": "Reporters Confidence in Location Value"
                    },
                    "country": {
                        "$ref": "#/definitions/shortString",
                        "description": "Location Country"
                    },
                    "customGeom": {
                        "type": "object",
                        "description": "Custom Geometry Object for Location",
                        "properties": {
                            "customGeomObjectId": {
                                "$ref": "#/definitions/shortString",
                                "description": "objectId for Custom Geometry Object"
                            },
                            "geomType": {
                                "$ref": "#/definitions/shortString",
                                "description": "Geometry Type for custom geometry object (e.g. Point, Multi-polygon"
                            },
                            "geom": {
                                "$ref": "#/definitions/shortString",
                                "description": "TBD GEOM Object for Custom Location Object"
                            },
                            "name": {
                                "$ref": "#/definitions/shortString",
                                "description": "Custom Location Name"
                            }
                        }
                    },
                    "dateEndLocation": {
                        "$ref": "#/definitions/dateTime",
                        "description": "Ending Date Time for location"
                    },
                    "dateStartLocation": {
                        "$ref": "#/definitions/dateTime",
                        "description": "Starting Date Time for location"
                    },
                    "derivedLocation": {
                        "type": "boolean",
                        "description": "Was Location Lat/Long derived from user picklists?"
                    },
                    "description": {
                        "$ref": "#/definitions/text",
                        "description": "Location Description"
                    },
                    "distanceFromCityCenter": {
                        "$ref": "#/definitions/positive_int",
                        "description": "Distance in meters to nearest city center"
                    },
                    "distanceToNearestFOB": {
                        "$ref": "#/definitions/positive_num",
                        "description": "Distance in meters to nearest FOB"
                    },
                    "distanceToNearestRoute": {
                        "$ref": "#/definitions/positive_num",
                        "description": "Distance in meters to nearest Route"
                    },
                    "district": {
                        "$ref": "#/definitions/shortString",
                        "description": "District"
                    },
                    "fob": {
                        "$ref": "#/definitions/shortString",
                        "description": "FOB"
                    },
					"geoLocation":{
						"$ref":"#/definitions/geojson"
					},
					"house": {
                        "$ref": "#/definitions/shortString",
                        "description": "HOUSE"
                    },
                    "isPrimaryLocation": {
                        "type": "boolean",
                        "description": "Marks Primary Location"
                    },
                    "latitude": {
                        "$ref": "#/definitions/latitude_ddsRequired",
                        "description": "Latitude of Location in Degree Decimal Seconds"
                    },
                    "locationActive": {
                        "type": "boolean",
                        "description": "Is Location Active?"
                    },
                    "locationType": {
                        "$ref": "#/definitions/shortString",
                        "description": "Location Type"
                    },
                    "longitude": {
                        "$ref": "#/definitions/longitude_ddsRequired",
                        "description": "Longitude of Location in Degree Decimal Seconds"
                    },
                    "mscCurrent": {
                        "$ref": "#/definitions/shortString",
                        "description": "Current Major Supporting Command responsible for location"
                    },
                    "mscDateOfCurrent": {
                        "$ref": "#/definitions/dateTime",
                        "description": "Date Of Current Major Supporting Command's Control of location"
                    },
                    "msc": {
                        "$ref": "#/definitions/shortString",
                        "description": "Major Supporting Command responsible for location"
                    },
                    "nai": {
                        "$ref": "#/definitions/shortString",
                        "description": "Named Area of Interest"
                    },
                    "nearestCity": {
                        "$ref": "#/definitions/shortString",
                        "description": "Nearest City"
                    },
                    "nearestFOB": {
                        "$ref": "#/definitions/shortString",
                        "description": "Nearest FOB"
                    },
                    "nearestRoute": {
                        "$ref": "#/definitions/shortString",
                        "description": "Nearest Route"
                    },
                    "neighborhood": {
                        "$ref": "#/definitions/shortString",
                        "description": "Neighborhood for location"
                    },
                    "populationCenterType": {
                        "$ref": "#/definitions/shortString",
                        "description": "Population Center Type"
                    },
                    "populationCenter": {
                        "$ref": "#/definitions/shortString",
                        "description": "Population Center"
                    },
                    "province": {
                        "$ref": "#/definitions/shortString",
                        "description": "Province"
                    },
                    "referenceId": {
                        "$ref": "#/definitions/shortString",
                        "description": "Reference to any subelement with in current report instance (e.g. Event Object ID)"
                    },
                    "route": {
                        "$ref": "#/definitions/shortString",
                        "description": "Route"
                    },
                    "security": {
                        "$ref": "#/definitions/securityOptional"
                    },
                    "street": {
                        "$ref": "#/definitions/shortString",
                        "description": "Street"
                    },
                    "structure": {
                        "$ref": "#/definitions/shortString",
                        "description": "Structure"
                    },
                    "village": {
                        "$ref": "#/definitions/shortString",
                        "description": "Village"
                    },
                    "zone": {
                        "$ref": "#/definitions/shortString",
                        "description": "City Zone"
                    }
                },
				"required": [
					"objectId",
					"isPrimaryLocation",
					"latitude",
					"longitude"
				]
            }
        },
        "remarks": {
            "type": "array",
            "items": {
                "type": "object",
                "properties": {
                    "objectId": {
                        "$ref": "#/definitions/shortStringRequired",
                        "description": "objectId required for Edit Purposes"
                    },
                    "referenceId": {
                        "$ref": "#/definitions/shortString",
                        "description": "Reference to any subelement with in current report instance (e.g. Event Object ID)"
                    },
                    "remarkText": {
                        "$ref": "#/definitions/text",
                        "description": "Remark Text"
                    },
                    "remarkType": {
                        "$ref": "#/definitions/shortString",
                        "description": "Remark Type"
                    },
                    "remarkOrder": {
                        "$ref": "#/definitions/positive_num",
                        "description": "Remark Order"
                    },
                    "security": {
                        "$ref": "#/definitions/securityOptional"
                    }
                },
                "required": [
                    "objectId",
                    "remarkText",
                    "remarkType",
                    "security"
                ]
            }
        },
        "requirements": {
            "type": "array",
            "items": {
                "type": "object",
                "properties": {
                    "objectId": {
                        "$ref": "#/definitions/shortStringRequired",
                        "description": "objectId required for Edit Purposes"
                    },
                    "referenceId": {
                        "$ref": "#/definitions/shortString",
                        "description": "Reference to any subelement with in current report instance (e.g. Event Object ID)"
                    },
                    "requirement": {
                        "$ref": "#/definitions/longString",
                        "description": "Requirement sub based on Requirement Type"
                    },
                    "requirementType": {
                        "$ref": "#/definitions/shortString",
                        "description": "Requirement Type"
                    },
                    "comment": {
                        "$ref": "#/definitions/text",
                        "description": "Requirement Comment"
                    },
                    "security": {
                        "$ref": "#/definitions/securityOptional"
                    }
                },
                "required": [
                    "objectId",
                    "requirementType",
                    "requirement",
                    "comment"
                ]
            }
        },
        "security": {
                        "$ref": "#/definitions/security"
        },
        "objectHistory": {
            "type": "array",
            "items":
                    {
                        "$ref": "#/definitions/actionInfo"
                    }       
		},
			"details": {
				"type": "object",
				"description": "Transition ROLPersonnelAssessment Report details specific details",
				"fieldAlias2x": "details", 
						"properties": {
						
"accesslawlibrary": {
	"$ref": "#/definitions/longString"
			,"defaultLabel": "AccessLawLibrary"
			,"description": "AccessLawLibrary"
			,"fieldAlias2x": "AccessLawLibrary"
			,"isSearchable": false
			,"picklistDescription": null
			,"picklistUri": null
			,"picklistParent": null
		},
"accessministryjustice": {
	"$ref": "#/definitions/longString"
			,"defaultLabel": "AccessMinistryJustice"
			,"description": "AccessMinistryJustice"
			,"fieldAlias2x": "AccessMinistryJustice"
			,"isSearchable": false
			,"picklistDescription": null
			,"picklistUri": null
			,"picklistParent": null
		},
"accesssupremecourt": {
	"$ref": "#/definitions/longString"
			,"defaultLabel": "AccessSupremeCourt"
			,"description": "AccessSupremeCourt"
			,"fieldAlias2x": "AccessSupremeCourt"
			,"isSearchable": false
			,"picklistDescription": null
			,"picklistUri": null
			,"picklistParent": null
		},
"accesstechnicalproceduralsupport": {
	"$ref": "#/definitions/text"
			,"defaultLabel": "AccessTechnicalProceduralSupport"
			,"description": "AccessTechnicalProceduralSupport"
			,"fieldAlias2x": "AccessTechnicalProceduralSupport"
			,"isSearchable": false
			,"picklistDescription": null
			,"picklistUri": null
			,"picklistParent": null
		},
"allegationshandled": {
	"$ref": "#/definitions/text"
			,"defaultLabel": "AllegationsHandled"
			,"description": "AllegationsHandled"
			,"fieldAlias2x": "AllegationsHandled"
			,"isSearchable": false
			,"picklistDescription": null
			,"picklistUri": null
			,"picklistParent": null
		},
"allegationsofmaltreatment": {
	"$ref": "#/definitions/longString"
			,"defaultLabel": "AllegationsOfMaltreatment"
			,"description": "AllegationsOfMaltreatment"
			,"fieldAlias2x": "AllegationsOfMaltreatment"
			,"isSearchable": false
			,"picklistDescription": null
			,"picklistUri": null
			,"picklistParent": null
		},
"allegationsofmaltreatmenthowmany": {
	"$ref": "#/definitions/positive_int"
			,"defaultLabel": "AllegationsOfMaltreatmentHowMany"
			,"description": "AllegationsOfMaltreatmentHowMany"
			,"fieldAlias2x": "AllegationsOfMaltreatmentHowMany"
			,"isSearchable": false
			,"picklistDescription": null
			,"picklistUri": null
			,"picklistParent": null
		},
"amenitiesgiveninmates": {
	"$ref": "#/definitions/text"
			,"defaultLabel": "AmenitiesGivenInmates"
			,"description": "AmenitiesGivenInmates"
			,"fieldAlias2x": "AmenitiesGivenInmates"
			,"isSearchable": false
			,"picklistDescription": null
			,"picklistUri": null
			,"picklistParent": null
		},
"anticorruptioncasescharged": {
	"$ref": "#/definitions/positive_int"
			,"defaultLabel": "AntiCorruptionCasesCharged"
			,"description": "AntiCorruptionCasesCharged"
			,"fieldAlias2x": "AntiCorruptionCasesCharged"
			,"isSearchable": false
			,"picklistDescription": null
			,"picklistUri": null
			,"picklistParent": null
		},
"anticorruptioncasestried": {
	"$ref": "#/definitions/positive_int"
			,"defaultLabel": "AntiCorruptionCasesTried"
			,"description": "AntiCorruptionCasesTried"
			,"fieldAlias2x": "AntiCorruptionCasesTried"
			,"isSearchable": false
			,"picklistDescription": null
			,"picklistUri": null
			,"picklistParent": null
		},
"anticorruptionprojects": {
	"$ref": "#/definitions/text"
			,"defaultLabel": "AntiCorruptionProjects"
			,"description": "AntiCorruptionProjects"
			,"fieldAlias2x": "AntiCorruptionProjects"
			,"isSearchable": false
			,"picklistDescription": null
			,"picklistUri": null
			,"picklistParent": null
		},
"arefilesorganizedsameway": {
	"$ref": "#/definitions/longString"
			,"defaultLabel": "AreFilesOrganizedSameWay"
			,"description": "AreFilesOrganizedSameWay"
			,"fieldAlias2x": "AreFilesOrganizedSameWay"
			,"isSearchable": false
			,"picklistDescription": null
			,"picklistUri": null
			,"picklistParent": null
		},
"assessmentdate": {
	"$ref": "#/definitions/dateTime"
			,"defaultLabel": "AssessmentDate"
			,"description": "AssessmentDate"
			,"fieldAlias2x": "AssessmentDate"
			,"isSearchable": false
			,"picklistDescription": null
			,"picklistUri": null
			,"picklistParent": null
		},
"assessmentlevel": {
	"$ref": "#/definitions/longString"
			,"defaultLabel": "AssessmentLevel"
			,"description": "AssessmentLevel"
			,"fieldAlias2x": "AssessmentLevel"
			,"isSearchable": false
			,"picklistDescription": "AssessmentLevel"
			,"picklistUri": "Transition-AssessmentLevel"
			,"picklistParent": null
		},
"assessmenttype": {
	"$ref": "#/definitions/longString"
			,"defaultLabel": "AssessmentType"
			,"description": "AssessmentType"
			,"fieldAlias2x": "AssessmentType"
			,"isSearchable": false
			,"picklistDescription": null
			,"picklistUri": null
			,"picklistParent": null
		},
"attendedfoundationtraining": {
	"$ref": "#/definitions/positive_int"
			,"defaultLabel": "AttendedFoundationTraining"
			,"description": "AttendedFoundationTraining"
			,"fieldAlias2x": "AttendedFoundationTraining"
			,"isSearchable": false
			,"picklistDescription": null
			,"picklistUri": null
			,"picklistParent": null
		},
"authorizedforoffice": {
	"$ref": "#/definitions/positive_int"
			,"defaultLabel": "AuthorizedForOffice"
			,"description": "AuthorizedForOffice"
			,"fieldAlias2x": "AuthorizedForOffice"
			,"isSearchable": false
			,"picklistDescription": null
			,"picklistUri": null
			,"picklistParent": null
		},
"caseschargedthroughcourt": {
	"$ref": "#/definitions/positive_int"
			,"defaultLabel": "CasesChargedThroughCourt"
			,"description": "CasesChargedThroughCourt"
			,"fieldAlias2x": "CasesChargedThroughCourt"
			,"isSearchable": false
			,"picklistDescription": null
			,"picklistUri": null
			,"picklistParent": null
		},
"casestriedthroughcourt": {
	"$ref": "#/definitions/positive_int"
			,"defaultLabel": "CasesTriedThroughCourt"
			,"description": "CasesTriedThroughCourt"
			,"fieldAlias2x": "CasesTriedThroughCourt"
			,"isSearchable": false
			,"picklistDescription": null
			,"picklistUri": null
			,"picklistParent": null
		},
"civicsrolcurriculumschools": {
	"$ref": "#/definitions/longString"
			,"defaultLabel": "CivicsROLCurriculumSchools"
			,"description": "CivicsROLCurriculumSchools"
			,"fieldAlias2x": "CivicsROLCurriculumSchools"
			,"isSearchable": false
			,"picklistDescription": null
			,"picklistUri": null
			,"picklistParent": null
		},
"civicsrolcurriculumschoolsdescribe": {
	"$ref": "#/definitions/text"
			,"defaultLabel": "CivicsROLCurriculumSchoolsDescribe"
			,"description": "CivicsROLCurriculumSchoolsDescribe"
			,"fieldAlias2x": "CivicsROLCurriculumSchoolsDescribe"
			,"isSearchable": false
			,"picklistDescription": null
			,"picklistUri": null
			,"picklistParent": null
		},
"communicatewithhigherlegal": {
	"$ref": "#/definitions/longString"
			,"defaultLabel": "CommunicateWithHigherLegal"
			,"description": "CommunicateWithHigherLegal"
			,"fieldAlias2x": "CommunicateWithHigherLegal"
			,"isSearchable": false
			,"picklistDescription": null
			,"picklistUri": null
			,"picklistParent": null
		},
"consensusamongstofficeaboutrol": {
	"$ref": "#/definitions/longString"
			,"defaultLabel": "ConsensusAmongstOfficeAboutROL"
			,"description": "ConsensusAmongstOfficeAboutROL"
			,"fieldAlias2x": "ConsensusAmongstOfficeAboutROL"
			,"isSearchable": false
			,"picklistDescription": null
			,"picklistUri": null
			,"picklistParent": null
		},
"consensusamongstofficials": {
	"$ref": "#/definitions/longString"
			,"defaultLabel": "ConsensusAmongstOfficials"
			,"description": "ConsensusAmongstOfficials"
			,"fieldAlias2x": "ConsensusAmongstOfficials"
			,"isSearchable": false
			,"picklistDescription": null
			,"picklistUri": null
			,"picklistParent": null
		},
"corruptioninvestigationsthismonth": {
	"$ref": "#/definitions/positive_int"
			,"defaultLabel": "CorruptionInvestigationsThisMonth"
			,"description": "CorruptionInvestigationsThisMonth"
			,"fieldAlias2x": "CorruptionInvestigationsThisMonth"
			,"isSearchable": false
			,"picklistDescription": null
			,"picklistUri": null
			,"picklistParent": null
		},
"courtproceedingsrecorded": {
	"$ref": "#/definitions/longString"
			,"defaultLabel": "CourtProceedingsRecorded"
			,"description": "CourtProceedingsRecorded"
			,"fieldAlias2x": "CourtProceedingsRecorded"
			,"isSearchable": false
			,"picklistDescription": null
			,"picklistUri": null
			,"picklistParent": null
		},
"courtproceedingsrecordedyes": {
	"$ref": "#/definitions/longString"
			,"defaultLabel": "CourtProceedingsRecordedYes"
			,"description": "CourtProceedingsRecordedYes"
			,"fieldAlias2x": "CourtProceedingsRecordedYes"
			,"isSearchable": false
			,"picklistDescription": null
			,"picklistUri": null
			,"picklistParent": null
		},
"courtprosecutoranpofficesvisit": {
	"$ref": "#/definitions/longString"
			,"defaultLabel": "CourtProsecutorANPOfficesVisit"
			,"description": "CourtProsecutorANPOfficesVisit"
			,"fieldAlias2x": "CourtProsecutorANPOfficesVisit"
			,"isSearchable": false
			,"picklistDescription": null
			,"picklistUri": null
			,"picklistParent": null
		},
"courtprosecutoranpofficesvisithowoften": {
	"$ref": "#/definitions/positive_int"
			,"defaultLabel": "CourtProsecutorANPOfficesVisitHowOften"
			,"description": "CourtProsecutorANPOfficesVisitHowOften"
			,"fieldAlias2x": "CourtProsecutorANPOfficesVisitHowOften"
			,"isSearchable": false
			,"picklistDescription": null
			,"picklistUri": null
			,"picklistParent": null
		},
"coveragecondemncorruption": {
	"$ref": "#/definitions/text"
			,"defaultLabel": "CoverageCondemnCorruption"
			,"description": "CoverageCondemnCorruption"
			,"fieldAlias2x": "CoverageCondemnCorruption"
			,"isSearchable": false
			,"picklistDescription": null
			,"picklistUri": null
			,"picklistParent": null
		},
"coveragepositive": {
	"$ref": "#/definitions/longString"
			,"defaultLabel": "CoveragePositive"
			,"description": "CoveragePositive"
			,"fieldAlias2x": "CoveragePositive"
			,"isSearchable": false
			,"picklistDescription": null
			,"picklistUri": null
			,"picklistParent": null
		},
"coveragetrialscourtsystemlocalmedia": {
	"$ref": "#/definitions/longString"
			,"defaultLabel": "CoverageTrialsCourtSystemLocalMedia"
			,"description": "CoverageTrialsCourtSystemLocalMedia"
			,"fieldAlias2x": "CoverageTrialsCourtSystemLocalMedia"
			,"isSearchable": false
			,"picklistDescription": null
			,"picklistUri": null
			,"picklistParent": null
		},
"dateassessment": {
	"$ref": "#/definitions/dateTime"
			,"defaultLabel": "DateAssessment"
			,"description": "DateAssessment"
			,"fieldAlias2x": "DateAssessment"
			,"isSearchable": false
			,"picklistDescription": null
			,"picklistUri": null
			,"picklistParent": null
		},
"defenceattorneyassociation": {
	"$ref": "#/definitions/longString"
			,"defaultLabel": "DefenceAttorneyAssociation"
			,"description": "DefenceAttorneyAssociation"
			,"fieldAlias2x": "DefenceAttorneyAssociation"
			,"isSearchable": false
			,"picklistDescription": null
			,"picklistUri": null
			,"picklistParent": null
		},
"defenceattorneyassociationmeetregularly": {
	"$ref": "#/definitions/longString"
			,"defaultLabel": "DefenceAttorneyAssociationMeetRegularly"
			,"description": "DefenceAttorneyAssociationMeetRegularly"
			,"fieldAlias2x": "DefenceAttorneyAssociationMeetRegularly"
			,"isSearchable": false
			,"picklistDescription": null
			,"picklistUri": null
			,"picklistParent": null
		},
"describeothertraining": {
	"$ref": "#/definitions/text"
			,"defaultLabel": "DescribeOtherTraining"
			,"description": "DescribeOtherTraining"
			,"fieldAlias2x": "DescribeOtherTraining"
			,"isSearchable": false
			,"picklistDescription": null
			,"picklistUri": null
			,"picklistParent": null
		},
"entitiesregularmeetings": {
	"$ref": "#/definitions/longString"
			,"defaultLabel": "EntitiesRegularMeetings"
			,"description": "EntitiesRegularMeetings"
			,"fieldAlias2x": "EntitiesRegularMeetings"
			,"isSearchable": false
			,"picklistDescription": null
			,"picklistUri": null
			,"picklistParent": null
		},
"entitiesregularmeetingshowoften": {
	"$ref": "#/definitions/positive_int"
			,"defaultLabel": "EntitiesRegularMeetingsHowOften"
			,"description": "EntitiesRegularMeetingsHowOften"
			,"fieldAlias2x": "EntitiesRegularMeetingsHowOften"
			,"isSearchable": false
			,"picklistDescription": null
			,"picklistUri": null
			,"picklistParent": null
		},
"evidencecollectedloggedsecure": {
	"$ref": "#/definitions/longString"
			,"defaultLabel": "EvidenceCollectedLoggedSecure"
			,"description": "EvidenceCollectedLoggedSecure"
			,"fieldAlias2x": "EvidenceCollectedLoggedSecure"
			,"isSearchable": false
			,"picklistDescription": null
			,"picklistUri": null
			,"picklistParent": null
		},
"fileuniqueidentifyingnumbername": {
	"$ref": "#/definitions/longString"
			,"defaultLabel": "FileUniqueIdentifyingNumberName"
			,"description": "FileUniqueIdentifyingNumberName"
			,"fieldAlias2x": "FileUniqueIdentifyingNumberName"
			,"isSearchable": false
			,"picklistDescription": null
			,"picklistUri": null
			,"picklistParent": null
		},
"followafghancriminallaw": {
	"$ref": "#/definitions/longString"
			,"defaultLabel": "FollowAfghanCriminalLaw"
			,"description": "FollowAfghanCriminalLaw"
			,"fieldAlias2x": "FollowAfghanCriminalLaw"
			,"isSearchable": false
			,"picklistDescription": null
			,"picklistUri": null
			,"picklistParent": null
		},
"followsharialaw": {
	"$ref": "#/definitions/longString"
			,"defaultLabel": "FollowShariaLaw"
			,"description": "FollowShariaLaw"
			,"fieldAlias2x": "FollowShariaLaw"
			,"isSearchable": false
			,"picklistDescription": null
			,"picklistUri": null
			,"picklistParent": null
		},
"hascpdprovidedtraining": {
	"$ref": "#/definitions/longString"
			,"defaultLabel": "HasCPDProvidedTraining"
			,"description": "HasCPDProvidedTraining"
			,"fieldAlias2x": "HasCPDProvidedTraining"
			,"isSearchable": false
			,"picklistDescription": null
			,"picklistUri": null
			,"picklistParent": null
		},
"hascpdprovidedtrainingexplain": {
	"$ref": "#/definitions/text"
			,"defaultLabel": "HasCPDProvidedTrainingExplain"
			,"description": "HasCPDProvidedTrainingExplain"
			,"fieldAlias2x": "HasCPDProvidedTrainingExplain"
			,"isSearchable": false
			,"picklistDescription": null
			,"picklistUri": null
			,"picklistParent": null
		},
"hascsspprovidedtraining": {
	"$ref": "#/definitions/longString"
			,"defaultLabel": "HasCSSPProvidedTraining"
			,"description": "HasCSSPProvidedTraining"
			,"fieldAlias2x": "HasCSSPProvidedTraining"
			,"isSearchable": false
			,"picklistDescription": null
			,"picklistUri": null
			,"picklistParent": null
		},
"hascsspprovidedtrainingexplain": {
	"$ref": "#/definitions/text"
			,"defaultLabel": "HasCSSPProvidedTrainingExplain"
			,"description": "HasCSSPProvidedTrainingExplain"
			,"fieldAlias2x": "HasCSSPProvidedTrainingExplain"
			,"isSearchable": false
			,"picklistDescription": null
			,"picklistUri": null
			,"picklistParent": null
		},
"howmanyareguards": {
	"$ref": "#/definitions/positive_int"
			,"defaultLabel": "HowManyAreGuards"
			,"description": "HowManyAreGuards"
			,"fieldAlias2x": "HowManyAreGuards"
			,"isSearchable": false
			,"picklistDescription": null
			,"picklistUri": null
			,"picklistParent": null
		},
"howmanyarenoncommissionedofficers": {
	"$ref": "#/definitions/positive_int"
			,"defaultLabel": "HowManyAreNonCommissionedOfficers"
			,"description": "HowManyAreNonCommissionedOfficers"
			,"fieldAlias2x": "HowManyAreNonCommissionedOfficers"
			,"isSearchable": false
			,"picklistDescription": null
			,"picklistUri": null
			,"picklistParent": null
		},
"howmanyareofficers": {
	"$ref": "#/definitions/positive_int"
			,"defaultLabel": "HowManyAreOfficers"
			,"description": "HowManyAreOfficers"
			,"fieldAlias2x": "HowManyAreOfficers"
			,"isSearchable": false
			,"picklistDescription": null
			,"picklistUri": null
			,"picklistParent": null
		},
"howmanycasescivil": {
	"$ref": "#/definitions/positive_int"
			,"defaultLabel": "HowManyCasesCivil"
			,"description": "HowManyCasesCivil"
			,"fieldAlias2x": "HowManyCasesCivil"
			,"isSearchable": false
			,"picklistDescription": null
			,"picklistUri": null
			,"picklistParent": null
		},
"howmanycasesciviltried": {
	"$ref": "#/definitions/positive_int"
			,"defaultLabel": "HowManyCasesCivilTried"
			,"description": "HowManyCasesCivilTried"
			,"fieldAlias2x": "HowManyCasesCivilTried"
			,"isSearchable": false
			,"picklistDescription": null
			,"picklistUri": null
			,"picklistParent": null
		},
"howmanycasescriminal": {
	"$ref": "#/definitions/positive_int"
			,"defaultLabel": "HowManyCasesCriminal"
			,"description": "HowManyCasesCriminal"
			,"fieldAlias2x": "HowManyCasesCriminal"
			,"isSearchable": false
			,"picklistDescription": null
			,"picklistUri": null
			,"picklistParent": null
		},
"howmanycasescriminaltried": {
	"$ref": "#/definitions/positive_int"
			,"defaultLabel": "HowManyCasesCriminalTried"
			,"description": "HowManyCasesCriminalTried"
			,"fieldAlias2x": "HowManyCasesCriminalTried"
			,"isSearchable": false
			,"picklistDescription": null
			,"picklistUri": null
			,"picklistParent": null
		},
"howmanyfemaleprisoners": {
	"$ref": "#/definitions/positive_int"
			,"defaultLabel": "HowManyFemalePrisoners"
			,"description": "HowManyFemalePrisoners"
			,"fieldAlias2x": "HowManyFemalePrisoners"
			,"isSearchable": false
			,"picklistDescription": null
			,"picklistUri": null
			,"picklistParent": null
		},
"howmanyhavehighschooldegrees": {
	"$ref": "#/definitions/positive_int"
			,"defaultLabel": "HowManyHaveHighSchoolDegrees"
			,"description": "HowManyHaveHighSchoolDegrees"
			,"fieldAlias2x": "HowManyHaveHighSchoolDegrees"
			,"isSearchable": false
			,"picklistDescription": null
			,"picklistUri": null
			,"picklistParent": null
		},
"howmanyhaveuniversityfacultydegrees": {
	"$ref": "#/definitions/positive_int"
			,"defaultLabel": "HowManyHaveUniversityFacultyDegrees"
			,"description": "HowManyHaveUniversityFacultyDegrees"
			,"fieldAlias2x": "HowManyHaveUniversityFacultyDegrees"
			,"isSearchable": false
			,"picklistDescription": null
			,"picklistUri": null
			,"picklistParent": null
		},
"howmanyinvestigators": {
	"$ref": "#/definitions/positive_int"
			,"defaultLabel": "HowManyInvestigators"
			,"description": "HowManyInvestigators"
			,"fieldAlias2x": "HowManyInvestigators"
			,"isSearchable": false
			,"picklistDescription": null
			,"picklistUri": null
			,"picklistParent": null
		},
"howmanyinvestigatorsneeded": {
	"$ref": "#/definitions/positive_int"
			,"defaultLabel": "HowManyInvestigatorsNeeded"
			,"description": "HowManyInvestigatorsNeeded"
			,"fieldAlias2x": "HowManyInvestigatorsNeeded"
			,"isSearchable": false
			,"picklistDescription": null
			,"picklistUri": null
			,"picklistParent": null
		},
"howmanymaleprisoners": {
	"$ref": "#/definitions/positive_int"
			,"defaultLabel": "HowManyMalePrisoners"
			,"description": "HowManyMalePrisoners"
			,"fieldAlias2x": "HowManyMalePrisoners"
			,"isSearchable": false
			,"picklistDescription": null
			,"picklistUri": null
			,"picklistParent": null
		},
"howmanymoreneeded": {
	"$ref": "#/definitions/positive_int"
			,"defaultLabel": "HowManyMoreNeeded"
			,"description": "HowManyMoreNeeded"
			,"fieldAlias2x": "HowManyMoreNeeded"
			,"isSearchable": false
			,"picklistDescription": null
			,"picklistUri": null
			,"picklistParent": null
		},
"howmanyotheremployees": {
	"$ref": "#/definitions/text"
			,"defaultLabel": "HowManyOtherEmployees"
			,"description": "HowManyOtherEmployees"
			,"fieldAlias2x": "HowManyOtherEmployees"
			,"isSearchable": false
			,"picklistDescription": null
			,"picklistUri": null
			,"picklistParent": null
		},
"howmanypersonnel": {
	"$ref": "#/definitions/positive_int"
			,"defaultLabel": "HowManyPersonnel"
			,"description": "HowManyPersonnel"
			,"fieldAlias2x": "HowManyPersonnel"
			,"isSearchable": false
			,"picklistDescription": null
			,"picklistUri": null
			,"picklistParent": null
		},
"howmanypersonnelareauthorized": {
	"$ref": "#/definitions/positive_int"
			,"defaultLabel": "HowManyPersonnelAreAuthorized"
			,"description": "HowManyPersonnelAreAuthorized"
			,"fieldAlias2x": "HowManyPersonnelAreAuthorized"
			,"isSearchable": false
			,"picklistDescription": null
			,"picklistUri": null
			,"picklistParent": null
		},
"howmanypersonnelareauthorizedexplain": {
	"$ref": "#/definitions/text"
			,"defaultLabel": "HowManyPersonnelAreAuthorizedExplain"
			,"description": "HowManyPersonnelAreAuthorizedExplain"
			,"fieldAlias2x": "HowManyPersonnelAreAuthorizedExplain"
			,"isSearchable": false
			,"picklistDescription": null
			,"picklistUri": null
			,"picklistParent": null
		},
"howmanypersonneldetentionfacility": {
	"$ref": "#/definitions/longString"
			,"defaultLabel": "HowManyPersonnelDetentionFacility"
			,"description": "HowManyPersonnelDetentionFacility"
			,"fieldAlias2x": "HowManyPersonnelDetentionFacility"
			,"isSearchable": false
			,"picklistDescription": null
			,"picklistUri": null
			,"picklistParent": null
		},
"howmanyprisonerswithoutcharges": {
	"$ref": "#/definitions/positive_int"
			,"defaultLabel": "HowManyPrisonersWithoutCharges"
			,"description": "HowManyPrisonersWithoutCharges"
			,"fieldAlias2x": "HowManyPrisonersWithoutCharges"
			,"isSearchable": false
			,"picklistDescription": null
			,"picklistUri": null
			,"picklistParent": null
		},
"howmanystaff": {
	"$ref": "#/definitions/positive_int"
			,"defaultLabel": "HowManyStaff"
			,"description": "HowManyStaff"
			,"fieldAlias2x": "HowManyStaff"
			,"isSearchable": false
			,"picklistDescription": null
			,"picklistUri": null
			,"picklistParent": null
		},
"howreliableinvestigators": {
	"$ref": "#/definitions/longString"
			,"defaultLabel": "HowReliableInvestigators"
			,"description": "HowReliableInvestigators"
			,"fieldAlias2x": "HowReliableInvestigators"
			,"isSearchable": false
			,"picklistDescription": null
			,"picklistUri": null
			,"picklistParent": null
		},
"individualfoldercarton": {
	"$ref": "#/definitions/longString"
			,"defaultLabel": "IndividualFolderCarton"
			,"description": "IndividualFolderCarton"
			,"fieldAlias2x": "IndividualFolderCarton"
			,"isSearchable": false
			,"picklistDescription": null
			,"picklistUri": null
			,"picklistParent": null
		},
"informationoperationsprograms": {
	"$ref": "#/definitions/longString"
			,"defaultLabel": "InformationOperationsPrograms"
			,"description": "InformationOperationsPrograms"
			,"fieldAlias2x": "InformationOperationsPrograms"
			,"isSearchable": false
			,"picklistDescription": null
			,"picklistUri": null
			,"picklistParent": null
		},
"inmatesprocessedaccounted": {
	"$ref": "#/definitions/text"
			,"defaultLabel": "InmatesProcessedAccounted"
			,"description": "InmatesProcessedAccounted"
			,"fieldAlias2x": "InmatesProcessedAccounted"
			,"isSearchable": false
			,"picklistDescription": null
			,"picklistUri": null
			,"picklistParent": null
		},
"inmatestransferred": {
	"$ref": "#/definitions/text"
			,"defaultLabel": "InmatesTransferred"
			,"description": "InmatesTransferred"
			,"fieldAlias2x": "InmatesTransferred"
			,"isSearchable": false
			,"picklistDescription": null
			,"picklistUri": null
			,"picklistParent": null
		},
"internationalprogramsinitiativescurrently": {
	"$ref": "#/definitions/text"
			,"defaultLabel": "InternationalProgramsInitiativesCurrently"
			,"description": "InternationalProgramsInitiativesCurrently"
			,"fieldAlias2x": "InternationalProgramsInitiativesCurrently"
			,"isSearchable": false
			,"picklistDescription": null
			,"picklistUri": null
			,"picklistParent": null
		},
"isafprtmediamessages": {
	"$ref": "#/definitions/longString"
			,"defaultLabel": "ISAFPRTMediaMessages"
			,"description": "ISAFPRTMediaMessages"
			,"fieldAlias2x": "ISAFPRTMediaMessages"
			,"isSearchable": false
			,"picklistDescription": null
			,"picklistUri": null
			,"picklistParent": null
		},
"isafprtmediamessageshowmany": {
	"$ref": "#/definitions/positive_int"
			,"defaultLabel": "ISAFPRTMediaMessagesHowMany"
			,"description": "ISAFPRTMediaMessagesHowMany"
			,"fieldAlias2x": "ISAFPRTMediaMessagesHowMany"
			,"isSearchable": false
			,"picklistDescription": null
			,"picklistUri": null
			,"picklistParent": null
		},
"judicialassociation": {
	"$ref": "#/definitions/longString"
			,"defaultLabel": "JudicialAssociation"
			,"description": "JudicialAssociation"
			,"fieldAlias2x": "JudicialAssociation"
			,"isSearchable": false
			,"picklistDescription": null
			,"picklistUri": null
			,"picklistParent": null
		},
"judicialassociationmeetregularly": {
	"$ref": "#/definitions/longString"
			,"defaultLabel": "JudicialAssociationMeetRegularly"
			,"description": "JudicialAssociationMeetRegularly"
			,"fieldAlias2x": "JudicialAssociationMeetRegularly"
			,"isSearchable": false
			,"picklistDescription": null
			,"picklistUri": null
			,"picklistParent": null
		},
"judicialreferencesets": {
	"$ref": "#/definitions/longString"
			,"defaultLabel": "JudicialReferenceSets"
			,"description": "JudicialReferenceSets"
			,"fieldAlias2x": "JudicialReferenceSets"
			,"isSearchable": false
			,"picklistDescription": null
			,"picklistUri": null
			,"picklistParent": null
		},
"kindprosecutoroffice": {
	"$ref": "#/definitions/longString"
			,"defaultLabel": "KindProsecutorOffice"
			,"description": "KindProsecutorOffice"
			,"fieldAlias2x": "KindProsecutorOffice"
			,"isSearchable": false
			,"picklistDescription": null
			,"picklistUri": null
			,"picklistParent": null
		},
"mediacovercorruption": {
	"$ref": "#/definitions/longString"
			,"defaultLabel": "MediaCoverCorruption"
			,"description": "MediaCoverCorruption"
			,"fieldAlias2x": "MediaCoverCorruption"
			,"isSearchable": false
			,"picklistDescription": null
			,"picklistUri": null
			,"picklistParent": null
		},
"mentorcentralprisondepartment": {
	"$ref": "#/definitions/longString"
			,"defaultLabel": "MentorCentralPrisonDepartment"
			,"description": "MentorCentralPrisonDepartment"
			,"fieldAlias2x": "MentorCentralPrisonDepartment"
			,"isSearchable": false
			,"picklistDescription": null
			,"picklistUri": null
			,"picklistParent": null
		},
"mentorministryofjustice": {
	"$ref": "#/definitions/longString"
			,"defaultLabel": "MentorMinistryOfJustice"
			,"description": "MentorMinistryOfJustice"
			,"fieldAlias2x": "MentorMinistryOfJustice"
			,"isSearchable": false
			,"picklistDescription": null
			,"picklistUri": null
			,"picklistParent": null
		},
"needformoreemployees": {
	"$ref": "#/definitions/longString"
			,"defaultLabel": "NeedForMoreEmployees"
			,"description": "NeedForMoreEmployees"
			,"fieldAlias2x": "NeedForMoreEmployees"
			,"isSearchable": false
			,"picklistDescription": null
			,"picklistUri": null
			,"picklistParent": null
		},
"needformoreemployeesexplain": {
	"$ref": "#/definitions/text"
			,"defaultLabel": "NeedForMoreEmployeesExplain"
			,"description": "NeedForMoreEmployeesExplain"
			,"fieldAlias2x": "NeedForMoreEmployeesExplain"
			,"isSearchable": false
			,"picklistDescription": null
			,"picklistUri": null
			,"picklistParent": null
		},
"nohighschooluniversitydegree": {
	"$ref": "#/definitions/positive_int"
			,"defaultLabel": "NoHighSchoolUniversityDegree"
			,"description": "NoHighSchoolUniversityDegree"
			,"fieldAlias2x": "NoHighSchoolUniversityDegree"
			,"isSearchable": false
			,"picklistDescription": null
			,"picklistUri": null
			,"picklistParent": null
		},
"nouniversitydegree": {
	"$ref": "#/definitions/positive_int"
			,"defaultLabel": "NoUniversityDegree"
			,"description": "NoUniversityDegree"
			,"fieldAlias2x": "NoUniversityDegree"
			,"isSearchable": false
			,"picklistDescription": null
			,"picklistUri": null
			,"picklistParent": null
		},
"numbersupdowncivil": {
	"$ref": "#/definitions/longString"
			,"defaultLabel": "NumbersUpDownCivil"
			,"description": "NumbersUpDownCivil"
			,"fieldAlias2x": "NumbersUpDownCivil"
			,"isSearchable": false
			,"picklistDescription": null
			,"picklistUri": null
			,"picklistParent": null
		},
"numbersupdowncriminal": {
	"$ref": "#/definitions/longString"
			,"defaultLabel": "NumbersUpDownCriminal"
			,"description": "NumbersUpDownCriminal"
			,"fieldAlias2x": "NumbersUpDownCriminal"
			,"isSearchable": false
			,"picklistDescription": null
			,"picklistUri": null
			,"picklistParent": null
		},
"officialgazettebooks": {
	"$ref": "#/definitions/longString"
			,"defaultLabel": "OfficialGazetteBooks"
			,"description": "OfficialGazetteBooks"
			,"fieldAlias2x": "OfficialGazetteBooks"
			,"isSearchable": false
			,"picklistDescription": null
			,"picklistUri": null
			,"picklistParent": null
		},
"officialgazettecd": {
	"$ref": "#/definitions/longString"
			,"defaultLabel": "OfficialGazetteCD"
			,"description": "OfficialGazetteCD"
			,"fieldAlias2x": "OfficialGazetteCD"
			,"isSearchable": false
			,"picklistDescription": null
			,"picklistUri": null
			,"picklistParent": null
		},
"officialsindependent": {
	"$ref": "#/definitions/longString"
			,"defaultLabel": "OfficialsIndependent"
			,"description": "OfficialsIndependent"
			,"fieldAlias2x": "OfficialsIndependent"
			,"isSearchable": false
			,"picklistDescription": null
			,"picklistUri": null
			,"picklistParent": null
		},
"officialsmorale": {
	"$ref": "#/definitions/longString"
			,"defaultLabel": "OfficialsMorale"
			,"description": "OfficialsMorale"
			,"fieldAlias2x": "OfficialsMorale"
			,"isSearchable": false
			,"picklistDescription": null
			,"picklistUri": null
			,"picklistParent": null
		},
"operateopenlywithoutfear": {
	"$ref": "#/definitions/longString"
			,"defaultLabel": "OperateOpenlyWithoutFear"
			,"description": "OperateOpenlyWithoutFear"
			,"fieldAlias2x": "OperateOpenlyWithoutFear"
			,"isSearchable": false
			,"picklistDescription": null
			,"picklistUri": null
			,"picklistParent": null
		},
"optimisticaboutrol": {
	"$ref": "#/definitions/longString"
			,"defaultLabel": "OptimisticAboutROL"
			,"description": "OptimisticAboutROL"
			,"fieldAlias2x": "OptimisticAboutROL"
			,"isSearchable": false
			,"picklistDescription": null
			,"picklistUri": null
			,"picklistParent": null
		},
"othereducation": {
	"$ref": "#/definitions/text"
			,"defaultLabel": "OtherEducation"
			,"description": "OtherEducation"
			,"fieldAlias2x": "OtherEducation"
			,"isSearchable": false
			,"picklistDescription": null
			,"picklistUri": null
			,"picklistParent": null
		},
"otherfiling": {
	"$ref": "#/definitions/text"
			,"defaultLabel": "OtherFiling"
			,"description": "OtherFiling"
			,"fieldAlias2x": "OtherFiling"
			,"isSearchable": false
			,"picklistDescription": null
			,"picklistUri": null
			,"picklistParent": null
		},
"pdbarassociation": {
	"$ref": "#/definitions/longString"
			,"defaultLabel": "PDBarAssociation"
			,"description": "PDBarAssociation"
			,"fieldAlias2x": "PDBarAssociation"
			,"isSearchable": false
			,"picklistDescription": null
			,"picklistUri": null
			,"picklistParent": null
		},
"pdbarassociationmeetregularly": {
	"$ref": "#/definitions/longString"
			,"defaultLabel": "PDBarAssociationMeetRegularly"
			,"description": "PDBarAssociationMeetRegularly"
			,"fieldAlias2x": "PDBarAssociationMeetRegularly"
			,"isSearchable": false
			,"picklistDescription": null
			,"picklistUri": null
			,"picklistParent": null
		},
"percentageallegationssubstantiated": {
	"$ref": "#/definitions/text"
			,"defaultLabel": "PercentageAllegationsSubstantiated"
			,"description": "PercentageAllegationsSubstantiated"
			,"fieldAlias2x": "PercentageAllegationsSubstantiated"
			,"isSearchable": false
			,"picklistDescription": null
			,"picklistUri": null
			,"picklistParent": null
		},
"personalsecuritysituation": {
	"$ref": "#/definitions/longString"
			,"defaultLabel": "PersonalSecuritySituation"
			,"description": "PersonalSecuritySituation"
			,"fieldAlias2x": "PersonalSecuritySituation"
			,"isSearchable": false
			,"picklistDescription": null
			,"picklistUri": null
			,"picklistParent": null
		},
"positionsoutsidejob": {
	"$ref": "#/definitions/longString"
			,"defaultLabel": "PositionsOutsideJob"
			,"description": "PositionsOutsideJob"
			,"fieldAlias2x": "PositionsOutsideJob"
			,"isSearchable": false
			,"picklistDescription": null
			,"picklistUri": null
			,"picklistParent": null
		},
"prisonerspercell": {
	"$ref": "#/definitions/positive_int"
			,"defaultLabel": "PrisonersPerCell"
			,"description": "PrisonersPerCell"
			,"fieldAlias2x": "PrisonersPerCell"
			,"isSearchable": false
			,"picklistDescription": null
			,"picklistUri": null
			,"picklistParent": null
		},
"prosecutorassociation": {
	"$ref": "#/definitions/longString"
			,"defaultLabel": "ProsecutorAssociation"
			,"description": "ProsecutorAssociation"
			,"fieldAlias2x": "ProsecutorAssociation"
			,"isSearchable": false
			,"picklistDescription": null
			,"picklistUri": null
			,"picklistParent": null
		},
"prosecutorassociationmeetregularly": {
	"$ref": "#/definitions/longString"
			,"defaultLabel": "ProsecutorAssociationMeetRegularly"
			,"description": "ProsecutorAssociationMeetRegularly"
			,"fieldAlias2x": "ProsecutorAssociationMeetRegularly"
			,"isSearchable": false
			,"picklistDescription": null
			,"picklistUri": null
			,"picklistParent": null
		},
"publicawarejusticesystem": {
	"$ref": "#/definitions/text"
			,"defaultLabel": "PublicAwareJusticeSystem"
			,"description": "PublicAwareJusticeSystem"
			,"fieldAlias2x": "PublicAwareJusticeSystem"
			,"isSearchable": false
			,"picklistDescription": null
			,"picklistUri": null
			,"picklistParent": null
		},
"recordsfiledalphabetically": {
	"$ref": "#/definitions/longString"
			,"defaultLabel": "RecordsFiledAlphabetically"
			,"description": "RecordsFiledAlphabetically"
			,"fieldAlias2x": "RecordsFiledAlphabetically"
			,"isSearchable": false
			,"picklistDescription": null
			,"picklistUri": null
			,"picklistParent": null
		},
"recordsfiledbycasenumber": {
	"$ref": "#/definitions/longString"
			,"defaultLabel": "RecordsFiledByCaseNumber"
			,"description": "RecordsFiledByCaseNumber"
			,"fieldAlias2x": "RecordsFiledByCaseNumber"
			,"isSearchable": false
			,"picklistDescription": null
			,"picklistUri": null
			,"picklistParent": null
		},
"recordsfiledbydate": {
	"$ref": "#/definitions/longString"
			,"defaultLabel": "RecordsFiledByDate"
			,"description": "RecordsFiledByDate"
			,"fieldAlias2x": "RecordsFiledByDate"
			,"isSearchable": false
			,"picklistDescription": null
			,"picklistUri": null
			,"picklistParent": null
		},
"recordsstoredcomputer": {
	"$ref": "#/definitions/longString"
			,"defaultLabel": "RecordsStoredComputer"
			,"description": "RecordsStoredComputer"
			,"fieldAlias2x": "RecordsStoredComputer"
			,"isSearchable": false
			,"picklistDescription": null
			,"picklistUri": null
			,"picklistParent": null
		},
"recordsstoredfilingcabinet": {
	"$ref": "#/definitions/longString"
			,"defaultLabel": "RecordsStoredFilingCabinet"
			,"description": "RecordsStoredFilingCabinet"
			,"fieldAlias2x": "RecordsStoredFilingCabinet"
			,"isSearchable": false
			,"picklistDescription": null
			,"picklistUri": null
			,"picklistParent": null
		},
"recordsstoredpaperform": {
	"$ref": "#/definitions/longString"
			,"defaultLabel": "RecordsStoredPaperForm"
			,"description": "RecordsStoredPaperForm"
			,"fieldAlias2x": "RecordsStoredPaperForm"
			,"isSearchable": false
			,"picklistDescription": null
			,"picklistUri": null
			,"picklistParent": null
		},
"reportnumber": {
	"$ref": "#/definitions/text"
			,"defaultLabel": "ReportNumber"
			,"description": "ReportNumber"
			,"fieldAlias2x": "ReportNumber"
			,"isSearchable": false
			,"picklistDescription": null
			,"picklistUri": null
			,"picklistParent": null
		},
"reportssenthigherlegal": {
	"$ref": "#/definitions/longString"
			,"defaultLabel": "ReportsSentHigherLegal"
			,"description": "ReportsSentHigherLegal"
			,"fieldAlias2x": "ReportsSentHigherLegal"
			,"isSearchable": false
			,"picklistDescription": null
			,"picklistUri": null
			,"picklistParent": null
		},
"separatecellspretrialposttrial": {
	"$ref": "#/definitions/longString"
			,"defaultLabel": "SeparateCellsPreTrialPostTrial"
			,"description": "SeparateCellsPreTrialPostTrial"
			,"fieldAlias2x": "SeparateCellsPreTrialPostTrial"
			,"isSearchable": false
			,"picklistDescription": null
			,"picklistUri": null
			,"picklistParent": null
		},
"shariafacultylaw": {
	"$ref": "#/definitions/positive_int"
			,"defaultLabel": "ShariaFacultyLaw"
			,"description": "ShariaFacultyLaw"
			,"fieldAlias2x": "ShariaFacultyLaw"
			,"isSearchable": false
			,"picklistDescription": null
			,"picklistUri": null
			,"picklistParent": null
		},
"sourcecomments": {
	"$ref": "#/definitions/text"
			,"defaultLabel": "SourceComments"
			,"description": "SourceComments"
			,"fieldAlias2x": "SourceComments"
			,"isSearchable": false
			,"picklistDescription": null
			,"picklistUri": null
			,"picklistParent": null
		},
"stagetraining": {
	"$ref": "#/definitions/positive_int"
			,"defaultLabel": "STAGETraining"
			,"description": "STAGETraining"
			,"fieldAlias2x": "STAGETraining"
			,"isSearchable": false
			,"picklistDescription": null
			,"picklistUri": null
			,"picklistParent": null
		},
"timebetweenarrestarraignmentday": {
	"$ref": "#/definitions/positive_int"
			,"defaultLabel": "TimeBetweenArrestArraignmentDay"
			,"description": "TimeBetweenArrestArraignmentDay"
			,"fieldAlias2x": "TimeBetweenArrestArraignmentDay"
			,"isSearchable": false
			,"picklistDescription": null
			,"picklistUri": null
			,"picklistParent": null
		},
"timebetweenarrestarraignmentmonth": {
	"$ref": "#/definitions/positive_int"
			,"defaultLabel": "TimeBetweenArrestArraignmentMonth"
			,"description": "TimeBetweenArrestArraignmentMonth"
			,"fieldAlias2x": "TimeBetweenArrestArraignmentMonth"
			,"isSearchable": false
			,"picklistDescription": null
			,"picklistUri": null
			,"picklistParent": null
		},
"trainingafterjudge": {
	"$ref": "#/definitions/positive_int"
			,"defaultLabel": "TrainingAfterJudge"
			,"description": "TrainingAfterJudge"
			,"fieldAlias2x": "TrainingAfterJudge"
			,"isSearchable": false
			,"picklistDescription": null
			,"picklistUri": null
			,"picklistParent": null
		},
"traininginlegalskills": {
	"$ref": "#/definitions/positive_int"
			,"defaultLabel": "TrainingInLegalSkills"
			,"description": "TrainingInLegalSkills"
			,"fieldAlias2x": "TrainingInLegalSkills"
			,"isSearchable": false
			,"picklistDescription": null
			,"picklistUri": null
			,"picklistParent": null
		},
"trainingnotmentioned": {
	"$ref": "#/definitions/longString"
			,"defaultLabel": "TrainingNotMentioned"
			,"description": "TrainingNotMentioned"
			,"fieldAlias2x": "TrainingNotMentioned"
			,"isSearchable": false
			,"picklistDescription": null
			,"picklistUri": null
			,"picklistParent": null
		},
"trainingnotmentioneddescribe": {
	"$ref": "#/definitions/text"
			,"defaultLabel": "TrainingNotMentionedDescribe"
			,"description": "TrainingNotMentionedDescribe"
			,"fieldAlias2x": "TrainingNotMentionedDescribe"
			,"isSearchable": false
			,"picklistDescription": null
			,"picklistUri": null
			,"picklistParent": null
		},
"trainingprogramspublicjusticesystem": {
	"$ref": "#/definitions/longString"
			,"defaultLabel": "TrainingProgramsPublicJusticeSystem"
			,"description": "TrainingProgramsPublicJusticeSystem"
			,"fieldAlias2x": "TrainingProgramsPublicJusticeSystem"
			,"isSearchable": false
			,"picklistDescription": null
			,"picklistUri": null
			,"picklistParent": null
		},
"trainingprogramspublicjusticesystemdescribe": {
	"$ref": "#/definitions/text"
			,"defaultLabel": "TrainingProgramsPublicJusticeSystemDescribe"
			,"description": "TrainingProgramsPublicJusticeSystemDescribe"
			,"fieldAlias2x": "TrainingProgramsPublicJusticeSystemDescribe"
			,"isSearchable": false
			,"picklistDescription": null
			,"picklistUri": null
			,"picklistParent": null
		},
"trainingsincetakingjob": {
	"$ref": "#/definitions/positive_int"
			,"defaultLabel": "TrainingSinceTakingJob"
			,"description": "TrainingSinceTakingJob"
			,"fieldAlias2x": "TrainingSinceTakingJob"
			,"isSearchable": false
			,"picklistDescription": null
			,"picklistUri": null
			,"picklistParent": null
		},
"tribalinsurgentties": {
	"$ref": "#/definitions/longString"
			,"defaultLabel": "TribalInsurgentTies"
			,"description": "TribalInsurgentTies"
			,"fieldAlias2x": "TribalInsurgentTies"
			,"isSearchable": false
			,"picklistDescription": null
			,"picklistUri": null
			,"picklistParent": null
		},
"universityfacultydegrees": {
	"$ref": "#/definitions/positive_int"
			,"defaultLabel": "UniversityFacultyDegrees"
			,"description": "UniversityFacultyDegrees"
			,"fieldAlias2x": "UniversityFacultyDegrees"
			,"isSearchable": false
			,"picklistDescription": null
			,"picklistUri": null
			,"picklistParent": null
		},
"visitlocalafghannationalpoliceoffice": {
	"$ref": "#/definitions/longString"
			,"defaultLabel": "VisitLocalAfghanNationalPoliceOffice"
			,"description": "VisitLocalAfghanNationalPoliceOffice"
			,"fieldAlias2x": "VisitLocalAfghanNationalPoliceOffice"
			,"isSearchable": false
			,"picklistDescription": null
			,"picklistUri": null
			,"picklistParent": null
		},
"visitlocalafghannationalpoliceofficewhy": {
	"$ref": "#/definitions/text"
			,"defaultLabel": "VisitLocalAfghanNationalPoliceOfficeWhy"
			,"description": "VisitLocalAfghanNationalPoliceOfficeWhy"
			,"fieldAlias2x": "VisitLocalAfghanNationalPoliceOfficeWhy"
			,"isSearchable": false
			,"picklistDescription": null
			,"picklistUri": null
			,"picklistParent": null
		},
"whatanticorruptionprojects": {
	"$ref": "#/definitions/text"
			,"defaultLabel": "WhatAntiCorruptionProjects"
			,"description": "WhatAntiCorruptionProjects"
			,"fieldAlias2x": "WhatAntiCorruptionProjects"
			,"isSearchable": false
			,"picklistDescription": null
			,"picklistUri": null
			,"picklistParent": null
		},
"whatcommunicationsavailableanp": {
	"$ref": "#/definitions/text"
			,"defaultLabel": "WhatCommunicationsAvailableANP"
			,"description": "WhatCommunicationsAvailableANP"
			,"fieldAlias2x": "WhatCommunicationsAvailableANP"
			,"isSearchable": false
			,"picklistDescription": null
			,"picklistUri": null
			,"picklistParent": null
		},
"whatguidancereceived": {
	"$ref": "#/definitions/text"
			,"defaultLabel": "WhatGuidanceReceived"
			,"description": "WhatGuidanceReceived"
			,"fieldAlias2x": "WhatGuidanceReceived"
			,"isSearchable": false
			,"picklistDescription": null
			,"picklistUri": null
			,"picklistParent": null
		},
"whatkindoffacility": {
	"$ref": "#/definitions/longString"
			,"defaultLabel": "WhatKindOfFacility"
			,"description": "WhatKindOfFacility"
			,"fieldAlias2x": "WhatKindOfFacility"
			,"isSearchable": false
			,"picklistDescription": null
			,"picklistUri": null
			,"picklistParent": null
		},
"whatkindoffacilitycomments": {
	"$ref": "#/definitions/text"
			,"defaultLabel": "WhatKindOfFacilityComments"
			,"description": "WhatKindOfFacilityComments"
			,"fieldAlias2x": "WhatKindOfFacilityComments"
			,"isSearchable": false
			,"picklistDescription": null
			,"picklistUri": null
			,"picklistParent": null
		},
"whatofficialsfear": {
	"$ref": "#/definitions/text"
			,"defaultLabel": "WhatOfficialsFear"
			,"description": "WhatOfficialsFear"
			,"fieldAlias2x": "WhatOfficialsFear"
			,"isSearchable": false
			,"picklistDescription": null
			,"picklistUri": null
			,"picklistParent": null
		},
"whatprogramsinitiativeshelpful": {
	"$ref": "#/definitions/text"
			,"defaultLabel": "WhatProgramsInitiativesHelpful"
			,"description": "WhatProgramsInitiativesHelpful"
			,"fieldAlias2x": "WhatProgramsInitiativesHelpful"
			,"isSearchable": false
			,"picklistDescription": null
			,"picklistUri": null
			,"picklistParent": null
		},
"whattraininginvestigatorsneed": {
	"$ref": "#/definitions/text"
			,"defaultLabel": "WhatTrainingInvestigatorsNeed"
			,"description": "WhatTrainingInvestigatorsNeed"
			,"fieldAlias2x": "WhatTrainingInvestigatorsNeed"
			,"isSearchable": false
			,"picklistDescription": null
			,"picklistUri": null
			,"picklistParent": null
		},
"whattypecoordinationprogram": {
	"$ref": "#/definitions/text"
			,"defaultLabel": "WhatTypeCoordinationProgram"
			,"description": "WhatTypeCoordinationProgram"
			,"fieldAlias2x": "WhatTypeCoordinationProgram"
			,"isSearchable": false
			,"picklistDescription": null
			,"picklistUri": null
			,"picklistParent": null
		},
"whoownsthisfacility": {
	"$ref": "#/definitions/longString"
			,"defaultLabel": "WhoOwnsThisFacility"
			,"description": "WhoOwnsThisFacility"
			,"fieldAlias2x": "WhoOwnsThisFacility"
			,"isSearchable": false
			,"picklistDescription": null
			,"picklistUri": null
			,"picklistParent": null
		},
"whoownsthisfacilitycomments": {
	"$ref": "#/definitions/text"
			,"defaultLabel": "WhoOwnsThisFacilityComments"
			,"description": "WhoOwnsThisFacilityComments"
			,"fieldAlias2x": "WhoOwnsThisFacilityComments"
			,"isSearchable": false
			,"picklistDescription": null
			,"picklistUri": null
			,"picklistParent": null
		},
"womenchildrenfacility": {
	"$ref": "#/definitions/longString"
			,"defaultLabel": "WomenChildrenFacility"
			,"description": "WomenChildrenFacility"
			,"fieldAlias2x": "WomenChildrenFacility"
			,"isSearchable": false
			,"picklistDescription": null
			,"picklistUri": null
			,"picklistParent": null
		},
"workprovincedistrictassigned": {
	"$ref": "#/definitions/longString"
			,"defaultLabel": "WorkProvinceDistrictAssigned"
			,"description": "WorkProvinceDistrictAssigned"
			,"fieldAlias2x": "WorkProvinceDistrictAssigned"
			,"isSearchable": false
			,"picklistDescription": null
			,"picklistUri": null
			,"picklistParent": null
		},
"workprovincedistrictassignedno": {
	"$ref": "#/definitions/text"
			,"defaultLabel": "WorkProvinceDistrictAssignedNo"
			,"description": "WorkProvinceDistrictAssignedNo"
			,"fieldAlias2x": "WorkProvinceDistrictAssignedNo"
			,"isSearchable": false
			,"picklistDescription": null
			,"picklistUri": null
			,"picklistParent": null
		},
			"initiatives": {
				"type": "array",
				"description": "Transition ROLPersonnelAssessment Report Initiatives specific details",
				"fieldAlias2x": "Initiatives", 
					"items": {
						"type": "object",
						"properties": {
						
"displayorder": {
	"$ref": "#/definitions/positive_int"
			,"defaultLabel": "DisplayOrder"
			,"description": "DisplayOrder"
			,"fieldAlias2x": "DisplayOrder"
			,"isSearchable": false
			,"picklistDescription": null
			,"picklistUri": null
			,"picklistParent": null
		},
"initiatives": {
	"$ref": "#/definitions/longString"
			,"defaultLabel": "Initiatives"
			,"description": "Initiatives"
			,"fieldAlias2x": "Initiatives"
			,"isSearchable": false
			,"picklistDescription": null
			,"picklistUri": null
			,"picklistParent": null
		},
"referenceid": {
	"$ref": "#/definitions/longString"
			,"defaultLabel": "referenceId"
			,"description": "referenceId"
			,"fieldAlias2x": "InitiativesKey"
			,"isSearchable": false
			,"picklistDescription": null
			,"picklistUri": null
			,"picklistParent": null
		}
				}
			}
		},
			"investigatorstraining": {
				"type": "array",
				"description": "Transition ROLPersonnelAssessment Report InvestigatorsTraining specific details",
				"fieldAlias2x": "InvestigatorsTraining", 
					"items": {
						"type": "object",
						"properties": {
						
"displayorder": {
	"$ref": "#/definitions/positive_int"
			,"defaultLabel": "DisplayOrder"
			,"description": "DisplayOrder"
			,"fieldAlias2x": "DisplayOrder"
			,"isSearchable": false
			,"picklistDescription": null
			,"picklistUri": null
			,"picklistParent": null
		},
"investigatorstraining": {
	"$ref": "#/definitions/longString"
			,"defaultLabel": "InvestigatorsTraining"
			,"description": "InvestigatorsTraining"
			,"fieldAlias2x": "InvestigatorsTraining"
			,"isSearchable": false
			,"picklistDescription": null
			,"picklistUri": null
			,"picklistParent": null
		},
"referenceid": {
	"$ref": "#/definitions/longString"
			,"defaultLabel": "referenceId"
			,"description": "referenceId"
			,"fieldAlias2x": "InvestigatorsTrainingKey"
			,"isSearchable": false
			,"picklistDescription": null
			,"picklistUri": null
			,"picklistParent": null
		}
				}
			}
		},
			"legaltraining": {
				"type": "array",
				"description": "Transition ROLPersonnelAssessment Report LegalTraining specific details",
				"fieldAlias2x": "LegalTraining", 
					"items": {
						"type": "object",
						"properties": {
						
"displayorder": {
	"$ref": "#/definitions/positive_int"
			,"defaultLabel": "DisplayOrder"
			,"description": "DisplayOrder"
			,"fieldAlias2x": "DisplayOrder"
			,"isSearchable": false
			,"picklistDescription": null
			,"picklistUri": null
			,"picklistParent": null
		},
"legaltraining": {
	"$ref": "#/definitions/longString"
			,"defaultLabel": "LegalTraining"
			,"description": "LegalTraining"
			,"fieldAlias2x": "LegalTraining"
			,"isSearchable": false
			,"picklistDescription": null
			,"picklistUri": null
			,"picklistParent": null
		},
"referenceid": {
	"$ref": "#/definitions/longString"
			,"defaultLabel": "referenceId"
			,"description": "referenceId"
			,"fieldAlias2x": "LegalTrainingKey"
			,"isSearchable": false
			,"picklistDescription": null
			,"picklistUri": null
			,"picklistParent": null
		}
				}
			}
		},
			"othertraining": {
				"type": "array",
				"description": "Transition ROLPersonnelAssessment Report OtherTraining specific details",
				"fieldAlias2x": "OtherTraining", 
					"items": {
						"type": "object",
						"properties": {
						
"displayorder": {
	"$ref": "#/definitions/positive_int"
			,"defaultLabel": "DisplayOrder"
			,"description": "DisplayOrder"
			,"fieldAlias2x": "DisplayOrder"
			,"isSearchable": false
			,"picklistDescription": null
			,"picklistUri": null
			,"picklistParent": null
		},
"othertraining": {
	"$ref": "#/definitions/longString"
			,"defaultLabel": "OtherTraining"
			,"description": "OtherTraining"
			,"fieldAlias2x": "OtherTraining"
			,"isSearchable": false
			,"picklistDescription": null
			,"picklistUri": null
			,"picklistParent": null
		},
"referenceid": {
	"$ref": "#/definitions/longString"
			,"defaultLabel": "referenceId"
			,"description": "referenceId"
			,"fieldAlias2x": "OtherTrainingKey"
			,"isSearchable": false
			,"picklistDescription": null
			,"picklistUri": null
			,"picklistParent": null
		}
				}
			}
		},
			"trainingtype": {
				"type": "array",
				"description": "Transition ROLPersonnelAssessment Report TrainingType specific details",
				"fieldAlias2x": "TrainingType", 
					"items": {
						"type": "object",
						"properties": {
						
"displayorder": {
	"$ref": "#/definitions/positive_int"
			,"defaultLabel": "DisplayOrder"
			,"description": "DisplayOrder"
			,"fieldAlias2x": "DisplayOrder"
			,"isSearchable": false
			,"picklistDescription": null
			,"picklistUri": null
			,"picklistParent": null
		},
"trainingtype": {
	"$ref": "#/definitions/longString"
			,"defaultLabel": "TrainingType"
			,"description": "TrainingType"
			,"fieldAlias2x": "TrainingType"
			,"isSearchable": false
			,"picklistDescription": null
			,"picklistUri": null
			,"picklistParent": null
		},
"referenceid": {
	"$ref": "#/definitions/longString"
			,"defaultLabel": "referenceId"
			,"description": "referenceId"
			,"fieldAlias2x": "TrainingTypeKey"
			,"isSearchable": false
			,"picklistDescription": null
			,"picklistUri": null
			,"picklistParent": null
		}
				}
			}
		},
			"visits": {
				"type": "array",
				"description": "Transition ROLPersonnelAssessment Report Visits specific details",
				"fieldAlias2x": "Visits", 
					"items": {
						"type": "object",
						"properties": {
						
"displayorder": {
	"$ref": "#/definitions/positive_int"
			,"defaultLabel": "DisplayOrder"
			,"description": "DisplayOrder"
			,"fieldAlias2x": "DisplayOrder"
			,"isSearchable": false
			,"picklistDescription": null
			,"picklistUri": null
			,"picklistParent": null
		},
"visits": {
	"$ref": "#/definitions/longString"
			,"defaultLabel": "Visits"
			,"description": "Visits"
			,"fieldAlias2x": "Visits"
			,"isSearchable": false
			,"picklistDescription": null
			,"picklistUri": null
			,"picklistParent": null
		},
"referenceid": {
	"$ref": "#/definitions/longString"
			,"defaultLabel": "referenceId"
			,"description": "referenceId"
			,"fieldAlias2x": "VisitsKey"
			,"isSearchable": false
			,"picklistDescription": null
			,"picklistUri": null
			,"picklistParent": null
		}
				}
			}
		}
				}
			}
	}
}
