	
{
    "type": "object",
    "id": "http://cidne.dae.smil.mil/schemas/Transition/PRTSummary/CIDNEDM236",
    "description": "CIDNE Transition PRTSummary Report Definition",
    "definitions": {
        "shortStringRequired": {
            "type": "string",
            "maxLength": 50
        },
        "longStringRequired": {
            "type": "string",
            "maxLength": 500
        },
        "textRequired": {
            "type": "string"
        },
        "textFieldLevelRequired": {
            "type": "object",
            "properties": {
                "objectValue": {
                    "type": "string"
                },
                "security": {
					"$ref": "#/definitions/security"
				}
            },
            "required": [
                "objectValue",
                "security"
            ]
        },
        "dateTimeRequired": {
            "type": "object",
            "properties": {
                "zuluDateTime": {
                    "type": "string",
                    "format": "date-time"
                },
                "zuluOffset": {
                    "type": "integer",
					"minimum": -840,
					"maximum": 840,
                    "description": "Offset in minutes from Zulu"
                }
            },
            "required": [
                "zuluDateTime",
                "zuluOffset"
            ]
        },
        "latitude_ddsRequired": {
            "type": "number",
            "minimum": -90,
            "maximum": 90
        },
        "longitude_ddsRequired": {
            "type": "number",
            "minimum": -180,
            "maximum": 180
        },
        "positive_intRequired": {
            "type": "integer",
            "minimum": 0
        },
        "positive_numRequired": {
            "type": "number",
            "minimum": 0
        },
        "positive_intRequired": {
            "type": "integer",
            "minimum": 0
        },
        "shortString": {
            "type": ["string","null"],
            "maxLength": 50
        },
        "longString": {
            "type": ["string","null"],
            "maxLength": 500
        },
        "text": {
            "type": ["string","null"]
        },
        "textFieldLevel": {
            "type": "object",
            "properties": {
                "objectValue": {
                    "type": ["string","null"]
                },
                "security": {
					"$ref": "#/definitions/securityOptional"
				}
            },
            "required": [
                "objectValue",
                "security"
            ]
        },
        "dateTime": {
            "type": ["object","null"],
            "properties": {
                "zuluDateTime": {
                    "type": "string",
                    "format": "date-time"
                },
                "zuluOffset": {
                    "type": "integer",
					"minimum": -840,
					"maximum": 840,
                    "description": "Offset in minutes from Zulu"
                }
            },
            "required": [
                "zuluDateTime",
                "zuluOffset"
            ]
        },
        "latitude_dds": {
            "type": ["number","null"],
            "minimum": -90,
            "maximum": 90
        },
        "longitude_dds": {
            "type": ["number","null"],
            "minimum": -180,
            "maximum": 180
        },
        "positive_int": {
            "type": ["integer","null"],
            "minimum": 0
        },
        "positive_num": {
            "type": ["number","null"],
            "minimum": 0
        },
        "num": {
            "type": ["number","null"]
        },
        "uniqueStringArray": {
            "type": "array",
            "uniqueItems": true,
            "items": {
                "type": "string"
            }
        },
        "securityOptional": {
            "oneOf": [
                {
                    "type": "null"
                },
                {
                    "$ref": "#/definitions/security"
                }
            ]
        },
        "security": {
            "type": "object",
            "properties": {
                "atomicEnergyMarkings": {
                    "$ref": "#/definitions/shortString",
                    "description": "Atomic Energy Act Information Markings"
                },
                "classificationReason": {
                    "$ref": "#/definitions/longString",
                    "description": ": Concise reason for classification"
                },
                "classification": {
                    "enum": [ "U", "TS", "S", "C" ],
                    "description": "Classification of information",
                    "defaultLabel": "Classification",
                    "isSearchable": false,
                    "picklistName": "classification",
                    "picklistUri": "http://cidne.dae.smil.mil/schemas/CAPCO/classification",
                    "picklistParent": null
                    
                },
                "classifiedBy": {
                    "$ref": "#/definitions/longString",
                    "description": "Identification by name and position, or personal identifier of the OCA"
                },
                "compilationReason": {
                    "$ref": "#/definitions/longString",
                    "description": "Reason why the compilation of information causes the classification"
                },
                "declassDate": {
                    "$ref": "#/definitions/dateTime",
                    "description": "Declassification date"
                },
                "declassEvent": {
                    "$ref": "#/definitions/shortString",
                    "description": "Declassification event"
                },
                "declassException": {
                    "$ref": "#/definitions/longString",
                    "description": "Declassification exception"
                },
                "derivativelyClassifiedBy": {
                    "$ref": "#/definitions/longString",
                    "description": "The derivative classifier’s identification by name and position, or by personal identifier, in a manner that is immediately apparent on each derivatively classified document. If not otherwise evident, the agency and office of origin shall be identified"
                },
                "derivedFrom": {
                    "$ref": "#/definitions/shortString",
                    "description": "Concisely identify the source document or the classification guide"
                },
                "displayOnlyTo": {
                    "$ref": "#/definitions/longString",
                    "description": "List of foreign country(ies)/international organization(s) authorized for disclosure without providing the recipient with a physical copy for retention, regardless of medium to the foreign country(ies)/international organization(s) indicated"
                },
                "disseminationControls": {
                    "$ref": "#/definitions/longString",
                    "description": "Control markings that identify the expansion or limitation on the distribution of information. These markings are in addition to and separate from the levels of classification"
                },
                "FGIsourceOpen": {
                    "$ref": "#/definitions/shortString",
                    "description": "Open Source Foreign Government Information"
                },
                "FGIsourceProtected": {
                    "$ref": "#/definitions/shortString",
                    "description": "Protected Source Foreign Government Information"
                },
                "nonICmarkings": {
                    "$ref": "#/definitions/text",
                    "description": "Markings authorized for use by entities outside of the Intelligence Community"
                },
                "nonUSControls": {
                    "$ref": "#/definitions/shortString",
                    "description": "Non-US protective markings"
                },
                "ownerProducer": {
                    "$ref": "#/definitions/shortStringRequired",
                    "description": "Owner/Producer",
                    "default": "USA",
                    "defaultLabel": "Owner Producer",
                    "isSearchable": false,
                    "picklistName": "ownerProducer",
                    "picklistUri": "http://cidne.dae.smil.mil/schemas/CAPCO/ownerProducer",
                    "picklistParent": null
                },
                "releasableToFilterField": {
                    "$ref": "#/definitions/shortString",
                    "description": "Need to add CAPCO Descriptions"
                },
                "releasableTo": {
                    "$ref": "#/definitions/text",
                    "description": "List of countries releasable to",
                    "defaultLabel": "Releasable To",
                    "isSearchable": false,
                    "picklistName": "releasableTo",
                    "picklistUri": "http://cidne.dae.smil.mil/schemas/CAPCO/releasableTo",
                    "picklistParent": null
                },
                "SARIdentifier": {
                    "$ref": "#/definitions/shortString",
                    "description": "Special access required programs"
                },
                "SCIcontrols": {
                    "$ref": "#/definitions/longString",
                    "description": "Sensitive Compartmented Information (SCI) control systems"
                }
            },
            "required": [
                "ownerProducer",
                "classification"
            ]
        },
        "actionInfo":{
            "type": "object",
            "properties": {
                "actionDate": {
                    "$ref": "#/definitions/dateTimeRequired",
                    "description": "Date Time Action was taken"
                },
                "group": {
                    "$ref": "#/definitions/longStringRequired",
                    "description": "User Group that performed action"
                },
                "parentGroup": {
                    "$ref": "#/definitions/longString",
                    "description": "User Group's Parent Group Name"
                },
                "nationality": {
                    "$ref": "#/definitions/shortStringRequired",
                    "description": "User Nationality"
                },
                "network": {
                    "$ref": "#/definitions/shortStringRequired",
                    "description": "Systems Network where action was taken"
                },
                "objectState": {
                    "description": "",
                    "enum": [
                        "CREATED",
                        "MODIFIED",
                        "TEMPLATE",
                        "SUBMITTED",
                        "PUBLISHED",
                        "VERSIONED",
                        "DEPRECATED",
                        "VALIDATING",
                        "RESTORED",
                        "MOVED"
                    ]
                },
                "site": {
                    "$ref": "#/definitions/shortStringRequired",
                    "description": "Systems Site"
                },
                "system": {
                    "$ref": "#/definitions/shortStringRequired",
                    "description": "System that provided the action"
                },
                "user": {
                    "$ref": "#/definitions/shortStringRequired",
                    "description": "User that performed action"
                }
            },
            "required": [
                "actionDate",
                "group",
                "parentGroup",
                "nationality",
                "network",
                "objectState",
                "site",
                "system",
                "user"
            ]
        },
        "position": {
            "description": "A single position. (order should be longitude,latitude)",
            "type": "array",
            "minItems": 2,
            "items": [
                {
                    "type": "number"
                },
                {
                    "type": "number"
                }
            ],
            "additionalItems": false
        },
        "positionArray": {
            "description": "An array of positions",
            "type": "array",
            "items": {
                "$ref": "#/definitions/position"
            }
        },
        "lineString": {
            "description": "An array of two or more positions",
            "allOf": [
                {
                    "type": "array",
                    "items": {
                        "$ref": "#/definitions/position"
                    }
                },
                {
                    "minItems": 2
                }
            ]
        },
        "linearRing": {
            "description": "An array of four positions where the first equals the last",
            "allOf": [
                {
                    "type": "array",
                    "items": {
                        "$ref": "#/definitions/position"
                    }
                },
                {
                    "minItems": 4
                }
            ]
        },
        "polygon": {
            "description": "An array of linear rings",
            "type": "array",
            "items": {
                "$ref": "#/definitions/linearRing"
            }
        },
        "geometry": {
            "title": "geometry",
            "description": "One geometry as defined by GeoJSON",
            "type": "object",
            "required": [
                "type",
                "coordinates"
            ],
            "oneOf": [
                {
                    "title": "Point",
                    "properties": {
                        "type": {
                            "enum": [
                                "Point"
                            ]
                        },
                        "coordinates": {
                            "$ref": "#/definitions/position"
                        }
                    }
                },
                {
                    "title": "MultiPoint",
                    "properties": {
                        "type": {
                            "enum": [
                                "MultiPoint"
                            ]
                        },
                        "coordinates": {
                            "type": "array",
                            "items": {
                                "$ref": "#/definitions/position"
                            }
                        }
                    }
                },
                {
                    "title": "LineString",
                    "properties": {
                        "type": {
                            "enum": [
                                "LineString"
                            ]
                        },
                        "coordinates": {
                            "$ref": "#/definitions/lineString"
                        }
                    }
                },
                {
                    "title": "MultiLineString",
                    "properties": {
                        "type": {
                            "enum": [
                                "MultiLineString"
                            ]
                        },
                        "coordinates": {
                            "type": "array",
                            "items": {
                                "$ref": "#/definitions/lineString"
                            }
                        }
                    }
                },
                {
                    "title": "Polygon",
                    "properties": {
                        "type": {
                            "enum": [
                                "Polygon"
                            ]
                        },
                        "coordinates": {
                            "$ref": "#/definitions/polygon"
                        }
                    }
                },
                {
                    "title": "MultiPolygon",
                    "properties": {
                        "type": {
                            "enum": [
                                "MultiPolygon"
                            ]
                        },
                        "coordinates": {
                            "type": "array",
                            "items": {
                                "$ref": "#/definitions/polygon"
                            }
                        }
                    }
                }
            ]
        },
        "geometryCollection": {
            "title": "GeometryCollection",
            "description": "A collection of geometry objects",
            "required": [
                "geometries"
            ],
            "properties": {
                "type": {
                    "enum": [
                        "GeometryCollection"
                    ]
                },
                "geometries": {
                    "type": "array",
                    "items": {
                        "$ref": "#/definitions/geometry"
                    }
                }
            }
        },
        "feature": {
            "title": "Feature",
            "description": "A Geo JSON feature object",
            "required": [
                "geometry"
            ],
            "properties": {
                "type": {
                    "enum": [
                        "Feature"
                    ]
                },
                "geometry": {
                    "oneOf": [
                        {
                            "type": "null"
                        },
                        {
                            "$ref": "#/definitions/geometry"
                        }
                    ]
                },
				"properties": { "type": [ "object", "null" ] },
                "id": { "type":["string"] }
            }
        },
        "featureCollection": {
            "description": "A GeoJSON feature collection",
            "required": [
                "features"
            ],
            "properties": {
                "type": {
                    "enum": [
                        "FeatureCollection"
                    ]
                },
                "features": {
                    "type": "array",
                    "items": {
                        "$ref": "#/definitions/feature"
                    }
                }
            }
        },
		"namedCrs": {
            "properties": {
                "type": { "enum": [ "name" ] },
                "properties": {
                    "required": [ "name" ],
                    "additionalProperties": false,
                    "properties": {
                        "name": {
                            "type": "string"
                        }
                    }
                }
            }
        },
        "linkedObject": {
            "type": "object",
            "required": [ "href" ],
            "properties": {
                "href": {
                    "type": "string",
                    "format": "uri"
                },
                "type": {
                    "type": "string",
                    "description": "Suggested values: proj4, ogjwkt, esriwkt"
                }
            }
        },
        "linkedCrs": {
            "properties": {
                "type": { "enum": [ "link" ] },
                "properties": { "$ref": "#/definitions/linkedObject" }
            }
        },	
		"crs":{
			"title": "crs",
			"description": "a Coordinate Reference System object",
			"type": [ "object", "null" ],
			"required": [ "type", "properties" ],
			"properties": {
				"type": { "type": "string" },
				"properties": { "type": "object" }
			},
			"additionalProperties": false,
			"oneOf": [
				{ "$ref": "#/definitions/namedCrs" },
				{ "$ref": "#/definitions/linkedCrs" }
			]
		},
		"bbox":{
		"description": "A bounding box as defined by GeoJSON",
			"type": "array",
			"items": { "type": "number" }
		},
        "geojson": {
            "title": "Geo JSON object",
            "description": "Schema for a Geo JSON object",
            "type": ["object","null"],
            "required": [
                "type"
            ],
			"properties": {
				"crs": { "$ref": "#/definitions/crs" },
				"bbox": { "$ref": "#/definitions/bbox" }
			},
            "anyOf": [
                {
                    "$ref": "#/definitions/geometry"
                },
                {
                    "$ref": "#/definitions/geometryCollection"
                },
                {
                    "$ref": "#/definitions/feature"
                },
                {
                    "$ref": "#/definitions/featureCollection"
                }
            ]
        }
    },
    "required": [
        "base",
        "datamodel",
        "formId",
        "location",
        "security",
        "details"
    ],	
    "properties": {
        "datamodel": {
            "$ref": "#/definitions/longString",
            "description": "Reference to the report definition."
        },
        "formId": {
            "$ref": "#/definitions/longString",
            "description": "Reference to the layout template identifier that this data was intended to be best visualized"
        },
        "base": {
            "type": "object",
            "description": "The core metadata used within all report definitions",
            "properties": {
                "objectId": {
                    "$ref": "#/definitions/shortStringRequired",
                    "description": "Report instance unique identifier"
                },
                "reportId": {
                    "$ref": "#/definitions/shortStringRequired",
                    "description": "Original report instance objectId for a report version grouping. (i.e. the root report identifier)"
                },
                "parentVersionId": {
                    "$ref": "#/definitions/shortString",
                    "description": "Report instance's objectId of the parent report. NOTE: If there is no parent, this value should be set to the report instance's own objectId. "
                },
                "module": {
                    "$ref": "#/definitions/shortStringRequired",
                    "description": "CIDNE community"
                },
                "reportType": {
                    "$ref": "#/definitions/shortStringRequired",
                    "description": "CIDNE report type (e.g. SIGACT)"
                },
                "reportSerial": {
                    "$ref": "#/definitions/textFieldLevel",
					"defaultLabel": "DisplaySerial",
					"description": "Report instance nomenclature (DisplaySerial)",
					"fieldAlias2x": "DisplaySerial"
                },
                "reportTitle": {
                    "$ref": "#/definitions/textFieldLevel",
					"defaultLabel": "DisplayTitle",
					"description": "Report instance title text (DisplayTitle)",
					"fieldAlias2x": "DisplayTitle"
                },
                "reportSummary": {
                    "$ref": "#/definitions/textFieldLevel",
					"defaultLabel": "DisplaySummary",
					"description": "Report instance summary text block (DisplaySummary)",
					"fieldAlias2x": "DisplaySummary"
                },
                "reportDate": {
                    "$ref": "#/definitions/dateTimeRequired",
					"defaultLabel": "DatePosted",
					"description": "Primary report instance date (DatePosted)",
					"fieldAlias2x": "DatePosted"
                },
                "reportSymbol": {
                    "$ref": "#/definitions/longString",
                    "description": "Report instance symbology"
                },
                "reportImage": {
                    "$ref": "#/definitions/longString",
                    "description": "Primary image of report instance"
                },
                "reportCountry": {
                    "$ref": "#/definitions/shortString",
                    "description": "Country value of report instance's primary location"
                },
                "reportLatitude": {
                    "$ref": "#/definitions/latitude_dds",
                    "description": "Latitude value of report instance's primary location"
                },
                "reportLongitude": {
                    "$ref": "#/definitions/longitude_dds",
                    "description": "Longitude value of report instance's primary location"
                },
				"geoLocation":{
					"$ref":"#/definitions/geojson"
				},
                "currentObjectState":{
                        "$ref": "#/definitions/actionInfo"
                },
                "originatingGroup": {
                    "$ref": "#/definitions/longStringRequired",
                    "description": "Original creator's group"
                },  
                "originatingUser": {
                    "$ref": "#/definitions/longStringRequired",
                    "description": "Original creator's User Name or email address"
                },  
				"isTearline": {
                    "type": "boolean",
                    "description": "Determines whether a report is a tearline"
                },
				"tearlineId": {
					"$ref": "#/definitions/shortString",
                    "description": "The reportId of the parent, used as a tearline group binding"
				},
                "theaterFilter": {
                    "$ref": "#/definitions/shortStringRequired",
                    "description": "Report instance theater of relevance"
                },
                "warehouseUri": {
                    "$ref": "#/definitions/longStringRequired",
                    "description": "Data warehouse location for report instance",
                    "format": "uri"
                }
            },
            "required": [
                "isTearline",
                "module",
                "objectId",
                "currentObjectState",
                "originatingGroup",
                "originatingUser",
                "reportId",
                "reportSerial",
                "reportDate",
                "theaterFilter",
                "reportType",
                "reportTitle",
                "reportSummary"
            ]
        },
        "location": {
            "type": "array",
            "description": "All locations for the report instance",
            "items": {
                "type": "object",
                "properties": {
                    "objectId": {
                        "$ref": "#/definitions/shortStringRequired",
                        "description": "objectId required for Edit Purposes"
                    },
                    "address": {
                        "$ref": "#/definitions/longString",
                        "description": "Address Details"
                    },
                    "alternateRoute": {
                        "$ref": "#/definitions/longString",
                        "description": "Alternate Route for location"
                    },
                    "ao": {
                        "$ref": "#/definitions/shortString",
                        "description": "Area of Operations"
                    },
                    "basecamp": {
                        "$ref": "#/definitions/shortString",
                        "description": "Base Camp"
                    },
                    "city": {
                        "$ref": "#/definitions/shortString",
                        "description": "City for Location"
                    },
                    "confidence": {
                        "$ref": "#/definitions/shortString",
                        "description": "Reporters Confidence in Location Value"
                    },
                    "country": {
                        "$ref": "#/definitions/shortString",
                        "description": "Location Country"
                    },
                    "customGeom": {
                        "type": "object",
                        "description": "Custom Geometry Object for Location",
                        "properties": {
                            "customGeomObjectId": {
                                "$ref": "#/definitions/shortString",
                                "description": "objectId for Custom Geometry Object"
                            },
                            "geomType": {
                                "$ref": "#/definitions/shortString",
                                "description": "Geometry Type for custom geometry object (e.g. Point, Multi-polygon"
                            },
                            "geom": {
                                "$ref": "#/definitions/shortString",
                                "description": "TBD GEOM Object for Custom Location Object"
                            },
                            "name": {
                                "$ref": "#/definitions/shortString",
                                "description": "Custom Location Name"
                            }
                        }
                    },
                    "dateEndLocation": {
                        "$ref": "#/definitions/dateTime",
                        "description": "Ending Date Time for location"
                    },
                    "dateStartLocation": {
                        "$ref": "#/definitions/dateTime",
                        "description": "Starting Date Time for location"
                    },
                    "derivedLocation": {
                        "type": "boolean",
                        "description": "Was Location Lat/Long derived from user picklists?"
                    },
                    "description": {
                        "$ref": "#/definitions/text",
                        "description": "Location Description"
                    },
                    "distanceFromCityCenter": {
                        "$ref": "#/definitions/positive_int",
                        "description": "Distance in meters to nearest city center"
                    },
                    "distanceToNearestFOB": {
                        "$ref": "#/definitions/positive_num",
                        "description": "Distance in meters to nearest FOB"
                    },
                    "distanceToNearestRoute": {
                        "$ref": "#/definitions/positive_num",
                        "description": "Distance in meters to nearest Route"
                    },
                    "district": {
                        "$ref": "#/definitions/shortString",
                        "description": "District"
                    },
                    "fob": {
                        "$ref": "#/definitions/shortString",
                        "description": "FOB"
                    },
					"geoLocation":{
						"$ref":"#/definitions/geojson"
					},
					"house": {
                        "$ref": "#/definitions/shortString",
                        "description": "HOUSE"
                    },
                    "isPrimaryLocation": {
                        "type": "boolean",
                        "description": "Marks Primary Location"
                    },
                    "latitude": {
                        "$ref": "#/definitions/latitude_ddsRequired",
                        "description": "Latitude of Location in Degree Decimal Seconds"
                    },
                    "locationActive": {
                        "type": "boolean",
                        "description": "Is Location Active?"
                    },
                    "locationType": {
                        "$ref": "#/definitions/shortString",
                        "description": "Location Type"
                    },
                    "longitude": {
                        "$ref": "#/definitions/longitude_ddsRequired",
                        "description": "Longitude of Location in Degree Decimal Seconds"
                    },
                    "mscCurrent": {
                        "$ref": "#/definitions/shortString",
                        "description": "Current Major Supporting Command responsible for location"
                    },
                    "mscDateOfCurrent": {
                        "$ref": "#/definitions/dateTime",
                        "description": "Date Of Current Major Supporting Command's Control of location"
                    },
                    "msc": {
                        "$ref": "#/definitions/shortString",
                        "description": "Major Supporting Command responsible for location"
                    },
                    "nai": {
                        "$ref": "#/definitions/shortString",
                        "description": "Named Area of Interest"
                    },
                    "nearestCity": {
                        "$ref": "#/definitions/shortString",
                        "description": "Nearest City"
                    },
                    "nearestFOB": {
                        "$ref": "#/definitions/shortString",
                        "description": "Nearest FOB"
                    },
                    "nearestRoute": {
                        "$ref": "#/definitions/shortString",
                        "description": "Nearest Route"
                    },
                    "neighborhood": {
                        "$ref": "#/definitions/shortString",
                        "description": "Neighborhood for location"
                    },
                    "populationCenterType": {
                        "$ref": "#/definitions/shortString",
                        "description": "Population Center Type"
                    },
                    "populationCenter": {
                        "$ref": "#/definitions/shortString",
                        "description": "Population Center"
                    },
                    "province": {
                        "$ref": "#/definitions/shortString",
                        "description": "Province"
                    },
                    "referenceId": {
                        "$ref": "#/definitions/shortString",
                        "description": "Reference to any subelement with in current report instance (e.g. Event Object ID)"
                    },
                    "route": {
                        "$ref": "#/definitions/shortString",
                        "description": "Route"
                    },
                    "security": {
                        "$ref": "#/definitions/securityOptional"
                    },
                    "street": {
                        "$ref": "#/definitions/shortString",
                        "description": "Street"
                    },
                    "structure": {
                        "$ref": "#/definitions/shortString",
                        "description": "Structure"
                    },
                    "village": {
                        "$ref": "#/definitions/shortString",
                        "description": "Village"
                    },
                    "zone": {
                        "$ref": "#/definitions/shortString",
                        "description": "City Zone"
                    }
                },
				"required": [
					"objectId",
					"isPrimaryLocation",
					"latitude",
					"longitude"
				]
            }
        },
        "remarks": {
            "type": "array",
            "items": {
                "type": "object",
                "properties": {
                    "objectId": {
                        "$ref": "#/definitions/shortStringRequired",
                        "description": "objectId required for Edit Purposes"
                    },
                    "referenceId": {
                        "$ref": "#/definitions/shortString",
                        "description": "Reference to any subelement with in current report instance (e.g. Event Object ID)"
                    },
                    "remarkText": {
                        "$ref": "#/definitions/text",
                        "description": "Remark Text"
                    },
                    "remarkType": {
                        "$ref": "#/definitions/shortString",
                        "description": "Remark Type"
                    },
                    "remarkOrder": {
                        "$ref": "#/definitions/positive_num",
                        "description": "Remark Order"
                    },
                    "security": {
                        "$ref": "#/definitions/securityOptional"
                    }
                },
                "required": [
                    "objectId",
                    "remarkText",
                    "remarkType",
                    "security"
                ]
            }
        },
        "requirements": {
            "type": "array",
            "items": {
                "type": "object",
                "properties": {
                    "objectId": {
                        "$ref": "#/definitions/shortStringRequired",
                        "description": "objectId required for Edit Purposes"
                    },
                    "referenceId": {
                        "$ref": "#/definitions/shortString",
                        "description": "Reference to any subelement with in current report instance (e.g. Event Object ID)"
                    },
                    "requirement": {
                        "$ref": "#/definitions/longString",
                        "description": "Requirement sub based on Requirement Type"
                    },
                    "requirementType": {
                        "$ref": "#/definitions/shortString",
                        "description": "Requirement Type"
                    },
                    "comment": {
                        "$ref": "#/definitions/text",
                        "description": "Requirement Comment"
                    },
                    "security": {
                        "$ref": "#/definitions/securityOptional"
                    }
                },
                "required": [
                    "objectId",
                    "requirementType",
                    "requirement",
                    "comment"
                ]
            }
        },
        "security": {
                        "$ref": "#/definitions/security"
        },
        "objectHistory": {
            "type": "array",
            "items":
                    {
                        "$ref": "#/definitions/actionInfo"
                    }       
		},
			"details": {
				"type": "object",
				"description": "Transition PRTSummary Report details specific details",
				"fieldAlias2x": "details", 
						"properties": {
						
"blineassessment": {
	"$ref": "#/definitions/text"
			,"defaultLabel": "BLineAssessment"
			,"description": "BLineAssessment"
			,"fieldAlias2x": "BLineAssessment"
			,"isSearchable": false
			,"picklistDescription": null
			,"picklistUri": null
			,"picklistParent": null
		},
"enddate": {
	"$ref": "#/definitions/dateTime"
			,"defaultLabel": "EndDate"
			,"description": "EndDate"
			,"fieldAlias2x": "EndDate"
			,"isSearchable": false
			,"picklistDescription": null
			,"picklistUri": null
			,"picklistParent": null
		},
"itinfosysiss": {
	"type": "boolean"
			,"defaultLabel": "ItInfoSysIss"
			,"description": "ItInfoSysIss"
			,"fieldAlias2x": "ItInfoSysIss"
			,"isSearchable": false
			,"picklistDescription": null
			,"picklistUri": null
			,"picklistParent": null
		},
"latitude": {
	"$ref": "#/definitions/latitude_dds"
			,"defaultLabel": "Latitude"
			,"description": "Latitude"
			,"fieldAlias2x": "Latitude"
			,"isSearchable": false
			,"picklistDescription": null
			,"picklistUri": null
			,"picklistParent": null
		},
"lifesupiss": {
	"type": "boolean"
			,"defaultLabel": "LifeSupIss"
			,"description": "LifeSupIss"
			,"fieldAlias2x": "LifeSupIss"
			,"isSearchable": false
			,"picklistDescription": null
			,"picklistUri": null
			,"picklistParent": null
		},
"longitude": {
	"$ref": "#/definitions/longitude_dds"
			,"defaultLabel": "Longitude"
			,"description": "Longitude"
			,"fieldAlias2x": "Longitude"
			,"isSearchable": false
			,"picklistDescription": null
			,"picklistUri": null
			,"picklistParent": null
		},
"medsupiss": {
	"type": "boolean"
			,"defaultLabel": "MedSupIss"
			,"description": "MedSupIss"
			,"fieldAlias2x": "MedSupIss"
			,"isSearchable": false
			,"picklistDescription": null
			,"picklistUri": null
			,"picklistParent": null
		},
"mgrs": {
	"$ref": "#/definitions/longString"
			,"defaultLabel": "MGRS"
			,"description": "MGRS"
			,"fieldAlias2x": "MGRS"
			,"isSearchable": false
			,"picklistDescription": null
			,"picklistUri": null
			,"picklistParent": null
		},
"province": {
	"$ref": "#/definitions/longString"
			,"defaultLabel": "Province"
			,"description": "Province"
			,"fieldAlias2x": "Province"
			,"isSearchable": false
			,"picklistDescription": null
			,"picklistUri": null
			,"picklistParent": null
		},
"reportdate": {
	"$ref": "#/definitions/dateTime"
			,"defaultLabel": "ReportDate"
			,"description": "ReportDate"
			,"fieldAlias2x": "ReportDate"
			,"isSearchable": false
			,"picklistDescription": null
			,"picklistUri": null
			,"picklistParent": null
		},
"reportingunit": {
	"$ref": "#/definitions/longString"
			,"defaultLabel": "ReportingUnit"
			,"description": "ReportingUnit"
			,"fieldAlias2x": "ReportingUnit"
			,"isSearchable": false
			,"picklistDescription": null
			,"picklistUri": null
			,"picklistParent": null
		},
"securityiss": {
	"type": "boolean"
			,"defaultLabel": "SecurityIss"
			,"description": "SecurityIss"
			,"fieldAlias2x": "SecurityIss"
			,"isSearchable": false
			,"picklistDescription": null
			,"picklistUri": null
			,"picklistParent": null
		},
"startdate": {
	"$ref": "#/definitions/dateTime"
			,"defaultLabel": "StartDate"
			,"description": "StartDate"
			,"fieldAlias2x": "StartDate"
			,"isSearchable": false
			,"picklistDescription": null
			,"picklistUri": null
			,"picklistParent": null
		},
"summary": {
	"$ref": "#/definitions/text"
			,"defaultLabel": "Summary"
			,"description": "Summary"
			,"fieldAlias2x": "Summary"
			,"isSearchable": false
			,"picklistDescription": null
			,"picklistUri": null
			,"picklistParent": null
		},
"title": {
	"$ref": "#/definitions/longString"
			,"defaultLabel": "Title"
			,"description": "Title"
			,"fieldAlias2x": "Title"
			,"isSearchable": false
			,"picklistDescription": null
			,"picklistUri": null
			,"picklistParent": null
		},
"trackingnumber": {
	"$ref": "#/definitions/longString"
			,"defaultLabel": "TrackingNumber"
			,"description": "TrackingNumber"
			,"fieldAlias2x": "TrackingNumber"
			,"isSearchable": false
			,"picklistDescription": null
			,"picklistUri": null
			,"picklistParent": null
		},
			"interest": {
				"type": "array",
				"description": "Transition PRTSummary Report Interest specific details",
				"fieldAlias2x": "Interest", 
					"items": {
						"type": "object",
						"properties": {
						
"referenceid": {
	"$ref": "#/definitions/longString"
			,"defaultLabel": "referenceId"
			,"description": "referenceId"
			,"fieldAlias2x": "InterestKey"
			,"isSearchable": false
			,"picklistDescription": null
			,"picklistUri": null
			,"picklistParent": null
		},
"item": {
	"$ref": "#/definitions/longString"
			,"defaultLabel": "Item"
			,"description": "Item"
			,"fieldAlias2x": "Item"
			,"isSearchable": false
			,"picklistDescription": null
			,"picklistUri": null
			,"picklistParent": null
		},
"status": {
	"$ref": "#/definitions/longString"
			,"defaultLabel": "Status"
			,"description": "Status"
			,"fieldAlias2x": "Status"
			,"isSearchable": false
			,"picklistDescription": null
			,"picklistUri": null
			,"picklistParent": null
		},
"summary": {
	"$ref": "#/definitions/text"
			,"defaultLabel": "Summary"
			,"description": "Summary"
			,"fieldAlias2x": "Summary"
			,"isSearchable": false
			,"picklistDescription": null
			,"picklistUri": null
			,"picklistParent": null
		}
				}
			}
		},
			"mission": {
				"type": "array",
				"description": "Transition PRTSummary Report Mission specific details",
				"fieldAlias2x": "Mission", 
					"items": {
						"type": "object",
						"properties": {
						
"datecomplete": {
	"$ref": "#/definitions/dateTime"
			,"defaultLabel": "DateComplete"
			,"description": "DateComplete"
			,"fieldAlias2x": "DateComplete"
			,"isSearchable": false
			,"picklistDescription": null
			,"picklistUri": null
			,"picklistParent": null
		},
"datereceive": {
	"$ref": "#/definitions/dateTime"
			,"defaultLabel": "DateReceive"
			,"description": "DateReceive"
			,"fieldAlias2x": "DateReceive"
			,"isSearchable": false
			,"picklistDescription": null
			,"picklistUri": null
			,"picklistParent": null
		},
"explanation": {
	"$ref": "#/definitions/text"
			,"defaultLabel": "Explanation"
			,"description": "Explanation"
			,"fieldAlias2x": "Explanation"
			,"isSearchable": false
			,"picklistDescription": null
			,"picklistUri": null
			,"picklistParent": null
		},
"latitude": {
	"$ref": "#/definitions/latitude_dds"
			,"defaultLabel": "Latitude"
			,"description": "Latitude"
			,"fieldAlias2x": "Latitude"
			,"isSearchable": false
			,"picklistDescription": null
			,"picklistUri": null
			,"picklistParent": null
		},
"longitude": {
	"$ref": "#/definitions/longitude_dds"
			,"defaultLabel": "Longitude"
			,"description": "Longitude"
			,"fieldAlias2x": "Longitude"
			,"isSearchable": false
			,"picklistDescription": null
			,"picklistUri": null
			,"picklistParent": null
		},
"mgrs": {
	"$ref": "#/definitions/longString"
			,"defaultLabel": "MGRS"
			,"description": "MGRS"
			,"fieldAlias2x": "MGRS"
			,"isSearchable": false
			,"picklistDescription": null
			,"picklistUri": null
			,"picklistParent": null
		},
"referenceid": {
	"$ref": "#/definitions/longString"
			,"defaultLabel": "referenceId"
			,"description": "referenceId"
			,"fieldAlias2x": "MissionKey"
			,"isSearchable": false
			,"picklistDescription": null
			,"picklistUri": null
			,"picklistParent": null
		},
"status": {
	"$ref": "#/definitions/longString"
			,"defaultLabel": "Status"
			,"description": "Status"
			,"fieldAlias2x": "Status"
			,"isSearchable": false
			,"picklistDescription": "MissionStatus"
			,"picklistUri": "TransitionPRTSummary-MissionStatus-MissionTitle"
			,"picklistParent": "TransitionPRTSummary-MissionTitle"
		},
"title": {
	"$ref": "#/definitions/longString"
			,"defaultLabel": "Title"
			,"description": "Title"
			,"fieldAlias2x": "Title"
			,"isSearchable": false
			,"picklistDescription": "MissionTitle"
			,"picklistUri": "TransitionPRTSummary-MissionTitle"
			,"picklistParent": null
		}
				}
			}
		},
			"missionlocation": {
				"type": "array",
				"description": "Transition PRTSummary Report MissionLocation specific details",
				"fieldAlias2x": "MissionLocation", 
					"items": {
						"type": "object",
						"properties": {
						
"address": {
	"$ref": "#/definitions/longString"
			,"defaultLabel": "Address"
			,"description": "Address"
			,"fieldAlias2x": "Address"
			,"isSearchable": false
			,"picklistDescription": null
			,"picklistUri": null
			,"picklistParent": null
		},
"alternateroute": {
	"$ref": "#/definitions/longString"
			,"defaultLabel": "AlternateRoute"
			,"description": "AlternateRoute"
			,"fieldAlias2x": "AlternateRoute"
			,"isSearchable": false
			,"picklistDescription": null
			,"picklistUri": null
			,"picklistParent": null
		},
"ao": {
	"$ref": "#/definitions/longString"
			,"defaultLabel": "AO"
			,"description": "AO"
			,"fieldAlias2x": "AO"
			,"isSearchable": false
			,"picklistDescription": null
			,"picklistUri": null
			,"picklistParent": null
		},
"baghdadsecuritydistrict": {
	"$ref": "#/definitions/longString"
			,"defaultLabel": "BaghdadSecurityDistrict"
			,"description": "BaghdadSecurityDistrict"
			,"fieldAlias2x": "BaghdadSecurityDistrict"
			,"isSearchable": false
			,"picklistDescription": null
			,"picklistUri": null
			,"picklistParent": null
		},
"basecamp": {
	"$ref": "#/definitions/longString"
			,"defaultLabel": "Basecamp"
			,"description": "Basecamp"
			,"fieldAlias2x": "Basecamp"
			,"isSearchable": false
			,"picklistDescription": null
			,"picklistUri": null
			,"picklistParent": null
		},
"beladiyah": {
	"$ref": "#/definitions/longString"
			,"defaultLabel": "Beladiyah"
			,"description": "Beladiyah"
			,"fieldAlias2x": "Beladiyah"
			,"isSearchable": false
			,"picklistDescription": null
			,"picklistUri": null
			,"picklistParent": null
		},
"belt": {
	"$ref": "#/definitions/longString"
			,"defaultLabel": "Belt"
			,"description": "Belt"
			,"fieldAlias2x": "Belt"
			,"isSearchable": false
			,"picklistDescription": null
			,"picklistUri": null
			,"picklistParent": null
		},
"city": {
	"$ref": "#/definitions/longString"
			,"defaultLabel": "City"
			,"description": "City"
			,"fieldAlias2x": "City"
			,"isSearchable": false
			,"picklistDescription": null
			,"picklistUri": null
			,"picklistParent": null
		},
"confidence": {
	"$ref": "#/definitions/longString"
			,"defaultLabel": "Confidence"
			,"description": "Confidence"
			,"fieldAlias2x": "Confidence"
			,"isSearchable": false
			,"picklistDescription": null
			,"picklistUri": null
			,"picklistParent": null
		},
"coordinate": {
	"$ref": "#/definitions/longString"
			,"defaultLabel": "Coordinate"
			,"description": "Coordinate"
			,"fieldAlias2x": "Coordinate"
			,"isSearchable": false
			,"picklistDescription": null
			,"picklistUri": null
			,"picklistParent": null
		},
"country": {
	"$ref": "#/definitions/longString"
			,"defaultLabel": "Country"
			,"description": "Country"
			,"fieldAlias2x": "Country"
			,"isSearchable": false
			,"picklistDescription": null
			,"picklistUri": null
			,"picklistParent": null
		},
"custom": {
	"$ref": "#/definitions/longString"
			,"defaultLabel": "Custom"
			,"description": "Custom"
			,"fieldAlias2x": "Custom"
			,"isSearchable": false
			,"picklistDescription": null
			,"picklistUri": null
			,"picklistParent": null
		},
"customgeomtext": {
	"$ref": "#/definitions/text"
			,"defaultLabel": "CustomGEOMText"
			,"description": "CustomGEOMText"
			,"fieldAlias2x": "CustomGEOMText"
			,"isSearchable": false
			,"picklistDescription": null
			,"picklistUri": null
			,"picklistParent": null
		},
"customgeomtype": {
	"$ref": "#/definitions/longString"
			,"defaultLabel": "CustomGEOMType"
			,"description": "CustomGEOMType"
			,"fieldAlias2x": "CustomGEOMType"
			,"isSearchable": false
			,"picklistDescription": null
			,"picklistUri": null
			,"picklistParent": null
		},
"dateendlocation": {
	"$ref": "#/definitions/dateTime"
			,"defaultLabel": "DateEndLocation"
			,"description": "DateEndLocation"
			,"fieldAlias2x": "DateEndLocation"
			,"isSearchable": false
			,"picklistDescription": null
			,"picklistUri": null
			,"picklistParent": null
		},
"dateroutelastcleared": {
	"$ref": "#/definitions/longString"
			,"defaultLabel": "DateRouteLastCleared"
			,"description": "DateRouteLastCleared"
			,"fieldAlias2x": "DateRouteLastCleared"
			,"isSearchable": false
			,"picklistDescription": null
			,"picklistUri": null
			,"picklistParent": null
		},
"datestartlocation": {
	"$ref": "#/definitions/dateTime"
			,"defaultLabel": "DateStartLocation"
			,"description": "DateStartLocation"
			,"fieldAlias2x": "DateStartLocation"
			,"isSearchable": false
			,"picklistDescription": null
			,"picklistUri": null
			,"picklistParent": null
		},
"description": {
	"$ref": "#/definitions/text"
			,"defaultLabel": "Description"
			,"description": "Description"
			,"fieldAlias2x": "Description"
			,"isSearchable": false
			,"picklistDescription": null
			,"picklistUri": null
			,"picklistParent": null
		},
"distancefromcitycenter": {
	"$ref": "#/definitions/positive_int"
			,"defaultLabel": "DistanceFromCityCenter"
			,"description": "DistanceFromCityCenter"
			,"fieldAlias2x": "DistanceFromCityCenter"
			,"isSearchable": false
			,"picklistDescription": null
			,"picklistUri": null
			,"picklistParent": null
		},
"distancetonearestfob": {
	"$ref": "#/definitions/num"
			,"defaultLabel": "DistanceToNearestFOB"
			,"description": "DistanceToNearestFOB"
			,"fieldAlias2x": "DistanceToNearestFOB"
			,"isSearchable": false
			,"picklistDescription": null
			,"picklistUri": null
			,"picklistParent": null
		},
"distancetonearestroute": {
	"$ref": "#/definitions/num"
			,"defaultLabel": "DistanceToNearestRoute"
			,"description": "DistanceToNearestRoute"
			,"fieldAlias2x": "DistanceToNearestRoute"
			,"isSearchable": false
			,"picklistDescription": null
			,"picklistUri": null
			,"picklistParent": null
		},
"district": {
	"$ref": "#/definitions/longString"
			,"defaultLabel": "District"
			,"description": "District"
			,"fieldAlias2x": "District"
			,"isSearchable": false
			,"picklistDescription": null
			,"picklistUri": null
			,"picklistParent": null
		},
"fob": {
	"$ref": "#/definitions/longString"
			,"defaultLabel": "FOB"
			,"description": "FOB"
			,"fieldAlias2x": "FOB"
			,"isSearchable": false
			,"picklistDescription": null
			,"picklistUri": null
			,"picklistParent": null
		},
"hayys": {
	"$ref": "#/definitions/longString"
			,"defaultLabel": "Hayys"
			,"description": "Hayys"
			,"fieldAlias2x": "Hayys"
			,"isSearchable": false
			,"picklistDescription": null
			,"picklistUri": null
			,"picklistParent": null
		},
"house": {
	"$ref": "#/definitions/longString"
			,"defaultLabel": "House"
			,"description": "House"
			,"fieldAlias2x": "House"
			,"isSearchable": false
			,"picklistDescription": null
			,"picklistUri": null
			,"picklistParent": null
		},
"latitude": {
	"$ref": "#/definitions/latitude_dds"
			,"defaultLabel": "Latitude"
			,"description": "Latitude"
			,"fieldAlias2x": "Latitude"
			,"isSearchable": false
			,"picklistDescription": null
			,"picklistUri": null
			,"picklistParent": null
		},
"locationactive": {
	"type": "boolean"
			,"defaultLabel": "LocationActive"
			,"description": "LocationActive"
			,"fieldAlias2x": "LocationActive"
			,"isSearchable": false
			,"picklistDescription": null
			,"picklistUri": null
			,"picklistParent": null
		},
"locationdetails": {
	"$ref": "#/definitions/text"
			,"defaultLabel": "LocationDetails"
			,"description": "LocationDetails"
			,"fieldAlias2x": "LocationDetails"
			,"isSearchable": false
			,"picklistDescription": null
			,"picklistUri": null
			,"picklistParent": null
		},
"referenceid": {
	"$ref": "#/definitions/longString"
			,"defaultLabel": "referenceId"
			,"description": "referenceId"
			,"fieldAlias2x": "LocationKey"
			,"isSearchable": false
			,"picklistDescription": null
			,"picklistUri": null
			,"picklistParent": null
		},
"locationtype": {
	"$ref": "#/definitions/longString"
			,"defaultLabel": "LocationType"
			,"description": "LocationType"
			,"fieldAlias2x": "LocationType"
			,"isSearchable": false
			,"picklistDescription": null
			,"picklistUri": null
			,"picklistParent": null
		},
"longitude": {
	"$ref": "#/definitions/longitude_dds"
			,"defaultLabel": "Longitude"
			,"description": "Longitude"
			,"fieldAlias2x": "Longitude"
			,"isSearchable": false
			,"picklistDescription": null
			,"picklistUri": null
			,"picklistParent": null
		},
"mgrs": {
	"$ref": "#/definitions/longString"
			,"defaultLabel": "MGRS"
			,"description": "MGRS"
			,"fieldAlias2x": "MGRS"
			,"isSearchable": false
			,"picklistDescription": null
			,"picklistUri": null
			,"picklistParent": null
		},
"msc": {
	"$ref": "#/definitions/longString"
			,"defaultLabel": "MSC"
			,"description": "MSC"
			,"fieldAlias2x": "MSC"
			,"isSearchable": false
			,"picklistDescription": null
			,"picklistUri": null
			,"picklistParent": null
		},
"msccurrent": {
	"$ref": "#/definitions/longString"
			,"defaultLabel": "MSCCurrent"
			,"description": "MSCCurrent"
			,"fieldAlias2x": "MSCCurrent"
			,"isSearchable": false
			,"picklistDescription": null
			,"picklistUri": null
			,"picklistParent": null
		},
"mscdateofcurrent": {
	"$ref": "#/definitions/dateTime"
			,"defaultLabel": "MSCDateOfCurrent"
			,"description": "MSCDateOfCurrent"
			,"fieldAlias2x": "MSCDateOfCurrent"
			,"isSearchable": false
			,"picklistDescription": null
			,"picklistUri": null
			,"picklistParent": null
		},
"muhalla": {
	"$ref": "#/definitions/longString"
			,"defaultLabel": "Muhalla"
			,"description": "Muhalla"
			,"fieldAlias2x": "Muhalla"
			,"isSearchable": false
			,"picklistDescription": null
			,"picklistUri": null
			,"picklistParent": null
		},
"nearestcity": {
	"$ref": "#/definitions/longString"
			,"defaultLabel": "NearestCity"
			,"description": "NearestCity"
			,"fieldAlias2x": "NearestCity"
			,"isSearchable": false
			,"picklistDescription": null
			,"picklistUri": null
			,"picklistParent": null
		},
"nearestfob": {
	"$ref": "#/definitions/longString"
			,"defaultLabel": "NearestFOB"
			,"description": "NearestFOB"
			,"fieldAlias2x": "NearestFOB"
			,"isSearchable": false
			,"picklistDescription": null
			,"picklistUri": null
			,"picklistParent": null
		},
"nearestroute": {
	"$ref": "#/definitions/longString"
			,"defaultLabel": "NearestRoute"
			,"description": "NearestRoute"
			,"fieldAlias2x": "NearestRoute"
			,"isSearchable": false
			,"picklistDescription": null
			,"picklistUri": null
			,"picklistParent": null
		},
"neighborhood": {
	"$ref": "#/definitions/longString"
			,"defaultLabel": "Neighborhood"
			,"description": "Neighborhood"
			,"fieldAlias2x": "Neighborhood"
			,"isSearchable": false
			,"picklistDescription": null
			,"picklistUri": null
			,"picklistParent": null
		},
"parenttype": {
	"$ref": "#/definitions/longString"
			,"defaultLabel": "ParentType"
			,"description": "ParentType"
			,"fieldAlias2x": "ParentType"
			,"isSearchable": false
			,"picklistDescription": null
			,"picklistUri": null
			,"picklistParent": null
		},
"populationcenter": {
	"$ref": "#/definitions/longString"
			,"defaultLabel": "PopulationCenter"
			,"description": "PopulationCenter"
			,"fieldAlias2x": "PopulationCenter"
			,"isSearchable": false
			,"picklistDescription": null
			,"picklistUri": null
			,"picklistParent": null
		},
"populationcentertype": {
	"$ref": "#/definitions/longString"
			,"defaultLabel": "PopulationCenterType"
			,"description": "PopulationCenterType"
			,"fieldAlias2x": "PopulationCenterType"
			,"isSearchable": false
			,"picklistDescription": null
			,"picklistUri": null
			,"picklistParent": null
		},
"primarylocationflag": {
	"type": "boolean"
			,"defaultLabel": "PrimaryLocationFlag"
			,"description": "PrimaryLocationFlag"
			,"fieldAlias2x": "PrimaryLocationFlag"
			,"isSearchable": false
			,"picklistDescription": null
			,"picklistUri": null
			,"picklistParent": null
		},
"province": {
	"$ref": "#/definitions/longString"
			,"defaultLabel": "Province"
			,"description": "Province"
			,"fieldAlias2x": "Province"
			,"isSearchable": false
			,"picklistDescription": null
			,"picklistUri": null
			,"picklistParent": null
		},
"region": {
	"$ref": "#/definitions/longString"
			,"defaultLabel": "Region"
			,"description": "Region"
			,"fieldAlias2x": "Region"
			,"isSearchable": false
			,"picklistDescription": null
			,"picklistUri": null
			,"picklistParent": null
		},
"route": {
	"$ref": "#/definitions/longString"
			,"defaultLabel": "Route"
			,"description": "Route"
			,"fieldAlias2x": "Route"
			,"isSearchable": false
			,"picklistDescription": null
			,"picklistUri": null
			,"picklistParent": null
		},
"selectedgeomtype": {
	"$ref": "#/definitions/longString"
			,"defaultLabel": "SelectedGEOMType"
			,"description": "SelectedGEOMType"
			,"fieldAlias2x": "SelectedGEOMType"
			,"isSearchable": false
			,"picklistDescription": null
			,"picklistUri": null
			,"picklistParent": null
		},
"spare4": {
	"$ref": "#/definitions/longString"
			,"defaultLabel": "Spare4"
			,"description": "Spare4"
			,"fieldAlias2x": "Spare4"
			,"isSearchable": false
			,"picklistDescription": null
			,"picklistUri": null
			,"picklistParent": null
		},
"spare5": {
	"$ref": "#/definitions/longString"
			,"defaultLabel": "Spare5"
			,"description": "Spare5"
			,"fieldAlias2x": "Spare5"
			,"isSearchable": false
			,"picklistDescription": null
			,"picklistUri": null
			,"picklistParent": null
		},
"street": {
	"$ref": "#/definitions/longString"
			,"defaultLabel": "Street"
			,"description": "Street"
			,"fieldAlias2x": "Street"
			,"isSearchable": false
			,"picklistDescription": null
			,"picklistUri": null
			,"picklistParent": null
		},
"structure": {
	"$ref": "#/definitions/longString"
			,"defaultLabel": "Structure"
			,"description": "Structure"
			,"fieldAlias2x": "Structure"
			,"isSearchable": false
			,"picklistDescription": null
			,"picklistUri": null
			,"picklistParent": null
		},
"village": {
	"$ref": "#/definitions/longString"
			,"defaultLabel": "Village"
			,"description": "Village"
			,"fieldAlias2x": "Village"
			,"isSearchable": false
			,"picklistDescription": null
			,"picklistUri": null
			,"picklistParent": null
		},
"zone": {
	"$ref": "#/definitions/longString"
			,"defaultLabel": "Zone"
			,"description": "Zone"
			,"fieldAlias2x": "Zone"
			,"isSearchable": false
			,"picklistDescription": null
			,"picklistUri": null
			,"picklistParent": null
		}
				}
			}
		}
				}
			}
	}
}
