{
    "datamodel": "http://interfaces.dae.smil.mil/schemas/transformationengine/versionDefinition",
    "objectId": "cidne-4.1-association-data",
    "description": "CIDNE 4.1 Association Data Report",
    "displayName": "CIDNE 4.1 Association Data Report"
}