{
  "datamodel" : "http://interfaces.dae.smil.mil/schemas/transformationengine/ruleset",
  "objectId" : "cidne-reportlist-4.1-2.3.5",
  "displayName" : "CIDNE Report List 4.1 to 2.3.5",
  "description" : "This ruleset converts a CIDNE 4.1 report list to a CIDNE 2.3.5 report list",
  "sourceVersionObjectId" : "cidne-4.1-cidne-reportlist",
  "destinationVersionObjectId" : "cidne-2.3.5-cidne-reportlist",
  "rules" : [
    {
      "className" : "com.issinc.ges.interfaces.te.rules.JsonStringToJsonNode"
    },
    {
      "className" : "com.issinc.ges.interfaces.te.rules.RenameNode",
      "path" : "results",
      "name" : "ReportItem"
    },
    {
      "className" : "com.issinc.ges.interfaces.te.rules.RenameNode",
      "path" : "ReportItem.reportName",
      "name" : "ReportName"
    },
    {
      "className" : "com.issinc.ges.interfaces.te.rules.RenameNode",
      "path" : "ReportItem.description",
      "name" : "ReportDescription"
    },
    {
      "className" : "com.issinc.ges.interfaces.te.rules.RenameNode",
      "path" : "ReportItem.module",
      "name" : "Module"
    },
    {
      "className" : "com.issinc.ges.interfaces.te.rules.RenameNode",
      "path" : "ReportItem.reportType",
      "name" : "ReportType"
    },
    {
      "className" : "com.issinc.ges.interfaces.te.rules.JsonNodeToJsonString"
    },
    {
      "className" : "com.issinc.ges.interfaces.te.rules.JsonStringToXmlString",
      "xmlWrapper" : "ReportList"
    }
  ]
}