{
  "datamodel": "http://interfaces.dae.smil.mil/schemas/transformationengine/ruleset",
  "objectId": "picklist_data_2.3.5_4.1_instance",
  "displayName": "CIDNE 2.3.5 Picklist Data to CIDNE 4.1",
  "sourceVersionObjectId": "cidne-2.3.5-picklist-data",
  "destinationVersionObjectId": "cidne-4.1-picklist-data",
  "rules": [
    { "className": "com.issinc.ges.interfaces.te.rules.XmlStringToJsonNode" },
    { "className": "com.issinc.ges.interfaces.te.rules.JsonNodeToJsonString" }
  ]
}