{
  "datamodel" : "http://interfaces.dae.smil.mil/schemas/transformationengine/ruleset",
  "objectId" : "misrep-2.3.5-pilotdebrief-4.1",
  "displayName" : "MISREP data 2.3.5 to PilotDebrief 4.1",
  "description" : "This ruleset converts a single MISREP report to a 4.1 Operations PilotDebrief report",
  "sourceVersionObjectId" : "cidne-2.3.5-misrep-data",
  "destinationVersionObjectId" : "cidne-4.1-operations-pilotdebrief",
  "rules" : [
    {
      "className" : "com.issinc.ges.interfaces.te.rules.JsonStringToJsonNode"
    },
    {
      "className" : "com.issinc.ges.interfaces.te.rules.AddNode",
      "path" : "datamodel",
      "defaultValue" : "http://cidne.dae.smil.mil/schemas/Operations/PilotDebrief/CIDNEDM235"
    },
    {
      "className" : "com.issinc.ges.interfaces.te.rules.AddNode",
      "path" : "formId",
      "defaultValue" : ""
    },
    {
      "className" : "com.issinc.ges.interfaces.te.rules.MoveNode",
      "oldFieldPath" : "id",
      "newFieldPath" : "base.reportId"
    },
    {
      "className" : "com.issinc.ges.interfaces.te.rules.CopyNode",
      "oldFieldPath" : "base.reportId",
      "newFieldPath" : "base.objectId"
    },
    {
      "className" : "com.issinc.ges.interfaces.te.rules.AddNode",
      "path" : "base.module",
      "defaultValue" : "Operations"
    },
    {
      "className" : "com.issinc.ges.interfaces.te.rules.AddNode",
      "path" : "base.reportType",
      "defaultValue" : "PilotDebrief"
    },
    {
      "className" : "com.issinc.ges.interfaces.te.rules.AddNode",
      "path" : "base.theaterFilter",
      "defaultValue" : "CIDNE4-Theater"
    },
    {
      "className" : "com.issinc.ges.interfaces.te.rules.AddNode",
      "path" : "base.isTearline",
      "defaultValue" : "false",
      "dataConversionMethodName" : "convertToBoolean"
    },
    {
      "className" : "com.issinc.ges.interfaces.te.rules.AddNode",
      "path" : "base.currentObjectState.objectState",
      "defaultValue" : "PUBLISHED"
    },
    {
      "className" : "com.issinc.ges.interfaces.te.rules.AddNode",
      "path" : "base.currentObjectState.nationality",
      "defaultValue" : "Unknown"
    },
    {
      "className" : "com.issinc.ges.interfaces.te.rules.AddNode",
      "path" : "base.currentObjectState.network",
      "defaultValue" : "SIPR"
    },
    {
      "className" : "com.issinc.ges.interfaces.te.rules.AddNode",
      "path" : "base.currentObjectState.system",
      "defaultValue" : "MAT"
    },
    {
      "className" : "com.issinc.ges.interfaces.te.rules.AddNode",
      "path" : "base.currentObjectState.site",
      "defaultValue" : "Unknown"
    },
    {
      "className" : "com.issinc.ges.interfaces.te.rules.CopyNode",
      "oldFieldPath" : "poc.pocname",
      "newFieldPath" : "base.currentObjectState.user"
    },
    {
      "className" : "com.issinc.ges.interfaces.te.rules.AddNode",
      "path" : "base.currentObjectState.group",
      "defaultValue" : "Unknown"
    },
    {
      "className" : "com.issinc.ges.interfaces.te.rules.AddNode",
      "path" : "base.currentObjectState.parentGroup",
      "defaultValue" : "Unknown"
    },
    {
      "className" : "com.issinc.ges.interfaces.te.rules.RenameNode",
      "path" : "classification",
      "name" : "security"
    },
    {
      "className" : "com.issinc.ges.interfaces.te.rules.RenameNode",
      "path" : "security.releasability",
      "name" : "ownerProducer",
      "dataConversionMethodName" : "convertReleasableTo"
    },
    {
      "className" : "com.issinc.ges.interfaces.te.rules.CopyNode",
      "oldFieldPath" : "msgid",
      "newFieldPath" : "base.currentObjectState.actionDate.zuluDateTime",
      "dataConversionMethodName" : "convertMilToZuluDateTime"
    },
    {
      "className" : "com.issinc.ges.interfaces.te.rules.AddNode",
      "path" : "base.currentObjectState.actionDate.zuluOffset",
      "defaultValue" : 0
    },
    {
      "className" : "com.issinc.ges.interfaces.te.rules.CopyNode",
      "oldFieldPath" : "msgid",
      "newFieldPath" : "base.reportDate.zuluDateTime",
      "dataConversionMethodName" : "convertMilToZuluDateTime"
    },
    {
      "className" : "com.issinc.ges.interfaces.te.rules.AddNode",
      "path" : "base.reportDate.zuluOffset",
      "defaultValue" : 0
    },
    {
      "className" : "com.issinc.ges.interfaces.te.rules.CopyNode",
      "oldFieldPath" : "msnid.missionnum",
      "newFieldPath" : "base.reportSerial.objectValue"
    },
    {
      "className" : "com.issinc.ges.interfaces.te.rules.CopyNode",
      "oldFieldPath" : "poc.pocname",
      "newFieldPath" : "base.originatingUser"
    },
    {
      "className" : "com.issinc.ges.interfaces.te.rules.CopyNode",
      "oldFieldPath" : "poc.pocorg",
      "newFieldPath" : "base.originatingGroup"
    },
    {
      "className" : "com.issinc.ges.interfaces.te.rules.CopyNode",
      "oldFieldPath" : "security",
      "newFieldPath" : "base.reportSerial.security"
    },
    {
      "className" : "com.issinc.ges.interfaces.te.rules.CopyNode",
      "oldFieldPath" : "msnid.missiontype",
      "newFieldPath" : "base.reportTitle.objectValue"
    },
    {
      "className" : "com.issinc.ges.interfaces.te.rules.CopyNode",
      "oldFieldPath" : "security",
      "newFieldPath" : "base.reportTitle.security"
    },
    {
      "className" : "com.issinc.ges.interfaces.te.rules.CopyNode",
      "oldFieldPath" : "msnid.missiontype",
      "newFieldPath" : "base.reportSummary.objectValue"
    },
    {
      "className" : "com.issinc.ges.interfaces.te.rules.CopyNode",
      "oldFieldPath" : "security",
      "newFieldPath" : "base.reportSummary.security"
    },
    {
      "className" : "com.issinc.ges.interfaces.te.rules.CopyNode",
      "oldFieldPath" : "msnid.missionnum",
      "newFieldPath" : "details.missionnumber"
    },
    {
      "className" : "com.issinc.ges.interfaces.te.rules.CopyNode",
      "oldFieldPath" : "msnid.missiontype",
      "newFieldPath" : "details.airmissiontype"
    },
    {
      "className" : "com.issinc.ges.interfaces.te.rules.MoveNode",
      "oldFieldPath" : "fltdtail",
      "newFieldPath" : "details.aircraft"
    },
    {
      "className" : "com.issinc.ges.interfaces.te.rules.RenameNode",
      "path" : "details.aircraft.actype",
      "name" : "aircrafttype"
    },
    {
      "className" : "com.issinc.ges.interfaces.te.rules.RenameNode",
      "path" : "details.aircraft.callsign",
      "name" : "callsign"
    },
    {
      "className" : "com.issinc.ges.interfaces.te.rules.CopyNode",
      "oldFieldPath" : "msnid.missiontype",
      "newFieldPath" : "details.aircraft.role"
    },
    {
      "className" : "com.issinc.ges.interfaces.te.rules.RenameNode",
      "path" : "details.aircraft.numac",
      "name" : "numberacftinvolved"
    },
    {
      "className" : "com.issinc.ges.interfaces.te.rules.CopyNode",
      "oldFieldPath" : "oper.oper",
      "newFieldPath" : "details.operationsupported"
    },
    {
      "className" : "com.issinc.ges.interfaces.te.rules.MoveNode",
      "oldFieldPath" : "safire",
      "newFieldPath" : "details.safire"
    },
    {
      "className" : "com.issinc.ges.interfaces.te.rules.RenameNode",
      "path" : "details.safire.acairspeed",
      "name" : "airspeed",
      "dataConversionMethodName" : "convertToNumber"
    },
    {
      "className" : "com.issinc.ges.interfaces.te.rules.RenameNode",
      "path" : "details.safire.acaltitude",
      "name" : "minimumflightlevel",
      "dataConversionMethodName" : "convertToNumber"
    },
    {
      "className" : "com.issinc.ges.interfaces.te.rules.RenameNode",
      "path" : "details.safire.acheading",
      "name" : "heading",
      "dataConversionMethodName" : "convertToNumber"
    },
    {
      "className" : "com.issinc.ges.interfaces.te.rules.CopyNode",
      "oldFieldPath" : "details.safire.aclocation.coordinate",
      "newFieldPath" : "mgrsacft"
    },
    {
      "className" : "com.issinc.ges.interfaces.te.rules.CopyNode",
      "oldFieldPath" : "details.safire.aclocation.latitude",
      "newFieldPath" : "latitudeacft"
    },
    {
      "className" : "com.issinc.ges.interfaces.te.rules.CopyNode",
      "oldFieldPath" : "details.safire.aclocation.longitude",
      "newFieldPath" : "longitudeacft"
    },
    {
      "className" : "com.issinc.ges.interfaces.te.rules.RenameNode",
      "path" : "details.safire.bearingfromac",
      "name" : "originrelativetoac"
    },
    {
      "className" : "com.issinc.ges.interfaces.te.rules.RenameNode",
      "path" : "details.safire.comments",
      "name" : "summary"
    },
    {
      "className" : "com.issinc.ges.interfaces.te.rules.RenameNode",
      "path" : "details.safire.estimatedpoo",
      "name" : "pointoforigin"
    },
    {
      "className" : "com.issinc.ges.interfaces.te.rules.RenameNode",
      "path" : "details.safire.guidance",
      "name" : "apparentguidance"
    },
    {
      "className" : "com.issinc.ges.interfaces.te.rules.RenameNode",
      "path" : "details.safire.typesafire",
      "name" : "suspectedweapontype"
    },
    {
      "className" : "com.issinc.ges.interfaces.te.rules.RenameNode",
      "path" : "details.safire.projectileapexaltitude",
      "name" : "heightoftrajectory",
      "dataConversionMethodName" : "convertToNumber"
    },
    {
      "className" : "com.issinc.ges.interfaces.te.rules.MATLocation",
      "fromPath" : "acloss",
      "locationType" : "A/C Loss",
      "latitudePath" : "location.latitude",
      "longitudePath" : "location.longitude",
      "idPath" : "id",
      "descriptionPaths" : "callsign,actype,cause,crewstatus",
      "format" : "%s(%s) - %s - %s"
    },
    {
      "className" : "com.issinc.ges.interfaces.te.rules.MATLocation",
      "fromPath" : "airdrop",
      "locationType" : "AirDrop",
      "latitudePath" : "location.latitude",
      "longitudePath" : "location.longitude",
      "idPath" : "id",
      "descriptionPaths" : "numdropped,success,comments",
      "format" : "%s(%s) - %s"
    },
    {
      "className" : "com.issinc.ges.interfaces.te.rules.MATLocation",
      "fromPath" : "atkobs",
      "locationType" : "Attack OBS",
      "latitudePath" : "tgtlocation.latitude",
      "longitudePath" : "tgtlocation.longitude",
      "idPath" : "id",
      "descriptionPaths" : "accallsign,actype,weaponemployed,tgtname,bdaresult,comments",
      "format" : "%s(%s) dropped %s on %s. BDA: %s  Comments:%s"
    },
    {
      "className" : "com.issinc.ges.interfaces.te.rules.MATLocation",
      "fromPath" : "emi",
      "locationType" : "EM Interference",
      "latitudePath" : "location.latitude",
      "longitudePath" : "location.longitude",
      "idPath" : "id",
      "descriptionPaths" : "typeofinterference,frequency,duration,description,comments",
      "format" : "Interference Type:%s Frequency:%s Duration:%s Description:%s Comments:%s"
    },
    {
      "className" : "com.issinc.ges.interfaces.te.rules.MATLocation",
      "fromPath" : "enincept",
      "locationType" : "A/C Intercepted",
      "latitudePath" : "location.latitude",
      "longitudePath" : "location.longitude",
      "idPath" : "id",
      "descriptionPaths" : "numsighted,nationality,actype,comments",
      "format" : "%s %s %s intercepted this aircraft Comments:%s"
    },
    {
      "className" : "com.issinc.ges.interfaces.te.rules.MATLocation",
      "fromPath" : "esm",
      "locationType" : "Electronic Support Measure",
      "latitudePath" : "location.latitude",
      "longitudePath" : "location.longitude",
      "idPath" : "id",
      "descriptionPaths" : "symreceived,interceptbearing,interceptdistance,comments",
      "format" : "'%s' symbol indicated bearing '%s' at distance '%s' from this location. Comments:%s"
    },
    {
      "className" : "com.issinc.ges.interfaces.te.rules.MATLocation",
      "fromPath" : "groundfire",
      "locationType" : "Groundfire",
      "latitudePath" : "location.latitude",
      "longitudePath" : "location.longitude",
      "idPath" : "id",
      "descriptionPaths" : "enemyunit,enemyunit,comments",
      "format" : "%s spotted firing %s on the ground. Comments:%s"
    },
    {
      "className" : "com.issinc.ges.interfaces.te.rules.MATLocation",
      "fromPath" : "harm",
      "locationType" : "Homing Antiradation Missile (HARM)",
      "latitudePath" : "tgtlocation.latitude",
      "longitudePath" : "tgtlocation.longitude",
      "idPath" : "id",
      "descriptionPaths" : "ordnancenumemployed,ordnancetype,targetsystem,comments",
      "format" : "A/C Launched %s %s at %s. Comments:%s"
    },
    {
      "className" : "com.issinc.ges.interfaces.te.rules.MATLocation",
      "fromPath" : "ircm",
      "locationType" : "IR Counter Measure Deployed",
      "latitudePath" : "location.latitude",
      "longitudePath" : "location.longitude",
      "idPath" : "id",
      "descriptionPaths" : "systemtype,indication,comments",
      "format" : "A/C Launched IR Contermeasure %s with indication %s. Comments:%s"
    },
    {
      "className" : "com.issinc.ges.interfaces.te.rules.MATLocation",
      "fromPath" : "isr",
      "locationType" : "ISR Event",
      "latitudePath" : "location.latitude",
      "longitudePath" : "location.longitude",
      "idPath" : "id",
      "descriptionPaths" : "missiontype,sensor,refno,description,comments",
      "format" : "ISR mission %s(%s) ISO %s. Description:%s Comments:%s"
    },
    {
      "className" : "com.issinc.ges.interfaces.te.rules.MATLocation",
      "fromPath" : "lasing",
      "locationType" : "Lasing Event",
      "latitudePath" : "location.latitude",
      "longitudePath" : "location.longitude",
      "idPath" : "id",
      "descriptionPaths" : "lasercolor,estimatedpoo,description,comments",
      "format" : "Laser color:%s POO(Est.):%s. Description:%s Comments:%s"
    },
    {
      "className" : "com.issinc.ges.interfaces.te.rules.MATLocation",
      "fromPath" : "mws",
      "locationType" : "Missile Warning",
      "latitudePath" : "location.latitude",
      "longitudePath" : "location.longitude",
      "idPath" : "id",
      "descriptionPaths" : "symbolreceived,flaresdispensed,numflaresdispensed,ivo,comments",
      "format" : "Indication:%s Flares:%s(%s). KillBox/Keypad:%s Comments:%s"
    },
    {
      "className" : "com.issinc.ges.interfaces.te.rules.MATLocation",
      "fromPath" : "rescue",
      "locationType" : "Rescue Mission",
      "latitudePath" : "isopersonnellocation.latitude",
      "longitudePath" : "isopersonnellocation.longitude",
      "idPath" : "id",
      "descriptionPaths" : "isopersonnelcallsign,callsign,isopersonnelcondition,comments",
      "format" : "%s was rescued by %s in %s condition. Comments:%s"
    },
    {
      "className" : "com.issinc.ges.interfaces.te.rules.MATLocation",
      "fromPath" : "sighting",
      "locationType" : "Sighting",
      "latitudePath" : "location.latitude",
      "longitudePath" : "location.longitude",
      "idPath" : "id",
      "descriptionPaths" : "description,comments",
      "format" : "Description:%s Comments:%s"
    },
    {
      "className" : "com.issinc.ges.interfaces.te.rules.MATLocation",
      "fromPath" : "sop",
      "locationType" : "SOP",
      "latitudePath" : "location.latitude",
      "longitudePath" : "location.longitude",
      "idPath" : "id",
      "descriptionPaths" : "comments",
      "format" : "Comments:%s"
    },
    {
      "className" : "com.issinc.ges.interfaces.te.rules.MATLocation",
      "fromPath" : "surv",
      "locationType" : "Surv",
      "latitudePath" : "locationdetected.latitude",
      "longitudePath" : "locationdetected.longitude",
      "idPath" : "id",
      "descriptionPaths" : "systemtype,indication,comments",
      "format" : "A/C Launched IR Contermeasure %s with indication %s. Comments:%s"
    },
    {
      "className" : "com.issinc.ges.interfaces.te.rules.MATLocation",
      "fromPath" : "tgtpos",
      "locationType" : "TGTPOS",
      "latitudePath" : "dmpilocation.latitude",
      "longitudePath" : "dmpilocation.longitude",
      "idPath" : "id",
      "descriptionPaths" : "comments",
      "format" : "Comments:%s"
    },
    {
      "className" : "com.issinc.ges.interfaces.te.rules.MATLocation",
      "fromPath" : "tgttrk",
      "locationType" : "TGTTRK",
      "latitudePath" : "tgtstartlocation.latitude",
      "longitudePath" : "tgtstartlocation.longitude",
      "idPath" : "id",
      "descriptionPaths" : "tgtnumber,comments",
      "format" : "TGTTRK-%s-Start. Comments:%s"
    },
    {
      "className" : "com.issinc.ges.interfaces.te.rules.DeleteNode",
      "path" : "acloss"
    },
    {
      "className" : "com.issinc.ges.interfaces.te.rules.DeleteNode",
      "path" : "airdrop"
    },
    {
      "className" : "com.issinc.ges.interfaces.te.rules.DeleteNode",
      "path" : "atkobs"
    },
    {
      "className" : "com.issinc.ges.interfaces.te.rules.DeleteNode",
      "path" : "attachment"
    },
    {
      "className" : "com.issinc.ges.interfaces.te.rules.DeleteNode",
      "path" : "details.aircraft.acequip"
    },
    {
      "className" : "com.issinc.ges.interfaces.te.rules.DeleteNode",
      "path" : "details.safire.aclocation"
    },
    {
      "className" : "com.issinc.ges.interfaces.te.rules.DeleteNode",
      "path" : "ea"
    },
    {
      "className" : "com.issinc.ges.interfaces.te.rules.DeleteNode",
      "path" : "emi"
    },
    {
      "className" : "com.issinc.ges.interfaces.te.rules.DeleteNode",
      "path" : "enincept"
    },
    {
      "className" : "com.issinc.ges.interfaces.te.rules.DeleteNode",
      "path" : "esm"
    },
    {
      "className" : "com.issinc.ges.interfaces.te.rules.DeleteNode",
      "path" : "ew"
    },
    {
      "className" : "com.issinc.ges.interfaces.te.rules.DeleteNode",
      "path" : "gentext"
    },
    {
      "className" : "com.issinc.ges.interfaces.te.rules.DeleteNode",
      "path" : "groundfire"
    },
    {
      "className" : "com.issinc.ges.interfaces.te.rules.DeleteNode",
      "path" : "harm"
    },
    {
      "className" : "com.issinc.ges.interfaces.te.rules.DeleteNode",
      "path" : "iatid"
    },
    {
      "className" : "com.issinc.ges.interfaces.te.rules.DeleteNode",
      "path" : "ircm"
    },
    {
      "className" : "com.issinc.ges.interfaces.te.rules.DeleteNode",
      "path" : "isr"
    },
    {
      "className" : "com.issinc.ges.interfaces.te.rules.DeleteNode",
      "path" : "lasing"
    },
    {
      "className" : "com.issinc.ges.interfaces.te.rules.DeleteNode",
      "path" : "msgid"
    },
    {
      "className" : "com.issinc.ges.interfaces.te.rules.DeleteNode",
      "path" : "msnid"
    },
    {
      "className" : "com.issinc.ges.interfaces.te.rules.DeleteNode",
      "path" : "mws"
    },
    {
      "className" : "com.issinc.ges.interfaces.te.rules.DeleteNode",
      "path" : "narr"
    },
    {
      "className" : "com.issinc.ges.interfaces.te.rules.DeleteNode",
      "path" : "oper"
    },
    {
      "className" : "com.issinc.ges.interfaces.te.rules.DeleteNode",
      "path" : "poc"
    },
    {
      "className" : "com.issinc.ges.interfaces.te.rules.DeleteNode",
      "path" : "reporttext"
    },
    {
      "className" : "com.issinc.ges.interfaces.te.rules.DeleteNode",
      "path" : "rescue"
    },
    {
      "className" : "com.issinc.ges.interfaces.te.rules.DeleteNode",
      "path" : "sighting"
    },
    {
      "className" : "com.issinc.ges.interfaces.te.rules.DeleteNode",
      "path" : "sof"
    },
    {
      "className" : "com.issinc.ges.interfaces.te.rules.DeleteNode",
      "path" : "sop"
    },
    {
      "className" : "com.issinc.ges.interfaces.te.rules.DeleteNode",
      "path" : "surv"
    },
    {
      "className" : "com.issinc.ges.interfaces.te.rules.DeleteNode",
      "path" : "tarwi"
    },
    {
      "className" : "com.issinc.ges.interfaces.te.rules.DeleteNode",
      "path" : "tgtpos"
    },
    {
      "className" : "com.issinc.ges.interfaces.te.rules.DeleteNode",
      "path" : "tgttrk"
    },
    {
      "className" : "com.issinc.ges.interfaces.te.rules.JsonNodeToJsonString"
    }
  ]
}