{
    "datamodel": "http://interfaces.dae.smil.mil/schemas/transformationengine/versionDefinition",
    "objectId": "cidne-2.3.5-picklist-data",
    "description": "CIDNE 2.3.5 Picklist Data Report",
    "displayName": "CIDNE 2.3.5 Picklist Data Report"
}