{
  "type": "object",
  "project": "DAE Interfaces",
  "id": "http://interfaces.dae.smil.mil/schemas/transformationengine/queryParameter",
  "description": "DAE Interfaces Query Parameter Schema",
  "definitions": {
    "shortStringRequired": {
      "type": "string",
      "maxLength": 60
    },
    "longStringRequired": {
      "type": "string",
      "maxLength": 500
    },
    "textRequired": {
      "type": "string"
    },
    "shortString": {
      "type": ["string","null"],
      "maxLength": 50
    },
    "longString": {
      "type": [
        "string", "null"
      ],
      "maxLength": 500
    },
    "text": {
      "type": [
        "string", "null"
      ]
    },
    "aliasTypeRequired": {
      "type": "object",
      "properties": {
        "fieldAlias2x": {
          "$ref": "#/definitions/longStringRequired",
          "description": "The name of the CIDNE 2.X parameter (alias)"
        },
        "fourXmapping": {
          "$ref": "#/definitions/longStringRequired",
          "description": "The XPath of the CIDNE 4.X schema property that the 2.X parameter maps to"
        }
      },
      "required": [
        "fieldAlias2x",
        "fourXmapping"
      ]
    }
  },
  "properties": {
    "datamodel": {
      "$ref": "#/definitions/longStringRequired",
      "description": "Query Parameter schema id."
    },
    "objectId": {
      "$ref": "#/definitions/longStringRequired",
      "description": "Query Parameter unique identifier."
    },
    "type": {
      "$ref": "#/definitions/shortStringRequired",
      "description": "Query Parameter type (e.g. report or association)"
    },
    "version": {
      "$ref": "#/definitions/shortStringRequired",
      "description": "Version of the schema in which this Query Parameter is defined"
    },
    "module": {
      "$ref": "#/definitions/shortStringRequired",
      "description": "The module name of the schema in which this Query Parameter is defined"
    },
    "reportType": {
      "$ref": "#/definitions/shortStringRequired",
      "description": "The reportType of the schema in which this Query Parameter is defined"
    },
    "aliases": {
      "type": "array",
      "description": "The set of CIDNE 2.X aliases and their CIDNE 4.X mappings",
      "items": {
        "$ref": "#/definitions/aliasTypeRequired"
      }
    }
  },
  "required": [
    "datamodel",
    "objectId",
    "type"
  ]
}