{
  "type": "object",
  "project": "DAE Interfaces",
  "id": "http://interfaces.dae.smil.mil/schemas/transformationengine/ruleset",
  "description": "DAE Interfaces RuleSet Schema",
  "definitions": {
    "shortStringRequired": {
      "type": "string",
      "maxLength": 100
    },
    "longStringRequired": {
      "type": "string",
      "maxLength": 500
    },
    "textRequired": {
      "type": "string"
    },
    "shortString": {
      "type": [
        "string",
        "null"
      ],
      "maxLength": 100
    },
    "longString": {
      "type": [
        "string",
        "null"
      ],
      "maxLength": 500
    },
    "text": {
      "type": [
        "string",
        "null"
      ]
    },
    "ruleTypeRequired": {
      "type": "object",
      "properties": {
        "className": {
          "$ref": "#/definitions/longStringRequired",
          "description": "Name of the Java class that implements the rule"
        },
        "ruleSetObjectId": {
          "$ref": "#/definitions/longStringRequired",
          "description": "Foreign Key to a rule set"
        },
        "xmlWrapper": {
          "type": "string",
          "description": "XML wrapper value for 4.x to 2.x transforms"
        },
        "queryParamName": {
          "type": "string",
          "description": "The 4.x equivalent query param name for the 2.x request"
        },
        "name": {
          "type": "string",
          "description": "The new name for the rename node"
        },
        "path": {
          "type": "string",
          "description": "The path to retrieve data from"
        },
        "oldFieldPath": {
          "type": "string",
          "description": "The path to retrieve data from"
        },
        "newFieldPath": {
          "type": "string",
          "description": "The path to place the data"
        },
        "dataConversionMethodName": {
          "type": "string",
          "description": "Name of the method to convert the data"
        },
        "parameter1": {
          "type": "string",
          "description": "The first parameter to the data conversion method"
        },
        "parameter2": {
          "type": "string",
          "description": "The second parameter to the data conversion method"
        },
        "defaultValue": {
          "oneOf": [
            { "type" : "string"},
            { "type" : "number"},
            { "type" : "boolean"}
          ],
          "description": "Default value for the child rule"
        }
      },
      "oneOf": [
        {"required" : ["ruleSetObjectId"]},
        {"required" : ["className"]}
      ]
    }
  },
  "properties": {
    "datamodel": {
      "$ref": "#/definitions/longStringRequired",
      "description": "Reference to the ruleSet schema id."
    },
    "objectId": {
      "$ref": "#/definitions/shortStringRequired",
      "description": "RuleSet unique identifier"
    },
    "displayName": {
      "$ref": "#/definitions/longStringRequired",
      "description": "Version Definition readable name"
    },
    "description": {
      "$ref": "#/definitions/text",
      "description": "Version Definition unique identifier"
    },
    "sourceVersionObjectId": {
      "$ref": "#/definitions/shortStringRequired",
      "description": "The objectId of the version of the data that this ruleSet is designed to transform"
    },
    "destinationVersionObjectId": {
      "$ref": "#/definitions/shortStringRequired",
      "description": "The objectId of the target version that this ruleSet transforms to"
    },
    "rules": {
      "type": "array",
      "description": "The set of rules that make up the ruleSet",
      "items": {
        "$ref": "#/definitions/ruleTypeRequired"
      }
    }
  },
  "required": [
    "datamodel",
    "displayName",
    "sourceVersionObjectId",
    "destinationVersionObjectId"
  ]
}