	
{
    "type": "object",
    "id": "http://cidne.dae.smil.mil/schemas/Operations/PilotDebrief/CIDNEDM235",
    "description": "CIDNE Operations PilotDebrief Report Definition",
    "definitions": {
        "shortStringRequired": {
            "type": "string",
            "maxLength": 50
        },
        "longStringRequired": {
            "type": "string",
            "maxLength": 500
        },
        "textRequired": {
            "type": "string"
        },
        "textFieldLevelRequired": {
            "type": "object",
            "properties": {
                "objectValue": {
                    "type": "string"
                },
                "security": {
					"$ref": "#/definitions/security"
				}
            },
            "required": [
                "objectValue",
                "security"
            ]
        },
        "dateTimeRequired": {
            "type": "object",
            "properties": {
                "zuluDateTime": {
                    "type": "string",
                    "format": "date-time"
                },
                "zuluOffset": {
                    "type": "integer",
					"minimum": -840,
					"maximum": 840,
                    "description": "Offset in minutes from Zulu"
                }
            },
            "required": [
                "zuluDateTime",
                "zuluOffset"
            ]
        },
        "latitude_ddsRequired": {
            "type": "number",
            "minimum": -90,
            "maximum": 90
        },
        "longitude_ddsRequired": {
            "type": "number",
            "minimum": -180,
            "maximum": 180
        },
        "positive_intRequired": {
            "type": "integer",
            "minimum": 0
        },
        "positive_numRequired": {
            "type": "number",
            "minimum": 0
        },
        "positive_intRequired": {
            "type": "integer",
            "minimum": 0
        },
        "shortString": {
            "type": ["string","null"],
            "maxLength": 50
        },
        "longString": {
            "type": ["string","null"],
            "maxLength": 500
        },
        "text": {
            "type": ["string","null"]
        },
        "textFieldLevel": {
            "type": "object",
            "properties": {
                "objectValue": {
                    "type": ["string","null"]
                },
                "security": {
					"$ref": "#/definitions/securityOptional"
				}
            },
            "required": [
                "objectValue",
                "security"
            ]
        },
        "dateTime": {
            "type": ["object","null"],
            "properties": {
                "zuluDateTime": {
                    "type": "string",
                    "format": "date-time"
                },
                "zuluOffset": {
                    "type": "integer",
					"minimum": -840,
					"maximum": 840,
                    "description": "Offset in minutes from Zulu"
                }
            },
            "required": [
                "zuluDateTime",
                "zuluOffset"
            ]
        },
        "latitude_dds": {
            "type": ["number","null"],
            "minimum": -90,
            "maximum": 90
        },
        "longitude_dds": {
            "type": ["number","null"],
            "minimum": -180,
            "maximum": 180
        },
        "positive_int": {
            "type": ["integer","null"],
            "minimum": 0
        },
        "positive_num": {
            "type": ["number","null"],
            "minimum": 0
        },
        "num": {
            "type": ["number","null"]
        },
        "uniqueStringArray": {
            "type": "array",
            "uniqueItems": true,
            "items": {
                "type": "string"
            }
        },
        "securityOptional": {
            "oneOf": [
                {
                    "type": "null"
                },
                {
                    "$ref": "#/definitions/security"
                }
            ]
        },
        "security": {
            "type": "object",
            "properties": {
                "atomicEnergyMarkings": {
                    "$ref": "#/definitions/shortString",
                    "description": "Atomic Energy Act Information Markings"
                },
                "classificationReason": {
                    "$ref": "#/definitions/longString",
                    "description": ": Concise reason for classification"
                },
                "classification": {
                    "enum": [ "U", "TS", "S", "C" ],
                    "description": "Classification of information",
                    "defaultLabel": "Classification",
                    "isSearchable": false,
                    "picklistName": "classification",
                    "picklistUri": "http://cidne.dae.smil.mil/schemas/CAPCO/classification",
                    "picklistParent": null
                    
                },
                "classifiedBy": {
                    "$ref": "#/definitions/longString",
                    "description": "Identification by name and position, or personal identifier of the OCA"
                },
                "compilationReason": {
                    "$ref": "#/definitions/longString",
                    "description": "Reason why the compilation of information causes the classification"
                },
                "declassDate": {
                    "$ref": "#/definitions/dateTime",
                    "description": "Declassification date"
                },
                "declassEvent": {
                    "$ref": "#/definitions/shortString",
                    "description": "Declassification event"
                },
                "declassException": {
                    "$ref": "#/definitions/longString",
                    "description": "Declassification exception"
                },
                "derivativelyClassifiedBy": {
                    "$ref": "#/definitions/longString",
                    "description": "The derivative classifier’s identification by name and position, or by personal identifier, in a manner that is immediately apparent on each derivatively classified document. If not otherwise evident, the agency and office of origin shall be identified"
                },
                "derivedFrom": {
                    "$ref": "#/definitions/shortString",
                    "description": "Concisely identify the source document or the classification guide"
                },
                "displayOnlyTo": {
                    "$ref": "#/definitions/longString",
                    "description": "List of foreign country(ies)/international organization(s) authorized for disclosure without providing the recipient with a physical copy for retention, regardless of medium to the foreign country(ies)/international organization(s) indicated"
                },
                "disseminationControls": {
                    "$ref": "#/definitions/longString",
                    "description": "Control markings that identify the expansion or limitation on the distribution of information. These markings are in addition to and separate from the levels of classification"
                },
                "FGIsourceOpen": {
                    "$ref": "#/definitions/shortString",
                    "description": "Open Source Foreign Government Information"
                },
                "FGIsourceProtected": {
                    "$ref": "#/definitions/shortString",
                    "description": "Protected Source Foreign Government Information"
                },
                "nonICmarkings": {
                    "$ref": "#/definitions/text",
                    "description": "Markings authorized for use by entities outside of the Intelligence Community"
                },
                "nonUSControls": {
                    "$ref": "#/definitions/shortString",
                    "description": "Non-US protective markings"
                },
                "ownerProducer": {
                    "$ref": "#/definitions/shortStringRequired",
                    "description": "Owner/Producer",
                    "default": "USA",
                    "defaultLabel": "Owner Producer",
                    "isSearchable": false,
                    "picklistName": "ownerProducer",
                    "picklistUri": "http://cidne.dae.smil.mil/schemas/CAPCO/ownerProducer",
                    "picklistParent": null
                },
                "releasableToFilterField": {
                    "$ref": "#/definitions/shortString",
                    "description": "Need to add CAPCO Descriptions"
                },
                "releasableTo": {
                    "$ref": "#/definitions/text",
                    "description": "List of countries releasable to",
                    "defaultLabel": "Releasable To",
                    "isSearchable": false,
                    "picklistName": "releasableTo",
                    "picklistUri": "http://cidne.dae.smil.mil/schemas/CAPCO/releasableTo",
                    "picklistParent": null
                },
                "SARIdentifier": {
                    "$ref": "#/definitions/shortString",
                    "description": "Special access required programs"
                },
                "SCIcontrols": {
                    "$ref": "#/definitions/longString",
                    "description": "Sensitive Compartmented Information (SCI) control systems"
                }
            },
            "required": [
                "ownerProducer",
                "classification"
            ]
        },
        "actionInfo":{
            "type": "object",
            "properties": {
                "actionDate": {
                    "$ref": "#/definitions/dateTimeRequired",
                    "description": "Date Time Action was taken"
                },
                "group": {
                    "$ref": "#/definitions/longStringRequired",
                    "description": "User Group that performed action"
                },
                "parentGroup": {
                    "$ref": "#/definitions/longString",
                    "description": "User Group's Parent Group Name"
                },
                "nationality": {
                    "$ref": "#/definitions/shortStringRequired",
                    "description": "User Nationality"
                },
                "network": {
                    "$ref": "#/definitions/shortStringRequired",
                    "description": "Systems Network where action was taken"
                },
                "objectState": {
                    "description": "",
                    "enum": [
                        "CREATED",
                        "MODIFIED",
                        "TEMPLATE",
                        "SUBMITTED",
                        "PUBLISHED",
                        "VERSIONED",
                        "DEPRECATED",
                        "VALIDATING",
                        "RESTORED",
                        "MOVED"
                    ]
                },
                "site": {
                    "$ref": "#/definitions/shortStringRequired",
                    "description": "Systems Site"
                },
                "system": {
                    "$ref": "#/definitions/shortStringRequired",
                    "description": "System that provided the action"
                },
                "user": {
                    "$ref": "#/definitions/shortStringRequired",
                    "description": "User that performed action"
                }
            },
            "required": [
                "actionDate",
                "group",
                "parentGroup",
                "nationality",
                "network",
                "objectState",
                "site",
                "system",
                "user"
            ]
        },
        "position": {
            "description": "A single position. (order should be longitude,latitude)",
            "type": "array",
            "minItems": 2,
            "items": [
                {
                    "type": "number"
                },
                {
                    "type": "number"
                }
            ],
            "additionalItems": false
        },
        "positionArray": {
            "description": "An array of positions",
            "type": "array",
            "items": {
                "$ref": "#/definitions/position"
            }
        },
        "lineString": {
            "description": "An array of two or more positions",
            "allOf": [
                {
                    "type": "array",
                    "items": {
                        "$ref": "#/definitions/position"
                    }
                },
                {
                    "minItems": 2
                }
            ]
        },
        "linearRing": {
            "description": "An array of four positions where the first equals the last",
            "allOf": [
                {
                    "type": "array",
                    "items": {
                        "$ref": "#/definitions/position"
                    }
                },
                {
                    "minItems": 4
                }
            ]
        },
        "polygon": {
            "description": "An array of linear rings",
            "type": "array",
            "items": {
                "$ref": "#/definitions/linearRing"
            }
        },
        "geometry": {
            "title": "geometry",
            "description": "One geometry as defined by GeoJSON",
            "type": "object",
            "required": [
                "type",
                "coordinates"
            ],
            "oneOf": [
                {
                    "title": "Point",
                    "properties": {
                        "type": {
                            "enum": [
                                "Point"
                            ]
                        },
                        "coordinates": {
                            "$ref": "#/definitions/position"
                        }
                    }
                },
                {
                    "title": "MultiPoint",
                    "properties": {
                        "type": {
                            "enum": [
                                "MultiPoint"
                            ]
                        },
                        "coordinates": {
                            "type": "array",
                            "items": {
                                "$ref": "#/definitions/position"
                            }
                        }
                    }
                },
                {
                    "title": "LineString",
                    "properties": {
                        "type": {
                            "enum": [
                                "LineString"
                            ]
                        },
                        "coordinates": {
                            "$ref": "#/definitions/lineString"
                        }
                    }
                },
                {
                    "title": "MultiLineString",
                    "properties": {
                        "type": {
                            "enum": [
                                "MultiLineString"
                            ]
                        },
                        "coordinates": {
                            "type": "array",
                            "items": {
                                "$ref": "#/definitions/lineString"
                            }
                        }
                    }
                },
                {
                    "title": "Polygon",
                    "properties": {
                        "type": {
                            "enum": [
                                "Polygon"
                            ]
                        },
                        "coordinates": {
                            "$ref": "#/definitions/polygon"
                        }
                    }
                },
                {
                    "title": "MultiPolygon",
                    "properties": {
                        "type": {
                            "enum": [
                                "MultiPolygon"
                            ]
                        },
                        "coordinates": {
                            "type": "array",
                            "items": {
                                "$ref": "#/definitions/polygon"
                            }
                        }
                    }
                }
            ]
        },
        "geometryCollection": {
            "title": "GeometryCollection",
            "description": "A collection of geometry objects",
            "required": [
                "geometries"
            ],
            "properties": {
                "type": {
                    "enum": [
                        "GeometryCollection"
                    ]
                },
                "geometries": {
                    "type": "array",
                    "items": {
                        "$ref": "#/definitions/geometry"
                    }
                }
            }
        },
        "feature": {
            "title": "Feature",
            "description": "A Geo JSON feature object",
            "required": [
                "geometry"
            ],
            "properties": {
                "type": {
                    "enum": [
                        "Feature"
                    ]
                },
                "geometry": {
                    "oneOf": [
                        {
                            "type": "null"
                        },
                        {
                            "$ref": "#/definitions/geometry"
                        }
                    ]
                },
				"properties": { "type": [ "object", "null" ] },
                "id": { "type":["string"] }
            }
        },
        "featureCollection": {
            "description": "A GeoJSON feature collection",
            "required": [
                "features"
            ],
            "properties": {
                "type": {
                    "enum": [
                        "FeatureCollection"
                    ]
                },
                "features": {
                    "type": "array",
                    "items": {
                        "$ref": "#/definitions/feature"
                    }
                }
            }
        },
		"namedCrs": {
            "properties": {
                "type": { "enum": [ "name" ] },
                "properties": {
                    "required": [ "name" ],
                    "additionalProperties": false,
                    "properties": {
                        "name": {
                            "type": "string"
                        }
                    }
                }
            }
        },
        "linkedObject": {
            "type": "object",
            "required": [ "href" ],
            "properties": {
                "href": {
                    "type": "string",
                    "format": "uri"
                },
                "type": {
                    "type": "string",
                    "description": "Suggested values: proj4, ogjwkt, esriwkt"
                }
            }
        },
        "linkedCrs": {
            "properties": {
                "type": { "enum": [ "link" ] },
                "properties": { "$ref": "#/definitions/linkedObject" }
            }
        },	
		"crs":{
			"title": "crs",
			"description": "a Coordinate Reference System object",
			"type": [ "object", "null" ],
			"required": [ "type", "properties" ],
			"properties": {
				"type": { "type": "string" },
				"properties": { "type": "object" }
			},
			"additionalProperties": false,
			"oneOf": [
				{ "$ref": "#/definitions/namedCrs" },
				{ "$ref": "#/definitions/linkedCrs" }
			]
		},
		"bbox":{
		"description": "A bounding box as defined by GeoJSON",
			"type": "array",
			"items": { "type": "number" }
		},
        "geojson": {
            "title": "Geo JSON object",
            "description": "Schema for a Geo JSON object",
            "type": ["object","null"],
            "required": [
                "type"
            ],
			"properties": {
				"crs": { "$ref": "#/definitions/crs" },
				"bbox": { "$ref": "#/definitions/bbox" }
			},
            "anyOf": [
                {
                    "$ref": "#/definitions/geometry"
                },
                {
                    "$ref": "#/definitions/geometryCollection"
                },
                {
                    "$ref": "#/definitions/feature"
                },
                {
                    "$ref": "#/definitions/featureCollection"
                }
            ]
        }
    },
    "required": [
        "base",
        "datamodel",
        "formId",
        "location",
        "security",
        "details"
    ],	
    "properties": {
        "datamodel": {
            "$ref": "#/definitions/longString",
            "description": "Reference to the report definition."
        },
        "formId": {
            "$ref": "#/definitions/longString",
            "description": "Reference to the layout template identifier that this data was intended to be best visualized"
        },
        "base": {
            "type": "object",
            "description": "The core metadata used within all report definitions",
            "properties": {
                "objectId": {
                    "$ref": "#/definitions/shortStringRequired",
                    "description": "Report instance unique identifier"
                },
                "reportId": {
                    "$ref": "#/definitions/shortStringRequired",
                    "description": "Original report instance objectId for a report version grouping. (i.e. the root report identifier)"
                },
                "parentVersionId": {
                    "$ref": "#/definitions/shortString",
                    "description": "Report instance's objectId of the parent report. NOTE: If there is no parent, this value should be set to the report instance's own objectId. "
                },
                "module": {
                    "$ref": "#/definitions/shortStringRequired",
                    "description": "CIDNE community"
                },
                "reportType": {
                    "$ref": "#/definitions/shortStringRequired",
                    "description": "CIDNE report type (e.g. SIGACT)"
                },
                "reportSerial": {
                    "$ref": "#/definitions/textFieldLevel",
					"defaultLabel": "DisplaySerial",
					"description": "Report instance nomenclature (DisplaySerial)",
					"fieldAlias2x": "DisplaySerial"
                },
                "reportTitle": {
                    "$ref": "#/definitions/textFieldLevel",
					"defaultLabel": "DisplayTitle",
					"description": "Report instance title text (DisplayTitle)",
					"fieldAlias2x": "DisplayTitle"
                },
                "reportSummary": {
                    "$ref": "#/definitions/textFieldLevel",
					"defaultLabel": "DisplaySummary",
					"description": "Report instance summary text block (DisplaySummary)",
					"fieldAlias2x": "DisplaySummary"
                },
                "reportDate": {
                    "$ref": "#/definitions/dateTimeRequired",
					"defaultLabel": "ATDDate",
					"description": "Primary report instance date (r.ATDDate)",
					"fieldAlias2x": "ATDDate"
                },
                "reportSymbol": {
                    "$ref": "#/definitions/longString",
                    "description": "Report instance symbology"
                },
                "reportImage": {
                    "$ref": "#/definitions/longString",
                    "description": "Primary image of report instance"
                },
                "reportCountry": {
                    "$ref": "#/definitions/shortString",
                    "description": "Country value of report instance's primary location"
                },
                "reportLatitude": {
                    "$ref": "#/definitions/latitude_dds",
                    "description": "Latitude value of report instance's primary location"
                },
                "reportLongitude": {
                    "$ref": "#/definitions/longitude_dds",
                    "description": "Longitude value of report instance's primary location"
                },
				"geoLocation":{
					"$ref":"#/definitions/geojson"
				},
                "currentObjectState":{
                        "$ref": "#/definitions/actionInfo"
                },
                "originatingGroup": {
                    "$ref": "#/definitions/longStringRequired",
                    "description": "Original creator's group"
                },  
                "originatingUser": {
                    "$ref": "#/definitions/longStringRequired",
                    "description": "Original creator's User Name or email address"
                },  
				"isTearline": {
                    "type": "boolean",
                    "description": "Determines whether a report is a tearline"
                },
				"tearlineId": {
					"$ref": "#/definitions/shortString",
                    "description": "The reportId of the parent, used as a tearline group binding"
				},
                "theaterFilter": {
                    "$ref": "#/definitions/shortStringRequired",
                    "description": "Report instance theater of relevance"
                },
                "warehouseUri": {
                    "$ref": "#/definitions/longStringRequired",
                    "description": "Data warehouse location for report instance",
                    "format": "uri"
                }
            },
            "required": [
                "isTearline",
                "module",
                "objectId",
                "currentObjectState",
                "originatingGroup",
                "originatingUser",
                "reportId",
                "reportSerial",
                "reportDate",
                "theaterFilter",
                "reportType",
                "reportTitle",
                "reportSummary"
            ]
        },
        "location": {
            "type": "array",
            "description": "All locations for the report instance",
            "items": {
                "type": "object",
                "properties": {
                    "objectId": {
                        "$ref": "#/definitions/shortStringRequired",
                        "description": "objectId required for Edit Purposes"
                    },
                    "address": {
                        "$ref": "#/definitions/longString",
                        "description": "Address Details"
                    },
                    "alternateRoute": {
                        "$ref": "#/definitions/longString",
                        "description": "Alternate Route for location"
                    },
                    "ao": {
                        "$ref": "#/definitions/shortString",
                        "description": "Area of Operations"
                    },
                    "basecamp": {
                        "$ref": "#/definitions/shortString",
                        "description": "Base Camp"
                    },
                    "city": {
                        "$ref": "#/definitions/shortString",
                        "description": "City for Location"
                    },
                    "confidence": {
                        "$ref": "#/definitions/shortString",
                        "description": "Reporters Confidence in Location Value"
                    },
                    "country": {
                        "$ref": "#/definitions/shortString",
                        "description": "Location Country"
                    },
                    "customGeom": {
                        "type": "object",
                        "description": "Custom Geometry Object for Location",
                        "properties": {
                            "customGeomObjectId": {
                                "$ref": "#/definitions/shortString",
                                "description": "objectId for Custom Geometry Object"
                            },
                            "geomType": {
                                "$ref": "#/definitions/shortString",
                                "description": "Geometry Type for custom geometry object (e.g. Point, Multi-polygon"
                            },
                            "geom": {
                                "$ref": "#/definitions/shortString",
                                "description": "TBD GEOM Object for Custom Location Object"
                            },
                            "name": {
                                "$ref": "#/definitions/shortString",
                                "description": "Custom Location Name"
                            }
                        }
                    },
                    "dateEndLocation": {
                        "$ref": "#/definitions/dateTime",
                        "description": "Ending Date Time for location"
                    },
                    "dateStartLocation": {
                        "$ref": "#/definitions/dateTime",
                        "description": "Starting Date Time for location"
                    },
                    "derivedLocation": {
                        "type": "boolean",
                        "description": "Was Location Lat/Long derived from user picklists?"
                    },
                    "description": {
                        "$ref": "#/definitions/text",
                        "description": "Location Description"
                    },
                    "distanceFromCityCenter": {
                        "$ref": "#/definitions/positive_int",
                        "description": "Distance in meters to nearest city center"
                    },
                    "distanceToNearestFOB": {
                        "$ref": "#/definitions/positive_num",
                        "description": "Distance in meters to nearest FOB"
                    },
                    "distanceToNearestRoute": {
                        "$ref": "#/definitions/positive_num",
                        "description": "Distance in meters to nearest Route"
                    },
                    "district": {
                        "$ref": "#/definitions/shortString",
                        "description": "District"
                    },
                    "fob": {
                        "$ref": "#/definitions/shortString",
                        "description": "FOB"
                    },
					"geoLocation":{
						"$ref":"#/definitions/geojson"
					},
					"house": {
                        "$ref": "#/definitions/shortString",
                        "description": "HOUSE"
                    },
                    "isPrimaryLocation": {
                        "type": "boolean",
                        "description": "Marks Primary Location"
                    },
                    "latitude": {
                        "$ref": "#/definitions/latitude_ddsRequired",
                        "description": "Latitude of Location in Degree Decimal Seconds"
                    },
                    "locationActive": {
                        "type": "boolean",
                        "description": "Is Location Active?"
                    },
                    "locationType": {
                        "$ref": "#/definitions/shortString",
                        "description": "Location Type"
                    },
                    "longitude": {
                        "$ref": "#/definitions/longitude_ddsRequired",
                        "description": "Longitude of Location in Degree Decimal Seconds"
                    },
                    "mscCurrent": {
                        "$ref": "#/definitions/shortString",
                        "description": "Current Major Supporting Command responsible for location"
                    },
                    "mscDateOfCurrent": {
                        "$ref": "#/definitions/dateTime",
                        "description": "Date Of Current Major Supporting Command's Control of location"
                    },
                    "msc": {
                        "$ref": "#/definitions/shortString",
                        "description": "Major Supporting Command responsible for location"
                    },
                    "nai": {
                        "$ref": "#/definitions/shortString",
                        "description": "Named Area of Interest"
                    },
                    "nearestCity": {
                        "$ref": "#/definitions/shortString",
                        "description": "Nearest City"
                    },
                    "nearestFOB": {
                        "$ref": "#/definitions/shortString",
                        "description": "Nearest FOB"
                    },
                    "nearestRoute": {
                        "$ref": "#/definitions/shortString",
                        "description": "Nearest Route"
                    },
                    "neighborhood": {
                        "$ref": "#/definitions/shortString",
                        "description": "Neighborhood for location"
                    },
                    "populationCenterType": {
                        "$ref": "#/definitions/shortString",
                        "description": "Population Center Type"
                    },
                    "populationCenter": {
                        "$ref": "#/definitions/shortString",
                        "description": "Population Center"
                    },
                    "province": {
                        "$ref": "#/definitions/shortString",
                        "description": "Province"
                    },
                    "referenceId": {
                        "$ref": "#/definitions/shortString",
                        "description": "Reference to any subelement with in current report instance (e.g. Event Object ID)"
                    },
                    "route": {
                        "$ref": "#/definitions/shortString",
                        "description": "Route"
                    },
                    "security": {
                        "$ref": "#/definitions/securityOptional"
                    },
                    "street": {
                        "$ref": "#/definitions/shortString",
                        "description": "Street"
                    },
                    "structure": {
                        "$ref": "#/definitions/shortString",
                        "description": "Structure"
                    },
                    "village": {
                        "$ref": "#/definitions/shortString",
                        "description": "Village"
                    },
                    "zone": {
                        "$ref": "#/definitions/shortString",
                        "description": "City Zone"
                    }
                },
				"required": [
					"objectId",
					"isPrimaryLocation",
					"latitude",
					"longitude"
				]
            }
        },
        "remarks": {
            "type": "array",
            "items": {
                "type": "object",
                "properties": {
                    "objectId": {
                        "$ref": "#/definitions/shortStringRequired",
                        "description": "objectId required for Edit Purposes"
                    },
                    "referenceId": {
                        "$ref": "#/definitions/shortString",
                        "description": "Reference to any subelement with in current report instance (e.g. Event Object ID)"
                    },
                    "remarkText": {
                        "$ref": "#/definitions/text",
                        "description": "Remark Text"
                    },
                    "remarkType": {
                        "$ref": "#/definitions/shortString",
                        "description": "Remark Type"
                    },
                    "remarkOrder": {
                        "$ref": "#/definitions/positive_num",
                        "description": "Remark Order"
                    },
                    "security": {
                        "$ref": "#/definitions/securityOptional"
                    }
                },
                "required": [
                    "objectId",
                    "remarkText",
                    "remarkType",
                    "security"
                ]
            }
        },
        "requirements": {
            "type": "array",
            "items": {
                "type": "object",
                "properties": {
                    "objectId": {
                        "$ref": "#/definitions/shortStringRequired",
                        "description": "objectId required for Edit Purposes"
                    },
                    "referenceId": {
                        "$ref": "#/definitions/shortString",
                        "description": "Reference to any subelement with in current report instance (e.g. Event Object ID)"
                    },
                    "requirement": {
                        "$ref": "#/definitions/longString",
                        "description": "Requirement sub based on Requirement Type"
                    },
                    "requirementType": {
                        "$ref": "#/definitions/shortString",
                        "description": "Requirement Type"
                    },
                    "comment": {
                        "$ref": "#/definitions/text",
                        "description": "Requirement Comment"
                    },
                    "security": {
                        "$ref": "#/definitions/securityOptional"
                    }
                },
                "required": [
                    "objectId",
                    "requirementType",
                    "requirement",
                    "comment"
                ]
            }
        },
        "security": {
                        "$ref": "#/definitions/security"
        },
        "objectHistory": {
            "type": "array",
            "items":
                    {
                        "$ref": "#/definitions/actionInfo"
                    }       
		},
			"details": {
				"type": "object",
				"description": "Operations PilotDebrief Report details specific details",
				"fieldAlias2x": "details", 
						"properties": {
						
"airmissiontype": {
	"$ref": "#/definitions/longString"
			,"defaultLabel": "AirMissionType"
			,"description": "AirMissionType"
			,"fieldAlias2x": "AirMissionType"
			,"isSearchable": false
			,"picklistDescription": "PilotDebriefAirMissionType"
			,"picklistUri": "Operations-PilotDebriefAirMissionType"
			,"picklistParent": null
		},
"amrnumber": {
	"$ref": "#/definitions/longString"
			,"defaultLabel": "AMRNumber"
			,"description": "AMRNumber"
			,"fieldAlias2x": "AMRNumber"
			,"isSearchable": false
			,"picklistDescription": null
			,"picklistUri": null
			,"picklistParent": null
		},
"atadate": {
	"$ref": "#/definitions/dateTime"
			,"defaultLabel": "ATADate"
			,"description": "ATADate"
			,"fieldAlias2x": "ATADate"
			,"isSearchable": false
			,"picklistDescription": null
			,"picklistUri": null
			,"picklistParent": null
		},
"dayofweek": {
	"$ref": "#/definitions/longString"
			,"defaultLabel": "DayOfWeek"
			,"description": "DayOfWeek"
			,"fieldAlias2x": "DayOfWeek"
			,"isSearchable": false
			,"picklistDescription": "PilotDebriefDayOfWeek"
			,"picklistUri": "Operations-PilotDebriefDayOfWeek"
			,"picklistParent": null
		},
"debriefer": {
	"$ref": "#/definitions/longString"
			,"defaultLabel": "Debriefer"
			,"description": "Debriefer"
			,"fieldAlias2x": "Debriefer"
			,"isSearchable": false
			,"picklistDescription": null
			,"picklistUri": null
			,"picklistParent": null
		},
"effectonmission": {
	"$ref": "#/definitions/longString"
			,"defaultLabel": "EffectOnMission"
			,"description": "EffectOnMission"
			,"fieldAlias2x": "EffectOnMission"
			,"isSearchable": false
			,"picklistDescription": null
			,"picklistUri": null
			,"picklistParent": null
		},
"email": {
	"$ref": "#/definitions/longString"
			,"defaultLabel": "Email"
			,"description": "Email"
			,"fieldAlias2x": "Email"
			,"isSearchable": false
			,"picklistDescription": null
			,"picklistUri": null
			,"picklistParent": null
		},
"environmentalstressor": {
	"$ref": "#/definitions/longString"
			,"defaultLabel": "EnvironmentalStressor"
			,"description": "EnvironmentalStressor"
			,"fieldAlias2x": "EnvironmentalStressor"
			,"isSearchable": false
			,"picklistDescription": null
			,"picklistUri": null
			,"picklistParent": null
		},
"landbase": {
	"$ref": "#/definitions/longString"
			,"defaultLabel": "LandBase"
			,"description": "LandBase"
			,"fieldAlias2x": "LandBase"
			,"isSearchable": false
			,"picklistDescription": null
			,"picklistUri": null
			,"picklistParent": null
		},
"launchbase": {
	"$ref": "#/definitions/longString"
			,"defaultLabel": "LaunchBase"
			,"description": "LaunchBase"
			,"fieldAlias2x": "LaunchBase"
			,"isSearchable": false
			,"picklistDescription": null
			,"picklistUri": null
			,"picklistParent": null
		},
"missionnarrative": {
	"$ref": "#/definitions/text"
			,"defaultLabel": "MissionNarrative"
			,"description": "MissionNarrative"
			,"fieldAlias2x": "MissionNarrative"
			,"isSearchable": false
			,"picklistDescription": null
			,"picklistUri": null
			,"picklistParent": null
		},
"missionnumber": {
	"$ref": "#/definitions/longString"
			,"defaultLabel": "MissionNumber"
			,"description": "MissionNumber"
			,"fieldAlias2x": "MissionNumber"
			,"isSearchable": false
			,"picklistDescription": null
			,"picklistUri": null
			,"picklistParent": null
		},
"missionsuccess": {
	"type": "boolean"
			,"defaultLabel": "MissionSuccess"
			,"description": "MissionSuccess"
			,"fieldAlias2x": "MissionSuccess"
			,"isSearchable": false
			,"picklistDescription": null
			,"picklistUri": null
			,"picklistParent": null
		},
"missiontype": {
	"$ref": "#/definitions/longString"
			,"defaultLabel": "MissionType"
			,"description": "MissionType"
			,"fieldAlias2x": "MissionType"
			,"isSearchable": false
			,"picklistDescription": "PilotDebriefMissionType"
			,"picklistUri": "Operations-PilotDebriefMissionType"
			,"picklistParent": null
		},
"modifiersapplied": {
	"$ref": "#/definitions/longString"
			,"defaultLabel": "ModifiersApplied"
			,"description": "ModifiersApplied"
			,"fieldAlias2x": "ModifiersApplied"
			,"isSearchable": false
			,"picklistDescription": null
			,"picklistUri": null
			,"picklistParent": null
		},
"operationsupported": {
	"$ref": "#/definitions/longString"
			,"defaultLabel": "OperationSupported"
			,"description": "OperationSupported"
			,"fieldAlias2x": "OperationSupported"
			,"isSearchable": false
			,"picklistDescription": null
			,"picklistUri": null
			,"picklistParent": null
		},
"percentillumination": {
	"$ref": "#/definitions/positive_int"
			,"defaultLabel": "PercentIllumination"
			,"description": "PercentIllumination"
			,"fieldAlias2x": "PercentIllumination"
			,"isSearchable": false
			,"picklistDescription": null
			,"picklistUri": null
			,"picklistParent": null
		},
"phone": {
	"$ref": "#/definitions/longString"
			,"defaultLabel": "Phone"
			,"description": "Phone"
			,"fieldAlias2x": "Phone"
			,"isSearchable": false
			,"picklistDescription": null
			,"picklistUri": null
			,"picklistParent": null
		},
"ringroute": {
	"$ref": "#/definitions/longString"
			,"defaultLabel": "RingRoute"
			,"description": "RingRoute"
			,"fieldAlias2x": "RingRoute"
			,"isSearchable": false
			,"picklistDescription": null
			,"picklistUri": null
			,"picklistParent": null
		},
"timeofday": {
	"$ref": "#/definitions/longString"
			,"defaultLabel": "TimeOfDay"
			,"description": "TimeOfDay"
			,"fieldAlias2x": "TimeOfDay"
			,"isSearchable": false
			,"picklistDescription": "PilotDebriefTimeOfDay"
			,"picklistUri": "Operations-PilotDebriefTimeOfDay"
			,"picklistParent": null
		},
"timeovertargetend": {
	"$ref": "#/definitions/dateTime"
			,"defaultLabel": "TimeOverTargetEnd"
			,"description": "TimeOverTargetEnd"
			,"fieldAlias2x": "TimeOverTargetEnd"
			,"isSearchable": false
			,"picklistDescription": null
			,"picklistUri": null
			,"picklistParent": null
		},
"timeovertargetstart": {
	"$ref": "#/definitions/dateTime"
			,"defaultLabel": "TimeOverTargetStart"
			,"description": "TimeOverTargetStart"
			,"fieldAlias2x": "TimeOverTargetStart"
			,"isSearchable": false
			,"picklistDescription": null
			,"picklistUri": null
			,"picklistParent": null
		},
"unitsupported": {
	"$ref": "#/definitions/longString"
			,"defaultLabel": "UnitSupported"
			,"description": "UnitSupported"
			,"fieldAlias2x": "UnitSupported"
			,"isSearchable": false
			,"picklistDescription": null
			,"picklistUri": null
			,"picklistParent": null
		},
			"aircraft": {
				"type": "array",
				"description": "Operations PilotDebrief Report Aircraft specific details",
				"fieldAlias2x": "Aircraft", 
					"items": {
						"type": "object",
						"properties": {
						
"referenceid": {
	"$ref": "#/definitions/longString"
			,"defaultLabel": "referenceId"
			,"description": "referenceId"
			,"fieldAlias2x": "AircraftKey"
			,"isSearchable": false
			,"picklistDescription": null
			,"picklistUri": null
			,"picklistParent": null
		},
"aircrafttype": {
	"$ref": "#/definitions/longString"
			,"defaultLabel": "AircraftType"
			,"description": "AircraftType"
			,"fieldAlias2x": "AircraftType"
			,"isSearchable": false
			,"picklistDescription": "PilotDebriefAircraftType"
			,"picklistUri": "Operations-PilotDebriefAircraftType"
			,"picklistParent": null
		},
"asegearindications": {
	"type": "boolean"
			,"defaultLabel": "ASEGearIndications"
			,"description": "ASEGearIndications"
			,"fieldAlias2x": "ASEGearIndications"
			,"isSearchable": false
			,"picklistDescription": null
			,"picklistUri": null
			,"picklistParent": null
		},
"asegearoperable": {
	"type": "boolean"
			,"defaultLabel": "ASEGearOperable"
			,"description": "ASEGearOperable"
			,"fieldAlias2x": "ASEGearOperable"
			,"isSearchable": false
			,"picklistDescription": null
			,"picklistUri": null
			,"picklistParent": null
		},
"brigadewing": {
	"$ref": "#/definitions/longString"
			,"defaultLabel": "BrigadeWing"
			,"description": "BrigadeWing"
			,"fieldAlias2x": "BrigadeWing"
			,"isSearchable": false
			,"picklistDescription": null
			,"picklistUri": null
			,"picklistParent": null
		},
"callsign": {
	"$ref": "#/definitions/longString"
			,"defaultLabel": "CallSign"
			,"description": "CallSign"
			,"fieldAlias2x": "CallSign"
			,"isSearchable": false
			,"picklistDescription": null
			,"picklistUri": null
			,"picklistParent": null
		},
"cargoweightlbs": {
	"$ref": "#/definitions/positive_int"
			,"defaultLabel": "CargoWeightLbs"
			,"description": "CargoWeightLbs"
			,"fieldAlias2x": "CargoWeightLbs"
			,"isSearchable": false
			,"picklistDescription": null
			,"picklistUri": null
			,"picklistParent": null
		},
"countermeasuresauto": {
	"type": "boolean"
			,"defaultLabel": "CountermeasuresAuto"
			,"description": "CountermeasuresAuto"
			,"fieldAlias2x": "CountermeasuresAuto"
			,"isSearchable": false
			,"picklistDescription": null
			,"picklistUri": null
			,"picklistParent": null
		},
"countermeasuresmanual": {
	"type": "boolean"
			,"defaultLabel": "CountermeasuresManual"
			,"description": "CountermeasuresManual"
			,"fieldAlias2x": "CountermeasuresManual"
			,"isSearchable": false
			,"picklistDescription": null
			,"picklistUri": null
			,"picklistParent": null
		},
"countermeasuresyes": {
	"type": "boolean"
			,"defaultLabel": "CountermeasuresYes"
			,"description": "CountermeasuresYes"
			,"fieldAlias2x": "CountermeasuresYes"
			,"isSearchable": false
			,"picklistDescription": null
			,"picklistUri": null
			,"picklistParent": null
		},
"crewdetails": {
	"$ref": "#/definitions/text"
			,"defaultLabel": "CrewDetails"
			,"description": "CrewDetails"
			,"fieldAlias2x": "CrewDetails"
			,"isSearchable": false
			,"picklistDescription": null
			,"picklistUri": null
			,"picklistParent": null
		},
"evasivemanuevers": {
	"type": "boolean"
			,"defaultLabel": "EvasiveManuevers"
			,"description": "EvasiveManuevers"
			,"fieldAlias2x": "EvasiveManuevers"
			,"isSearchable": false
			,"picklistDescription": null
			,"picklistUri": null
			,"picklistParent": null
		},
"fixedwingorrotary": {
	"$ref": "#/definitions/longString"
			,"defaultLabel": "FixedWingOrRotary"
			,"description": "FixedWingOrRotary"
			,"fieldAlias2x": "FixedWingOrRotary"
			,"isSearchable": false
			,"picklistDescription": null
			,"picklistUri": null
			,"picklistParent": null
		},
"formation": {
	"$ref": "#/definitions/longString"
			,"defaultLabel": "Formation"
			,"description": "Formation"
			,"fieldAlias2x": "Formation"
			,"isSearchable": false
			,"picklistDescription": "PilotDebriefAircraftFormation"
			,"picklistUri": "Operations-PilotDebriefAircraftFormation"
			,"picklistParent": null
		},
"isprimary": {
	"type": "boolean"
			,"defaultLabel": "isPrimary"
			,"description": "isPrimary"
			,"fieldAlias2x": "isPrimary"
			,"isSearchable": false
			,"picklistDescription": null
			,"picklistUri": null
			,"picklistParent": null
		},
"monthsintheatre": {
	"$ref": "#/definitions/positive_int"
			,"defaultLabel": "MonthsInTheatre"
			,"description": "MonthsInTheatre"
			,"fieldAlias2x": "MonthsInTheatre"
			,"isSearchable": false
			,"picklistDescription": null
			,"picklistUri": null
			,"picklistParent": null
		},
"numberacftinvolved": {
	"$ref": "#/definitions/longString"
			,"defaultLabel": "NumberAcftInvolved"
			,"description": "NumberAcftInvolved"
			,"fieldAlias2x": "NumberAcftInvolved"
			,"isSearchable": false
			,"picklistDescription": null
			,"picklistUri": null
			,"picklistParent": null
		},
"pax": {
	"$ref": "#/definitions/longString"
			,"defaultLabel": "PAX"
			,"description": "PAX"
			,"fieldAlias2x": "PAX"
			,"isSearchable": false
			,"picklistDescription": null
			,"picklistUri": null
			,"picklistParent": null
		},
"role": {
	"$ref": "#/definitions/longString"
			,"defaultLabel": "Role"
			,"description": "Role"
			,"fieldAlias2x": "Role"
			,"isSearchable": false
			,"picklistDescription": "PilotDebriefAircraftRole"
			,"picklistUri": "Operations-PilotDebriefAircraftRole"
			,"picklistParent": null
		},
"route": {
	"$ref": "#/definitions/longString"
			,"defaultLabel": "Route"
			,"description": "Route"
			,"fieldAlias2x": "Route"
			,"isSearchable": false
			,"picklistDescription": null
			,"picklistUri": null
			,"picklistParent": null
		},
"service": {
	"$ref": "#/definitions/longString"
			,"defaultLabel": "Service"
			,"description": "Service"
			,"fieldAlias2x": "Service"
			,"isSearchable": false
			,"picklistDescription": "PilotDebriefAircraftService"
			,"picklistUri": "Operations-PilotDebriefAircraftService"
			,"picklistParent": null
		},
"tailnumber": {
	"$ref": "#/definitions/longString"
			,"defaultLabel": "TailNumber"
			,"description": "TailNumber"
			,"fieldAlias2x": "TailNumber"
			,"isSearchable": false
			,"picklistDescription": null
			,"picklistUri": null
			,"picklistParent": null
		},
"unit": {
	"$ref": "#/definitions/longString"
			,"defaultLabel": "Unit"
			,"description": "Unit"
			,"fieldAlias2x": "Unit"
			,"isSearchable": false
			,"picklistDescription": null
			,"picklistUri": null
			,"picklistParent": null
		},
"visualsystemeyes": {
	"type": "boolean"
			,"defaultLabel": "VisualSystemEyes"
			,"description": "VisualSystemEyes"
			,"fieldAlias2x": "VisualSystemEyes"
			,"isSearchable": false
			,"picklistDescription": null
			,"picklistUri": null
			,"picklistParent": null
		},
"visualsystemflir": {
	"type": "boolean"
			,"defaultLabel": "VisualSystemFLIR"
			,"description": "VisualSystemFLIR"
			,"fieldAlias2x": "VisualSystemFLIR"
			,"isSearchable": false
			,"picklistDescription": null
			,"picklistUri": null
			,"picklistParent": null
		},
"visualsystemnvg": {
	"type": "boolean"
			,"defaultLabel": "VisualSystemNVG"
			,"description": "VisualSystemNVG"
			,"fieldAlias2x": "VisualSystemNVG"
			,"isSearchable": false
			,"picklistDescription": null
			,"picklistUri": null
			,"picklistParent": null
		},
"weaponsfired": {
	"$ref": "#/definitions/text"
			,"defaultLabel": "WeaponsFired"
			,"description": "WeaponsFired"
			,"fieldAlias2x": "WeaponsFired"
			,"isSearchable": false
			,"picklistDescription": null
			,"picklistUri": null
			,"picklistParent": null
		},
			"aircraftweapons": {
				"type": "array",
				"description": "Operations PilotDebrief Report AircraftWeapons specific details",
				"fieldAlias2x": "AircraftWeapons", 
					"items": {
						"type": "object",
						"properties": {
						
"referenceid": {
	"$ref": "#/definitions/longString"
			,"defaultLabel": "referenceId"
			,"description": "referenceId"
			,"fieldAlias2x": "AircraftWeaponsKey"
			,"isSearchable": false
			,"picklistDescription": null
			,"picklistUri": null
			,"picklistParent": null
		},
"weaponquantity": {
	"$ref": "#/definitions/text"
			,"defaultLabel": "WeaponQuantity"
			,"description": "WeaponQuantity"
			,"fieldAlias2x": "WeaponQuantity"
			,"isSearchable": false
			,"picklistDescription": null
			,"picklistUri": null
			,"picklistParent": null
		},
"weapontype": {
	"$ref": "#/definitions/longString"
			,"defaultLabel": "WeaponType"
			,"description": "WeaponType"
			,"fieldAlias2x": "WeaponType"
			,"isSearchable": false
			,"picklistDescription": "PilotDebriefAircraftWeaponType"
			,"picklistUri": "Operations-PilotDebriefAircraftWeaponType"
			,"picklistParent": null
		}
				}
			}
		}
				}
			}
		},
			"equipment": {
				"type": "array",
				"description": "Operations PilotDebrief Report Equipment specific details",
				"fieldAlias2x": "Equipment", 
					"items": {
						"type": "object",
						"properties": {
						
"referenceid": {
	"$ref": "#/definitions/longString"
			,"defaultLabel": "referenceId"
			,"description": "referenceId"
			,"fieldAlias2x": "EquipmentKey"
			,"isSearchable": false
			,"picklistDescription": null
			,"picklistUri": null
			,"picklistParent": null
		},
"equipmentquantity": {
	"$ref": "#/definitions/positive_int"
			,"defaultLabel": "EquipmentQuantity"
			,"description": "EquipmentQuantity"
			,"fieldAlias2x": "EquipmentQuantity"
			,"isSearchable": false
			,"picklistDescription": null
			,"picklistUri": null
			,"picklistParent": null
		},
"equipmenttype": {
	"$ref": "#/definitions/longString"
			,"defaultLabel": "EquipmentType"
			,"description": "EquipmentType"
			,"fieldAlias2x": "EquipmentType"
			,"isSearchable": false
			,"picklistDescription": null
			,"picklistUri": null
			,"picklistParent": null
		}
				}
			}
		},
			"observation": {
				"type": "array",
				"description": "Operations PilotDebrief Report Observation specific details",
				"fieldAlias2x": "Observation", 
					"items": {
						"type": "object",
						"properties": {
						
"datereported": {
	"$ref": "#/definitions/dateTime"
			,"defaultLabel": "DateReported"
			,"description": "DateReported"
			,"fieldAlias2x": "DateReported"
			,"isSearchable": false
			,"picklistDescription": null
			,"picklistUri": null
			,"picklistParent": null
		},
"enemythreat": {
	"$ref": "#/definitions/longString"
			,"defaultLabel": "EnemyThreat"
			,"description": "EnemyThreat"
			,"fieldAlias2x": "EnemyThreat"
			,"isSearchable": false
			,"picklistDescription": "PilotDebriefEnemyThreat"
			,"picklistUri": "Operations-PilotDebriefEnemyThreat"
			,"picklistParent": null
		},
"incidentrecordedby": {
	"$ref": "#/definitions/longString"
			,"defaultLabel": "IncidentRecordedBy"
			,"description": "IncidentRecordedBy"
			,"fieldAlias2x": "IncidentRecordedBy"
			,"isSearchable": false
			,"picklistDescription": "PilotDebriefIncidentRecordedBy"
			,"picklistUri": "Operations-PilotDebriefIncidentRecordedBy"
			,"picklistParent": null
		},
"referenceid": {
	"$ref": "#/definitions/longString"
			,"defaultLabel": "referenceId"
			,"description": "referenceId"
			,"fieldAlias2x": "ObservationKey"
			,"isSearchable": false
			,"picklistDescription": null
			,"picklistUri": null
			,"picklistParent": null
		},
"observations": {
	"$ref": "#/definitions/text"
			,"defaultLabel": "Observations"
			,"description": "Observations"
			,"fieldAlias2x": "Observations"
			,"isSearchable": false
			,"picklistDescription": null
			,"picklistUri": null
			,"picklistParent": null
		},
			"observationccir": {
				"type": "array",
				"description": "Operations PilotDebrief Report ObservationCCIR specific details",
				"fieldAlias2x": "ObservationCCIR", 
					"items": {
						"type": "object",
						"properties": {
						
"observationccir": {
	"$ref": "#/definitions/longString"
			,"defaultLabel": "observationccir"
			,"description": "observationccir"
			,"fieldAlias2x": "CCIR"
			,"isSearchable": false
			,"picklistDescription": "CCIR"
			,"picklistUri": "Operations-CCIR"
			,"picklistParent": null
		},
"datereported": {
	"$ref": "#/definitions/dateTime"
			,"defaultLabel": "DateReported"
			,"description": "DateReported"
			,"fieldAlias2x": "DateReported"
			,"isSearchable": false
			,"picklistDescription": null
			,"picklistUri": null
			,"picklistParent": null
		},
"referenceid": {
	"$ref": "#/definitions/longString"
			,"defaultLabel": "referenceId"
			,"description": "referenceId"
			,"fieldAlias2x": "ObservationCCIRKey"
			,"isSearchable": false
			,"picklistDescription": null
			,"picklistUri": null
			,"picklistParent": null
		}
				}
			}
		}
				}
			}
		},
			"safire": {
				"type": "array",
				"description": "Operations PilotDebrief Report SAFIRE specific details",
				"fieldAlias2x": "SAFIRE", 
					"hasSecurity": true, 
					"items": {
						"type": "object",
						"properties": {
						
"airspeed": {
	"$ref": "#/definitions/positive_int"
			,"defaultLabel": "Airspeed"
			,"description": "Airspeed"
			,"fieldAlias2x": "Airspeed"
			,"isSearchable": false
			,"picklistDescription": null
			,"picklistUri": null
			,"picklistParent": null
		},
"apparentguidance": {
	"$ref": "#/definitions/longString"
			,"defaultLabel": "ApparentGuidance"
			,"description": "ApparentGuidance"
			,"fieldAlias2x": "ApparentGuidance"
			,"isSearchable": false
			,"picklistDescription": "PilotDebriefSafireApparentGuidance"
			,"picklistUri": "Operations-PilotDebriefSafireApparentGuidance"
			,"picklistParent": null
		},
"arrival": {
	"$ref": "#/definitions/longString"
			,"defaultLabel": "Arrival"
			,"description": "Arrival"
			,"fieldAlias2x": "Arrival"
			,"isSearchable": false
			,"picklistDescription": null
			,"picklistUri": null
			,"picklistParent": null
		},
"attackintensity": {
	"$ref": "#/definitions/longString"
			,"defaultLabel": "AttackIntensity"
			,"description": "AttackIntensity"
			,"fieldAlias2x": "AttackIntensity"
			,"isSearchable": false
			,"picklistDescription": null
			,"picklistUri": null
			,"picklistParent": null
		},
"basisofassessment": {
	"$ref": "#/definitions/longString"
			,"defaultLabel": "BasisOfAssessment"
			,"description": "BasisOfAssessment"
			,"fieldAlias2x": "BasisOfAssessment"
			,"isSearchable": false
			,"picklistDescription": null
			,"picklistUri": null
			,"picklistParent": null
		},
"complex": {
	"$ref": "#/definitions/longString"
			,"defaultLabel": "Complex"
			,"description": "Complex"
			,"fieldAlias2x": "Complex"
			,"isSearchable": false
			,"picklistDescription": null
			,"picklistUri": null
			,"picklistParent": null
		},
"crewthreatened": {
	"$ref": "#/definitions/longString"
			,"defaultLabel": "CrewThreatened"
			,"description": "CrewThreatened"
			,"fieldAlias2x": "CrewThreatened"
			,"isSearchable": false
			,"picklistDescription": "PilotDebriefUYN"
			,"picklistUri": "Operations-PilotDebriefUYN"
			,"picklistParent": null
		},
"departure": {
	"$ref": "#/definitions/longString"
			,"defaultLabel": "Departure"
			,"description": "Departure"
			,"fieldAlias2x": "Departure"
			,"isSearchable": false
			,"picklistDescription": null
			,"picklistUri": null
			,"picklistParent": null
		},
"detonations": {
	"$ref": "#/definitions/text"
			,"defaultLabel": "Detonations"
			,"description": "Detonations"
			,"fieldAlias2x": "Detonations"
			,"isSearchable": false
			,"picklistDescription": null
			,"picklistUri": null
			,"picklistParent": null
		},
"flightceiling": {
	"$ref": "#/definitions/positive_int"
			,"defaultLabel": "FlightCeiling"
			,"description": "FlightCeiling"
			,"fieldAlias2x": "FlightCeiling"
			,"isSearchable": false
			,"picklistDescription": null
			,"picklistUri": null
			,"picklistParent": null
		},
"flightpathrelativetoac": {
	"$ref": "#/definitions/longString"
			,"defaultLabel": "FlightPathRelativeToAC"
			,"description": "FlightPathRelativeToAC"
			,"fieldAlias2x": "FlightPathRelativeToAC"
			,"isSearchable": false
			,"picklistDescription": null
			,"picklistUri": null
			,"picklistParent": null
		},
"flightsignature": {
	"$ref": "#/definitions/longString"
			,"defaultLabel": "FlightSignature"
			,"description": "FlightSignature"
			,"fieldAlias2x": "FlightSignature"
			,"isSearchable": false
			,"picklistDescription": "PilotDebriefSafireFlightSignature"
			,"picklistUri": "Operations-PilotDebriefSafireFlightSignature"
			,"picklistParent": null
		},
"heading": {
	"$ref": "#/definitions/positive_int"
			,"defaultLabel": "Heading"
			,"description": "Heading"
			,"fieldAlias2x": "Heading"
			,"isSearchable": false
			,"picklistDescription": null
			,"picklistUri": null
			,"picklistParent": null
		},
"heightoftrajectory": {
	"$ref": "#/definitions/positive_int"
			,"defaultLabel": "HeightOfTrajectory"
			,"description": "HeightOfTrajectory"
			,"fieldAlias2x": "HeightOfTrajectory"
			,"isSearchable": false
			,"picklistDescription": null
			,"picklistUri": null
			,"picklistParent": null
		},
"hitormiss": {
	"$ref": "#/definitions/longString"
			,"defaultLabel": "HitOrMiss"
			,"description": "HitOrMiss"
			,"fieldAlias2x": "HitOrMiss"
			,"isSearchable": false
			,"picklistDescription": "PilotDebriefHitOrMiss"
			,"picklistUri": "Operations-PilotDebriefHitOrMiss"
			,"picklistParent": null
		},
"ismgrsacft": {
	"type": "boolean"
			,"defaultLabel": "isMGRSacft"
			,"description": "isMGRSacft"
			,"fieldAlias2x": "isMGRSacft"
			,"isSearchable": false
			,"picklistDescription": null
			,"picklistUri": null
			,"picklistParent": null
		},
"keypad": {
	"$ref": "#/definitions/longString"
			,"defaultLabel": "KeyPad"
			,"description": "KeyPad"
			,"fieldAlias2x": "KeyPad"
			,"isSearchable": false
			,"picklistDescription": null
			,"picklistUri": null
			,"picklistParent": null
		},
"killbox": {
	"$ref": "#/definitions/longString"
			,"defaultLabel": "KillBox"
			,"description": "KillBox"
			,"fieldAlias2x": "KillBox"
			,"isSearchable": false
			,"picklistDescription": null
			,"picklistUri": null
			,"picklistParent": null
		},
"latitude": {
	"$ref": "#/definitions/latitude_dds"
			,"defaultLabel": "Latitude"
			,"description": "Latitude"
			,"fieldAlias2x": "Latitude"
			,"isSearchable": false
			,"picklistDescription": null
			,"picklistUri": null
			,"picklistParent": null
		},
"latitudeacft": {
	"$ref": "#/definitions/latitude_dds"
			,"defaultLabel": "LatitudeAcft"
			,"description": "LatitudeAcft"
			,"fieldAlias2x": "LatitudeAcft"
			,"isSearchable": false
			,"picklistDescription": null
			,"picklistUri": null
			,"picklistParent": null
		},
"longitude": {
	"$ref": "#/definitions/longitude_dds"
			,"defaultLabel": "Longitude"
			,"description": "Longitude"
			,"fieldAlias2x": "Longitude"
			,"isSearchable": false
			,"picklistDescription": null
			,"picklistUri": null
			,"picklistParent": null
		},
"longitudeacft": {
	"$ref": "#/definitions/longitude_dds"
			,"defaultLabel": "LongitudeAcft"
			,"description": "LongitudeAcft"
			,"fieldAlias2x": "LongitudeAcft"
			,"isSearchable": false
			,"picklistDescription": null
			,"picklistUri": null
			,"picklistParent": null
		},
"lunarillumination": {
	"$ref": "#/definitions/positive_int"
			,"defaultLabel": "LunarIllumination"
			,"description": "LunarIllumination"
			,"fieldAlias2x": "LunarIllumination"
			,"isSearchable": false
			,"picklistDescription": null
			,"picklistUri": null
			,"picklistParent": null
		},
"maximumflightlevel": {
	"$ref": "#/definitions/positive_int"
			,"defaultLabel": "MaximumFlightLevel"
			,"description": "MaximumFlightLevel"
			,"fieldAlias2x": "MaximumFlightLevel"
			,"isSearchable": false
			,"picklistDescription": null
			,"picklistUri": null
			,"picklistParent": null
		},
"meansforidentification": {
	"$ref": "#/definitions/longString"
			,"defaultLabel": "MeansForIdentification"
			,"description": "MeansForIdentification"
			,"fieldAlias2x": "MeansForIdentification"
			,"isSearchable": false
			,"picklistDescription": null
			,"picklistUri": null
			,"picklistParent": null
		},
"mediainterest": {
	"$ref": "#/definitions/longString"
			,"defaultLabel": "MediaInterest"
			,"description": "MediaInterest"
			,"fieldAlias2x": "MediaInterest"
			,"isSearchable": false
			,"picklistDescription": null
			,"picklistUri": null
			,"picklistParent": null
		},
"mgrs": {
	"$ref": "#/definitions/longString"
			,"defaultLabel": "MGRS"
			,"description": "MGRS"
			,"fieldAlias2x": "MGRS"
			,"isSearchable": false
			,"picklistDescription": null
			,"picklistUri": null
			,"picklistParent": null
		},
"mgrsacft": {
	"$ref": "#/definitions/longString"
			,"defaultLabel": "MGRSacft"
			,"description": "MGRSacft"
			,"fieldAlias2x": "MGRSacft"
			,"isSearchable": false
			,"picklistDescription": null
			,"picklistUri": null
			,"picklistParent": null
		},
"minimumflightlevel": {
	"$ref": "#/definitions/positive_int"
			,"defaultLabel": "MinimumFlightLevel"
			,"description": "MinimumFlightLevel"
			,"fieldAlias2x": "MinimumFlightLevel"
			,"isSearchable": false
			,"picklistDescription": null
			,"picklistUri": null
			,"picklistParent": null
		},
"missionroute": {
	"$ref": "#/definitions/longString"
			,"defaultLabel": "MissionRoute"
			,"description": "MissionRoute"
			,"fieldAlias2x": "MissionRoute"
			,"isSearchable": false
			,"picklistDescription": null
			,"picklistUri": null
			,"picklistParent": null
		},
"moonangle": {
	"$ref": "#/definitions/positive_int"
			,"defaultLabel": "MoonAngle"
			,"description": "MoonAngle"
			,"fieldAlias2x": "MoonAngle"
			,"isSearchable": false
			,"picklistDescription": null
			,"picklistUri": null
			,"picklistParent": null
		},
"moonelevation": {
	"$ref": "#/definitions/positive_int"
			,"defaultLabel": "MoonElevation"
			,"description": "MoonElevation"
			,"fieldAlias2x": "MoonElevation"
			,"isSearchable": false
			,"picklistDescription": null
			,"picklistUri": null
			,"picklistParent": null
		},
"nearestpassingpoint": {
	"$ref": "#/definitions/longString"
			,"defaultLabel": "NearestPassingPoint"
			,"description": "NearestPassingPoint"
			,"fieldAlias2x": "NearestPassingPoint"
			,"isSearchable": false
			,"picklistDescription": null
			,"picklistUri": null
			,"picklistParent": null
		},
"numberofthreats": {
	"$ref": "#/definitions/positive_int"
			,"defaultLabel": "NumberofThreats"
			,"description": "NumberofThreats"
			,"fieldAlias2x": "NumberofThreats"
			,"isSearchable": false
			,"picklistDescription": null
			,"picklistUri": null
			,"picklistParent": null
		},
"originrelativetoac": {
	"$ref": "#/definitions/longString"
			,"defaultLabel": "OriginRelativeToAC"
			,"description": "OriginRelativeToAC"
			,"fieldAlias2x": "OriginRelativeToAC"
			,"isSearchable": false
			,"picklistDescription": null
			,"picklistUri": null
			,"picklistParent": null
		},
"pointofdetonation": {
	"$ref": "#/definitions/longString"
			,"defaultLabel": "PointOfDetonation"
			,"description": "PointOfDetonation"
			,"fieldAlias2x": "PointOfDetonation"
			,"isSearchable": false
			,"picklistDescription": null
			,"picklistUri": null
			,"picklistParent": null
		},
"pointoforigin": {
	"$ref": "#/definitions/longString"
			,"defaultLabel": "PointOfOrigin"
			,"description": "PointOfOrigin"
			,"fieldAlias2x": "PointOfOrigin"
			,"isSearchable": false
			,"picklistDescription": null
			,"picklistUri": null
			,"picklistParent": null
		},
"pooobserved": {
	"$ref": "#/definitions/longString"
			,"defaultLabel": "POOobserved"
			,"description": "POOobserved"
			,"fieldAlias2x": "POOobserved"
			,"isSearchable": false
			,"picklistDescription": "PilotDebriefUYN"
			,"picklistUri": "Operations-PilotDebriefUYN"
			,"picklistParent": null
		},
"pressurealtitude": {
	"$ref": "#/definitions/positive_int"
			,"defaultLabel": "PressureAltitude"
			,"description": "PressureAltitude"
			,"fieldAlias2x": "PressureAltitude"
			,"isSearchable": false
			,"picklistDescription": null
			,"picklistUri": null
			,"picklistParent": null
		},
"region": {
	"$ref": "#/definitions/longString"
			,"defaultLabel": "Region"
			,"description": "Region"
			,"fieldAlias2x": "Region"
			,"isSearchable": false
			,"picklistDescription": "Region"
			,"picklistUri": "Operations-Region"
			,"picklistParent": null
		},
"rwrindications": {
	"$ref": "#/definitions/longString"
			,"defaultLabel": "RWRIndications"
			,"description": "RWRIndications"
			,"fieldAlias2x": "RWRIndications"
			,"isSearchable": false
			,"picklistDescription": null
			,"picklistUri": null
			,"picklistParent": null
		},
"safirecallsignfield": {
	"$ref": "#/definitions/longString"
			,"defaultLabel": "SAFIRECallsignField"
			,"description": "SAFIRECallsignField"
			,"fieldAlias2x": "SAFIRECallsignField"
			,"isSearchable": false
			,"picklistDescription": null
			,"picklistUri": null
			,"picklistParent": null
		},
"safireconfidence": {
	"$ref": "#/definitions/positive_int"
			,"defaultLabel": "SAFIREConfidence"
			,"description": "SAFIREConfidence"
			,"fieldAlias2x": "SAFIREConfidence"
			,"isSearchable": false
			,"picklistDescription": null
			,"picklistUri": null
			,"picklistParent": null
		},
"referenceid": {
	"$ref": "#/definitions/longString"
			,"defaultLabel": "referenceId"
			,"description": "referenceId"
			,"fieldAlias2x": "SAFIREKey"
			,"isSearchable": false
			,"picklistDescription": null
			,"picklistUri": null
			,"picklistParent": null
		},
"signatureatorigin": {
	"$ref": "#/definitions/longString"
			,"defaultLabel": "SignatureAtOrigin"
			,"description": "SignatureAtOrigin"
			,"fieldAlias2x": "SignatureAtOrigin"
			,"isSearchable": false
			,"picklistDescription": "PilotDebriefSafireSignatureAtOrigin"
			,"picklistUri": "Operations-PilotDebriefSafireSignatureAtOrigin"
			,"picklistParent": null
		},
"significance": {
	"$ref": "#/definitions/longString"
			,"defaultLabel": "Significance"
			,"description": "Significance"
			,"fieldAlias2x": "Significance"
			,"isSearchable": false
			,"picklistDescription": null
			,"picklistUri": null
			,"picklistParent": null
		},
"smoketrails": {
	"$ref": "#/definitions/longString"
			,"defaultLabel": "SmokeTrails"
			,"description": "SmokeTrails"
			,"fieldAlias2x": "SmokeTrails"
			,"isSearchable": false
			,"picklistDescription": "PilotDebriefUYN"
			,"picklistUri": "Operations-PilotDebriefUYN"
			,"picklistParent": null
		},
"spotlighting": {
	"$ref": "#/definitions/longString"
			,"defaultLabel": "Spotlighting"
			,"description": "Spotlighting"
			,"fieldAlias2x": "Spotlighting"
			,"isSearchable": false
			,"picklistDescription": null
			,"picklistUri": null
			,"picklistParent": null
		},
"summary": {
	"$ref": "#/definitions/text"
			,"defaultLabel": "Summary"
			,"description": "Summary"
			,"fieldAlias2x": "Summary"
			,"isSearchable": false
			,"picklistDescription": null
			,"picklistUri": null
			,"picklistParent": null
		},
"sunangle": {
	"$ref": "#/definitions/positive_int"
			,"defaultLabel": "SunAngle"
			,"description": "SunAngle"
			,"fieldAlias2x": "SunAngle"
			,"isSearchable": false
			,"picklistDescription": null
			,"picklistUri": null
			,"picklistParent": null
		},
"sunazimuth": {
	"$ref": "#/definitions/positive_int"
			,"defaultLabel": "SunAzimuth"
			,"description": "SunAzimuth"
			,"fieldAlias2x": "SunAzimuth"
			,"isSearchable": false
			,"picklistDescription": null
			,"picklistUri": null
			,"picklistParent": null
		},
"suspectedweapontype": {
	"$ref": "#/definitions/longString"
			,"defaultLabel": "SuspectedWeaponType"
			,"description": "SuspectedWeaponType"
			,"fieldAlias2x": "SuspectedWeaponType"
			,"isSearchable": false
			,"picklistDescription": "PilotDebriefSuspectedWeaponType"
			,"picklistUri": "Operations-PilotDebriefSuspectedWeaponType"
			,"picklistParent": null
		},
"temperature": {
	"$ref": "#/definitions/positive_int"
			,"defaultLabel": "Temperature"
			,"description": "Temperature"
			,"fieldAlias2x": "Temperature"
			,"isSearchable": false
			,"picklistDescription": null
			,"picklistUri": null
			,"picklistParent": null
		},
"terrain": {
	"$ref": "#/definitions/longString"
			,"defaultLabel": "Terrain"
			,"description": "Terrain"
			,"fieldAlias2x": "Terrain"
			,"isSearchable": false
			,"picklistDescription": "PilotDebriefTerrain"
			,"picklistUri": "Operations-PilotDebriefTerrain"
			,"picklistParent": null
		},
"timeinseconds": {
	"$ref": "#/definitions/positive_int"
			,"defaultLabel": "TimeInSeconds"
			,"description": "TimeInSeconds"
			,"fieldAlias2x": "TimeInSeconds"
			,"isSearchable": false
			,"picklistDescription": null
			,"picklistUri": null
			,"picklistParent": null
		},
"timeoccurred": {
	"$ref": "#/definitions/dateTime"
			,"defaultLabel": "TimeOccurred"
			,"description": "TimeOccurred"
			,"fieldAlias2x": "TimeOccurred"
			,"isSearchable": false
			,"picklistDescription": null
			,"picklistUri": null
			,"picklistParent": null
		},
"tracerburnout": {
	"$ref": "#/definitions/longString"
			,"defaultLabel": "TracerBurnout"
			,"description": "TracerBurnout"
			,"fieldAlias2x": "TracerBurnout"
			,"isSearchable": false
			,"picklistDescription": "PilotDebriefUYN"
			,"picklistUri": "Operations-PilotDebriefUYN"
			,"picklistParent": null
		},
"tracercolor": {
	"$ref": "#/definitions/longString"
			,"defaultLabel": "TracerColor"
			,"description": "TracerColor"
			,"fieldAlias2x": "TracerColor"
			,"isSearchable": false
			,"picklistDescription": "PilotDebriefTracerColor"
			,"picklistUri": "Operations-PilotDebriefTracerColor"
			,"picklistParent": null
		},
"tracers": {
	"$ref": "#/definitions/positive_int"
			,"defaultLabel": "Tracers"
			,"description": "Tracers"
			,"fieldAlias2x": "Tracers"
			,"isSearchable": false
			,"picklistDescription": null
			,"picklistUri": null
			,"picklistParent": null
		},
"trajectorcharacteristics": {
	"$ref": "#/definitions/longString"
			,"defaultLabel": "TrajectorCharacteristics"
			,"description": "TrajectorCharacteristics"
			,"fieldAlias2x": "TrajectorCharacteristics"
			,"isSearchable": false
			,"picklistDescription": null
			,"picklistUri": null
			,"picklistParent": null
		},
"trajectorycharacteristics": {
	"$ref": "#/definitions/longString"
			,"defaultLabel": "TrajectoryCharacteristics"
			,"description": "TrajectoryCharacteristics"
			,"fieldAlias2x": "TrajectoryCharacteristics"
			,"isSearchable": false
			,"picklistDescription": "PilotDebriefSafireTrajectory"
			,"picklistUri": "Operations-PilotDebriefSafireTrajectory"
			,"picklistParent": null
		},
"transit": {
	"$ref": "#/definitions/longString"
			,"defaultLabel": "Transit"
			,"description": "Transit"
			,"fieldAlias2x": "Transit"
			,"isSearchable": false
			,"picklistDescription": null
			,"picklistUri": null
			,"picklistParent": null
		},
"troopsincontact": {
	"$ref": "#/definitions/longString"
			,"defaultLabel": "TroopsInContact"
			,"description": "TroopsInContact"
			,"fieldAlias2x": "TroopsInContact"
			,"isSearchable": false
			,"picklistDescription": "PilotDebriefUYN"
			,"picklistUri": "Operations-PilotDebriefUYN"
			,"picklistParent": null
		},
"vicinity": {
	"$ref": "#/definitions/longString"
			,"defaultLabel": "Vicinity"
			,"description": "Vicinity"
			,"fieldAlias2x": "Vicinity"
			,"isSearchable": false
			,"picklistDescription": null
			,"picklistUri": null
			,"picklistParent": null
		},
"visibility": {
	"$ref": "#/definitions/longString"
			,"defaultLabel": "Visibility"
			,"description": "Visibility"
			,"fieldAlias2x": "Visibility"
			,"isSearchable": false
			,"picklistDescription": null
			,"picklistUri": null
			,"picklistParent": null
		},
"winddirection": {
	"$ref": "#/definitions/positive_int"
			,"defaultLabel": "WindDirection"
			,"description": "WindDirection"
			,"fieldAlias2x": "WindDirection"
			,"isSearchable": false
			,"picklistDescription": null
			,"picklistUri": null
			,"picklistParent": null
		},
"windspeed": {
	"$ref": "#/definitions/positive_int"
			,"defaultLabel": "WindSpeed"
			,"description": "WindSpeed"
			,"fieldAlias2x": "WindSpeed"
			,"isSearchable": false
			,"picklistDescription": null
			,"picklistUri": null
			,"picklistParent": null
		},
                    "security": {
                        "$ref": "#/definitions/securityOptional"
                    },
			"safireaircraft": {
				"type": "array",
				"description": "Operations PilotDebrief Report SAFIREAircraft specific details",
				"fieldAlias2x": "SAFIREAircraft", 
					"items": {
						"type": "object",
						"properties": {
						
"aircraftquantity": {
	"$ref": "#/definitions/positive_int"
			,"defaultLabel": "AircraftQuantity"
			,"description": "AircraftQuantity"
			,"fieldAlias2x": "AircraftQuantity"
			,"isSearchable": false
			,"picklistDescription": null
			,"picklistUri": null
			,"picklistParent": null
		},
"aircrafttype": {
	"$ref": "#/definitions/longString"
			,"defaultLabel": "AircraftType"
			,"description": "AircraftType"
			,"fieldAlias2x": "AircraftType"
			,"isSearchable": false
			,"picklistDescription": null
			,"picklistUri": null
			,"picklistParent": null
		},
"airspeed": {
	"$ref": "#/definitions/positive_int"
			,"defaultLabel": "Airspeed"
			,"description": "Airspeed"
			,"fieldAlias2x": "Airspeed"
			,"isSearchable": false
			,"picklistDescription": null
			,"picklistUri": null
			,"picklistParent": null
		},
"altitude": {
	"$ref": "#/definitions/positive_int"
			,"defaultLabel": "Altitude"
			,"description": "Altitude"
			,"fieldAlias2x": "Altitude"
			,"isSearchable": false
			,"picklistDescription": null
			,"picklistUri": null
			,"picklistParent": null
		},
"countermeasures": {
	"$ref": "#/definitions/longString"
			,"defaultLabel": "Countermeasures"
			,"description": "Countermeasures"
			,"fieldAlias2x": "Countermeasures"
			,"isSearchable": false
			,"picklistDescription": null
			,"picklistUri": null
			,"picklistParent": null
		},
"evasivemanuevers": {
	"$ref": "#/definitions/longString"
			,"defaultLabel": "EvasiveManuevers"
			,"description": "EvasiveManuevers"
			,"fieldAlias2x": "EvasiveManuevers"
			,"isSearchable": false
			,"picklistDescription": "PilotDebriefUYN"
			,"picklistUri": "Operations-PilotDebriefUYN"
			,"picklistParent": null
		},
"heading": {
	"$ref": "#/definitions/positive_int"
			,"defaultLabel": "Heading"
			,"description": "Heading"
			,"fieldAlias2x": "Heading"
			,"isSearchable": false
			,"picklistDescription": null
			,"picklistUri": null
			,"picklistParent": null
		},
"numberofrounds": {
	"$ref": "#/definitions/positive_int"
			,"defaultLabel": "NumberOfRounds"
			,"description": "NumberOfRounds"
			,"fieldAlias2x": "NumberOfRounds"
			,"isSearchable": false
			,"picklistDescription": null
			,"picklistUri": null
			,"picklistParent": null
		},
"ringroute": {
	"$ref": "#/definitions/longString"
			,"defaultLabel": "RingRoute"
			,"description": "RingRoute"
			,"fieldAlias2x": "RingRoute"
			,"isSearchable": false
			,"picklistDescription": null
			,"picklistUri": null
			,"picklistParent": null
		},
"roundsfired": {
	"$ref": "#/definitions/positive_int"
			,"defaultLabel": "RoundsFired"
			,"description": "RoundsFired"
			,"fieldAlias2x": "RoundsFired"
			,"isSearchable": false
			,"picklistDescription": null
			,"picklistUri": null
			,"picklistParent": null
		},
"referenceid": {
	"$ref": "#/definitions/longString"
			,"defaultLabel": "referenceId"
			,"description": "referenceId"
			,"fieldAlias2x": "SAFIREAircraftKey"
			,"isSearchable": false
			,"picklistDescription": null
			,"picklistUri": null
			,"picklistParent": null
		},
"safireaircraftmgrs": {
	"$ref": "#/definitions/longString"
			,"defaultLabel": "SAFIREAircraftMGRS"
			,"description": "SAFIREAircraftMGRS"
			,"fieldAlias2x": "SAFIREAircraftMGRS"
			,"isSearchable": false
			,"picklistDescription": null
			,"picklistUri": null
			,"picklistParent": null
		},
"safirecallsign": {
	"$ref": "#/definitions/longString"
			,"defaultLabel": "SAFIRECallsign"
			,"description": "SAFIRECallsign"
			,"fieldAlias2x": "SAFIRECallsignString"
			,"isSearchable": false
			,"picklistDescription": null
			,"picklistUri": null
			,"picklistParent": null
		},
"significance": {
	"$ref": "#/definitions/longString"
			,"defaultLabel": "Significance"
			,"description": "Significance"
			,"fieldAlias2x": "Significance"
			,"isSearchable": false
			,"picklistDescription": null
			,"picklistUri": null
			,"picklistParent": null
		},
"tailnumber": {
	"$ref": "#/definitions/longString"
			,"defaultLabel": "TailNumber"
			,"description": "TailNumber"
			,"fieldAlias2x": "TailNumber"
			,"isSearchable": false
			,"picklistDescription": null
			,"picklistUri": null
			,"picklistParent": null
		},
"threatperceived": {
	"$ref": "#/definitions/longString"
			,"defaultLabel": "ThreatPerceived"
			,"description": "ThreatPerceived"
			,"fieldAlias2x": "ThreatPerceived"
			,"isSearchable": false
			,"picklistDescription": "PilotDebriefUYN"
			,"picklistUri": "Operations-PilotDebriefUYN"
			,"picklistParent": null
		},
"weaponsystem": {
	"$ref": "#/definitions/longString"
			,"defaultLabel": "WeaponSystem"
			,"description": "WeaponSystem"
			,"fieldAlias2x": "WeaponSystem"
			,"isSearchable": false
			,"picklistDescription": null
			,"picklistUri": null
			,"picklistParent": null
		}
				}
			}
		},
			"safirecallsign": {
				"type": "array",
				"description": "Operations PilotDebrief Report SAFIRECallsign specific details",
				"fieldAlias2x": "SAFIRECallsign", 
					"items": {
						"type": "object",
						"properties": {
						
"aircraftreferenceid": {
	"$ref": "#/definitions/longString"
			,"defaultLabel": "AircraftReferenceID"
			,"description": "AircraftReferenceID"
			,"fieldAlias2x": "AircraftKey"
			,"isSearchable": false
			,"picklistDescription": null
			,"picklistUri": null
			,"picklistParent": null
		},
"referenceid": {
	"$ref": "#/definitions/longString"
			,"defaultLabel": "referenceId"
			,"description": "referenceId"
			,"fieldAlias2x": "SAFIRECallsignKey"
			,"isSearchable": false
			,"picklistDescription": null
			,"picklistUri": null
			,"picklistParent": null
		}
				}
			}
		}
				}
			}
		}
				}
			}
	}
}
