	
{
    "type": "object",
    "id": "http://cidne.dae.smil.mil/schemas/Operations/MentoringUnitAssessment/CIDNEDM235",
    "description": "CIDNE Operations MentoringUnitAssessment Report Definition",
    "definitions": {
        "shortStringRequired": {
            "type": "string",
            "maxLength": 50
        },
        "longStringRequired": {
            "type": "string",
            "maxLength": 500
        },
        "textRequired": {
            "type": "string"
        },
        "textFieldLevelRequired": {
            "type": "object",
            "properties": {
                "objectValue": {
                    "type": "string"
                },
                "security": {
					"$ref": "#/definitions/security"
				}
            },
            "required": [
                "objectValue",
                "security"
            ]
        },
        "dateTimeRequired": {
            "type": "object",
            "properties": {
                "zuluDateTime": {
                    "type": "string",
                    "format": "date-time"
                },
                "zuluOffset": {
                    "type": "integer",
					"minimum": -840,
					"maximum": 840,
                    "description": "Offset in minutes from Zulu"
                }
            },
            "required": [
                "zuluDateTime",
                "zuluOffset"
            ]
        },
        "latitude_ddsRequired": {
            "type": "number",
            "minimum": -90,
            "maximum": 90
        },
        "longitude_ddsRequired": {
            "type": "number",
            "minimum": -180,
            "maximum": 180
        },
        "positive_intRequired": {
            "type": "integer",
            "minimum": 0
        },
        "positive_numRequired": {
            "type": "number",
            "minimum": 0
        },
        "positive_intRequired": {
            "type": "integer",
            "minimum": 0
        },
        "shortString": {
            "type": ["string","null"],
            "maxLength": 50
        },
        "longString": {
            "type": ["string","null"],
            "maxLength": 500
        },
        "text": {
            "type": ["string","null"]
        },
        "textFieldLevel": {
            "type": "object",
            "properties": {
                "objectValue": {
                    "type": ["string","null"]
                },
                "security": {
					"$ref": "#/definitions/securityOptional"
				}
            },
            "required": [
                "objectValue",
                "security"
            ]
        },
        "dateTime": {
            "type": ["object","null"],
            "properties": {
                "zuluDateTime": {
                    "type": "string",
                    "format": "date-time"
                },
                "zuluOffset": {
                    "type": "integer",
					"minimum": -840,
					"maximum": 840,
                    "description": "Offset in minutes from Zulu"
                }
            },
            "required": [
                "zuluDateTime",
                "zuluOffset"
            ]
        },
        "latitude_dds": {
            "type": ["number","null"],
            "minimum": -90,
            "maximum": 90
        },
        "longitude_dds": {
            "type": ["number","null"],
            "minimum": -180,
            "maximum": 180
        },
        "positive_int": {
            "type": ["integer","null"],
            "minimum": 0
        },
        "positive_num": {
            "type": ["number","null"],
            "minimum": 0
        },
        "num": {
            "type": ["number","null"]
        },
        "uniqueStringArray": {
            "type": "array",
            "uniqueItems": true,
            "items": {
                "type": "string"
            }
        },
        "securityOptional": {
            "oneOf": [
                {
                    "type": "null"
                },
                {
                    "$ref": "#/definitions/security"
                }
            ]
        },
        "security": {
            "type": "object",
            "properties": {
                "atomicEnergyMarkings": {
                    "$ref": "#/definitions/shortString",
                    "description": "Atomic Energy Act Information Markings"
                },
                "classificationReason": {
                    "$ref": "#/definitions/longString",
                    "description": ": Concise reason for classification"
                },
                "classification": {
                    "enum": [ "U", "TS", "S", "C" ],
                    "description": "Classification of information",
                    "defaultLabel": "Classification",
                    "isSearchable": false,
                    "picklistName": "classification",
                    "picklistUri": "http://cidne.dae.smil.mil/schemas/CAPCO/classification",
                    "picklistParent": null
                    
                },
                "classifiedBy": {
                    "$ref": "#/definitions/longString",
                    "description": "Identification by name and position, or personal identifier of the OCA"
                },
                "compilationReason": {
                    "$ref": "#/definitions/longString",
                    "description": "Reason why the compilation of information causes the classification"
                },
                "declassDate": {
                    "$ref": "#/definitions/dateTime",
                    "description": "Declassification date"
                },
                "declassEvent": {
                    "$ref": "#/definitions/shortString",
                    "description": "Declassification event"
                },
                "declassException": {
                    "$ref": "#/definitions/longString",
                    "description": "Declassification exception"
                },
                "derivativelyClassifiedBy": {
                    "$ref": "#/definitions/longString",
                    "description": "The derivative classifier’s identification by name and position, or by personal identifier, in a manner that is immediately apparent on each derivatively classified document. If not otherwise evident, the agency and office of origin shall be identified"
                },
                "derivedFrom": {
                    "$ref": "#/definitions/shortString",
                    "description": "Concisely identify the source document or the classification guide"
                },
                "displayOnlyTo": {
                    "$ref": "#/definitions/longString",
                    "description": "List of foreign country(ies)/international organization(s) authorized for disclosure without providing the recipient with a physical copy for retention, regardless of medium to the foreign country(ies)/international organization(s) indicated"
                },
                "disseminationControls": {
                    "$ref": "#/definitions/longString",
                    "description": "Control markings that identify the expansion or limitation on the distribution of information. These markings are in addition to and separate from the levels of classification"
                },
                "FGIsourceOpen": {
                    "$ref": "#/definitions/shortString",
                    "description": "Open Source Foreign Government Information"
                },
                "FGIsourceProtected": {
                    "$ref": "#/definitions/shortString",
                    "description": "Protected Source Foreign Government Information"
                },
                "nonICmarkings": {
                    "$ref": "#/definitions/text",
                    "description": "Markings authorized for use by entities outside of the Intelligence Community"
                },
                "nonUSControls": {
                    "$ref": "#/definitions/shortString",
                    "description": "Non-US protective markings"
                },
                "ownerProducer": {
                    "$ref": "#/definitions/shortStringRequired",
                    "description": "Owner/Producer",
                    "default": "USA",
                    "defaultLabel": "Owner Producer",
                    "isSearchable": false,
                    "picklistName": "ownerProducer",
                    "picklistUri": "http://cidne.dae.smil.mil/schemas/CAPCO/ownerProducer",
                    "picklistParent": null
                },
                "releasableToFilterField": {
                    "$ref": "#/definitions/shortString",
                    "description": "Need to add CAPCO Descriptions"
                },
                "releasableTo": {
                    "$ref": "#/definitions/text",
                    "description": "List of countries releasable to",
                    "defaultLabel": "Releasable To",
                    "isSearchable": false,
                    "picklistName": "releasableTo",
                    "picklistUri": "http://cidne.dae.smil.mil/schemas/CAPCO/releasableTo",
                    "picklistParent": null
                },
                "SARIdentifier": {
                    "$ref": "#/definitions/shortString",
                    "description": "Special access required programs"
                },
                "SCIcontrols": {
                    "$ref": "#/definitions/longString",
                    "description": "Sensitive Compartmented Information (SCI) control systems"
                }
            },
            "required": [
                "ownerProducer",
                "classification"
            ]
        },
        "actionInfo":{
            "type": "object",
            "properties": {
                "actionDate": {
                    "$ref": "#/definitions/dateTimeRequired",
                    "description": "Date Time Action was taken"
                },
                "group": {
                    "$ref": "#/definitions/longStringRequired",
                    "description": "User Group that performed action"
                },
                "parentGroup": {
                    "$ref": "#/definitions/longString",
                    "description": "User Group's Parent Group Name"
                },
                "nationality": {
                    "$ref": "#/definitions/shortStringRequired",
                    "description": "User Nationality"
                },
                "network": {
                    "$ref": "#/definitions/shortStringRequired",
                    "description": "Systems Network where action was taken"
                },
                "objectState": {
                    "description": "",
                    "enum": [
                        "CREATED",
                        "MODIFIED",
                        "TEMPLATE",
                        "SUBMITTED",
                        "PUBLISHED",
                        "VERSIONED",
                        "DEPRECATED",
                        "VALIDATING",
                        "RESTORED",
                        "MOVED"
                    ]
                },
                "site": {
                    "$ref": "#/definitions/shortStringRequired",
                    "description": "Systems Site"
                },
                "system": {
                    "$ref": "#/definitions/shortStringRequired",
                    "description": "System that provided the action"
                },
                "user": {
                    "$ref": "#/definitions/shortStringRequired",
                    "description": "User that performed action"
                }
            },
            "required": [
                "actionDate",
                "group",
                "parentGroup",
                "nationality",
                "network",
                "objectState",
                "site",
                "system",
                "user"
            ]
        },
        "position": {
            "description": "A single position. (order should be longitude,latitude)",
            "type": "array",
            "minItems": 2,
            "items": [
                {
                    "type": "number"
                },
                {
                    "type": "number"
                }
            ],
            "additionalItems": false
        },
        "positionArray": {
            "description": "An array of positions",
            "type": "array",
            "items": {
                "$ref": "#/definitions/position"
            }
        },
        "lineString": {
            "description": "An array of two or more positions",
            "allOf": [
                {
                    "type": "array",
                    "items": {
                        "$ref": "#/definitions/position"
                    }
                },
                {
                    "minItems": 2
                }
            ]
        },
        "linearRing": {
            "description": "An array of four positions where the first equals the last",
            "allOf": [
                {
                    "type": "array",
                    "items": {
                        "$ref": "#/definitions/position"
                    }
                },
                {
                    "minItems": 4
                }
            ]
        },
        "polygon": {
            "description": "An array of linear rings",
            "type": "array",
            "items": {
                "$ref": "#/definitions/linearRing"
            }
        },
        "geometry": {
            "title": "geometry",
            "description": "One geometry as defined by GeoJSON",
            "type": "object",
            "required": [
                "type",
                "coordinates"
            ],
            "oneOf": [
                {
                    "title": "Point",
                    "properties": {
                        "type": {
                            "enum": [
                                "Point"
                            ]
                        },
                        "coordinates": {
                            "$ref": "#/definitions/position"
                        }
                    }
                },
                {
                    "title": "MultiPoint",
                    "properties": {
                        "type": {
                            "enum": [
                                "MultiPoint"
                            ]
                        },
                        "coordinates": {
                            "type": "array",
                            "items": {
                                "$ref": "#/definitions/position"
                            }
                        }
                    }
                },
                {
                    "title": "LineString",
                    "properties": {
                        "type": {
                            "enum": [
                                "LineString"
                            ]
                        },
                        "coordinates": {
                            "$ref": "#/definitions/lineString"
                        }
                    }
                },
                {
                    "title": "MultiLineString",
                    "properties": {
                        "type": {
                            "enum": [
                                "MultiLineString"
                            ]
                        },
                        "coordinates": {
                            "type": "array",
                            "items": {
                                "$ref": "#/definitions/lineString"
                            }
                        }
                    }
                },
                {
                    "title": "Polygon",
                    "properties": {
                        "type": {
                            "enum": [
                                "Polygon"
                            ]
                        },
                        "coordinates": {
                            "$ref": "#/definitions/polygon"
                        }
                    }
                },
                {
                    "title": "MultiPolygon",
                    "properties": {
                        "type": {
                            "enum": [
                                "MultiPolygon"
                            ]
                        },
                        "coordinates": {
                            "type": "array",
                            "items": {
                                "$ref": "#/definitions/polygon"
                            }
                        }
                    }
                }
            ]
        },
        "geometryCollection": {
            "title": "GeometryCollection",
            "description": "A collection of geometry objects",
            "required": [
                "geometries"
            ],
            "properties": {
                "type": {
                    "enum": [
                        "GeometryCollection"
                    ]
                },
                "geometries": {
                    "type": "array",
                    "items": {
                        "$ref": "#/definitions/geometry"
                    }
                }
            }
        },
        "feature": {
            "title": "Feature",
            "description": "A Geo JSON feature object",
            "required": [
                "geometry"
            ],
            "properties": {
                "type": {
                    "enum": [
                        "Feature"
                    ]
                },
                "geometry": {
                    "oneOf": [
                        {
                            "type": "null"
                        },
                        {
                            "$ref": "#/definitions/geometry"
                        }
                    ]
                },
				"properties": { "type": [ "object", "null" ] },
                "id": { "type":["string"] }
            }
        },
        "featureCollection": {
            "description": "A GeoJSON feature collection",
            "required": [
                "features"
            ],
            "properties": {
                "type": {
                    "enum": [
                        "FeatureCollection"
                    ]
                },
                "features": {
                    "type": "array",
                    "items": {
                        "$ref": "#/definitions/feature"
                    }
                }
            }
        },
		"namedCrs": {
            "properties": {
                "type": { "enum": [ "name" ] },
                "properties": {
                    "required": [ "name" ],
                    "additionalProperties": false,
                    "properties": {
                        "name": {
                            "type": "string"
                        }
                    }
                }
            }
        },
        "linkedObject": {
            "type": "object",
            "required": [ "href" ],
            "properties": {
                "href": {
                    "type": "string",
                    "format": "uri"
                },
                "type": {
                    "type": "string",
                    "description": "Suggested values: proj4, ogjwkt, esriwkt"
                }
            }
        },
        "linkedCrs": {
            "properties": {
                "type": { "enum": [ "link" ] },
                "properties": { "$ref": "#/definitions/linkedObject" }
            }
        },	
		"crs":{
			"title": "crs",
			"description": "a Coordinate Reference System object",
			"type": [ "object", "null" ],
			"required": [ "type", "properties" ],
			"properties": {
				"type": { "type": "string" },
				"properties": { "type": "object" }
			},
			"additionalProperties": false,
			"oneOf": [
				{ "$ref": "#/definitions/namedCrs" },
				{ "$ref": "#/definitions/linkedCrs" }
			]
		},
		"bbox":{
		"description": "A bounding box as defined by GeoJSON",
			"type": "array",
			"items": { "type": "number" }
		},
        "geojson": {
            "title": "Geo JSON object",
            "description": "Schema for a Geo JSON object",
            "type": ["object","null"],
            "required": [
                "type"
            ],
			"properties": {
				"crs": { "$ref": "#/definitions/crs" },
				"bbox": { "$ref": "#/definitions/bbox" }
			},
            "anyOf": [
                {
                    "$ref": "#/definitions/geometry"
                },
                {
                    "$ref": "#/definitions/geometryCollection"
                },
                {
                    "$ref": "#/definitions/feature"
                },
                {
                    "$ref": "#/definitions/featureCollection"
                }
            ]
        }
    },
    "required": [
        "base",
        "datamodel",
        "formId",
        "location",
        "security",
        "details"
    ],	
    "properties": {
        "datamodel": {
            "$ref": "#/definitions/longString",
            "description": "Reference to the report definition."
        },
        "formId": {
            "$ref": "#/definitions/longString",
            "description": "Reference to the layout template identifier that this data was intended to be best visualized"
        },
        "base": {
            "type": "object",
            "description": "The core metadata used within all report definitions",
            "properties": {
                "objectId": {
                    "$ref": "#/definitions/shortStringRequired",
                    "description": "Report instance unique identifier"
                },
                "reportId": {
                    "$ref": "#/definitions/shortStringRequired",
                    "description": "Original report instance objectId for a report version grouping. (i.e. the root report identifier)"
                },
                "parentVersionId": {
                    "$ref": "#/definitions/shortString",
                    "description": "Report instance's objectId of the parent report. NOTE: If there is no parent, this value should be set to the report instance's own objectId. "
                },
                "module": {
                    "$ref": "#/definitions/shortStringRequired",
                    "description": "CIDNE community"
                },
                "reportType": {
                    "$ref": "#/definitions/shortStringRequired",
                    "description": "CIDNE report type (e.g. SIGACT)"
                },
                "reportSerial": {
                    "$ref": "#/definitions/textFieldLevel",
					"defaultLabel": "DisplaySerial",
					"description": "Report instance nomenclature (DisplaySerial)",
					"fieldAlias2x": "DisplaySerial"
                },
                "reportTitle": {
                    "$ref": "#/definitions/textFieldLevel",
					"defaultLabel": "DisplayTitle",
					"description": "Report instance title text (DisplayTitle)",
					"fieldAlias2x": "DisplayTitle"
                },
                "reportSummary": {
                    "$ref": "#/definitions/textFieldLevel",
					"defaultLabel": "DisplaySummary",
					"description": "Report instance summary text block (DisplaySummary)",
					"fieldAlias2x": "DisplaySummary"
                },
                "reportDate": {
                    "$ref": "#/definitions/dateTimeRequired",
					"defaultLabel": "DatePosted",
					"description": "Primary report instance date (DatePosted)",
					"fieldAlias2x": "DatePosted"
                },
                "reportSymbol": {
                    "$ref": "#/definitions/longString",
                    "description": "Report instance symbology"
                },
                "reportImage": {
                    "$ref": "#/definitions/longString",
                    "description": "Primary image of report instance"
                },
                "reportCountry": {
                    "$ref": "#/definitions/shortString",
                    "description": "Country value of report instance's primary location"
                },
                "reportLatitude": {
                    "$ref": "#/definitions/latitude_dds",
                    "description": "Latitude value of report instance's primary location"
                },
                "reportLongitude": {
                    "$ref": "#/definitions/longitude_dds",
                    "description": "Longitude value of report instance's primary location"
                },
				"geoLocation":{
					"$ref":"#/definitions/geojson"
				},
                "currentObjectState":{
                        "$ref": "#/definitions/actionInfo"
                },
                "originatingGroup": {
                    "$ref": "#/definitions/longStringRequired",
                    "description": "Original creator's group"
                },  
                "originatingUser": {
                    "$ref": "#/definitions/longStringRequired",
                    "description": "Original creator's User Name or email address"
                },  
				"isTearline": {
                    "type": "boolean",
                    "description": "Determines whether a report is a tearline"
                },
				"tearlineId": {
					"$ref": "#/definitions/shortString",
                    "description": "The reportId of the parent, used as a tearline group binding"
				},
                "theaterFilter": {
                    "$ref": "#/definitions/shortStringRequired",
                    "description": "Report instance theater of relevance"
                },
                "warehouseUri": {
                    "$ref": "#/definitions/longStringRequired",
                    "description": "Data warehouse location for report instance",
                    "format": "uri"
                }
            },
            "required": [
                "isTearline",
                "module",
                "objectId",
                "currentObjectState",
                "originatingGroup",
                "originatingUser",
                "reportId",
                "reportSerial",
                "reportDate",
                "theaterFilter",
                "reportType",
                "reportTitle",
                "reportSummary"
            ]
        },
        "location": {
            "type": "array",
            "description": "All locations for the report instance",
            "items": {
                "type": "object",
                "properties": {
                    "objectId": {
                        "$ref": "#/definitions/shortStringRequired",
                        "description": "objectId required for Edit Purposes"
                    },
                    "address": {
                        "$ref": "#/definitions/longString",
                        "description": "Address Details"
                    },
                    "alternateRoute": {
                        "$ref": "#/definitions/longString",
                        "description": "Alternate Route for location"
                    },
                    "ao": {
                        "$ref": "#/definitions/shortString",
                        "description": "Area of Operations"
                    },
                    "basecamp": {
                        "$ref": "#/definitions/shortString",
                        "description": "Base Camp"
                    },
                    "city": {
                        "$ref": "#/definitions/shortString",
                        "description": "City for Location"
                    },
                    "confidence": {
                        "$ref": "#/definitions/shortString",
                        "description": "Reporters Confidence in Location Value"
                    },
                    "country": {
                        "$ref": "#/definitions/shortString",
                        "description": "Location Country"
                    },
                    "customGeom": {
                        "type": "object",
                        "description": "Custom Geometry Object for Location",
                        "properties": {
                            "customGeomObjectId": {
                                "$ref": "#/definitions/shortString",
                                "description": "objectId for Custom Geometry Object"
                            },
                            "geomType": {
                                "$ref": "#/definitions/shortString",
                                "description": "Geometry Type for custom geometry object (e.g. Point, Multi-polygon"
                            },
                            "geom": {
                                "$ref": "#/definitions/shortString",
                                "description": "TBD GEOM Object for Custom Location Object"
                            },
                            "name": {
                                "$ref": "#/definitions/shortString",
                                "description": "Custom Location Name"
                            }
                        }
                    },
                    "dateEndLocation": {
                        "$ref": "#/definitions/dateTime",
                        "description": "Ending Date Time for location"
                    },
                    "dateStartLocation": {
                        "$ref": "#/definitions/dateTime",
                        "description": "Starting Date Time for location"
                    },
                    "derivedLocation": {
                        "type": "boolean",
                        "description": "Was Location Lat/Long derived from user picklists?"
                    },
                    "description": {
                        "$ref": "#/definitions/text",
                        "description": "Location Description"
                    },
                    "distanceFromCityCenter": {
                        "$ref": "#/definitions/positive_int",
                        "description": "Distance in meters to nearest city center"
                    },
                    "distanceToNearestFOB": {
                        "$ref": "#/definitions/positive_num",
                        "description": "Distance in meters to nearest FOB"
                    },
                    "distanceToNearestRoute": {
                        "$ref": "#/definitions/positive_num",
                        "description": "Distance in meters to nearest Route"
                    },
                    "district": {
                        "$ref": "#/definitions/shortString",
                        "description": "District"
                    },
                    "fob": {
                        "$ref": "#/definitions/shortString",
                        "description": "FOB"
                    },
					"geoLocation":{
						"$ref":"#/definitions/geojson"
					},
					"house": {
                        "$ref": "#/definitions/shortString",
                        "description": "HOUSE"
                    },
                    "isPrimaryLocation": {
                        "type": "boolean",
                        "description": "Marks Primary Location"
                    },
                    "latitude": {
                        "$ref": "#/definitions/latitude_ddsRequired",
                        "description": "Latitude of Location in Degree Decimal Seconds"
                    },
                    "locationActive": {
                        "type": "boolean",
                        "description": "Is Location Active?"
                    },
                    "locationType": {
                        "$ref": "#/definitions/shortString",
                        "description": "Location Type"
                    },
                    "longitude": {
                        "$ref": "#/definitions/longitude_ddsRequired",
                        "description": "Longitude of Location in Degree Decimal Seconds"
                    },
                    "mscCurrent": {
                        "$ref": "#/definitions/shortString",
                        "description": "Current Major Supporting Command responsible for location"
                    },
                    "mscDateOfCurrent": {
                        "$ref": "#/definitions/dateTime",
                        "description": "Date Of Current Major Supporting Command's Control of location"
                    },
                    "msc": {
                        "$ref": "#/definitions/shortString",
                        "description": "Major Supporting Command responsible for location"
                    },
                    "nai": {
                        "$ref": "#/definitions/shortString",
                        "description": "Named Area of Interest"
                    },
                    "nearestCity": {
                        "$ref": "#/definitions/shortString",
                        "description": "Nearest City"
                    },
                    "nearestFOB": {
                        "$ref": "#/definitions/shortString",
                        "description": "Nearest FOB"
                    },
                    "nearestRoute": {
                        "$ref": "#/definitions/shortString",
                        "description": "Nearest Route"
                    },
                    "neighborhood": {
                        "$ref": "#/definitions/shortString",
                        "description": "Neighborhood for location"
                    },
                    "populationCenterType": {
                        "$ref": "#/definitions/shortString",
                        "description": "Population Center Type"
                    },
                    "populationCenter": {
                        "$ref": "#/definitions/shortString",
                        "description": "Population Center"
                    },
                    "province": {
                        "$ref": "#/definitions/shortString",
                        "description": "Province"
                    },
                    "referenceId": {
                        "$ref": "#/definitions/shortString",
                        "description": "Reference to any subelement with in current report instance (e.g. Event Object ID)"
                    },
                    "route": {
                        "$ref": "#/definitions/shortString",
                        "description": "Route"
                    },
                    "security": {
                        "$ref": "#/definitions/securityOptional"
                    },
                    "street": {
                        "$ref": "#/definitions/shortString",
                        "description": "Street"
                    },
                    "structure": {
                        "$ref": "#/definitions/shortString",
                        "description": "Structure"
                    },
                    "village": {
                        "$ref": "#/definitions/shortString",
                        "description": "Village"
                    },
                    "zone": {
                        "$ref": "#/definitions/shortString",
                        "description": "City Zone"
                    }
                },
				"required": [
					"objectId",
					"isPrimaryLocation",
					"latitude",
					"longitude"
				]
            }
        },
        "remarks": {
            "type": "array",
            "items": {
                "type": "object",
                "properties": {
                    "objectId": {
                        "$ref": "#/definitions/shortStringRequired",
                        "description": "objectId required for Edit Purposes"
                    },
                    "referenceId": {
                        "$ref": "#/definitions/shortString",
                        "description": "Reference to any subelement with in current report instance (e.g. Event Object ID)"
                    },
                    "remarkText": {
                        "$ref": "#/definitions/text",
                        "description": "Remark Text"
                    },
                    "remarkType": {
                        "$ref": "#/definitions/shortString",
                        "description": "Remark Type"
                    },
                    "remarkOrder": {
                        "$ref": "#/definitions/positive_num",
                        "description": "Remark Order"
                    },
                    "security": {
                        "$ref": "#/definitions/securityOptional"
                    }
                },
                "required": [
                    "objectId",
                    "remarkText",
                    "remarkType",
                    "security"
                ]
            }
        },
        "requirements": {
            "type": "array",
            "items": {
                "type": "object",
                "properties": {
                    "objectId": {
                        "$ref": "#/definitions/shortStringRequired",
                        "description": "objectId required for Edit Purposes"
                    },
                    "referenceId": {
                        "$ref": "#/definitions/shortString",
                        "description": "Reference to any subelement with in current report instance (e.g. Event Object ID)"
                    },
                    "requirement": {
                        "$ref": "#/definitions/longString",
                        "description": "Requirement sub based on Requirement Type"
                    },
                    "requirementType": {
                        "$ref": "#/definitions/shortString",
                        "description": "Requirement Type"
                    },
                    "comment": {
                        "$ref": "#/definitions/text",
                        "description": "Requirement Comment"
                    },
                    "security": {
                        "$ref": "#/definitions/securityOptional"
                    }
                },
                "required": [
                    "objectId",
                    "requirementType",
                    "requirement",
                    "comment"
                ]
            }
        },
        "security": {
                        "$ref": "#/definitions/security"
        },
        "objectHistory": {
            "type": "array",
            "items":
                    {
                        "$ref": "#/definitions/actionInfo"
                    }       
		},
			"details": {
				"type": "object",
				"description": "Operations MentoringUnitAssessment Report details specific details",
				"fieldAlias2x": "details", 
						"properties": {
						
"additionalkitrating": {
	"$ref": "#/definitions/longString"
			,"defaultLabel": "AdditionalKitRating"
			,"description": "AdditionalKitRating"
			,"fieldAlias2x": "AdditionalKitRating"
			,"isSearchable": false
			,"picklistDescription": null
			,"picklistUri": null
			,"picklistParent": null
		},
"additionalkitratingremarks": {
	"$ref": "#/definitions/text"
			,"defaultLabel": "AdditionalKitRatingRemarks"
			,"description": "AdditionalKitRatingRemarks"
			,"fieldAlias2x": "AdditionalKitRatingRemarks"
			,"isSearchable": false
			,"picklistDescription": null
			,"picklistUri": null
			,"picklistParent": null
		},
"averageage": {
	"$ref": "#/definitions/longString"
			,"defaultLabel": "AverageAge"
			,"description": "AverageAge"
			,"fieldAlias2x": "AverageAge"
			,"isSearchable": false
			,"picklistDescription": null
			,"picklistUri": null
			,"picklistParent": null
		},
"averageageremarks": {
	"$ref": "#/definitions/text"
			,"defaultLabel": "AverageAgeRemarks"
			,"description": "AverageAgeRemarks"
			,"fieldAlias2x": "AverageAgeRemarks"
			,"isSearchable": false
			,"picklistDescription": null
			,"picklistUri": null
			,"picklistParent": null
		},
"averageeducationlevel": {
	"$ref": "#/definitions/longString"
			,"defaultLabel": "AverageEducationLevel"
			,"description": "AverageEducationLevel"
			,"fieldAlias2x": "AverageEducationLevel"
			,"isSearchable": false
			,"picklistDescription": null
			,"picklistUri": null
			,"picklistParent": null
		},
"averageeducationlevelremarks": {
	"$ref": "#/definitions/text"
			,"defaultLabel": "AverageEducationLevelRemarks"
			,"description": "AverageEducationLevelRemarks"
			,"fieldAlias2x": "AverageEducationLevelRemarks"
			,"isSearchable": false
			,"picklistDescription": null
			,"picklistUri": null
			,"picklistParent": null
		},
"demoengineeringrating": {
	"$ref": "#/definitions/longString"
			,"defaultLabel": "DemoEngineeringRating"
			,"description": "DemoEngineeringRating"
			,"fieldAlias2x": "DemoEngineeringRating"
			,"isSearchable": false
			,"picklistDescription": null
			,"picklistUri": null
			,"picklistParent": null
		},
"demoengineeringratingremarks": {
	"$ref": "#/definitions/text"
			,"defaultLabel": "DemoEngineeringRatingRemarks"
			,"description": "DemoEngineeringRatingRemarks"
			,"fieldAlias2x": "DemoEngineeringRatingRemarks"
			,"isSearchable": false
			,"picklistDescription": null
			,"picklistUri": null
			,"picklistParent": null
		},
"disciplinerating": {
	"$ref": "#/definitions/longString"
			,"defaultLabel": "DisciplineRating"
			,"description": "DisciplineRating"
			,"fieldAlias2x": "DisciplineRating"
			,"isSearchable": false
			,"picklistDescription": null
			,"picklistUri": null
			,"picklistParent": null
		},
"disciplineratingremarks": {
	"$ref": "#/definitions/text"
			,"defaultLabel": "DisciplineRatingRemarks"
			,"description": "DisciplineRatingRemarks"
			,"fieldAlias2x": "DisciplineRatingRemarks"
			,"isSearchable": false
			,"picklistDescription": null
			,"picklistUri": null
			,"picklistParent": null
		},
"enddate": {
	"$ref": "#/definitions/dateTime"
			,"defaultLabel": "EndDate"
			,"description": "EndDate"
			,"fieldAlias2x": "EndDate"
			,"isSearchable": false
			,"picklistDescription": null
			,"picklistUri": null
			,"picklistParent": null
		},
"facilitiesdependentonus": {
	"$ref": "#/definitions/longString"
			,"defaultLabel": "FacilitiesDependentOnUS"
			,"description": "FacilitiesDependentOnUS"
			,"fieldAlias2x": "FacilitiesDependentOnUS"
			,"isSearchable": false
			,"picklistDescription": null
			,"picklistUri": null
			,"picklistParent": null
		},
"facilitiesdependentonusremarks": {
	"$ref": "#/definitions/text"
			,"defaultLabel": "FacilitiesDependentOnUSRemarks"
			,"description": "FacilitiesDependentOnUSRemarks"
			,"fieldAlias2x": "FacilitiesDependentOnUSRemarks"
			,"isSearchable": false
			,"picklistDescription": null
			,"picklistUri": null
			,"picklistParent": null
		},
"forcesaccessplacement": {
	"$ref": "#/definitions/longString"
			,"defaultLabel": "ForcesAccessPlacement"
			,"description": "ForcesAccessPlacement"
			,"fieldAlias2x": "ForcesAccessPlacement"
			,"isSearchable": false
			,"picklistDescription": null
			,"picklistUri": null
			,"picklistParent": null
		},
"forcesaccessplacementremarks": {
	"$ref": "#/definitions/text"
			,"defaultLabel": "ForcesAccessPlacementRemarks"
			,"description": "ForcesAccessPlacementRemarks"
			,"fieldAlias2x": "ForcesAccessPlacementRemarks"
			,"isSearchable": false
			,"picklistDescription": null
			,"picklistUri": null
			,"picklistParent": null
		},
"forcesareequipped": {
	"$ref": "#/definitions/longString"
			,"defaultLabel": "ForcesAreEquipped"
			,"description": "ForcesAreEquipped"
			,"fieldAlias2x": "ForcesAreEquipped"
			,"isSearchable": false
			,"picklistDescription": null
			,"picklistUri": null
			,"picklistParent": null
		},
"forcesareequippedremarks": {
	"$ref": "#/definitions/text"
			,"defaultLabel": "ForcesAreEquippedRemarks"
			,"description": "ForcesAreEquippedRemarks"
			,"fieldAlias2x": "ForcesAreEquippedRemarks"
			,"isSearchable": false
			,"picklistDescription": null
			,"picklistUri": null
			,"picklistParent": null
		},
"forcesaremanned": {
	"$ref": "#/definitions/longString"
			,"defaultLabel": "ForcesAreManned"
			,"description": "ForcesAreManned"
			,"fieldAlias2x": "ForcesAreManned"
			,"isSearchable": false
			,"picklistDescription": null
			,"picklistUri": null
			,"picklistParent": null
		},
"forcesaremannedremarks": {
	"$ref": "#/definitions/text"
			,"defaultLabel": "ForcesAreMannedRemarks"
			,"description": "ForcesAreMannedRemarks"
			,"fieldAlias2x": "ForcesAreMannedRemarks"
			,"isSearchable": false
			,"picklistDescription": null
			,"picklistUri": null
			,"picklistParent": null
		},
"forcesarewillingtobepostured": {
	"$ref": "#/definitions/longString"
			,"defaultLabel": "ForcesAreWillingToBePostured"
			,"description": "ForcesAreWillingToBePostured"
			,"fieldAlias2x": "ForcesAreWillingToBePostured"
			,"isSearchable": false
			,"picklistDescription": null
			,"picklistUri": null
			,"picklistParent": null
		},
"forcesarewillingtobeposturedremarks": {
	"$ref": "#/definitions/text"
			,"defaultLabel": "ForcesAreWillingToBePosturedRemarks"
			,"description": "ForcesAreWillingToBePosturedRemarks"
			,"fieldAlias2x": "ForcesAreWillingToBePosturedRemarks"
			,"isSearchable": false
			,"picklistDescription": null
			,"picklistUri": null
			,"picklistParent": null
		},
"forcesconducteffectivecmo": {
	"$ref": "#/definitions/longString"
			,"defaultLabel": "ForcesConductEffectiveCMO"
			,"description": "ForcesConductEffectiveCMO"
			,"fieldAlias2x": "ForcesConductEffectiveCMO"
			,"isSearchable": false
			,"picklistDescription": null
			,"picklistUri": null
			,"picklistParent": null
		},
"forcesconducteffectivecmoremarks": {
	"$ref": "#/definitions/text"
			,"defaultLabel": "ForcesConductEffectiveCMORemarks"
			,"description": "ForcesConductEffectiveCMORemarks"
			,"fieldAlias2x": "ForcesConductEffectiveCMORemarks"
			,"isSearchable": false
			,"picklistDescription": null
			,"picklistUri": null
			,"picklistParent": null
		},
"forcesconducteffectivectoperations": {
	"$ref": "#/definitions/longString"
			,"defaultLabel": "ForcesConductEffectiveCTOperations"
			,"description": "ForcesConductEffectiveCTOperations"
			,"fieldAlias2x": "ForcesConductEffectiveCTOperations"
			,"isSearchable": false
			,"picklistDescription": null
			,"picklistUri": null
			,"picklistParent": null
		},
"forcesconducteffectivectoperationsremarks": {
	"$ref": "#/definitions/text"
			,"defaultLabel": "ForcesConductEffectiveCTOperationsRemarks"
			,"description": "ForcesConductEffectiveCTOperationsRemarks"
			,"fieldAlias2x": "ForcesConductEffectiveCTOperationsRemarks"
			,"isSearchable": false
			,"picklistDescription": null
			,"picklistUri": null
			,"picklistParent": null
		},
"functionalityoffacilities": {
	"$ref": "#/definitions/longString"
			,"defaultLabel": "FunctionalityofFacilities"
			,"description": "FunctionalityofFacilities"
			,"fieldAlias2x": "FunctionalityofFacilities"
			,"isSearchable": false
			,"picklistDescription": null
			,"picklistUri": null
			,"picklistParent": null
		},
"functionalityoffacilitiesremarks": {
	"$ref": "#/definitions/text"
			,"defaultLabel": "FunctionalityofFacilitiesRemarks"
			,"description": "FunctionalityofFacilitiesRemarks"
			,"fieldAlias2x": "FunctionalityofFacilitiesRemarks"
			,"isSearchable": false
			,"picklistDescription": null
			,"picklistUri": null
			,"picklistParent": null
		},
"hnrequestedtraining": {
	"$ref": "#/definitions/text"
			,"defaultLabel": "HNRequestedTraining"
			,"description": "HNRequestedTraining"
			,"fieldAlias2x": "HNRequestedTraining"
			,"isSearchable": false
			,"picklistDescription": null
			,"picklistUri": null
			,"picklistParent": null
		},
"hntrainingstatus": {
	"$ref": "#/definitions/longString"
			,"defaultLabel": "HNTrainingStatus"
			,"description": "HNTrainingStatus"
			,"fieldAlias2x": "HNTrainingStatus"
			,"isSearchable": false
			,"picklistDescription": null
			,"picklistUri": null
			,"picklistParent": null
		},
"hntrainingstatusremarks": {
	"$ref": "#/definitions/text"
			,"defaultLabel": "HNTrainingStatusRemarks"
			,"description": "HNTrainingStatusRemarks"
			,"fieldAlias2x": "HNTrainingStatusRemarks"
			,"isSearchable": false
			,"picklistDescription": null
			,"picklistUri": null
			,"picklistParent": null
		},
"individualequipmentrating": {
	"$ref": "#/definitions/longString"
			,"defaultLabel": "IndividualEquipmentRating"
			,"description": "IndividualEquipmentRating"
			,"fieldAlias2x": "IndividualEquipmentRating"
			,"isSearchable": false
			,"picklistDescription": null
			,"picklistUri": null
			,"picklistParent": null
		},
"individualequipmentratingremarks": {
	"$ref": "#/definitions/text"
			,"defaultLabel": "IndividualEquipmentRatingRemarks"
			,"description": "IndividualEquipmentRatingRemarks"
			,"fieldAlias2x": "IndividualEquipmentRatingRemarks"
			,"isSearchable": false
			,"picklistDescription": null
			,"picklistUri": null
			,"picklistParent": null
		},
"individualtrainingrating": {
	"$ref": "#/definitions/longString"
			,"defaultLabel": "IndividualTrainingRating"
			,"description": "IndividualTrainingRating"
			,"fieldAlias2x": "IndividualTrainingRating"
			,"isSearchable": false
			,"picklistDescription": null
			,"picklistUri": null
			,"picklistParent": null
		},
"leadership": {
	"$ref": "#/definitions/text"
			,"defaultLabel": "Leadership"
			,"description": "Leadership"
			,"fieldAlias2x": "Leadership"
			,"isSearchable": false
			,"picklistDescription": null
			,"picklistUri": null
			,"picklistParent": null
		},
"locationofskilltrainingreceived": {
	"$ref": "#/definitions/text"
			,"defaultLabel": "LocationOfSkillTrainingReceived"
			,"description": "LocationOfSkillTrainingReceived"
			,"fieldAlias2x": "LocationOfSkillTrainingReceived"
			,"isSearchable": false
			,"picklistDescription": null
			,"picklistUri": null
			,"picklistParent": null
		},
"mgrs": {
	"$ref": "#/definitions/longString"
			,"defaultLabel": "MGRS"
			,"description": "MGRS"
			,"fieldAlias2x": "MGRS"
			,"isSearchable": false
			,"picklistDescription": null
			,"picklistUri": null
			,"picklistParent": null
		},
"mgrslatitude": {
	"$ref": "#/definitions/latitude_dds"
			,"defaultLabel": "MGRSLatitude"
			,"description": "MGRSLatitude"
			,"fieldAlias2x": "MGRSLatitude"
			,"isSearchable": false
			,"picklistDescription": null
			,"picklistUri": null
			,"picklistParent": null
		},
"mgrslongitude": {
	"$ref": "#/definitions/longitude_dds"
			,"defaultLabel": "MGRSLongitude"
			,"description": "MGRSLongitude"
			,"fieldAlias2x": "MGRSLongitude"
			,"isSearchable": false
			,"picklistDescription": null
			,"picklistUri": null
			,"picklistParent": null
		},
"moralerating": {
	"$ref": "#/definitions/longString"
			,"defaultLabel": "MoraleRating"
			,"description": "MoraleRating"
			,"fieldAlias2x": "MoraleRating"
			,"isSearchable": false
			,"picklistDescription": null
			,"picklistUri": null
			,"picklistParent": null
		},
"moraleratingremarks": {
	"$ref": "#/definitions/text"
			,"defaultLabel": "MoraleRatingRemarks"
			,"description": "MoraleRatingRemarks"
			,"fieldAlias2x": "MoraleRatingRemarks"
			,"isSearchable": false
			,"picklistDescription": null
			,"picklistUri": null
			,"picklistParent": null
		},
"multilingualcapability": {
	"$ref": "#/definitions/longString"
			,"defaultLabel": "MultilingualCapability"
			,"description": "MultilingualCapability"
			,"fieldAlias2x": "MultilingualCapability"
			,"isSearchable": false
			,"picklistDescription": null
			,"picklistUri": null
			,"picklistParent": null
		},
"normaldutyroutine": {
	"$ref": "#/definitions/text"
			,"defaultLabel": "NormalDutyRoutine"
			,"description": "NormalDutyRoutine"
			,"fieldAlias2x": "NormalDutyRoutine"
			,"isSearchable": false
			,"picklistDescription": null
			,"picklistUri": null
			,"picklistParent": null
		},
"normaldutyroutineremarks": {
	"$ref": "#/definitions/text"
			,"defaultLabel": "NormalDutyRoutineRemarks"
			,"description": "NormalDutyRoutineRemarks"
			,"fieldAlias2x": "NormalDutyRoutineRemarks"
			,"isSearchable": false
			,"picklistDescription": null
			,"picklistUri": null
			,"picklistParent": null
		},
"operatingenviromentnotconducive": {
	"$ref": "#/definitions/longString"
			,"defaultLabel": "OperatingEnviromentNotConducive"
			,"description": "OperatingEnviromentNotConducive"
			,"fieldAlias2x": "OperatingEnviromentNotConducive"
			,"isSearchable": false
			,"picklistDescription": null
			,"picklistUri": null
			,"picklistParent": null
		},
"operatingenviromentnotconduciveremarks": {
	"$ref": "#/definitions/text"
			,"defaultLabel": "OperatingEnviromentNotConduciveRemarks"
			,"description": "OperatingEnviromentNotConduciveRemarks"
			,"fieldAlias2x": "OperatingEnviromentNotConduciveRemarks"
			,"isSearchable": false
			,"picklistDescription": null
			,"picklistUri": null
			,"picklistParent": null
		},
"orderofbattleinformation": {
	"$ref": "#/definitions/text"
			,"defaultLabel": "OrderOfBattleInformation"
			,"description": "OrderOfBattleInformation"
			,"fieldAlias2x": "OrderOfBattleInformation"
			,"isSearchable": false
			,"picklistDescription": null
			,"picklistUri": null
			,"picklistParent": null
		},
"otherunits": {
	"$ref": "#/definitions/text"
			,"defaultLabel": "OtherUnits"
			,"description": "OtherUnits"
			,"fieldAlias2x": "OtherUnits"
			,"isSearchable": false
			,"picklistDescription": null
			,"picklistUri": null
			,"picklistParent": null
		},
"overallassessmentrating": {
	"$ref": "#/definitions/longString"
			,"defaultLabel": "OverallAssessmentRating"
			,"description": "OverallAssessmentRating"
			,"fieldAlias2x": "OverallAssessmentRating"
			,"isSearchable": false
			,"picklistDescription": null
			,"picklistUri": null
			,"picklistParent": null
		},
"overallassessmentremarks": {
	"$ref": "#/definitions/text"
			,"defaultLabel": "OverallAssessmentRemarks"
			,"description": "OverallAssessmentRemarks"
			,"fieldAlias2x": "OverallAssessmentRemarks"
			,"isSearchable": false
			,"picklistDescription": null
			,"picklistUri": null
			,"picklistParent": null
		},
"pastoperationsproficiency": {
	"$ref": "#/definitions/text"
			,"defaultLabel": "PastOperationsProficiency"
			,"description": "PastOperationsProficiency"
			,"fieldAlias2x": "PastOperationsProficiency"
			,"isSearchable": false
			,"picklistDescription": null
			,"picklistUri": null
			,"picklistParent": null
		},
"pasttrainingstatus": {
	"$ref": "#/definitions/text"
			,"defaultLabel": "PastTrainingStatus"
			,"description": "PastTrainingStatus"
			,"fieldAlias2x": "PastTrainingStatus"
			,"isSearchable": false
			,"picklistDescription": null
			,"picklistUri": null
			,"picklistParent": null
		},
"payissues": {
	"$ref": "#/definitions/longString"
			,"defaultLabel": "PayIssues"
			,"description": "PayIssues"
			,"fieldAlias2x": "PayIssues"
			,"isSearchable": false
			,"picklistDescription": null
			,"picklistUri": null
			,"picklistParent": null
		},
"payissuesremarks": {
	"$ref": "#/definitions/text"
			,"defaultLabel": "PayIssuesRemarks"
			,"description": "PayIssuesRemarks"
			,"fieldAlias2x": "PayIssuesRemarks"
			,"isSearchable": false
			,"picklistDescription": null
			,"picklistUri": null
			,"picklistParent": null
		},
"payscale": {
	"$ref": "#/definitions/longString"
			,"defaultLabel": "PayScale"
			,"description": "PayScale"
			,"fieldAlias2x": "PayScale"
			,"isSearchable": false
			,"picklistDescription": null
			,"picklistUri": null
			,"picklistParent": null
		},
"paysystem": {
	"$ref": "#/definitions/longString"
			,"defaultLabel": "PaySystem"
			,"description": "PaySystem"
			,"fieldAlias2x": "PaySystem"
			,"isSearchable": false
			,"picklistDescription": null
			,"picklistUri": null
			,"picklistParent": null
		},
"physicalconditioningrating": {
	"$ref": "#/definitions/longString"
			,"defaultLabel": "PhysicalConditioningRating"
			,"description": "PhysicalConditioningRating"
			,"fieldAlias2x": "PhysicalConditioningRating"
			,"isSearchable": false
			,"picklistDescription": null
			,"picklistUri": null
			,"picklistParent": null
		},
"physicalconditioningratingremarks": {
	"$ref": "#/definitions/text"
			,"defaultLabel": "PhysicalConditioningRatingRemarks"
			,"description": "PhysicalConditioningRatingRemarks"
			,"fieldAlias2x": "PhysicalConditioningRatingRemarks"
			,"isSearchable": false
			,"picklistDescription": null
			,"picklistUri": null
			,"picklistParent": null
		},
"populaceacceptsforceslegitimacy": {
	"$ref": "#/definitions/longString"
			,"defaultLabel": "PopulaceAcceptsForcesLegitimacy"
			,"description": "PopulaceAcceptsForcesLegitimacy"
			,"fieldAlias2x": "PopulaceAcceptsForcesLegitimacy"
			,"isSearchable": false
			,"picklistDescription": null
			,"picklistUri": null
			,"picklistParent": null
		},
"populaceacceptsforceslegitimacyremarks": {
	"$ref": "#/definitions/text"
			,"defaultLabel": "PopulaceAcceptsForcesLegitimacyRemarks"
			,"description": "PopulaceAcceptsForcesLegitimacyRemarks"
			,"fieldAlias2x": "PopulaceAcceptsForcesLegitimacyRemarks"
			,"isSearchable": false
			,"picklistDescription": null
			,"picklistUri": null
			,"picklistParent": null
		},
"populacesupportsforcesmovement": {
	"$ref": "#/definitions/longString"
			,"defaultLabel": "PopulaceSupportsForcesMovement"
			,"description": "PopulaceSupportsForcesMovement"
			,"fieldAlias2x": "PopulaceSupportsForcesMovement"
			,"isSearchable": false
			,"picklistDescription": null
			,"picklistUri": null
			,"picklistParent": null
		},
"populacesupportsforcesmovementremarks": {
	"$ref": "#/definitions/text"
			,"defaultLabel": "PopulaceSupportsForcesMovementRemarks"
			,"description": "PopulaceSupportsForcesMovementRemarks"
			,"fieldAlias2x": "PopulaceSupportsForcesMovementRemarks"
			,"isSearchable": false
			,"picklistDescription": null
			,"picklistUri": null
			,"picklistParent": null
		},
"presenceofforeignadvisors": {
	"$ref": "#/definitions/longString"
			,"defaultLabel": "PresenceOfForeignAdvisors"
			,"description": "PresenceOfForeignAdvisors"
			,"fieldAlias2x": "PresenceOfForeignAdvisors"
			,"isSearchable": false
			,"picklistDescription": null
			,"picklistUri": null
			,"picklistParent": null
		},
"presenceofforeignadvisorsremarks": {
	"$ref": "#/definitions/text"
			,"defaultLabel": "PresenceOfForeignAdvisorsRemarks"
			,"description": "PresenceOfForeignAdvisorsRemarks"
			,"fieldAlias2x": "PresenceOfForeignAdvisorsRemarks"
			,"isSearchable": false
			,"picklistDescription": null
			,"picklistUri": null
			,"picklistParent": null
		},
"primarymission": {
	"$ref": "#/definitions/text"
			,"defaultLabel": "PrimaryMission"
			,"description": "PrimaryMission"
			,"fieldAlias2x": "PrimaryMission"
			,"isSearchable": false
			,"picklistDescription": null
			,"picklistUri": null
			,"picklistParent": null
		},
"raceandreligion": {
	"$ref": "#/definitions/text"
			,"defaultLabel": "RaceAndReligion"
			,"description": "RaceAndReligion"
			,"fieldAlias2x": "RaceAndReligion"
			,"isSearchable": false
			,"picklistDescription": null
			,"picklistUri": null
			,"picklistParent": null
		},
"readytoconductcmocamissions": {
	"$ref": "#/definitions/longString"
			,"defaultLabel": "ReadyToConductCMOCAMissions"
			,"description": "ReadyToConductCMOCAMissions"
			,"fieldAlias2x": "ReadyToConductCMOCAMissions"
			,"isSearchable": false
			,"picklistDescription": null
			,"picklistUri": null
			,"picklistParent": null
		},
"readytoconductcmocamissionsremarks": {
	"$ref": "#/definitions/text"
			,"defaultLabel": "ReadyToConductCMOCAMissionsRemarks"
			,"description": "ReadyToConductCMOCAMissionsRemarks"
			,"fieldAlias2x": "ReadyToConductCMOCAMissionsRemarks"
			,"isSearchable": false
			,"picklistDescription": null
			,"picklistUri": null
			,"picklistParent": null
		},
"readytoconductctoperations": {
	"$ref": "#/definitions/longString"
			,"defaultLabel": "ReadyToConductCTOperations"
			,"description": "ReadyToConductCTOperations"
			,"fieldAlias2x": "ReadyToConductCTOperations"
			,"isSearchable": false
			,"picklistDescription": null
			,"picklistUri": null
			,"picklistParent": null
		},
"readytoconductctoperationsremarks": {
	"$ref": "#/definitions/text"
			,"defaultLabel": "ReadyToConductCTOperationsRemarks"
			,"description": "ReadyToConductCTOperationsRemarks"
			,"fieldAlias2x": "ReadyToConductCTOperationsRemarks"
			,"isSearchable": false
			,"picklistDescription": null
			,"picklistUri": null
			,"picklistParent": null
		},
"readytoconductterritorialsecurityoperations": {
	"$ref": "#/definitions/longString"
			,"defaultLabel": "ReadyToConductTerritorialSecurityOperations"
			,"description": "ReadyToConductTerritorialSecurityOperations"
			,"fieldAlias2x": "ReadyToConductTerritorialSecurityOperations"
			,"isSearchable": false
			,"picklistDescription": null
			,"picklistUri": null
			,"picklistParent": null
		},
"readytoconductterritorialsecurityoperationsremarks": {
	"$ref": "#/definitions/text"
			,"defaultLabel": "ReadyToConductTerritorialSecurityOperationsRemarks"
			,"description": "ReadyToConductTerritorialSecurityOperationsRemarks"
			,"fieldAlias2x": "ReadyToConductTerritorialSecurityOperationsRemarks"
			,"isSearchable": false
			,"picklistDescription": null
			,"picklistUri": null
			,"picklistParent": null
		},
"reduceindigenoussupportoverallrating": {
	"$ref": "#/definitions/longString"
			,"defaultLabel": "ReduceIndigenousSupportOverallRating"
			,"description": "ReduceIndigenousSupportOverallRating"
			,"fieldAlias2x": "ReduceIndigenousSupportOverallRating"
			,"isSearchable": false
			,"picklistDescription": null
			,"picklistUri": null
			,"picklistParent": null
		},
"reportingunit": {
	"$ref": "#/definitions/longString"
			,"defaultLabel": "ReportingUnit"
			,"description": "ReportingUnit"
			,"fieldAlias2x": "ReportingUnit"
			,"isSearchable": false
			,"picklistDescription": null
			,"picklistUri": null
			,"picklistParent": null
		},
"reporttitle": {
	"$ref": "#/definitions/longString"
			,"defaultLabel": "ReportTitle"
			,"description": "ReportTitle"
			,"fieldAlias2x": "ReportTitle"
			,"isSearchable": false
			,"picklistDescription": null
			,"picklistUri": null
			,"picklistParent": null
		},
"stabilityandsecurityoverallrating": {
	"$ref": "#/definitions/longString"
			,"defaultLabel": "StabilityAndSecurityOverallRating"
			,"description": "StabilityAndSecurityOverallRating"
			,"fieldAlias2x": "StabilityAndSecurityOverallRating"
			,"isSearchable": false
			,"picklistDescription": null
			,"picklistUri": null
			,"picklistParent": null
		},
"startdate": {
	"$ref": "#/definitions/dateTime"
			,"defaultLabel": "StartDate"
			,"description": "StartDate"
			,"fieldAlias2x": "StartDate"
			,"isSearchable": false
			,"picklistDescription": null
			,"picklistUri": null
			,"picklistParent": null
		},
"strength": {
	"$ref": "#/definitions/longString"
			,"defaultLabel": "Strength"
			,"description": "Strength"
			,"fieldAlias2x": "Strength"
			,"isSearchable": false
			,"picklistDescription": null
			,"picklistUri": null
			,"picklistParent": null
		},
"telecommunicationsequipmentrating": {
	"$ref": "#/definitions/longString"
			,"defaultLabel": "TelecommunicationsEquipmentRating"
			,"description": "TelecommunicationsEquipmentRating"
			,"fieldAlias2x": "TelecommunicationsEquipmentRating"
			,"isSearchable": false
			,"picklistDescription": null
			,"picklistUri": null
			,"picklistParent": null
		},
"telecommunicationsequipmentratingremarks": {
	"$ref": "#/definitions/text"
			,"defaultLabel": "TelecommunicationsEquipmentRatingRemarks"
			,"description": "TelecommunicationsEquipmentRatingRemarks"
			,"fieldAlias2x": "TelecommunicationsEquipmentRatingRemarks"
			,"isSearchable": false
			,"picklistDescription": null
			,"picklistUri": null
			,"picklistParent": null
		},
"trackingnumber": {
	"$ref": "#/definitions/longString"
			,"defaultLabel": "TrackingNumber"
			,"description": "TrackingNumber"
			,"fieldAlias2x": "TrackingNumber"
			,"isSearchable": false
			,"picklistDescription": null
			,"picklistUri": null
			,"picklistParent": null
		},
"trainingdependencyonus": {
	"$ref": "#/definitions/longString"
			,"defaultLabel": "TrainingDependencyOnUS"
			,"description": "TrainingDependencyOnUS"
			,"fieldAlias2x": "TrainingDependencyOnUS"
			,"isSearchable": false
			,"picklistDescription": null
			,"picklistUri": null
			,"picklistParent": null
		},
"trainingdependencyonusremarks": {
	"$ref": "#/definitions/text"
			,"defaultLabel": "TrainingDependencyOnUSRemarks"
			,"description": "TrainingDependencyOnUSRemarks"
			,"fieldAlias2x": "TrainingDependencyOnUSRemarks"
			,"isSearchable": false
			,"picklistDescription": null
			,"picklistUri": null
			,"picklistParent": null
		},
"trainingfacilitiesrating": {
	"$ref": "#/definitions/longString"
			,"defaultLabel": "TrainingFacilitiesRating"
			,"description": "TrainingFacilitiesRating"
			,"fieldAlias2x": "TrainingFacilitiesRating"
			,"isSearchable": false
			,"picklistDescription": null
			,"picklistUri": null
			,"picklistParent": null
		},
"trainingfacilitiesratingremarks": {
	"$ref": "#/definitions/text"
			,"defaultLabel": "TrainingFacilitiesRatingRemarks"
			,"description": "TrainingFacilitiesRatingRemarks"
			,"fieldAlias2x": "TrainingFacilitiesRatingRemarks"
			,"isSearchable": false
			,"picklistDescription": null
			,"picklistUri": null
			,"picklistParent": null
		},
"trainingfacilitytype": {
	"$ref": "#/definitions/longString"
			,"defaultLabel": "TrainingFacilityType"
			,"description": "TrainingFacilityType"
			,"fieldAlias2x": "TrainingFacilityType"
			,"isSearchable": false
			,"picklistDescription": null
			,"picklistUri": null
			,"picklistParent": null
		},
"trainingfacilitytyperemarks": {
	"$ref": "#/definitions/text"
			,"defaultLabel": "TrainingFacilityTypeRemarks"
			,"description": "TrainingFacilityTypeRemarks"
			,"fieldAlias2x": "TrainingFacilityTypeRemarks"
			,"isSearchable": false
			,"picklistDescription": null
			,"picklistUri": null
			,"picklistParent": null
		},
"trainingstatusrating": {
	"$ref": "#/definitions/longString"
			,"defaultLabel": "TrainingStatusRating"
			,"description": "TrainingStatusRating"
			,"fieldAlias2x": "TrainingStatusRating"
			,"isSearchable": false
			,"picklistDescription": null
			,"picklistUri": null
			,"picklistParent": null
		},
"trainingstatusratingremarks": {
	"$ref": "#/definitions/text"
			,"defaultLabel": "TrainingStatusRatingRemarks"
			,"description": "TrainingStatusRatingRemarks"
			,"fieldAlias2x": "TrainingStatusRatingRemarks"
			,"isSearchable": false
			,"picklistDescription": null
			,"picklistUri": null
			,"picklistParent": null
		},
"trainingtype": {
	"$ref": "#/definitions/longString"
			,"defaultLabel": "TrainingType"
			,"description": "TrainingType"
			,"fieldAlias2x": "TrainingType"
			,"isSearchable": false
			,"picklistDescription": null
			,"picklistUri": null
			,"picklistParent": null
		},
"trainingtyperemarks": {
	"$ref": "#/definitions/text"
			,"defaultLabel": "TrainingTypeRemarks"
			,"description": "TrainingTypeRemarks"
			,"fieldAlias2x": "TrainingTypeRemarks"
			,"isSearchable": false
			,"picklistDescription": null
			,"picklistUri": null
			,"picklistParent": null
		},
"tribesallowforcestobeforward": {
	"$ref": "#/definitions/longString"
			,"defaultLabel": "TribesAllowForcesToBeForward"
			,"description": "TribesAllowForcesToBeForward"
			,"fieldAlias2x": "TribesAllowForcesToBeForward"
			,"isSearchable": false
			,"picklistDescription": null
			,"picklistUri": null
			,"picklistParent": null
		},
"tribesallowforcestobeforwardremarks": {
	"$ref": "#/definitions/text"
			,"defaultLabel": "TribesAllowForcesToBeForwardRemarks"
			,"description": "TribesAllowForcesToBeForwardRemarks"
			,"fieldAlias2x": "TribesAllowForcesToBeForwardRemarks"
			,"isSearchable": false
			,"picklistDescription": null
			,"picklistUri": null
			,"picklistParent": null
		},
"unitassessed": {
	"$ref": "#/definitions/longString"
			,"defaultLabel": "UnitAssessed"
			,"description": "UnitAssessed"
			,"fieldAlias2x": "UnitAssessed"
			,"isSearchable": false
			,"picklistDescription": null
			,"picklistUri": null
			,"picklistParent": null
		},
"unitdependentonusforequipmentrating": {
	"$ref": "#/definitions/longString"
			,"defaultLabel": "UnitDependentonUSforEquipmentRating"
			,"description": "UnitDependentonUSforEquipmentRating"
			,"fieldAlias2x": "UnitDependentonUSforEquipmentRating"
			,"isSearchable": false
			,"picklistDescription": null
			,"picklistUri": null
			,"picklistParent": null
		},
"unitdependentonusforequipmentratingremarks": {
	"$ref": "#/definitions/text"
			,"defaultLabel": "UnitDependentonUSforEquipmentRatingRemarks"
			,"description": "UnitDependentonUSforEquipmentRatingRemarks"
			,"fieldAlias2x": "UnitDependentonUSforEquipmentRatingRemarks"
			,"isSearchable": false
			,"picklistDescription": null
			,"picklistUri": null
			,"picklistParent": null
		},
"unitliteracyrate": {
	"$ref": "#/definitions/longString"
			,"defaultLabel": "UnitLiteracyRate"
			,"description": "UnitLiteracyRate"
			,"fieldAlias2x": "UnitLiteracyRate"
			,"isSearchable": false
			,"picklistDescription": null
			,"picklistUri": null
			,"picklistParent": null
		},
"unitliteracyrateremarks": {
	"$ref": "#/definitions/text"
			,"defaultLabel": "UnitLiteracyRateRemarks"
			,"description": "UnitLiteracyRateRemarks"
			,"fieldAlias2x": "UnitLiteracyRateRemarks"
			,"isSearchable": false
			,"picklistDescription": null
			,"picklistUri": null
			,"picklistParent": null
		},
"unitmembersbeingpaid": {
	"$ref": "#/definitions/longString"
			,"defaultLabel": "UnitMembersBeingPaid"
			,"description": "UnitMembersBeingPaid"
			,"fieldAlias2x": "UnitMembersBeingPaid"
			,"isSearchable": false
			,"picklistDescription": null
			,"picklistUri": null
			,"picklistParent": null
		},
"unitmembersbeingpaidremarks": {
	"$ref": "#/definitions/text"
			,"defaultLabel": "UnitMembersBeingPaidRemarks"
			,"description": "UnitMembersBeingPaidRemarks"
			,"fieldAlias2x": "UnitMembersBeingPaidRemarks"
			,"isSearchable": false
			,"picklistDescription": null
			,"picklistUri": null
			,"picklistParent": null
		},
"unittacticsrating": {
	"$ref": "#/definitions/longString"
			,"defaultLabel": "UnitTacticsRating"
			,"description": "UnitTacticsRating"
			,"fieldAlias2x": "UnitTacticsRating"
			,"isSearchable": false
			,"picklistDescription": null
			,"picklistUri": null
			,"picklistParent": null
		},
"usgaccessplacement": {
	"$ref": "#/definitions/longString"
			,"defaultLabel": "USGAccessPlacement"
			,"description": "USGAccessPlacement"
			,"fieldAlias2x": "USGAccessPlacement"
			,"isSearchable": false
			,"picklistDescription": null
			,"picklistUri": null
			,"picklistParent": null
		},
"usgaccessplacementremarks": {
	"$ref": "#/definitions/text"
			,"defaultLabel": "USGAccessPlacementRemarks"
			,"description": "USGAccessPlacementRemarks"
			,"fieldAlias2x": "USGAccessPlacementRemarks"
			,"isSearchable": false
			,"picklistDescription": null
			,"picklistUri": null
			,"picklistParent": null
		},
"usgconductssecurityoperationsagainstveos": {
	"$ref": "#/definitions/longString"
			,"defaultLabel": "USGConductsSecurityOperationsAgainstVEOs"
			,"description": "USGConductsSecurityOperationsAgainstVEOs"
			,"fieldAlias2x": "USGConductsSecurityOperationsAgainstVEOs"
			,"isSearchable": false
			,"picklistDescription": null
			,"picklistUri": null
			,"picklistParent": null
		},
"usgconductssecurityoperationsagainstveosremarks": {
	"$ref": "#/definitions/text"
			,"defaultLabel": "USGConductsSecurityOperationsAgainstVEOsRemarks"
			,"description": "USGConductsSecurityOperationsAgainstVEOsRemarks"
			,"fieldAlias2x": "USGConductsSecurityOperationsAgainstVEOsRemarks"
			,"isSearchable": false
			,"picklistDescription": null
			,"picklistUri": null
			,"picklistParent": null
		},
"usgsupportnetworkestablished": {
	"$ref": "#/definitions/longString"
			,"defaultLabel": "USGSupportNetworkEstablished"
			,"description": "USGSupportNetworkEstablished"
			,"fieldAlias2x": "USGSupportNetworkEstablished"
			,"isSearchable": false
			,"picklistDescription": null
			,"picklistUri": null
			,"picklistParent": null
		},
"usgsupportnetworkestablishedremarks": {
	"$ref": "#/definitions/text"
			,"defaultLabel": "USGSupportNetworkEstablishedRemarks"
			,"description": "USGSupportNetworkEstablishedRemarks"
			,"fieldAlias2x": "USGSupportNetworkEstablishedRemarks"
			,"isSearchable": false
			,"picklistDescription": null
			,"picklistUri": null
			,"picklistParent": null
		},
"vehiclesrating": {
	"$ref": "#/definitions/longString"
			,"defaultLabel": "VehiclesRating"
			,"description": "VehiclesRating"
			,"fieldAlias2x": "VehiclesRating"
			,"isSearchable": false
			,"picklistDescription": null
			,"picklistUri": null
			,"picklistParent": null
		},
"vehiclesratingremarks": {
	"$ref": "#/definitions/text"
			,"defaultLabel": "VehiclesRatingRemarks"
			,"description": "VehiclesRatingRemarks"
			,"fieldAlias2x": "VehiclesRatingRemarks"
			,"isSearchable": false
			,"picklistDescription": null
			,"picklistUri": null
			,"picklistParent": null
		},
"veodisruptioneffortsoverallrating": {
	"$ref": "#/definitions/longString"
			,"defaultLabel": "VEODisruptionEffortsOverallRating"
			,"description": "VEODisruptionEffortsOverallRating"
			,"fieldAlias2x": "VEODisruptionEffortsOverallRating"
			,"isSearchable": false
			,"picklistDescription": null
			,"picklistUri": null
			,"picklistParent": null
		},
"veosconducteffectterritorialsecurityoperations": {
	"$ref": "#/definitions/longString"
			,"defaultLabel": "VEOsConductEffectTerritorialSecurityOperations"
			,"description": "VEOsConductEffectTerritorialSecurityOperations"
			,"fieldAlias2x": "VEOsConductEffectTerritorialSecurityOperations"
			,"isSearchable": false
			,"picklistDescription": null
			,"picklistUri": null
			,"picklistParent": null
		},
"veosconducteffectterritorialsecurityoperationsremarks": {
	"$ref": "#/definitions/text"
			,"defaultLabel": "VEOsConductEffectTerritorialSecurityOperationsRemarks"
			,"description": "VEOsConductEffectTerritorialSecurityOperationsRemarks"
			,"fieldAlias2x": "VEOsConductEffectTerritorialSecurityOperationsRemarks"
			,"isSearchable": false
			,"picklistDescription": null
			,"picklistUri": null
			,"picklistParent": null
		},
"veosunabletoconductcoordinatedoperations": {
	"$ref": "#/definitions/longString"
			,"defaultLabel": "VEOsUnableToConductCoordinatedOperations"
			,"description": "VEOsUnableToConductCoordinatedOperations"
			,"fieldAlias2x": "VEOsUnableToConductCoordinatedOperations"
			,"isSearchable": false
			,"picklistDescription": null
			,"picklistUri": null
			,"picklistParent": null
		},
"veosunabletoconductcoordinatedoperationsremarks": {
	"$ref": "#/definitions/text"
			,"defaultLabel": "VEOsUnableToConductCoordinatedOperationsRemarks"
			,"description": "VEOsUnableToConductCoordinatedOperationsRemarks"
			,"fieldAlias2x": "VEOsUnableToConductCoordinatedOperationsRemarks"
			,"isSearchable": false
			,"picklistDescription": null
			,"picklistUri": null
			,"picklistParent": null
		},
"veosunabletorecruitlocally": {
	"$ref": "#/definitions/longString"
			,"defaultLabel": "VEOsUnableToRecruitLocally"
			,"description": "VEOsUnableToRecruitLocally"
			,"fieldAlias2x": "VEOsUnableToRecruitLocally"
			,"isSearchable": false
			,"picklistDescription": null
			,"picklistUri": null
			,"picklistParent": null
		},
"veosunabletorecruitlocallyremarks": {
	"$ref": "#/definitions/text"
			,"defaultLabel": "VEOsUnableToRecruitLocallyRemarks"
			,"description": "VEOsUnableToRecruitLocallyRemarks"
			,"fieldAlias2x": "VEOsUnableToRecruitLocallyRemarks"
			,"isSearchable": false
			,"picklistDescription": null
			,"picklistUri": null
			,"picklistParent": null
		},
"veosunabletotrain": {
	"$ref": "#/definitions/longString"
			,"defaultLabel": "VEOsUnableToTrain"
			,"description": "VEOsUnableToTrain"
			,"fieldAlias2x": "VEOsUnableToTrain"
			,"isSearchable": false
			,"picklistDescription": null
			,"picklistUri": null
			,"picklistParent": null
		},
"veosunabletotrainremarks": {
	"$ref": "#/definitions/text"
			,"defaultLabel": "VEOsUnableToTrainRemarks"
			,"description": "VEOsUnableToTrainRemarks"
			,"fieldAlias2x": "VEOsUnableToTrainRemarks"
			,"isSearchable": false
			,"picklistDescription": null
			,"picklistUri": null
			,"picklistParent": null
		},
"willingtoconductcmocamissions": {
	"$ref": "#/definitions/longString"
			,"defaultLabel": "WillingToConductCMOCAMissions"
			,"description": "WillingToConductCMOCAMissions"
			,"fieldAlias2x": "WillingToConductCMOCAMissions"
			,"isSearchable": false
			,"picklistDescription": null
			,"picklistUri": null
			,"picklistParent": null
		},
"willingtoconductcmocamissionsremarks": {
	"$ref": "#/definitions/text"
			,"defaultLabel": "WillingToConductCMOCAMissionsRemarks"
			,"description": "WillingToConductCMOCAMissionsRemarks"
			,"fieldAlias2x": "WillingToConductCMOCAMissionsRemarks"
			,"isSearchable": false
			,"picklistDescription": null
			,"picklistUri": null
			,"picklistParent": null
		},
"willingtoconductcmocatraining": {
	"$ref": "#/definitions/longString"
			,"defaultLabel": "WillingToConductCMOCATraining"
			,"description": "WillingToConductCMOCATraining"
			,"fieldAlias2x": "WillingToConductCMOCATraining"
			,"isSearchable": false
			,"picklistDescription": null
			,"picklistUri": null
			,"picklistParent": null
		},
"willingtoconductcmocatrainingremarks": {
	"$ref": "#/definitions/text"
			,"defaultLabel": "WillingToConductCMOCATrainingRemarks"
			,"description": "WillingToConductCMOCATrainingRemarks"
			,"fieldAlias2x": "WillingToConductCMOCATrainingRemarks"
			,"isSearchable": false
			,"picklistDescription": null
			,"picklistUri": null
			,"picklistParent": null
		},
"willingtoconductctoperations": {
	"$ref": "#/definitions/longString"
			,"defaultLabel": "WillingToConductCTOperations"
			,"description": "WillingToConductCTOperations"
			,"fieldAlias2x": "WillingToConductCTOperations"
			,"isSearchable": false
			,"picklistDescription": null
			,"picklistUri": null
			,"picklistParent": null
		},
"willingtoconductctoperationsremarks": {
	"$ref": "#/definitions/text"
			,"defaultLabel": "WillingToConductCTOperationsRemarks"
			,"description": "WillingToConductCTOperationsRemarks"
			,"fieldAlias2x": "WillingToConductCTOperationsRemarks"
			,"isSearchable": false
			,"picklistDescription": null
			,"picklistUri": null
			,"picklistParent": null
		},
"willingtoconductcttraining": {
	"$ref": "#/definitions/longString"
			,"defaultLabel": "WillingToConductCTTraining"
			,"description": "WillingToConductCTTraining"
			,"fieldAlias2x": "WillingToConductCTTraining"
			,"isSearchable": false
			,"picklistDescription": null
			,"picklistUri": null
			,"picklistParent": null
		},
"willingtoconductcttrainingremarks": {
	"$ref": "#/definitions/text"
			,"defaultLabel": "WillingToConductCTTrainingRemarks"
			,"description": "WillingToConductCTTrainingRemarks"
			,"fieldAlias2x": "WillingToConductCTTrainingRemarks"
			,"isSearchable": false
			,"picklistDescription": null
			,"picklistUri": null
			,"picklistParent": null
		},
"willingtoconductterritorialsecuritymissions": {
	"$ref": "#/definitions/longString"
			,"defaultLabel": "WillingToConductTerritorialSecurityMissions"
			,"description": "WillingToConductTerritorialSecurityMissions"
			,"fieldAlias2x": "WillingToConductTerritorialSecurityMissions"
			,"isSearchable": false
			,"picklistDescription": null
			,"picklistUri": null
			,"picklistParent": null
		},
"willingtoconductterritorialsecuritymissionsremarks": {
	"$ref": "#/definitions/text"
			,"defaultLabel": "WillingToConductTerritorialSecurityMissionsRemarks"
			,"description": "WillingToConductTerritorialSecurityMissionsRemarks"
			,"fieldAlias2x": "WillingToConductTerritorialSecurityMissionsRemarks"
			,"isSearchable": false
			,"picklistDescription": null
			,"picklistUri": null
			,"picklistParent": null
		},
"willingtoconductterritorialsecuritytraining": {
	"$ref": "#/definitions/longString"
			,"defaultLabel": "WillingToConductTerritorialSecurityTraining"
			,"description": "WillingToConductTerritorialSecurityTraining"
			,"fieldAlias2x": "WillingToConductTerritorialSecurityTraining"
			,"isSearchable": false
			,"picklistDescription": null
			,"picklistUri": null
			,"picklistParent": null
		},
"willingtoconductterritorialsecuritytrainingremarks": {
	"$ref": "#/definitions/text"
			,"defaultLabel": "WillingToConductTerritorialSecurityTrainingRemarks"
			,"description": "WillingToConductTerritorialSecurityTrainingRemarks"
			,"fieldAlias2x": "WillingToConductTerritorialSecurityTrainingRemarks"
			,"isSearchable": false
			,"picklistDescription": null
			,"picklistUri": null
			,"picklistParent": null
		},
"womeninmilitary": {
	"$ref": "#/definitions/text"
			,"defaultLabel": "WomenInMilitary"
			,"description": "WomenInMilitary"
			,"fieldAlias2x": "WomenInMilitary"
			,"isSearchable": false
			,"picklistDescription": null
			,"picklistUri": null
			,"picklistParent": null
		},
			"languages": {
				"type": "array",
				"description": "Operations MentoringUnitAssessment Report Languages specific details",
				"fieldAlias2x": "Languages", 
					"items": {
						"type": "object",
						"properties": {
						
"languages": {
	"$ref": "#/definitions/text"
			,"defaultLabel": "Languages"
			,"description": "Languages"
			,"fieldAlias2x": "Languages"
			,"isSearchable": false
			,"picklistDescription": null
			,"picklistUri": null
			,"picklistParent": null
		},
"referenceid": {
	"$ref": "#/definitions/longString"
			,"defaultLabel": "referenceId"
			,"description": "referenceId"
			,"fieldAlias2x": "LanguagesKey"
			,"isSearchable": false
			,"picklistDescription": null
			,"picklistUri": null
			,"picklistParent": null
		}
				}
			}
		}
				}
			}
	}
}
