	
{
    "type": "object",
    "id": "http://cidne.dae.smil.mil/schemas/SOF/AreaStudySocial/CIDNEDM235",
    "description": "CIDNE SOF AreaStudySocial Report Definition",
    "definitions": {
        "shortStringRequired": {
            "type": "string",
            "maxLength": 50
        },
        "longStringRequired": {
            "type": "string",
            "maxLength": 500
        },
        "textRequired": {
            "type": "string"
        },
        "textFieldLevelRequired": {
            "type": "object",
            "properties": {
                "objectValue": {
                    "type": "string"
                },
                "security": {
					"$ref": "#/definitions/security"
				}
            },
            "required": [
                "objectValue",
                "security"
            ]
        },
        "dateTimeRequired": {
            "type": "object",
            "properties": {
                "zuluDateTime": {
                    "type": "string",
                    "format": "date-time"
                },
                "zuluOffset": {
                    "type": "integer",
					"minimum": -840,
					"maximum": 840,
                    "description": "Offset in minutes from Zulu"
                }
            },
            "required": [
                "zuluDateTime",
                "zuluOffset"
            ]
        },
        "latitude_ddsRequired": {
            "type": "number",
            "minimum": -90,
            "maximum": 90
        },
        "longitude_ddsRequired": {
            "type": "number",
            "minimum": -180,
            "maximum": 180
        },
        "positive_intRequired": {
            "type": "integer",
            "minimum": 0
        },
        "positive_numRequired": {
            "type": "number",
            "minimum": 0
        },
        "positive_intRequired": {
            "type": "integer",
            "minimum": 0
        },
        "shortString": {
            "type": ["string","null"],
            "maxLength": 50
        },
        "longString": {
            "type": ["string","null"],
            "maxLength": 500
        },
        "text": {
            "type": ["string","null"]
        },
        "textFieldLevel": {
            "type": "object",
            "properties": {
                "objectValue": {
                    "type": ["string","null"]
                },
                "security": {
					"$ref": "#/definitions/securityOptional"
				}
            },
            "required": [
                "objectValue",
                "security"
            ]
        },
        "dateTime": {
            "type": ["object","null"],
            "properties": {
                "zuluDateTime": {
                    "type": "string",
                    "format": "date-time"
                },
                "zuluOffset": {
                    "type": "integer",
					"minimum": -840,
					"maximum": 840,
                    "description": "Offset in minutes from Zulu"
                }
            },
            "required": [
                "zuluDateTime",
                "zuluOffset"
            ]
        },
        "latitude_dds": {
            "type": ["number","null"],
            "minimum": -90,
            "maximum": 90
        },
        "longitude_dds": {
            "type": ["number","null"],
            "minimum": -180,
            "maximum": 180
        },
        "positive_int": {
            "type": ["integer","null"],
            "minimum": 0
        },
        "positive_num": {
            "type": ["number","null"],
            "minimum": 0
        },
        "num": {
            "type": ["number","null"]
        },
        "uniqueStringArray": {
            "type": "array",
            "uniqueItems": true,
            "items": {
                "type": "string"
            }
        },
        "securityOptional": {
            "oneOf": [
                {
                    "type": "null"
                },
                {
                    "$ref": "#/definitions/security"
                }
            ]
        },
        "security": {
            "type": "object",
            "properties": {
                "atomicEnergyMarkings": {
                    "$ref": "#/definitions/shortString",
                    "description": "Atomic Energy Act Information Markings"
                },
                "classificationReason": {
                    "$ref": "#/definitions/longString",
                    "description": ": Concise reason for classification"
                },
                "classification": {
                    "enum": [ "U", "TS", "S", "C" ],
                    "description": "Classification of information",
                    "defaultLabel": "Classification",
                    "isSearchable": false,
                    "picklistName": "classification",
                    "picklistUri": "http://cidne.dae.smil.mil/schemas/CAPCO/classification",
                    "picklistParent": null
                    
                },
                "classifiedBy": {
                    "$ref": "#/definitions/longString",
                    "description": "Identification by name and position, or personal identifier of the OCA"
                },
                "compilationReason": {
                    "$ref": "#/definitions/longString",
                    "description": "Reason why the compilation of information causes the classification"
                },
                "declassDate": {
                    "$ref": "#/definitions/dateTime",
                    "description": "Declassification date"
                },
                "declassEvent": {
                    "$ref": "#/definitions/shortString",
                    "description": "Declassification event"
                },
                "declassException": {
                    "$ref": "#/definitions/longString",
                    "description": "Declassification exception"
                },
                "derivativelyClassifiedBy": {
                    "$ref": "#/definitions/longString",
                    "description": "The derivative classifier’s identification by name and position, or by personal identifier, in a manner that is immediately apparent on each derivatively classified document. If not otherwise evident, the agency and office of origin shall be identified"
                },
                "derivedFrom": {
                    "$ref": "#/definitions/shortString",
                    "description": "Concisely identify the source document or the classification guide"
                },
                "displayOnlyTo": {
                    "$ref": "#/definitions/longString",
                    "description": "List of foreign country(ies)/international organization(s) authorized for disclosure without providing the recipient with a physical copy for retention, regardless of medium to the foreign country(ies)/international organization(s) indicated"
                },
                "disseminationControls": {
                    "$ref": "#/definitions/longString",
                    "description": "Control markings that identify the expansion or limitation on the distribution of information. These markings are in addition to and separate from the levels of classification"
                },
                "FGIsourceOpen": {
                    "$ref": "#/definitions/shortString",
                    "description": "Open Source Foreign Government Information"
                },
                "FGIsourceProtected": {
                    "$ref": "#/definitions/shortString",
                    "description": "Protected Source Foreign Government Information"
                },
                "nonICmarkings": {
                    "$ref": "#/definitions/text",
                    "description": "Markings authorized for use by entities outside of the Intelligence Community"
                },
                "nonUSControls": {
                    "$ref": "#/definitions/shortString",
                    "description": "Non-US protective markings"
                },
                "ownerProducer": {
                    "$ref": "#/definitions/shortStringRequired",
                    "description": "Owner/Producer",
                    "default": "USA",
                    "defaultLabel": "Owner Producer",
                    "isSearchable": false,
                    "picklistName": "ownerProducer",
                    "picklistUri": "http://cidne.dae.smil.mil/schemas/CAPCO/ownerProducer",
                    "picklistParent": null
                },
                "releasableToFilterField": {
                    "$ref": "#/definitions/shortString",
                    "description": "Need to add CAPCO Descriptions"
                },
                "releasableTo": {
                    "$ref": "#/definitions/text",
                    "description": "List of countries releasable to",
                    "defaultLabel": "Releasable To",
                    "isSearchable": false,
                    "picklistName": "releasableTo",
                    "picklistUri": "http://cidne.dae.smil.mil/schemas/CAPCO/releasableTo",
                    "picklistParent": null
                },
                "SARIdentifier": {
                    "$ref": "#/definitions/shortString",
                    "description": "Special access required programs"
                },
                "SCIcontrols": {
                    "$ref": "#/definitions/longString",
                    "description": "Sensitive Compartmented Information (SCI) control systems"
                }
            },
            "required": [
                "ownerProducer",
                "classification"
            ]
        },
        "actionInfo":{
            "type": "object",
            "properties": {
                "actionDate": {
                    "$ref": "#/definitions/dateTimeRequired",
                    "description": "Date Time Action was taken"
                },
                "group": {
                    "$ref": "#/definitions/longStringRequired",
                    "description": "User Group that performed action"
                },
                "parentGroup": {
                    "$ref": "#/definitions/longString",
                    "description": "User Group's Parent Group Name"
                },
                "nationality": {
                    "$ref": "#/definitions/shortStringRequired",
                    "description": "User Nationality"
                },
                "network": {
                    "$ref": "#/definitions/shortStringRequired",
                    "description": "Systems Network where action was taken"
                },
                "objectState": {
                    "description": "",
                    "enum": [
                        "CREATED",
                        "MODIFIED",
                        "TEMPLATE",
                        "SUBMITTED",
                        "PUBLISHED",
                        "VERSIONED",
                        "DEPRECATED",
                        "VALIDATING",
                        "RESTORED",
                        "MOVED"
                    ]
                },
                "site": {
                    "$ref": "#/definitions/shortStringRequired",
                    "description": "Systems Site"
                },
                "system": {
                    "$ref": "#/definitions/shortStringRequired",
                    "description": "System that provided the action"
                },
                "user": {
                    "$ref": "#/definitions/shortStringRequired",
                    "description": "User that performed action"
                }
            },
            "required": [
                "actionDate",
                "group",
                "parentGroup",
                "nationality",
                "network",
                "objectState",
                "site",
                "system",
                "user"
            ]
        },
        "position": {
            "description": "A single position. (order should be longitude,latitude)",
            "type": "array",
            "minItems": 2,
            "items": [
                {
                    "type": "number"
                },
                {
                    "type": "number"
                }
            ],
            "additionalItems": false
        },
        "positionArray": {
            "description": "An array of positions",
            "type": "array",
            "items": {
                "$ref": "#/definitions/position"
            }
        },
        "lineString": {
            "description": "An array of two or more positions",
            "allOf": [
                {
                    "type": "array",
                    "items": {
                        "$ref": "#/definitions/position"
                    }
                },
                {
                    "minItems": 2
                }
            ]
        },
        "linearRing": {
            "description": "An array of four positions where the first equals the last",
            "allOf": [
                {
                    "type": "array",
                    "items": {
                        "$ref": "#/definitions/position"
                    }
                },
                {
                    "minItems": 4
                }
            ]
        },
        "polygon": {
            "description": "An array of linear rings",
            "type": "array",
            "items": {
                "$ref": "#/definitions/linearRing"
            }
        },
        "geometry": {
            "title": "geometry",
            "description": "One geometry as defined by GeoJSON",
            "type": "object",
            "required": [
                "type",
                "coordinates"
            ],
            "oneOf": [
                {
                    "title": "Point",
                    "properties": {
                        "type": {
                            "enum": [
                                "Point"
                            ]
                        },
                        "coordinates": {
                            "$ref": "#/definitions/position"
                        }
                    }
                },
                {
                    "title": "MultiPoint",
                    "properties": {
                        "type": {
                            "enum": [
                                "MultiPoint"
                            ]
                        },
                        "coordinates": {
                            "type": "array",
                            "items": {
                                "$ref": "#/definitions/position"
                            }
                        }
                    }
                },
                {
                    "title": "LineString",
                    "properties": {
                        "type": {
                            "enum": [
                                "LineString"
                            ]
                        },
                        "coordinates": {
                            "$ref": "#/definitions/lineString"
                        }
                    }
                },
                {
                    "title": "MultiLineString",
                    "properties": {
                        "type": {
                            "enum": [
                                "MultiLineString"
                            ]
                        },
                        "coordinates": {
                            "type": "array",
                            "items": {
                                "$ref": "#/definitions/lineString"
                            }
                        }
                    }
                },
                {
                    "title": "Polygon",
                    "properties": {
                        "type": {
                            "enum": [
                                "Polygon"
                            ]
                        },
                        "coordinates": {
                            "$ref": "#/definitions/polygon"
                        }
                    }
                },
                {
                    "title": "MultiPolygon",
                    "properties": {
                        "type": {
                            "enum": [
                                "MultiPolygon"
                            ]
                        },
                        "coordinates": {
                            "type": "array",
                            "items": {
                                "$ref": "#/definitions/polygon"
                            }
                        }
                    }
                }
            ]
        },
        "geometryCollection": {
            "title": "GeometryCollection",
            "description": "A collection of geometry objects",
            "required": [
                "geometries"
            ],
            "properties": {
                "type": {
                    "enum": [
                        "GeometryCollection"
                    ]
                },
                "geometries": {
                    "type": "array",
                    "items": {
                        "$ref": "#/definitions/geometry"
                    }
                }
            }
        },
        "feature": {
            "title": "Feature",
            "description": "A Geo JSON feature object",
            "required": [
                "geometry"
            ],
            "properties": {
                "type": {
                    "enum": [
                        "Feature"
                    ]
                },
                "geometry": {
                    "oneOf": [
                        {
                            "type": "null"
                        },
                        {
                            "$ref": "#/definitions/geometry"
                        }
                    ]
                },
				"properties": { "type": [ "object", "null" ] },
                "id": { "type":["string"] }
            }
        },
        "featureCollection": {
            "description": "A GeoJSON feature collection",
            "required": [
                "features"
            ],
            "properties": {
                "type": {
                    "enum": [
                        "FeatureCollection"
                    ]
                },
                "features": {
                    "type": "array",
                    "items": {
                        "$ref": "#/definitions/feature"
                    }
                }
            }
        },
		"namedCrs": {
            "properties": {
                "type": { "enum": [ "name" ] },
                "properties": {
                    "required": [ "name" ],
                    "additionalProperties": false,
                    "properties": {
                        "name": {
                            "type": "string"
                        }
                    }
                }
            }
        },
        "linkedObject": {
            "type": "object",
            "required": [ "href" ],
            "properties": {
                "href": {
                    "type": "string",
                    "format": "uri"
                },
                "type": {
                    "type": "string",
                    "description": "Suggested values: proj4, ogjwkt, esriwkt"
                }
            }
        },
        "linkedCrs": {
            "properties": {
                "type": { "enum": [ "link" ] },
                "properties": { "$ref": "#/definitions/linkedObject" }
            }
        },	
		"crs":{
			"title": "crs",
			"description": "a Coordinate Reference System object",
			"type": [ "object", "null" ],
			"required": [ "type", "properties" ],
			"properties": {
				"type": { "type": "string" },
				"properties": { "type": "object" }
			},
			"additionalProperties": false,
			"oneOf": [
				{ "$ref": "#/definitions/namedCrs" },
				{ "$ref": "#/definitions/linkedCrs" }
			]
		},
		"bbox":{
		"description": "A bounding box as defined by GeoJSON",
			"type": "array",
			"items": { "type": "number" }
		},
        "geojson": {
            "title": "Geo JSON object",
            "description": "Schema for a Geo JSON object",
            "type": ["object","null"],
            "required": [
                "type"
            ],
			"properties": {
				"crs": { "$ref": "#/definitions/crs" },
				"bbox": { "$ref": "#/definitions/bbox" }
			},
            "anyOf": [
                {
                    "$ref": "#/definitions/geometry"
                },
                {
                    "$ref": "#/definitions/geometryCollection"
                },
                {
                    "$ref": "#/definitions/feature"
                },
                {
                    "$ref": "#/definitions/featureCollection"
                }
            ]
        }
    },
    "required": [
        "base",
        "datamodel",
        "formId",
        "location",
        "security",
        "details"
    ],	
    "properties": {
        "datamodel": {
            "$ref": "#/definitions/longString",
            "description": "Reference to the report definition."
        },
        "formId": {
            "$ref": "#/definitions/longString",
            "description": "Reference to the layout template identifier that this data was intended to be best visualized"
        },
        "base": {
            "type": "object",
            "description": "The core metadata used within all report definitions",
            "properties": {
                "objectId": {
                    "$ref": "#/definitions/shortStringRequired",
                    "description": "Report instance unique identifier"
                },
                "reportId": {
                    "$ref": "#/definitions/shortStringRequired",
                    "description": "Original report instance objectId for a report version grouping. (i.e. the root report identifier)"
                },
                "parentVersionId": {
                    "$ref": "#/definitions/shortString",
                    "description": "Report instance's objectId of the parent report. NOTE: If there is no parent, this value should be set to the report instance's own objectId. "
                },
                "module": {
                    "$ref": "#/definitions/shortStringRequired",
                    "description": "CIDNE community"
                },
                "reportType": {
                    "$ref": "#/definitions/shortStringRequired",
                    "description": "CIDNE report type (e.g. SIGACT)"
                },
                "reportSerial": {
                    "$ref": "#/definitions/textFieldLevel",
					"defaultLabel": "DisplaySerial",
					"description": "Report instance nomenclature (DisplaySerial)",
					"fieldAlias2x": "DisplaySerial"
                },
                "reportTitle": {
                    "$ref": "#/definitions/textFieldLevel",
					"defaultLabel": "DisplayTitle",
					"description": "Report instance title text (DisplayTitle)",
					"fieldAlias2x": "DisplayTitle"
                },
                "reportSummary": {
                    "$ref": "#/definitions/textFieldLevel",
					"defaultLabel": "DisplaySummary",
					"description": "Report instance summary text block (DisplaySummary)",
					"fieldAlias2x": "DisplaySummary"
                },
                "reportDate": {
                    "$ref": "#/definitions/dateTimeRequired",
					"defaultLabel": "DatePosted",
					"description": "Primary report instance date (DatePosted)",
					"fieldAlias2x": "DatePosted"
                },
                "reportSymbol": {
                    "$ref": "#/definitions/longString",
                    "description": "Report instance symbology"
                },
                "reportImage": {
                    "$ref": "#/definitions/longString",
                    "description": "Primary image of report instance"
                },
                "reportCountry": {
                    "$ref": "#/definitions/shortString",
                    "description": "Country value of report instance's primary location"
                },
                "reportLatitude": {
                    "$ref": "#/definitions/latitude_dds",
                    "description": "Latitude value of report instance's primary location"
                },
                "reportLongitude": {
                    "$ref": "#/definitions/longitude_dds",
                    "description": "Longitude value of report instance's primary location"
                },
				"geoLocation":{
					"$ref":"#/definitions/geojson"
				},
                "currentObjectState":{
                        "$ref": "#/definitions/actionInfo"
                },
                "originatingGroup": {
                    "$ref": "#/definitions/longStringRequired",
                    "description": "Original creator's group"
                },  
                "originatingUser": {
                    "$ref": "#/definitions/longStringRequired",
                    "description": "Original creator's User Name or email address"
                },  
				"isTearline": {
                    "type": "boolean",
                    "description": "Determines whether a report is a tearline"
                },
				"tearlineId": {
					"$ref": "#/definitions/shortString",
                    "description": "The reportId of the parent, used as a tearline group binding"
				},
                "theaterFilter": {
                    "$ref": "#/definitions/shortStringRequired",
                    "description": "Report instance theater of relevance"
                },
                "warehouseUri": {
                    "$ref": "#/definitions/longStringRequired",
                    "description": "Data warehouse location for report instance",
                    "format": "uri"
                }
            },
            "required": [
                "isTearline",
                "module",
                "objectId",
                "currentObjectState",
                "originatingGroup",
                "originatingUser",
                "reportId",
                "reportSerial",
                "reportDate",
                "theaterFilter",
                "reportType",
                "reportTitle",
                "reportSummary"
            ]
        },
        "location": {
            "type": "array",
            "description": "All locations for the report instance",
            "items": {
                "type": "object",
                "properties": {
                    "objectId": {
                        "$ref": "#/definitions/shortStringRequired",
                        "description": "objectId required for Edit Purposes"
                    },
                    "address": {
                        "$ref": "#/definitions/longString",
                        "description": "Address Details"
                    },
                    "alternateRoute": {
                        "$ref": "#/definitions/longString",
                        "description": "Alternate Route for location"
                    },
                    "ao": {
                        "$ref": "#/definitions/shortString",
                        "description": "Area of Operations"
                    },
                    "basecamp": {
                        "$ref": "#/definitions/shortString",
                        "description": "Base Camp"
                    },
                    "city": {
                        "$ref": "#/definitions/shortString",
                        "description": "City for Location"
                    },
                    "confidence": {
                        "$ref": "#/definitions/shortString",
                        "description": "Reporters Confidence in Location Value"
                    },
                    "country": {
                        "$ref": "#/definitions/shortString",
                        "description": "Location Country"
                    },
                    "customGeom": {
                        "type": "object",
                        "description": "Custom Geometry Object for Location",
                        "properties": {
                            "customGeomObjectId": {
                                "$ref": "#/definitions/shortString",
                                "description": "objectId for Custom Geometry Object"
                            },
                            "geomType": {
                                "$ref": "#/definitions/shortString",
                                "description": "Geometry Type for custom geometry object (e.g. Point, Multi-polygon"
                            },
                            "geom": {
                                "$ref": "#/definitions/shortString",
                                "description": "TBD GEOM Object for Custom Location Object"
                            },
                            "name": {
                                "$ref": "#/definitions/shortString",
                                "description": "Custom Location Name"
                            }
                        }
                    },
                    "dateEndLocation": {
                        "$ref": "#/definitions/dateTime",
                        "description": "Ending Date Time for location"
                    },
                    "dateStartLocation": {
                        "$ref": "#/definitions/dateTime",
                        "description": "Starting Date Time for location"
                    },
                    "derivedLocation": {
                        "type": "boolean",
                        "description": "Was Location Lat/Long derived from user picklists?"
                    },
                    "description": {
                        "$ref": "#/definitions/text",
                        "description": "Location Description"
                    },
                    "distanceFromCityCenter": {
                        "$ref": "#/definitions/positive_int",
                        "description": "Distance in meters to nearest city center"
                    },
                    "distanceToNearestFOB": {
                        "$ref": "#/definitions/positive_num",
                        "description": "Distance in meters to nearest FOB"
                    },
                    "distanceToNearestRoute": {
                        "$ref": "#/definitions/positive_num",
                        "description": "Distance in meters to nearest Route"
                    },
                    "district": {
                        "$ref": "#/definitions/shortString",
                        "description": "District"
                    },
                    "fob": {
                        "$ref": "#/definitions/shortString",
                        "description": "FOB"
                    },
					"geoLocation":{
						"$ref":"#/definitions/geojson"
					},
					"house": {
                        "$ref": "#/definitions/shortString",
                        "description": "HOUSE"
                    },
                    "isPrimaryLocation": {
                        "type": "boolean",
                        "description": "Marks Primary Location"
                    },
                    "latitude": {
                        "$ref": "#/definitions/latitude_ddsRequired",
                        "description": "Latitude of Location in Degree Decimal Seconds"
                    },
                    "locationActive": {
                        "type": "boolean",
                        "description": "Is Location Active?"
                    },
                    "locationType": {
                        "$ref": "#/definitions/shortString",
                        "description": "Location Type"
                    },
                    "longitude": {
                        "$ref": "#/definitions/longitude_ddsRequired",
                        "description": "Longitude of Location in Degree Decimal Seconds"
                    },
                    "mscCurrent": {
                        "$ref": "#/definitions/shortString",
                        "description": "Current Major Supporting Command responsible for location"
                    },
                    "mscDateOfCurrent": {
                        "$ref": "#/definitions/dateTime",
                        "description": "Date Of Current Major Supporting Command's Control of location"
                    },
                    "msc": {
                        "$ref": "#/definitions/shortString",
                        "description": "Major Supporting Command responsible for location"
                    },
                    "nai": {
                        "$ref": "#/definitions/shortString",
                        "description": "Named Area of Interest"
                    },
                    "nearestCity": {
                        "$ref": "#/definitions/shortString",
                        "description": "Nearest City"
                    },
                    "nearestFOB": {
                        "$ref": "#/definitions/shortString",
                        "description": "Nearest FOB"
                    },
                    "nearestRoute": {
                        "$ref": "#/definitions/shortString",
                        "description": "Nearest Route"
                    },
                    "neighborhood": {
                        "$ref": "#/definitions/shortString",
                        "description": "Neighborhood for location"
                    },
                    "populationCenterType": {
                        "$ref": "#/definitions/shortString",
                        "description": "Population Center Type"
                    },
                    "populationCenter": {
                        "$ref": "#/definitions/shortString",
                        "description": "Population Center"
                    },
                    "province": {
                        "$ref": "#/definitions/shortString",
                        "description": "Province"
                    },
                    "referenceId": {
                        "$ref": "#/definitions/shortString",
                        "description": "Reference to any subelement with in current report instance (e.g. Event Object ID)"
                    },
                    "route": {
                        "$ref": "#/definitions/shortString",
                        "description": "Route"
                    },
                    "security": {
                        "$ref": "#/definitions/securityOptional"
                    },
                    "street": {
                        "$ref": "#/definitions/shortString",
                        "description": "Street"
                    },
                    "structure": {
                        "$ref": "#/definitions/shortString",
                        "description": "Structure"
                    },
                    "village": {
                        "$ref": "#/definitions/shortString",
                        "description": "Village"
                    },
                    "zone": {
                        "$ref": "#/definitions/shortString",
                        "description": "City Zone"
                    }
                },
				"required": [
					"objectId",
					"isPrimaryLocation",
					"latitude",
					"longitude"
				]
            }
        },
        "remarks": {
            "type": "array",
            "items": {
                "type": "object",
                "properties": {
                    "objectId": {
                        "$ref": "#/definitions/shortStringRequired",
                        "description": "objectId required for Edit Purposes"
                    },
                    "referenceId": {
                        "$ref": "#/definitions/shortString",
                        "description": "Reference to any subelement with in current report instance (e.g. Event Object ID)"
                    },
                    "remarkText": {
                        "$ref": "#/definitions/text",
                        "description": "Remark Text"
                    },
                    "remarkType": {
                        "$ref": "#/definitions/shortString",
                        "description": "Remark Type"
                    },
                    "remarkOrder": {
                        "$ref": "#/definitions/positive_num",
                        "description": "Remark Order"
                    },
                    "security": {
                        "$ref": "#/definitions/securityOptional"
                    }
                },
                "required": [
                    "objectId",
                    "remarkText",
                    "remarkType",
                    "security"
                ]
            }
        },
        "requirements": {
            "type": "array",
            "items": {
                "type": "object",
                "properties": {
                    "objectId": {
                        "$ref": "#/definitions/shortStringRequired",
                        "description": "objectId required for Edit Purposes"
                    },
                    "referenceId": {
                        "$ref": "#/definitions/shortString",
                        "description": "Reference to any subelement with in current report instance (e.g. Event Object ID)"
                    },
                    "requirement": {
                        "$ref": "#/definitions/longString",
                        "description": "Requirement sub based on Requirement Type"
                    },
                    "requirementType": {
                        "$ref": "#/definitions/shortString",
                        "description": "Requirement Type"
                    },
                    "comment": {
                        "$ref": "#/definitions/text",
                        "description": "Requirement Comment"
                    },
                    "security": {
                        "$ref": "#/definitions/securityOptional"
                    }
                },
                "required": [
                    "objectId",
                    "requirementType",
                    "requirement",
                    "comment"
                ]
            }
        },
        "security": {
                        "$ref": "#/definitions/security"
        },
        "objectHistory": {
            "type": "array",
            "items":
                    {
                        "$ref": "#/definitions/actionInfo"
                    }       
		},
			"details": {
				"type": "object",
				"description": "SOF AreaStudySocial Report details specific details",
				"fieldAlias2x": "details", 
						"properties": {
						
"approximateattendance": {
	"$ref": "#/definitions/longString"
			,"defaultLabel": "ApproximateAttendance"
			,"description": "ApproximateAttendance"
			,"fieldAlias2x": "ApproximateAttendance"
			,"isSearchable": false
			,"picklistDescription": null
			,"picklistUri": null
			,"picklistParent": null
		},
"behaviorscustomsbeliefs": {
	"$ref": "#/definitions/text"
			,"defaultLabel": "BehaviorsCustomsBeliefs"
			,"description": "BehaviorsCustomsBeliefs"
			,"fieldAlias2x": "BehaviorsCustomsBeliefs"
			,"isSearchable": false
			,"picklistDescription": null
			,"picklistUri": null
			,"picklistParent": null
		},
"benumber": {
	"$ref": "#/definitions/text"
			,"defaultLabel": "BENumber"
			,"description": "BENumber"
			,"fieldAlias2x": "BENumber"
			,"isSearchable": false
			,"picklistDescription": null
			,"picklistUri": null
			,"picklistParent": null
		},
"careofdying": {
	"$ref": "#/definitions/longString"
			,"defaultLabel": "CareOfDying"
			,"description": "CareOfDying"
			,"fieldAlias2x": "CareOfDying"
			,"isSearchable": false
			,"picklistDescription": null
			,"picklistUri": null
			,"picklistParent": null
		},
"careofdyingremarks": {
	"$ref": "#/definitions/text"
			,"defaultLabel": "CareOfDyingRemarks"
			,"description": "CareOfDyingRemarks"
			,"fieldAlias2x": "CareOfDyingRemarks"
			,"isSearchable": false
			,"picklistDescription": null
			,"picklistUri": null
			,"picklistParent": null
		},
"causeofviolence": {
	"$ref": "#/definitions/text"
			,"defaultLabel": "CauseOfViolence"
			,"description": "CauseOfViolence"
			,"fieldAlias2x": "CauseOfViolence"
			,"isSearchable": false
			,"picklistDescription": null
			,"picklistUri": null
			,"picklistParent": null
		},
"culturalnuances": {
	"$ref": "#/definitions/text"
			,"defaultLabel": "CulturalNuances"
			,"description": "CulturalNuances"
			,"fieldAlias2x": "CulturalNuances"
			,"isSearchable": false
			,"picklistDescription": null
			,"picklistUri": null
			,"picklistParent": null
		},
"customarypractices": {
	"$ref": "#/definitions/text"
			,"defaultLabel": "CustomaryPractices"
			,"description": "CustomaryPractices"
			,"fieldAlias2x": "CustomaryPractices"
			,"isSearchable": false
			,"picklistDescription": null
			,"picklistUri": null
			,"picklistParent": null
		},
"disputedareadescription": {
	"$ref": "#/definitions/text"
			,"defaultLabel": "DisputedAreaDescription"
			,"description": "DisputedAreaDescription"
			,"fieldAlias2x": "DisputedAreaDescription"
			,"isSearchable": false
			,"picklistDescription": null
			,"picklistUri": null
			,"picklistParent": null
		},
"disputedareamgrs": {
	"$ref": "#/definitions/longString"
			,"defaultLabel": "DisputedAreaMGRS"
			,"description": "DisputedAreaMGRS"
			,"fieldAlias2x": "DisputedAreaMGRS"
			,"isSearchable": false
			,"picklistDescription": null
			,"picklistUri": null
			,"picklistParent": null
		},
"disputedareamgrslatitude": {
	"$ref": "#/definitions/latitude_dds"
			,"defaultLabel": "DisputedAreaMGRSLatitude"
			,"description": "DisputedAreaMGRSLatitude"
			,"fieldAlias2x": "DisputedAreaMGRSLatitude"
			,"isSearchable": false
			,"picklistDescription": null
			,"picklistUri": null
			,"picklistParent": null
		},
"disputedareamgrslongitude": {
	"$ref": "#/definitions/longitude_dds"
			,"defaultLabel": "DisputedAreaMGRSLongitude"
			,"description": "DisputedAreaMGRSLongitude"
			,"fieldAlias2x": "DisputedAreaMGRSLongitude"
			,"isSearchable": false
			,"picklistDescription": null
			,"picklistUri": null
			,"picklistParent": null
		},
"disputedareaname": {
	"$ref": "#/definitions/longString"
			,"defaultLabel": "DisputedAreaName"
			,"description": "DisputedAreaName"
			,"fieldAlias2x": "DisputedAreaName"
			,"isSearchable": false
			,"picklistDescription": null
			,"picklistUri": null
			,"picklistParent": null
		},
"disputedarearemarks": {
	"$ref": "#/definitions/text"
			,"defaultLabel": "DisputedAreaRemarks"
			,"description": "DisputedAreaRemarks"
			,"fieldAlias2x": "DisputedAreaRemarks"
			,"isSearchable": false
			,"picklistDescription": null
			,"picklistUri": null
			,"picklistParent": null
		},
"disputedareas": {
	"$ref": "#/definitions/text"
			,"defaultLabel": "DisputedAreas"
			,"description": "DisputedAreas"
			,"fieldAlias2x": "DisputedAreas"
			,"isSearchable": false
			,"picklistDescription": null
			,"picklistUri": null
			,"picklistParent": null
		},
"doi": {
	"$ref": "#/definitions/dateTime"
			,"defaultLabel": "DOI"
			,"description": "DOI"
			,"fieldAlias2x": "DOI"
			,"isSearchable": false
			,"picklistDescription": null
			,"picklistUri": null
			,"picklistParent": null
		},
"dominantgroups": {
	"$ref": "#/definitions/text"
			,"defaultLabel": "DominantGroups"
			,"description": "DominantGroups"
			,"fieldAlias2x": "DominantGroups"
			,"isSearchable": false
			,"picklistDescription": null
			,"picklistUri": null
			,"picklistParent": null
		},
"dwellingbuildingmaterial": {
	"$ref": "#/definitions/text"
			,"defaultLabel": "DwellingBuildingMaterial"
			,"description": "DwellingBuildingMaterial"
			,"fieldAlias2x": "DwellingBuildingMaterial"
			,"isSearchable": false
			,"picklistDescription": null
			,"picklistUri": null
			,"picklistParent": null
		},
"ethnicidentity": {
	"$ref": "#/definitions/longString"
			,"defaultLabel": "EthnicIdentity"
			,"description": "EthnicIdentity"
			,"fieldAlias2x": "EthnicIdentity"
			,"isSearchable": false
			,"picklistDescription": null
			,"picklistUri": null
			,"picklistParent": null
		},
"eventpurpose": {
	"$ref": "#/definitions/text"
			,"defaultLabel": "EventPurpose"
			,"description": "EventPurpose"
			,"fieldAlias2x": "EventPurpose"
			,"isSearchable": false
			,"picklistDescription": null
			,"picklistUri": null
			,"picklistParent": null
		},
"eventtype": {
	"$ref": "#/definitions/longString"
			,"defaultLabel": "EventType"
			,"description": "EventType"
			,"fieldAlias2x": "EventType"
			,"isSearchable": false
			,"picklistDescription": "EventType"
			,"picklistUri": "SOFAreaStudySocial-EventType"
			,"picklistParent": null
		},
"expired": {
	"type": "boolean"
			,"defaultLabel": "Expired"
			,"description": "Expired"
			,"fieldAlias2x": "Expired"
			,"isSearchable": false
			,"picklistDescription": null
			,"picklistUri": null
			,"picklistParent": null
		},
"familysupportservices": {
	"$ref": "#/definitions/longString"
			,"defaultLabel": "FamilySupportServices"
			,"description": "FamilySupportServices"
			,"fieldAlias2x": "FamilySupportServices"
			,"isSearchable": false
			,"picklistDescription": null
			,"picklistUri": null
			,"picklistParent": null
		},
"familysupportservicesremarks": {
	"$ref": "#/definitions/text"
			,"defaultLabel": "FamilySupportServicesRemarks"
			,"description": "FamilySupportServicesRemarks"
			,"fieldAlias2x": "FamilySupportServicesRemarks"
			,"isSearchable": false
			,"picklistDescription": null
			,"picklistUri": null
			,"picklistParent": null
		},
"feelingstowardsus": {
	"$ref": "#/definitions/longString"
			,"defaultLabel": "FeelingsTowardsUS"
			,"description": "FeelingsTowardsUS"
			,"fieldAlias2x": "FeelingsTowardsUS"
			,"isSearchable": false
			,"picklistDescription": "FeelingsTowardsUS"
			,"picklistUri": "SOFAreaStudySocial-FeelingsTowardsUS"
			,"picklistParent": null
		},
"goodoutcome": {
	"$ref": "#/definitions/text"
			,"defaultLabel": "GoodOutcome"
			,"description": "GoodOutcome"
			,"fieldAlias2x": "GoodOutcome"
			,"isSearchable": false
			,"picklistDescription": null
			,"picklistUri": null
			,"picklistParent": null
		},
"groupconflicts": {
	"$ref": "#/definitions/longString"
			,"defaultLabel": "GroupConflicts"
			,"description": "GroupConflicts"
			,"fieldAlias2x": "GroupConflicts"
			,"isSearchable": false
			,"picklistDescription": null
			,"picklistUri": null
			,"picklistParent": null
		},
"groupconflictsremarks": {
	"$ref": "#/definitions/text"
			,"defaultLabel": "GroupConflictsRemarks"
			,"description": "GroupConflictsRemarks"
			,"fieldAlias2x": "GroupConflictsRemarks"
			,"isSearchable": false
			,"picklistDescription": null
			,"picklistUri": null
			,"picklistParent": null
		},
"highestlegalauthority": {
	"$ref": "#/definitions/longString"
			,"defaultLabel": "HighestLegalAuthority"
			,"description": "HighestLegalAuthority"
			,"fieldAlias2x": "HighestLegalAuthority"
			,"isSearchable": false
			,"picklistDescription": "HighestLegalAuthority"
			,"picklistUri": "SOFAreaStudySocial-HighestLegalAuthority"
			,"picklistParent": null
		},
"historyofviolence": {
	"$ref": "#/definitions/longString"
			,"defaultLabel": "HistoryOfViolence"
			,"description": "HistoryOfViolence"
			,"fieldAlias2x": "HistoryOfViolence"
			,"isSearchable": false
			,"picklistDescription": null
			,"picklistUri": null
			,"picklistParent": null
		},
"historyofviolenceremarks": {
	"$ref": "#/definitions/text"
			,"defaultLabel": "HistoryOfViolenceRemarks"
			,"description": "HistoryOfViolenceRemarks"
			,"fieldAlias2x": "HistoryOfViolenceRemarks"
			,"isSearchable": false
			,"picklistDescription": null
			,"picklistUri": null
			,"picklistParent": null
		},
"keywords": {
	"$ref": "#/definitions/longString"
			,"defaultLabel": "Keywords"
			,"description": "Keywords"
			,"fieldAlias2x": "Keywords"
			,"isSearchable": false
			,"picklistDescription": null
			,"picklistUri": null
			,"picklistParent": null
		},
"latitude": {
	"$ref": "#/definitions/latitude_dds"
			,"defaultLabel": "Latitude"
			,"description": "Latitude"
			,"fieldAlias2x": "Latitude"
			,"isSearchable": false
			,"picklistDescription": null
			,"picklistUri": null
			,"picklistParent": null
		},
"levelofopposition": {
	"$ref": "#/definitions/longString"
			,"defaultLabel": "LevelOfOpposition"
			,"description": "LevelOfOpposition"
			,"fieldAlias2x": "LevelOfOpposition"
			,"isSearchable": false
			,"picklistDescription": null
			,"picklistUri": null
			,"picklistParent": null
		},
"localdemographicsremarks": {
	"$ref": "#/definitions/text"
			,"defaultLabel": "LocalDemographicsRemarks"
			,"description": "LocalDemographicsRemarks"
			,"fieldAlias2x": "LocalDemographicsRemarks"
			,"isSearchable": false
			,"picklistDescription": null
			,"picklistUri": null
			,"picklistParent": null
		},
"localleader": {
	"$ref": "#/definitions/text"
			,"defaultLabel": "LocalLeader"
			,"description": "LocalLeader"
			,"fieldAlias2x": "LocalLeader"
			,"isSearchable": false
			,"picklistDescription": null
			,"picklistUri": null
			,"picklistParent": null
		},
"longitude": {
	"$ref": "#/definitions/longitude_dds"
			,"defaultLabel": "Longitude"
			,"description": "Longitude"
			,"fieldAlias2x": "Longitude"
			,"isSearchable": false
			,"picklistDescription": null
			,"picklistUri": null
			,"picklistParent": null
		},
"longterminfluence": {
	"$ref": "#/definitions/longString"
			,"defaultLabel": "LongTermInfluence"
			,"description": "LongTermInfluence"
			,"fieldAlias2x": "LongTermInfluence"
			,"isSearchable": false
			,"picklistDescription": null
			,"picklistUri": null
			,"picklistParent": null
		},
"mgrs": {
	"$ref": "#/definitions/longString"
			,"defaultLabel": "MGRS"
			,"description": "MGRS"
			,"fieldAlias2x": "MGRS"
			,"isSearchable": false
			,"picklistDescription": null
			,"picklistUri": null
			,"picklistParent": null
		},
"nationalidentity": {
	"$ref": "#/definitions/longString"
			,"defaultLabel": "NationalIdentity"
			,"description": "NationalIdentity"
			,"fieldAlias2x": "NationalIdentity"
			,"isSearchable": false
			,"picklistDescription": null
			,"picklistUri": null
			,"picklistParent": null
		},
"organizeracheivedesiredpurpose": {
	"$ref": "#/definitions/longString"
			,"defaultLabel": "OrganizerAcheiveDesiredPurpose"
			,"description": "OrganizerAcheiveDesiredPurpose"
			,"fieldAlias2x": "OrganizerAcheiveDesiredPurpose"
			,"isSearchable": false
			,"picklistDescription": null
			,"picklistUri": null
			,"picklistParent": null
		},
"populationpercentage": {
	"$ref": "#/definitions/text"
			,"defaultLabel": "PopulationPercentage"
			,"description": "PopulationPercentage"
			,"fieldAlias2x": "PopulationPercentage"
			,"isSearchable": false
			,"picklistDescription": null
			,"picklistUri": null
			,"picklistParent": null
		},
"populationpercentage2": {
	"$ref": "#/definitions/text"
			,"defaultLabel": "PopulationPercentage2"
			,"description": "PopulationPercentage2"
			,"fieldAlias2x": "PopulationPercentage2"
			,"isSearchable": false
			,"picklistDescription": null
			,"picklistUri": null
			,"picklistParent": null
		},
"postmortemtraditions": {
	"$ref": "#/definitions/longString"
			,"defaultLabel": "PostmortemTraditions"
			,"description": "PostmortemTraditions"
			,"fieldAlias2x": "PostmortemTraditions"
			,"isSearchable": false
			,"picklistDescription": null
			,"picklistUri": null
			,"picklistParent": null
		},
"postmortemtraditionsremarks": {
	"$ref": "#/definitions/text"
			,"defaultLabel": "PostmortemTraditionsRemarks"
			,"description": "PostmortemTraditionsRemarks"
			,"fieldAlias2x": "PostmortemTraditionsRemarks"
			,"isSearchable": false
			,"picklistDescription": null
			,"picklistUri": null
			,"picklistParent": null
		},
"practiceschangedrecently": {
	"$ref": "#/definitions/longString"
			,"defaultLabel": "PracticesChangedRecently"
			,"description": "PracticesChangedRecently"
			,"fieldAlias2x": "PracticesChangedRecently"
			,"isSearchable": false
			,"picklistDescription": null
			,"picklistUri": null
			,"picklistParent": null
		},
"practiceschangedrecentlyremarks": {
	"$ref": "#/definitions/text"
			,"defaultLabel": "PracticesChangedRecentlyRemarks"
			,"description": "PracticesChangedRecentlyRemarks"
			,"fieldAlias2x": "PracticesChangedRecentlyRemarks"
			,"isSearchable": false
			,"picklistDescription": null
			,"picklistUri": null
			,"picklistParent": null
		},
"religiousidentity": {
	"$ref": "#/definitions/longString"
			,"defaultLabel": "ReligiousIdentity"
			,"description": "ReligiousIdentity"
			,"fieldAlias2x": "ReligiousIdentity"
			,"isSearchable": false
			,"picklistDescription": null
			,"picklistUri": null
			,"picklistParent": null
		},
"religiousimportance": {
	"$ref": "#/definitions/longString"
			,"defaultLabel": "ReligiousImportance"
			,"description": "ReligiousImportance"
			,"fieldAlias2x": "ReligiousImportance"
			,"isSearchable": false
			,"picklistDescription": null
			,"picklistUri": null
			,"picklistParent": null
		},
"religiousleaderrole": {
	"$ref": "#/definitions/text"
			,"defaultLabel": "ReligiousLeaderRole"
			,"description": "ReligiousLeaderRole"
			,"fieldAlias2x": "ReligiousLeaderRole"
			,"isSearchable": false
			,"picklistDescription": null
			,"picklistUri": null
			,"picklistParent": null
		},
"religioustolerance": {
	"$ref": "#/definitions/longString"
			,"defaultLabel": "ReligiousTolerance"
			,"description": "ReligiousTolerance"
			,"fieldAlias2x": "ReligiousTolerance"
			,"isSearchable": false
			,"picklistDescription": null
			,"picklistUri": null
			,"picklistParent": null
		},
"reportcategory": {
	"$ref": "#/definitions/longString"
			,"defaultLabel": "ReportCategory"
			,"description": "ReportCategory"
			,"fieldAlias2x": "ReportCategory"
			,"isSearchable": false
			,"picklistDescription": null
			,"picklistUri": null
			,"picklistParent": null
		},
"reportstance": {
	"$ref": "#/definitions/longString"
			,"defaultLabel": "ReportStance"
			,"description": "ReportStance"
			,"fieldAlias2x": "ReportStance"
			,"isSearchable": false
			,"picklistDescription": null
			,"picklistUri": null
			,"picklistParent": null
		},
"reportstatus": {
	"$ref": "#/definitions/longString"
			,"defaultLabel": "ReportStatus"
			,"description": "ReportStatus"
			,"fieldAlias2x": "ReportStatus"
			,"isSearchable": false
			,"picklistDescription": null
			,"picklistUri": null
			,"picklistParent": null
		},
"reporttitle": {
	"$ref": "#/definitions/longString"
			,"defaultLabel": "ReportTitle"
			,"description": "ReportTitle"
			,"fieldAlias2x": "ReportTitle"
			,"isSearchable": false
			,"picklistDescription": null
			,"picklistUri": null
			,"picklistParent": null
		},
"reporttype": {
	"$ref": "#/definitions/longString"
			,"defaultLabel": "ReportType"
			,"description": "ReportType"
			,"fieldAlias2x": "ReportType"
			,"isSearchable": false
			,"picklistDescription": null
			,"picklistUri": null
			,"picklistParent": null
		},
"significance": {
	"$ref": "#/definitions/text"
			,"defaultLabel": "Significance"
			,"description": "Significance"
			,"fieldAlias2x": "Significance"
			,"isSearchable": false
			,"picklistDescription": null
			,"picklistUri": null
			,"picklistParent": null
		},
"significanceremarks": {
	"$ref": "#/definitions/text"
			,"defaultLabel": "SignificanceRemarks"
			,"description": "SignificanceRemarks"
			,"fieldAlias2x": "SignificanceRemarks"
			,"isSearchable": false
			,"picklistDescription": null
			,"picklistUri": null
			,"picklistParent": null
		},
"significantminority": {
	"$ref": "#/definitions/text"
			,"defaultLabel": "SignificantMinority"
			,"description": "SignificantMinority"
			,"fieldAlias2x": "SignificantMinority"
			,"isSearchable": false
			,"picklistDescription": null
			,"picklistUri": null
			,"picklistParent": null
		},
"siteagenda": {
	"$ref": "#/definitions/longString"
			,"defaultLabel": "SiteAgenda"
			,"description": "SiteAgenda"
			,"fieldAlias2x": "SiteAgenda"
			,"isSearchable": false
			,"picklistDescription": null
			,"picklistUri": null
			,"picklistParent": null
		},
"siteagendaremarks": {
	"$ref": "#/definitions/text"
			,"defaultLabel": "SiteAgendaRemarks"
			,"description": "SiteAgendaRemarks"
			,"fieldAlias2x": "SiteAgendaRemarks"
			,"isSearchable": false
			,"picklistDescription": null
			,"picklistUri": null
			,"picklistParent": null
		},
"siteconflict": {
	"$ref": "#/definitions/longString"
			,"defaultLabel": "SiteConflict"
			,"description": "SiteConflict"
			,"fieldAlias2x": "SiteConflict"
			,"isSearchable": false
			,"picklistDescription": null
			,"picklistUri": null
			,"picklistParent": null
		},
"siteconflictremarks": {
	"$ref": "#/definitions/text"
			,"defaultLabel": "SiteConflictRemarks"
			,"description": "SiteConflictRemarks"
			,"fieldAlias2x": "SiteConflictRemarks"
			,"isSearchable": false
			,"picklistDescription": null
			,"picklistUri": null
			,"picklistParent": null
		},
"sitepurpose": {
	"$ref": "#/definitions/longString"
			,"defaultLabel": "SitePurpose"
			,"description": "SitePurpose"
			,"fieldAlias2x": "SitePurpose"
			,"isSearchable": false
			,"picklistDescription": "SitePurpose"
			,"picklistUri": "SOFAreaStudySocial-SitePurpose"
			,"picklistParent": null
		},
"sitesymbolism": {
	"$ref": "#/definitions/longString"
			,"defaultLabel": "SiteSymbolism"
			,"description": "SiteSymbolism"
			,"fieldAlias2x": "SiteSymbolism"
			,"isSearchable": false
			,"picklistDescription": null
			,"picklistUri": null
			,"picklistParent": null
		},
"sitesymbolismremarks": {
	"$ref": "#/definitions/text"
			,"defaultLabel": "SiteSymbolismRemarks"
			,"description": "SiteSymbolismRemarks"
			,"fieldAlias2x": "SiteSymbolismRemarks"
			,"isSearchable": false
			,"picklistDescription": null
			,"picklistUri": null
			,"picklistParent": null
		},
"sitewellmarked": {
	"$ref": "#/definitions/longString"
			,"defaultLabel": "SiteWellMarked"
			,"description": "SiteWellMarked"
			,"fieldAlias2x": "SiteWellMarked"
			,"isSearchable": false
			,"picklistDescription": null
			,"picklistUri": null
			,"picklistParent": null
		},
"sitewellmarkedremarks": {
	"$ref": "#/definitions/text"
			,"defaultLabel": "SiteWellMarkedRemarks"
			,"description": "SiteWellMarkedRemarks"
			,"fieldAlias2x": "SiteWellMarkedRemarks"
			,"isSearchable": false
			,"picklistDescription": null
			,"picklistUri": null
			,"picklistParent": null
		},
"specificdispute": {
	"$ref": "#/definitions/longString"
			,"defaultLabel": "SpecificDispute"
			,"description": "SpecificDispute"
			,"fieldAlias2x": "SpecificDispute"
			,"isSearchable": false
			,"picklistDescription": null
			,"picklistUri": null
			,"picklistParent": null
		},
"statusofreport": {
	"$ref": "#/definitions/longString"
			,"defaultLabel": "StatusOfReport"
			,"description": "StatusOfReport"
			,"fieldAlias2x": "StatusOfReport"
			,"isSearchable": false
			,"picklistDescription": null
			,"picklistUri": null
			,"picklistParent": null
		},
"submittedby": {
	"$ref": "#/definitions/longString"
			,"defaultLabel": "SubmittedBy"
			,"description": "SubmittedBy"
			,"fieldAlias2x": "SubmittedBy"
			,"isSearchable": false
			,"picklistDescription": null
			,"picklistUri": null
			,"picklistParent": null
		},
"submittedbyemail": {
	"$ref": "#/definitions/longString"
			,"defaultLabel": "SubmittedByEmail"
			,"description": "SubmittedByEmail"
			,"fieldAlias2x": "SubmittedByEmail"
			,"isSearchable": false
			,"picklistDescription": null
			,"picklistUri": null
			,"picklistParent": null
		},
"submittedbyphone": {
	"$ref": "#/definitions/longString"
			,"defaultLabel": "SubmittedByPhone"
			,"description": "SubmittedByPhone"
			,"fieldAlias2x": "SubmittedByPhone"
			,"isSearchable": false
			,"picklistDescription": null
			,"picklistUri": null
			,"picklistParent": null
		},
"traditionallanguages": {
	"$ref": "#/definitions/text"
			,"defaultLabel": "TraditionalLanguages"
			,"description": "TraditionalLanguages"
			,"fieldAlias2x": "TraditionalLanguages"
			,"isSearchable": false
			,"picklistDescription": null
			,"picklistUri": null
			,"picklistParent": null
		},
"tribalidentity": {
	"$ref": "#/definitions/longString"
			,"defaultLabel": "TribalIdentity"
			,"description": "TribalIdentity"
			,"fieldAlias2x": "TribalIdentity"
			,"isSearchable": false
			,"picklistDescription": null
			,"picklistUri": null
			,"picklistParent": null
		},
"validationdate": {
	"$ref": "#/definitions/dateTime"
			,"defaultLabel": "ValidationDate"
			,"description": "ValidationDate"
			,"fieldAlias2x": "ValidationDate"
			,"isSearchable": false
			,"picklistDescription": null
			,"picklistUri": null
			,"picklistParent": null
		},
"whoorganized": {
	"$ref": "#/definitions/text"
			,"defaultLabel": "WhoOrganized"
			,"description": "WhoOrganized"
			,"fieldAlias2x": "WhoOrganized"
			,"isSearchable": false
			,"picklistDescription": null
			,"picklistUri": null
			,"picklistParent": null
		},
			"conflictsource": {
				"type": "array",
				"description": "SOF AreaStudySocial Report ConflictSource specific details",
				"fieldAlias2x": "ConflictSource", 
					"items": {
						"type": "object",
						"properties": {
						
"conflictsource": {
	"$ref": "#/definitions/text"
			,"defaultLabel": "ConflictSource"
			,"description": "ConflictSource"
			,"fieldAlias2x": "ConflictSource"
			,"isSearchable": false
			,"picklistDescription": "ConflictSource"
			,"picklistUri": "SOFAreaStudySocial-ConflictSource"
			,"picklistParent": null
		},
"referenceid": {
	"$ref": "#/definitions/longString"
			,"defaultLabel": "referenceId"
			,"description": "referenceId"
			,"fieldAlias2x": "ConflictSourceKey"
			,"isSearchable": false
			,"picklistDescription": null
			,"picklistUri": null
			,"picklistParent": null
		}
				}
			}
		},
			"education": {
				"type": "array",
				"description": "SOF AreaStudySocial Report Education specific details",
				"fieldAlias2x": "Education", 
					"items": {
						"type": "object",
						"properties": {
						
"cafeteria": {
	"$ref": "#/definitions/longString"
			,"defaultLabel": "Cafeteria"
			,"description": "Cafeteria"
			,"fieldAlias2x": "Cafeteria"
			,"isSearchable": false
			,"picklistDescription": null
			,"picklistUri": null
			,"picklistParent": null
		},
"cafeteriaremarks": {
	"$ref": "#/definitions/text"
			,"defaultLabel": "CafeteriaRemarks"
			,"description": "CafeteriaRemarks"
			,"fieldAlias2x": "CafeteriaRemarks"
			,"isSearchable": false
			,"picklistDescription": null
			,"picklistUri": null
			,"picklistParent": null
		},
"curriculum": {
	"$ref": "#/definitions/longString"
			,"defaultLabel": "Curriculum"
			,"description": "Curriculum"
			,"fieldAlias2x": "Curriculum"
			,"isSearchable": false
			,"picklistDescription": null
			,"picklistUri": null
			,"picklistParent": null
		},
"referenceid": {
	"$ref": "#/definitions/longString"
			,"defaultLabel": "referenceId"
			,"description": "referenceId"
			,"fieldAlias2x": "EducationKey"
			,"isSearchable": false
			,"picklistDescription": null
			,"picklistUri": null
			,"picklistParent": null
		},
"gradestaught": {
	"$ref": "#/definitions/text"
			,"defaultLabel": "GradesTaught"
			,"description": "GradesTaught"
			,"fieldAlias2x": "GradesTaught"
			,"isSearchable": false
			,"picklistDescription": null
			,"picklistUri": null
			,"picklistParent": null
		},
"maximumcapacity": {
	"$ref": "#/definitions/longString"
			,"defaultLabel": "MaximumCapacity"
			,"description": "MaximumCapacity"
			,"fieldAlias2x": "MaximumCapacity"
			,"isSearchable": false
			,"picklistDescription": null
			,"picklistUri": null
			,"picklistParent": null
		},
"mentalhandicapfemales": {
	"$ref": "#/definitions/longString"
			,"defaultLabel": "MentalHandicapFemales"
			,"description": "MentalHandicapFemales"
			,"fieldAlias2x": "MentalHandicapFemales"
			,"isSearchable": false
			,"picklistDescription": null
			,"picklistUri": null
			,"picklistParent": null
		},
"mentalhandicapmales": {
	"$ref": "#/definitions/longString"
			,"defaultLabel": "MentalHandicapMales"
			,"description": "MentalHandicapMales"
			,"fieldAlias2x": "MentalHandicapMales"
			,"isSearchable": false
			,"picklistDescription": null
			,"picklistUri": null
			,"picklistParent": null
		},
"nursesoffice": {
	"$ref": "#/definitions/longString"
			,"defaultLabel": "NursesOffice"
			,"description": "NursesOffice"
			,"fieldAlias2x": "NursesOffice"
			,"isSearchable": false
			,"picklistDescription": null
			,"picklistUri": null
			,"picklistParent": null
		},
"nursesofficeremarks": {
	"$ref": "#/definitions/text"
			,"defaultLabel": "NursesOfficeRemarks"
			,"description": "NursesOfficeRemarks"
			,"fieldAlias2x": "NursesOfficeRemarks"
			,"isSearchable": false
			,"picklistDescription": null
			,"picklistUri": null
			,"picklistParent": null
		},
"physicalhandicapfemales": {
	"$ref": "#/definitions/longString"
			,"defaultLabel": "PhysicalHandicapFemales"
			,"description": "PhysicalHandicapFemales"
			,"fieldAlias2x": "PhysicalHandicapFemales"
			,"isSearchable": false
			,"picklistDescription": null
			,"picklistUri": null
			,"picklistParent": null
		},
"physicalhandicapmales": {
	"$ref": "#/definitions/longString"
			,"defaultLabel": "PhysicalHandicapMales"
			,"description": "PhysicalHandicapMales"
			,"fieldAlias2x": "PhysicalHandicapMales"
			,"isSearchable": false
			,"picklistDescription": null
			,"picklistUri": null
			,"picklistParent": null
		},
"recognizedbygovernment": {
	"$ref": "#/definitions/longString"
			,"defaultLabel": "RecognizedByGovernment"
			,"description": "RecognizedByGovernment"
			,"fieldAlias2x": "RecognizedByGovernment"
			,"isSearchable": false
			,"picklistDescription": null
			,"picklistUri": null
			,"picklistParent": null
		},
"recognizedbygovernmentremarks": {
	"$ref": "#/definitions/text"
			,"defaultLabel": "RecognizedByGovernmentRemarks"
			,"description": "RecognizedByGovernmentRemarks"
			,"fieldAlias2x": "RecognizedByGovernmentRemarks"
			,"isSearchable": false
			,"picklistDescription": null
			,"picklistUri": null
			,"picklistParent": null
		},
"schoolaid": {
	"$ref": "#/definitions/longString"
			,"defaultLabel": "SchoolAid"
			,"description": "SchoolAid"
			,"fieldAlias2x": "SchoolAid"
			,"isSearchable": false
			,"picklistDescription": null
			,"picklistUri": null
			,"picklistParent": null
		},
"schoolcapability": {
	"$ref": "#/definitions/longString"
			,"defaultLabel": "SchoolCapability"
			,"description": "SchoolCapability"
			,"fieldAlias2x": "SchoolCapability"
			,"isSearchable": false
			,"picklistDescription": "SchoolCapability"
			,"picklistUri": "SOFAreaStudySocial-SchoolCapability"
			,"picklistParent": null
		},
"schoollevel": {
	"$ref": "#/definitions/longString"
			,"defaultLabel": "SchoolLevel"
			,"description": "SchoolLevel"
			,"fieldAlias2x": "SchoolLevel"
			,"isSearchable": false
			,"picklistDescription": "SchoolLevel"
			,"picklistUri": "SOFAreaStudySocial-SchoolLevel"
			,"picklistParent": null
		},
"schooltype": {
	"$ref": "#/definitions/longString"
			,"defaultLabel": "SchoolType"
			,"description": "SchoolType"
			,"fieldAlias2x": "SchoolType"
			,"isSearchable": false
			,"picklistDescription": "SchoolType"
			,"picklistUri": "SOFAreaStudySocial-SchoolType"
			,"picklistParent": null
		},
"sourcesofaid": {
	"$ref": "#/definitions/text"
			,"defaultLabel": "SourcesOfAid"
			,"description": "SourcesOfAid"
			,"fieldAlias2x": "SourcesOfAid"
			,"isSearchable": false
			,"picklistDescription": null
			,"picklistUri": null
			,"picklistParent": null
		},
"specialneedsstudents": {
	"$ref": "#/definitions/longString"
			,"defaultLabel": "SpecialNeedsStudents"
			,"description": "SpecialNeedsStudents"
			,"fieldAlias2x": "SpecialNeedsStudents"
			,"isSearchable": false
			,"picklistDescription": null
			,"picklistUri": null
			,"picklistParent": null
		},
"staffpaysource": {
	"$ref": "#/definitions/longString"
			,"defaultLabel": "StaffPaySource"
			,"description": "StaffPaySource"
			,"fieldAlias2x": "StaffPaySource"
			,"isSearchable": false
			,"picklistDescription": "StaffPaySource"
			,"picklistUri": "SOFAreaStudySocial-StaffPaySource"
			,"picklistParent": null
		},
"totalfemale": {
	"$ref": "#/definitions/longString"
			,"defaultLabel": "TotalFemale"
			,"description": "TotalFemale"
			,"fieldAlias2x": "TotalFemale"
			,"isSearchable": false
			,"picklistDescription": null
			,"picklistUri": null
			,"picklistParent": null
		},
"totalmale": {
	"$ref": "#/definitions/longString"
			,"defaultLabel": "TotalMale"
			,"description": "TotalMale"
			,"fieldAlias2x": "TotalMale"
			,"isSearchable": false
			,"picklistDescription": null
			,"picklistUri": null
			,"picklistParent": null
		},
"totalstudents": {
	"$ref": "#/definitions/longString"
			,"defaultLabel": "TotalStudents"
			,"description": "TotalStudents"
			,"fieldAlias2x": "TotalStudents"
			,"isSearchable": false
			,"picklistDescription": null
			,"picklistUri": null
			,"picklistParent": null
		},
"totalteachers": {
	"$ref": "#/definitions/longString"
			,"defaultLabel": "TotalTeachers"
			,"description": "TotalTeachers"
			,"fieldAlias2x": "TotalTeachers"
			,"isSearchable": false
			,"picklistDescription": null
			,"picklistUri": null
			,"picklistParent": null
		},
"trainingtype": {
	"$ref": "#/definitions/longString"
			,"defaultLabel": "TrainingType"
			,"description": "TrainingType"
			,"fieldAlias2x": "TrainingType"
			,"isSearchable": false
			,"picklistDescription": "TrainingType"
			,"picklistUri": "SOFAreaStudySocial-TrainingType"
			,"picklistParent": null
		},
"typeofaid": {
	"$ref": "#/definitions/text"
			,"defaultLabel": "TypeOfAid"
			,"description": "TypeOfAid"
			,"fieldAlias2x": "TypeOfAid"
			,"isSearchable": false
			,"picklistDescription": null
			,"picklistUri": null
			,"picklistParent": null
		},
			"daysofweek": {
				"type": "array",
				"description": "SOF AreaStudySocial Report DaysOfWeek specific details",
				"fieldAlias2x": "DaysOfWeek", 
					"items": {
						"type": "object",
						"properties": {
						
"daysofweek": {
	"$ref": "#/definitions/text"
			,"defaultLabel": "DaysOfWeek"
			,"description": "DaysOfWeek"
			,"fieldAlias2x": "DaysOfWeek"
			,"isSearchable": false
			,"picklistDescription": "DaysOfWeek"
			,"picklistUri": "SOFAreaStudySocial-DaysOfWeek"
			,"picklistParent": null
		},
"referenceid": {
	"$ref": "#/definitions/longString"
			,"defaultLabel": "referenceId"
			,"description": "referenceId"
			,"fieldAlias2x": "DaysOfWeekKey"
			,"isSearchable": false
			,"picklistDescription": null
			,"picklistUri": null
			,"picklistParent": null
		}
				}
			}
		},
			"femaleagegroup": {
				"type": "array",
				"description": "SOF AreaStudySocial Report FemaleAgeGroup specific details",
				"fieldAlias2x": "FemaleAgeGroup", 
					"items": {
						"type": "object",
						"properties": {
						
"femaleagegroup": {
	"$ref": "#/definitions/text"
			,"defaultLabel": "FemaleAgeGroup"
			,"description": "FemaleAgeGroup"
			,"fieldAlias2x": "FemaleAgeGroup"
			,"isSearchable": false
			,"picklistDescription": null
			,"picklistUri": null
			,"picklistParent": null
		},
"referenceid": {
	"$ref": "#/definitions/longString"
			,"defaultLabel": "referenceId"
			,"description": "referenceId"
			,"fieldAlias2x": "FemaleAgeGroupKey"
			,"isSearchable": false
			,"picklistDescription": null
			,"picklistUri": null
			,"picklistParent": null
		}
				}
			}
		},
			"maleagegroup": {
				"type": "array",
				"description": "SOF AreaStudySocial Report MaleAgeGroup specific details",
				"fieldAlias2x": "MaleAgeGroup", 
					"items": {
						"type": "object",
						"properties": {
						
"maleagegroup": {
	"$ref": "#/definitions/text"
			,"defaultLabel": "MaleAgeGroup"
			,"description": "MaleAgeGroup"
			,"fieldAlias2x": "MaleAgeGroup"
			,"isSearchable": false
			,"picklistDescription": null
			,"picklistUri": null
			,"picklistParent": null
		},
"referenceid": {
	"$ref": "#/definitions/longString"
			,"defaultLabel": "referenceId"
			,"description": "referenceId"
			,"fieldAlias2x": "MaleAgeGroupKey"
			,"isSearchable": false
			,"picklistDescription": null
			,"picklistUri": null
			,"picklistParent": null
		}
				}
			}
		},
			"months": {
				"type": "array",
				"description": "SOF AreaStudySocial Report Months specific details",
				"fieldAlias2x": "Months", 
					"items": {
						"type": "object",
						"properties": {
						
"months": {
	"$ref": "#/definitions/text"
			,"defaultLabel": "Months"
			,"description": "Months"
			,"fieldAlias2x": "Months"
			,"isSearchable": false
			,"picklistDescription": "Months"
			,"picklistUri": "SOFAreaStudySocial-Months"
			,"picklistParent": null
		},
"referenceid": {
	"$ref": "#/definitions/longString"
			,"defaultLabel": "referenceId"
			,"description": "referenceId"
			,"fieldAlias2x": "MonthsKey"
			,"isSearchable": false
			,"picklistDescription": null
			,"picklistUri": null
			,"picklistParent": null
		}
				}
			}
		},
			"staffmembers": {
				"type": "array",
				"description": "SOF AreaStudySocial Report StaffMembers specific details",
				"fieldAlias2x": "StaffMembers", 
					"items": {
						"type": "object",
						"properties": {
						
"staffmembers": {
	"$ref": "#/definitions/text"
			,"defaultLabel": "StaffMembers"
			,"description": "StaffMembers"
			,"fieldAlias2x": "StaffMembers"
			,"isSearchable": false
			,"picklistDescription": "StaffMembers"
			,"picklistUri": "SOFAreaStudySocial-StaffMembers"
			,"picklistParent": null
		},
"referenceid": {
	"$ref": "#/definitions/longString"
			,"defaultLabel": "referenceId"
			,"description": "referenceId"
			,"fieldAlias2x": "StaffMembersKey"
			,"isSearchable": false
			,"picklistDescription": null
			,"picklistUri": null
			,"picklistParent": null
		}
				}
			}
		}
				}
			}
		},
			"keyleaders": {
				"type": "array",
				"description": "SOF AreaStudySocial Report KeyLeaders specific details",
				"fieldAlias2x": "KeyLeaders", 
					"items": {
						"type": "object",
						"properties": {
						
"referenceid": {
	"$ref": "#/definitions/longString"
			,"defaultLabel": "referenceId"
			,"description": "referenceId"
			,"fieldAlias2x": "KeyLeadersKey"
			,"isSearchable": false
			,"picklistDescription": null
			,"picklistUri": null
			,"picklistParent": null
		},
"keyleaderspresent": {
	"$ref": "#/definitions/text"
			,"defaultLabel": "KeyLeadersPresent"
			,"description": "KeyLeadersPresent"
			,"fieldAlias2x": "KeyLeadersPresent"
			,"isSearchable": false
			,"picklistDescription": null
			,"picklistUri": null
			,"picklistParent": null
		}
				}
			}
		},
			"messageconveyed": {
				"type": "array",
				"description": "SOF AreaStudySocial Report MessageConveyed specific details",
				"fieldAlias2x": "MessageConveyed", 
					"items": {
						"type": "object",
						"properties": {
						
"messageconveyed": {
	"$ref": "#/definitions/text"
			,"defaultLabel": "MessageConveyed"
			,"description": "MessageConveyed"
			,"fieldAlias2x": "MessageConveyed"
			,"isSearchable": false
			,"picklistDescription": "MessageConveyed"
			,"picklistUri": "SOFAreaStudySocial-MessageConveyed"
			,"picklistParent": null
		},
"referenceid": {
	"$ref": "#/definitions/longString"
			,"defaultLabel": "referenceId"
			,"description": "referenceId"
			,"fieldAlias2x": "MessageConveyedKey"
			,"isSearchable": false
			,"picklistDescription": null
			,"picklistUri": null
			,"picklistParent": null
		}
				}
			}
		},
			"organizations": {
				"type": "array",
				"description": "SOF AreaStudySocial Report Organizations specific details",
				"fieldAlias2x": "Organizations", 
					"items": {
						"type": "object",
						"properties": {
						
"referenceid": {
	"$ref": "#/definitions/longString"
			,"defaultLabel": "referenceId"
			,"description": "referenceId"
			,"fieldAlias2x": "OrganizationsKey"
			,"isSearchable": false
			,"picklistDescription": null
			,"picklistUri": null
			,"picklistParent": null
		},
"organizationsrepresented": {
	"$ref": "#/definitions/text"
			,"defaultLabel": "OrganizationsRepresented"
			,"description": "OrganizationsRepresented"
			,"fieldAlias2x": "OrganizationsRepresented"
			,"isSearchable": false
			,"picklistDescription": null
			,"picklistUri": null
			,"picklistParent": null
		}
				}
			}
		},
			"pmesii": {
				"type": "array",
				"description": "SOF AreaStudySocial Report PMESII specific details",
				"fieldAlias2x": "PMESII", 
					"items": {
						"type": "object",
						"properties": {
						
"ascope": {
	"$ref": "#/definitions/longString"
			,"defaultLabel": "ASCOPE"
			,"description": "ASCOPE"
			,"fieldAlias2x": "ASCOPE"
			,"isSearchable": false
			,"picklistDescription": null
			,"picklistUri": null
			,"picklistParent": null
		},
"dimelif": {
	"$ref": "#/definitions/longString"
			,"defaultLabel": "DIMELIF"
			,"description": "DIMELIF"
			,"fieldAlias2x": "DIMELIF"
			,"isSearchable": false
			,"picklistDescription": null
			,"picklistUri": null
			,"picklistParent": null
		},
"pmesii": {
	"$ref": "#/definitions/longString"
			,"defaultLabel": "PMESII"
			,"description": "PMESII"
			,"fieldAlias2x": "PMESII"
			,"isSearchable": false
			,"picklistDescription": null
			,"picklistUri": null
			,"picklistParent": null
		},
"referenceid": {
	"$ref": "#/definitions/longString"
			,"defaultLabel": "referenceId"
			,"description": "referenceId"
			,"fieldAlias2x": "PMESIIKey"
			,"isSearchable": false
			,"picklistDescription": null
			,"picklistUri": null
			,"picklistParent": null
		},
"remarks": {
	"$ref": "#/definitions/text"
			,"defaultLabel": "Remarks"
			,"description": "Remarks"
			,"fieldAlias2x": "Remarks"
			,"isSearchable": false
			,"picklistDescription": null
			,"picklistUri": null
			,"picklistParent": null
		},
"stance": {
	"$ref": "#/definitions/longString"
			,"defaultLabel": "Stance"
			,"description": "Stance"
			,"fieldAlias2x": "Stance"
			,"isSearchable": false
			,"picklistDescription": null
			,"picklistUri": null
			,"picklistParent": null
		}
				}
			}
		},
			"religion": {
				"type": "array",
				"description": "SOF AreaStudySocial Report Religion specific details",
				"fieldAlias2x": "Religion", 
					"items": {
						"type": "object",
						"properties": {
						
"religion": {
	"$ref": "#/definitions/text"
			,"defaultLabel": "Religion"
			,"description": "Religion"
			,"fieldAlias2x": "Religion"
			,"isSearchable": false
			,"picklistDescription": "Religion"
			,"picklistUri": "SOFAreaStudySocial-Religion"
			,"picklistParent": null
		},
"referenceid": {
	"$ref": "#/definitions/longString"
			,"defaultLabel": "referenceId"
			,"description": "referenceId"
			,"fieldAlias2x": "ReligionKey"
			,"isSearchable": false
			,"picklistDescription": null
			,"picklistUri": null
			,"picklistParent": null
		}
				}
			}
		},
			"remarks": {
				"type": "array",
				"description": "SOF AreaStudySocial Report Remarks specific details",
				"fieldAlias2x": "Remarks", 
					"items": {
						"type": "object",
						"properties": {
						
"remarks": {
	"$ref": "#/definitions/text"
			,"defaultLabel": "Remarks"
			,"description": "Remarks"
			,"fieldAlias2x": "Remarks"
			,"isSearchable": false
			,"picklistDescription": null
			,"picklistUri": null
			,"picklistParent": null
		},
"referenceid": {
	"$ref": "#/definitions/longString"
			,"defaultLabel": "referenceId"
			,"description": "referenceId"
			,"fieldAlias2x": "RemarksKey"
			,"isSearchable": false
			,"picklistDescription": null
			,"picklistUri": null
			,"picklistParent": null
		}
				}
			}
		},
			"significantorganizations": {
				"type": "array",
				"description": "SOF AreaStudySocial Report SignificantOrganizations specific details",
				"fieldAlias2x": "SignificantOrganizations", 
					"items": {
						"type": "object",
						"properties": {
						
"significantorganizations": {
	"$ref": "#/definitions/text"
			,"defaultLabel": "SignificantOrganizations"
			,"description": "SignificantOrganizations"
			,"fieldAlias2x": "SignificantOrganizations"
			,"isSearchable": false
			,"picklistDescription": "SignificantOrganizations"
			,"picklistUri": "SOFAreaStudySocial-SignificantOrganizations"
			,"picklistParent": null
		},
"referenceid": {
	"$ref": "#/definitions/longString"
			,"defaultLabel": "referenceId"
			,"description": "referenceId"
			,"fieldAlias2x": "SignificantOrganizationsKey"
			,"isSearchable": false
			,"picklistDescription": null
			,"picklistUri": null
			,"picklistParent": null
		}
				}
			}
		},
			"sitereligionservice": {
				"type": "array",
				"description": "SOF AreaStudySocial Report SiteReligionService specific details",
				"fieldAlias2x": "SiteReligionService", 
					"items": {
						"type": "object",
						"properties": {
						
"sitereligionservice": {
	"$ref": "#/definitions/text"
			,"defaultLabel": "SiteReligionService"
			,"description": "SiteReligionService"
			,"fieldAlias2x": "SiteReligionService"
			,"isSearchable": false
			,"picklistDescription": null
			,"picklistUri": null
			,"picklistParent": null
		},
"referenceid": {
	"$ref": "#/definitions/longString"
			,"defaultLabel": "referenceId"
			,"description": "referenceId"
			,"fieldAlias2x": "SiteReligionServiceKey"
			,"isSearchable": false
			,"picklistDescription": null
			,"picklistUri": null
			,"picklistParent": null
		}
				}
			}
		},
			"timereligiousbuildingsused": {
				"type": "array",
				"description": "SOF AreaStudySocial Report TimeReligiousBuildingsUsed specific details",
				"fieldAlias2x": "TimeReligiousBuildingsUsed", 
					"items": {
						"type": "object",
						"properties": {
						
"timereligiousbuildingsused": {
	"$ref": "#/definitions/text"
			,"defaultLabel": "TimeReligiousBuildingsUsed"
			,"description": "TimeReligiousBuildingsUsed"
			,"fieldAlias2x": "TimeReligiousBuildingsUsed"
			,"isSearchable": false
			,"picklistDescription": "TimeReligiousBuildingsUsed"
			,"picklistUri": "SOFAreaStudySocial-TimeReligiousBuildingsUsed"
			,"picklistParent": null
		},
"referenceid": {
	"$ref": "#/definitions/longString"
			,"defaultLabel": "referenceId"
			,"description": "referenceId"
			,"fieldAlias2x": "TimeReligiousBuildingsUsedKey"
			,"isSearchable": false
			,"picklistDescription": null
			,"picklistUri": null
			,"picklistParent": null
		}
				}
			}
		}
				}
			}
	}
}
