	
{
    "type": "object",
    "id": "http://cidne.dae.smil.mil/schemas/SOF/BiographicIIR/CIDNEDM235",
    "description": "CIDNE SOF BiographicIIR Report Definition",
    "definitions": {
        "shortStringRequired": {
            "type": "string",
            "maxLength": 50
        },
        "longStringRequired": {
            "type": "string",
            "maxLength": 500
        },
        "textRequired": {
            "type": "string"
        },
        "textFieldLevelRequired": {
            "type": "object",
            "properties": {
                "objectValue": {
                    "type": "string"
                },
                "security": {
					"$ref": "#/definitions/security"
				}
            },
            "required": [
                "objectValue",
                "security"
            ]
        },
        "dateTimeRequired": {
            "type": "object",
            "properties": {
                "zuluDateTime": {
                    "type": "string",
                    "format": "date-time"
                },
                "zuluOffset": {
                    "type": "integer",
					"minimum": -840,
					"maximum": 840,
                    "description": "Offset in minutes from Zulu"
                }
            },
            "required": [
                "zuluDateTime",
                "zuluOffset"
            ]
        },
        "latitude_ddsRequired": {
            "type": "number",
            "minimum": -90,
            "maximum": 90
        },
        "longitude_ddsRequired": {
            "type": "number",
            "minimum": -180,
            "maximum": 180
        },
        "positive_intRequired": {
            "type": "integer",
            "minimum": 0
        },
        "positive_numRequired": {
            "type": "number",
            "minimum": 0
        },
        "positive_intRequired": {
            "type": "integer",
            "minimum": 0
        },
        "shortString": {
            "type": ["string","null"],
            "maxLength": 50
        },
        "longString": {
            "type": ["string","null"],
            "maxLength": 500
        },
        "text": {
            "type": ["string","null"]
        },
        "textFieldLevel": {
            "type": "object",
            "properties": {
                "objectValue": {
                    "type": ["string","null"]
                },
                "security": {
					"$ref": "#/definitions/securityOptional"
				}
            },
            "required": [
                "objectValue",
                "security"
            ]
        },
        "dateTime": {
            "type": ["object","null"],
            "properties": {
                "zuluDateTime": {
                    "type": "string",
                    "format": "date-time"
                },
                "zuluOffset": {
                    "type": "integer",
					"minimum": -840,
					"maximum": 840,
                    "description": "Offset in minutes from Zulu"
                }
            },
            "required": [
                "zuluDateTime",
                "zuluOffset"
            ]
        },
        "latitude_dds": {
            "type": ["number","null"],
            "minimum": -90,
            "maximum": 90
        },
        "longitude_dds": {
            "type": ["number","null"],
            "minimum": -180,
            "maximum": 180
        },
        "positive_int": {
            "type": ["integer","null"],
            "minimum": 0
        },
        "positive_num": {
            "type": ["number","null"],
            "minimum": 0
        },
        "num": {
            "type": ["number","null"]
        },
        "uniqueStringArray": {
            "type": "array",
            "uniqueItems": true,
            "items": {
                "type": "string"
            }
        },
        "securityOptional": {
            "oneOf": [
                {
                    "type": "null"
                },
                {
                    "$ref": "#/definitions/security"
                }
            ]
        },
        "security": {
            "type": "object",
            "properties": {
                "atomicEnergyMarkings": {
                    "$ref": "#/definitions/shortString",
                    "description": "Atomic Energy Act Information Markings"
                },
                "classificationReason": {
                    "$ref": "#/definitions/longString",
                    "description": ": Concise reason for classification"
                },
                "classification": {
                    "enum": [ "U", "TS", "S", "C" ],
                    "description": "Classification of information",
                    "defaultLabel": "Classification",
                    "isSearchable": false,
                    "picklistName": "classification",
                    "picklistUri": "http://cidne.dae.smil.mil/schemas/CAPCO/classification",
                    "picklistParent": null
                    
                },
                "classifiedBy": {
                    "$ref": "#/definitions/longString",
                    "description": "Identification by name and position, or personal identifier of the OCA"
                },
                "compilationReason": {
                    "$ref": "#/definitions/longString",
                    "description": "Reason why the compilation of information causes the classification"
                },
                "declassDate": {
                    "$ref": "#/definitions/dateTime",
                    "description": "Declassification date"
                },
                "declassEvent": {
                    "$ref": "#/definitions/shortString",
                    "description": "Declassification event"
                },
                "declassException": {
                    "$ref": "#/definitions/longString",
                    "description": "Declassification exception"
                },
                "derivativelyClassifiedBy": {
                    "$ref": "#/definitions/longString",
                    "description": "The derivative classifier’s identification by name and position, or by personal identifier, in a manner that is immediately apparent on each derivatively classified document. If not otherwise evident, the agency and office of origin shall be identified"
                },
                "derivedFrom": {
                    "$ref": "#/definitions/shortString",
                    "description": "Concisely identify the source document or the classification guide"
                },
                "displayOnlyTo": {
                    "$ref": "#/definitions/longString",
                    "description": "List of foreign country(ies)/international organization(s) authorized for disclosure without providing the recipient with a physical copy for retention, regardless of medium to the foreign country(ies)/international organization(s) indicated"
                },
                "disseminationControls": {
                    "$ref": "#/definitions/longString",
                    "description": "Control markings that identify the expansion or limitation on the distribution of information. These markings are in addition to and separate from the levels of classification"
                },
                "FGIsourceOpen": {
                    "$ref": "#/definitions/shortString",
                    "description": "Open Source Foreign Government Information"
                },
                "FGIsourceProtected": {
                    "$ref": "#/definitions/shortString",
                    "description": "Protected Source Foreign Government Information"
                },
                "nonICmarkings": {
                    "$ref": "#/definitions/text",
                    "description": "Markings authorized for use by entities outside of the Intelligence Community"
                },
                "nonUSControls": {
                    "$ref": "#/definitions/shortString",
                    "description": "Non-US protective markings"
                },
                "ownerProducer": {
                    "$ref": "#/definitions/shortStringRequired",
                    "description": "Owner/Producer",
                    "default": "USA",
                    "defaultLabel": "Owner Producer",
                    "isSearchable": false,
                    "picklistName": "ownerProducer",
                    "picklistUri": "http://cidne.dae.smil.mil/schemas/CAPCO/ownerProducer",
                    "picklistParent": null
                },
                "releasableToFilterField": {
                    "$ref": "#/definitions/shortString",
                    "description": "Need to add CAPCO Descriptions"
                },
                "releasableTo": {
                    "$ref": "#/definitions/text",
                    "description": "List of countries releasable to",
                    "defaultLabel": "Releasable To",
                    "isSearchable": false,
                    "picklistName": "releasableTo",
                    "picklistUri": "http://cidne.dae.smil.mil/schemas/CAPCO/releasableTo",
                    "picklistParent": null
                },
                "SARIdentifier": {
                    "$ref": "#/definitions/shortString",
                    "description": "Special access required programs"
                },
                "SCIcontrols": {
                    "$ref": "#/definitions/longString",
                    "description": "Sensitive Compartmented Information (SCI) control systems"
                }
            },
            "required": [
                "ownerProducer",
                "classification"
            ]
        },
        "actionInfo":{
            "type": "object",
            "properties": {
                "actionDate": {
                    "$ref": "#/definitions/dateTimeRequired",
                    "description": "Date Time Action was taken"
                },
                "group": {
                    "$ref": "#/definitions/longStringRequired",
                    "description": "User Group that performed action"
                },
                "parentGroup": {
                    "$ref": "#/definitions/longString",
                    "description": "User Group's Parent Group Name"
                },
                "nationality": {
                    "$ref": "#/definitions/shortStringRequired",
                    "description": "User Nationality"
                },
                "network": {
                    "$ref": "#/definitions/shortStringRequired",
                    "description": "Systems Network where action was taken"
                },
                "objectState": {
                    "description": "",
                    "enum": [
                        "CREATED",
                        "MODIFIED",
                        "TEMPLATE",
                        "SUBMITTED",
                        "PUBLISHED",
                        "VERSIONED",
                        "DEPRECATED",
                        "VALIDATING",
                        "RESTORED",
                        "MOVED"
                    ]
                },
                "site": {
                    "$ref": "#/definitions/shortStringRequired",
                    "description": "Systems Site"
                },
                "system": {
                    "$ref": "#/definitions/shortStringRequired",
                    "description": "System that provided the action"
                },
                "user": {
                    "$ref": "#/definitions/shortStringRequired",
                    "description": "User that performed action"
                }
            },
            "required": [
                "actionDate",
                "group",
                "parentGroup",
                "nationality",
                "network",
                "objectState",
                "site",
                "system",
                "user"
            ]
        },
        "position": {
            "description": "A single position. (order should be longitude,latitude)",
            "type": "array",
            "minItems": 2,
            "items": [
                {
                    "type": "number"
                },
                {
                    "type": "number"
                }
            ],
            "additionalItems": false
        },
        "positionArray": {
            "description": "An array of positions",
            "type": "array",
            "items": {
                "$ref": "#/definitions/position"
            }
        },
        "lineString": {
            "description": "An array of two or more positions",
            "allOf": [
                {
                    "type": "array",
                    "items": {
                        "$ref": "#/definitions/position"
                    }
                },
                {
                    "minItems": 2
                }
            ]
        },
        "linearRing": {
            "description": "An array of four positions where the first equals the last",
            "allOf": [
                {
                    "type": "array",
                    "items": {
                        "$ref": "#/definitions/position"
                    }
                },
                {
                    "minItems": 4
                }
            ]
        },
        "polygon": {
            "description": "An array of linear rings",
            "type": "array",
            "items": {
                "$ref": "#/definitions/linearRing"
            }
        },
        "geometry": {
            "title": "geometry",
            "description": "One geometry as defined by GeoJSON",
            "type": "object",
            "required": [
                "type",
                "coordinates"
            ],
            "oneOf": [
                {
                    "title": "Point",
                    "properties": {
                        "type": {
                            "enum": [
                                "Point"
                            ]
                        },
                        "coordinates": {
                            "$ref": "#/definitions/position"
                        }
                    }
                },
                {
                    "title": "MultiPoint",
                    "properties": {
                        "type": {
                            "enum": [
                                "MultiPoint"
                            ]
                        },
                        "coordinates": {
                            "type": "array",
                            "items": {
                                "$ref": "#/definitions/position"
                            }
                        }
                    }
                },
                {
                    "title": "LineString",
                    "properties": {
                        "type": {
                            "enum": [
                                "LineString"
                            ]
                        },
                        "coordinates": {
                            "$ref": "#/definitions/lineString"
                        }
                    }
                },
                {
                    "title": "MultiLineString",
                    "properties": {
                        "type": {
                            "enum": [
                                "MultiLineString"
                            ]
                        },
                        "coordinates": {
                            "type": "array",
                            "items": {
                                "$ref": "#/definitions/lineString"
                            }
                        }
                    }
                },
                {
                    "title": "Polygon",
                    "properties": {
                        "type": {
                            "enum": [
                                "Polygon"
                            ]
                        },
                        "coordinates": {
                            "$ref": "#/definitions/polygon"
                        }
                    }
                },
                {
                    "title": "MultiPolygon",
                    "properties": {
                        "type": {
                            "enum": [
                                "MultiPolygon"
                            ]
                        },
                        "coordinates": {
                            "type": "array",
                            "items": {
                                "$ref": "#/definitions/polygon"
                            }
                        }
                    }
                }
            ]
        },
        "geometryCollection": {
            "title": "GeometryCollection",
            "description": "A collection of geometry objects",
            "required": [
                "geometries"
            ],
            "properties": {
                "type": {
                    "enum": [
                        "GeometryCollection"
                    ]
                },
                "geometries": {
                    "type": "array",
                    "items": {
                        "$ref": "#/definitions/geometry"
                    }
                }
            }
        },
        "feature": {
            "title": "Feature",
            "description": "A Geo JSON feature object",
            "required": [
                "geometry"
            ],
            "properties": {
                "type": {
                    "enum": [
                        "Feature"
                    ]
                },
                "geometry": {
                    "oneOf": [
                        {
                            "type": "null"
                        },
                        {
                            "$ref": "#/definitions/geometry"
                        }
                    ]
                },
				"properties": { "type": [ "object", "null" ] },
                "id": { "type":["string"] }
            }
        },
        "featureCollection": {
            "description": "A GeoJSON feature collection",
            "required": [
                "features"
            ],
            "properties": {
                "type": {
                    "enum": [
                        "FeatureCollection"
                    ]
                },
                "features": {
                    "type": "array",
                    "items": {
                        "$ref": "#/definitions/feature"
                    }
                }
            }
        },
		"namedCrs": {
            "properties": {
                "type": { "enum": [ "name" ] },
                "properties": {
                    "required": [ "name" ],
                    "additionalProperties": false,
                    "properties": {
                        "name": {
                            "type": "string"
                        }
                    }
                }
            }
        },
        "linkedObject": {
            "type": "object",
            "required": [ "href" ],
            "properties": {
                "href": {
                    "type": "string",
                    "format": "uri"
                },
                "type": {
                    "type": "string",
                    "description": "Suggested values: proj4, ogjwkt, esriwkt"
                }
            }
        },
        "linkedCrs": {
            "properties": {
                "type": { "enum": [ "link" ] },
                "properties": { "$ref": "#/definitions/linkedObject" }
            }
        },	
		"crs":{
			"title": "crs",
			"description": "a Coordinate Reference System object",
			"type": [ "object", "null" ],
			"required": [ "type", "properties" ],
			"properties": {
				"type": { "type": "string" },
				"properties": { "type": "object" }
			},
			"additionalProperties": false,
			"oneOf": [
				{ "$ref": "#/definitions/namedCrs" },
				{ "$ref": "#/definitions/linkedCrs" }
			]
		},
		"bbox":{
		"description": "A bounding box as defined by GeoJSON",
			"type": "array",
			"items": { "type": "number" }
		},
        "geojson": {
            "title": "Geo JSON object",
            "description": "Schema for a Geo JSON object",
            "type": ["object","null"],
            "required": [
                "type"
            ],
			"properties": {
				"crs": { "$ref": "#/definitions/crs" },
				"bbox": { "$ref": "#/definitions/bbox" }
			},
            "anyOf": [
                {
                    "$ref": "#/definitions/geometry"
                },
                {
                    "$ref": "#/definitions/geometryCollection"
                },
                {
                    "$ref": "#/definitions/feature"
                },
                {
                    "$ref": "#/definitions/featureCollection"
                }
            ]
        }
    },
    "required": [
        "base",
        "datamodel",
        "formId",
        "location",
        "security",
        "details"
    ],	
    "properties": {
        "datamodel": {
            "$ref": "#/definitions/longString",
            "description": "Reference to the report definition."
        },
        "formId": {
            "$ref": "#/definitions/longString",
            "description": "Reference to the layout template identifier that this data was intended to be best visualized"
        },
        "base": {
            "type": "object",
            "description": "The core metadata used within all report definitions",
            "properties": {
                "objectId": {
                    "$ref": "#/definitions/shortStringRequired",
                    "description": "Report instance unique identifier"
                },
                "reportId": {
                    "$ref": "#/definitions/shortStringRequired",
                    "description": "Original report instance objectId for a report version grouping. (i.e. the root report identifier)"
                },
                "parentVersionId": {
                    "$ref": "#/definitions/shortString",
                    "description": "Report instance's objectId of the parent report. NOTE: If there is no parent, this value should be set to the report instance's own objectId. "
                },
                "module": {
                    "$ref": "#/definitions/shortStringRequired",
                    "description": "CIDNE community"
                },
                "reportType": {
                    "$ref": "#/definitions/shortStringRequired",
                    "description": "CIDNE report type (e.g. SIGACT)"
                },
                "reportSerial": {
                    "$ref": "#/definitions/textFieldLevel",
					"defaultLabel": "DisplaySerial",
					"description": "Report instance nomenclature (DisplaySerial)",
					"fieldAlias2x": "DisplaySerial"
                },
                "reportTitle": {
                    "$ref": "#/definitions/textFieldLevel",
					"defaultLabel": "DisplayTitle",
					"description": "Report instance title text (DisplayTitle)",
					"fieldAlias2x": "DisplayTitle"
                },
                "reportSummary": {
                    "$ref": "#/definitions/textFieldLevel",
					"defaultLabel": "DisplaySummary",
					"description": "Report instance summary text block (DisplaySummary)",
					"fieldAlias2x": "DisplaySummary"
                },
                "reportDate": {
                    "$ref": "#/definitions/dateTimeRequired",
					"defaultLabel": "DatePosted",
					"description": "Primary report instance date (DatePosted)",
					"fieldAlias2x": "DatePosted"
                },
                "reportSymbol": {
                    "$ref": "#/definitions/longString",
                    "description": "Report instance symbology"
                },
                "reportImage": {
                    "$ref": "#/definitions/longString",
                    "description": "Primary image of report instance"
                },
                "reportCountry": {
                    "$ref": "#/definitions/shortString",
                    "description": "Country value of report instance's primary location"
                },
                "reportLatitude": {
                    "$ref": "#/definitions/latitude_dds",
                    "description": "Latitude value of report instance's primary location"
                },
                "reportLongitude": {
                    "$ref": "#/definitions/longitude_dds",
                    "description": "Longitude value of report instance's primary location"
                },
				"geoLocation":{
					"$ref":"#/definitions/geojson"
				},
                "currentObjectState":{
                        "$ref": "#/definitions/actionInfo"
                },
                "originatingGroup": {
                    "$ref": "#/definitions/longStringRequired",
                    "description": "Original creator's group"
                },  
                "originatingUser": {
                    "$ref": "#/definitions/longStringRequired",
                    "description": "Original creator's User Name or email address"
                },  
				"isTearline": {
                    "type": "boolean",
                    "description": "Determines whether a report is a tearline"
                },
				"tearlineId": {
					"$ref": "#/definitions/shortString",
                    "description": "The reportId of the parent, used as a tearline group binding"
				},
                "theaterFilter": {
                    "$ref": "#/definitions/shortStringRequired",
                    "description": "Report instance theater of relevance"
                },
                "warehouseUri": {
                    "$ref": "#/definitions/longStringRequired",
                    "description": "Data warehouse location for report instance",
                    "format": "uri"
                }
            },
            "required": [
                "isTearline",
                "module",
                "objectId",
                "currentObjectState",
                "originatingGroup",
                "originatingUser",
                "reportId",
                "reportSerial",
                "reportDate",
                "theaterFilter",
                "reportType",
                "reportTitle",
                "reportSummary"
            ]
        },
        "location": {
            "type": "array",
            "description": "All locations for the report instance",
            "items": {
                "type": "object",
                "properties": {
                    "objectId": {
                        "$ref": "#/definitions/shortStringRequired",
                        "description": "objectId required for Edit Purposes"
                    },
                    "address": {
                        "$ref": "#/definitions/longString",
                        "description": "Address Details"
                    },
                    "alternateRoute": {
                        "$ref": "#/definitions/longString",
                        "description": "Alternate Route for location"
                    },
                    "ao": {
                        "$ref": "#/definitions/shortString",
                        "description": "Area of Operations"
                    },
                    "basecamp": {
                        "$ref": "#/definitions/shortString",
                        "description": "Base Camp"
                    },
                    "city": {
                        "$ref": "#/definitions/shortString",
                        "description": "City for Location"
                    },
                    "confidence": {
                        "$ref": "#/definitions/shortString",
                        "description": "Reporters Confidence in Location Value"
                    },
                    "country": {
                        "$ref": "#/definitions/shortString",
                        "description": "Location Country"
                    },
                    "customGeom": {
                        "type": "object",
                        "description": "Custom Geometry Object for Location",
                        "properties": {
                            "customGeomObjectId": {
                                "$ref": "#/definitions/shortString",
                                "description": "objectId for Custom Geometry Object"
                            },
                            "geomType": {
                                "$ref": "#/definitions/shortString",
                                "description": "Geometry Type for custom geometry object (e.g. Point, Multi-polygon"
                            },
                            "geom": {
                                "$ref": "#/definitions/shortString",
                                "description": "TBD GEOM Object for Custom Location Object"
                            },
                            "name": {
                                "$ref": "#/definitions/shortString",
                                "description": "Custom Location Name"
                            }
                        }
                    },
                    "dateEndLocation": {
                        "$ref": "#/definitions/dateTime",
                        "description": "Ending Date Time for location"
                    },
                    "dateStartLocation": {
                        "$ref": "#/definitions/dateTime",
                        "description": "Starting Date Time for location"
                    },
                    "derivedLocation": {
                        "type": "boolean",
                        "description": "Was Location Lat/Long derived from user picklists?"
                    },
                    "description": {
                        "$ref": "#/definitions/text",
                        "description": "Location Description"
                    },
                    "distanceFromCityCenter": {
                        "$ref": "#/definitions/positive_int",
                        "description": "Distance in meters to nearest city center"
                    },
                    "distanceToNearestFOB": {
                        "$ref": "#/definitions/positive_num",
                        "description": "Distance in meters to nearest FOB"
                    },
                    "distanceToNearestRoute": {
                        "$ref": "#/definitions/positive_num",
                        "description": "Distance in meters to nearest Route"
                    },
                    "district": {
                        "$ref": "#/definitions/shortString",
                        "description": "District"
                    },
                    "fob": {
                        "$ref": "#/definitions/shortString",
                        "description": "FOB"
                    },
					"geoLocation":{
						"$ref":"#/definitions/geojson"
					},
					"house": {
                        "$ref": "#/definitions/shortString",
                        "description": "HOUSE"
                    },
                    "isPrimaryLocation": {
                        "type": "boolean",
                        "description": "Marks Primary Location"
                    },
                    "latitude": {
                        "$ref": "#/definitions/latitude_ddsRequired",
                        "description": "Latitude of Location in Degree Decimal Seconds"
                    },
                    "locationActive": {
                        "type": "boolean",
                        "description": "Is Location Active?"
                    },
                    "locationType": {
                        "$ref": "#/definitions/shortString",
                        "description": "Location Type"
                    },
                    "longitude": {
                        "$ref": "#/definitions/longitude_ddsRequired",
                        "description": "Longitude of Location in Degree Decimal Seconds"
                    },
                    "mscCurrent": {
                        "$ref": "#/definitions/shortString",
                        "description": "Current Major Supporting Command responsible for location"
                    },
                    "mscDateOfCurrent": {
                        "$ref": "#/definitions/dateTime",
                        "description": "Date Of Current Major Supporting Command's Control of location"
                    },
                    "msc": {
                        "$ref": "#/definitions/shortString",
                        "description": "Major Supporting Command responsible for location"
                    },
                    "nai": {
                        "$ref": "#/definitions/shortString",
                        "description": "Named Area of Interest"
                    },
                    "nearestCity": {
                        "$ref": "#/definitions/shortString",
                        "description": "Nearest City"
                    },
                    "nearestFOB": {
                        "$ref": "#/definitions/shortString",
                        "description": "Nearest FOB"
                    },
                    "nearestRoute": {
                        "$ref": "#/definitions/shortString",
                        "description": "Nearest Route"
                    },
                    "neighborhood": {
                        "$ref": "#/definitions/shortString",
                        "description": "Neighborhood for location"
                    },
                    "populationCenterType": {
                        "$ref": "#/definitions/shortString",
                        "description": "Population Center Type"
                    },
                    "populationCenter": {
                        "$ref": "#/definitions/shortString",
                        "description": "Population Center"
                    },
                    "province": {
                        "$ref": "#/definitions/shortString",
                        "description": "Province"
                    },
                    "referenceId": {
                        "$ref": "#/definitions/shortString",
                        "description": "Reference to any subelement with in current report instance (e.g. Event Object ID)"
                    },
                    "route": {
                        "$ref": "#/definitions/shortString",
                        "description": "Route"
                    },
                    "security": {
                        "$ref": "#/definitions/securityOptional"
                    },
                    "street": {
                        "$ref": "#/definitions/shortString",
                        "description": "Street"
                    },
                    "structure": {
                        "$ref": "#/definitions/shortString",
                        "description": "Structure"
                    },
                    "village": {
                        "$ref": "#/definitions/shortString",
                        "description": "Village"
                    },
                    "zone": {
                        "$ref": "#/definitions/shortString",
                        "description": "City Zone"
                    }
                },
				"required": [
					"objectId",
					"isPrimaryLocation",
					"latitude",
					"longitude"
				]
            }
        },
        "remarks": {
            "type": "array",
            "items": {
                "type": "object",
                "properties": {
                    "objectId": {
                        "$ref": "#/definitions/shortStringRequired",
                        "description": "objectId required for Edit Purposes"
                    },
                    "referenceId": {
                        "$ref": "#/definitions/shortString",
                        "description": "Reference to any subelement with in current report instance (e.g. Event Object ID)"
                    },
                    "remarkText": {
                        "$ref": "#/definitions/text",
                        "description": "Remark Text"
                    },
                    "remarkType": {
                        "$ref": "#/definitions/shortString",
                        "description": "Remark Type"
                    },
                    "remarkOrder": {
                        "$ref": "#/definitions/positive_num",
                        "description": "Remark Order"
                    },
                    "security": {
                        "$ref": "#/definitions/securityOptional"
                    }
                },
                "required": [
                    "objectId",
                    "remarkText",
                    "remarkType",
                    "security"
                ]
            }
        },
        "requirements": {
            "type": "array",
            "items": {
                "type": "object",
                "properties": {
                    "objectId": {
                        "$ref": "#/definitions/shortStringRequired",
                        "description": "objectId required for Edit Purposes"
                    },
                    "referenceId": {
                        "$ref": "#/definitions/shortString",
                        "description": "Reference to any subelement with in current report instance (e.g. Event Object ID)"
                    },
                    "requirement": {
                        "$ref": "#/definitions/longString",
                        "description": "Requirement sub based on Requirement Type"
                    },
                    "requirementType": {
                        "$ref": "#/definitions/shortString",
                        "description": "Requirement Type"
                    },
                    "comment": {
                        "$ref": "#/definitions/text",
                        "description": "Requirement Comment"
                    },
                    "security": {
                        "$ref": "#/definitions/securityOptional"
                    }
                },
                "required": [
                    "objectId",
                    "requirementType",
                    "requirement",
                    "comment"
                ]
            }
        },
        "security": {
                        "$ref": "#/definitions/security"
        },
        "objectHistory": {
            "type": "array",
            "items":
                    {
                        "$ref": "#/definitions/actionInfo"
                    }       
		},
			"details": {
				"type": "object",
				"description": "SOF BiographicIIR Report details specific details",
				"fieldAlias2x": "details", 
						"properties": {
						
"acquisitiondate": {
	"$ref": "#/definitions/dateTime"
			,"defaultLabel": "AcquisitionDate"
			,"description": "AcquisitionDate"
			,"fieldAlias2x": "AcquisitionDate"
			,"isSearchable": false
			,"picklistDescription": null
			,"picklistUri": null
			,"picklistParent": null
		},
"administrativeenddate": {
	"$ref": "#/definitions/dateTime"
			,"defaultLabel": "AdministrativeEndDate"
			,"description": "AdministrativeEndDate"
			,"fieldAlias2x": "AdministrativeEndDate"
			,"isSearchable": false
			,"picklistDescription": null
			,"picklistUri": null
			,"picklistParent": null
		},
"administrativelatestdate": {
	"$ref": "#/definitions/dateTime"
			,"defaultLabel": "AdministrativeLatestDate"
			,"description": "AdministrativeLatestDate"
			,"fieldAlias2x": "AdministrativeLatestDate"
			,"isSearchable": false
			,"picklistDescription": null
			,"picklistUri": null
			,"picklistParent": null
		},
"administrativestartdate": {
	"$ref": "#/definitions/dateTime"
			,"defaultLabel": "AdministrativeStartDate"
			,"description": "AdministrativeStartDate"
			,"fieldAlias2x": "AdministrativeStartDate"
			,"isSearchable": false
			,"picklistDescription": null
			,"picklistUri": null
			,"picklistParent": null
		},
"benumber": {
	"$ref": "#/definitions/text"
			,"defaultLabel": "BENumber"
			,"description": "BENumber"
			,"fieldAlias2x": "BENumber"
			,"isSearchable": false
			,"picklistDescription": null
			,"picklistUri": null
			,"picklistParent": null
		},
"birthcity": {
	"$ref": "#/definitions/longString"
			,"defaultLabel": "BirthCity"
			,"description": "BirthCity"
			,"fieldAlias2x": "BirthCity"
			,"isSearchable": false
			,"picklistDescription": null
			,"picklistUri": null
			,"picklistParent": null
		},
"birthcountry": {
	"$ref": "#/definitions/longString"
			,"defaultLabel": "BirthCountry"
			,"description": "BirthCountry"
			,"fieldAlias2x": "BirthCountry"
			,"isSearchable": false
			,"picklistDescription": null
			,"picklistUri": null
			,"picklistParent": null
		},
"birthdate": {
	"$ref": "#/definitions/dateTime"
			,"defaultLabel": "BirthDate"
			,"description": "BirthDate"
			,"fieldAlias2x": "BirthDate"
			,"isSearchable": false
			,"picklistDescription": null
			,"picklistUri": null
			,"picklistParent": null
		},
"birthstate": {
	"$ref": "#/definitions/longString"
			,"defaultLabel": "BirthState"
			,"description": "BirthState"
			,"fieldAlias2x": "BirthState"
			,"isSearchable": false
			,"picklistDescription": null
			,"picklistUri": null
			,"picklistParent": null
		},
"build": {
	"$ref": "#/definitions/longString"
			,"defaultLabel": "Build"
			,"description": "Build"
			,"fieldAlias2x": "Build"
			,"isSearchable": false
			,"picklistDescription": "Build"
			,"picklistUri": "SOFBiographicIIR-Build"
			,"picklistParent": null
		},
"currentcitizenshipcountry": {
	"$ref": "#/definitions/longString"
			,"defaultLabel": "CurrentCitizenshipCountry"
			,"description": "CurrentCitizenshipCountry"
			,"fieldAlias2x": "CurrentCitizenshipCountry"
			,"isSearchable": false
			,"picklistDescription": null
			,"picklistUri": null
			,"picklistParent": null
		},
"dateofrank": {
	"$ref": "#/definitions/dateTime"
			,"defaultLabel": "DateofRank"
			,"description": "DateofRank"
			,"fieldAlias2x": "DateofRank"
			,"isSearchable": false
			,"picklistDescription": null
			,"picklistUri": null
			,"picklistParent": null
		},
"datetype": {
	"$ref": "#/definitions/longString"
			,"defaultLabel": "DateType"
			,"description": "DateType"
			,"fieldAlias2x": "DateType"
			,"isSearchable": false
			,"picklistDescription": "DateType"
			,"picklistUri": "SOFBiographicIIR-DateType"
			,"picklistParent": null
		},
"doi": {
	"$ref": "#/definitions/dateTime"
			,"defaultLabel": "DOI"
			,"description": "DOI"
			,"fieldAlias2x": "DOI"
			,"isSearchable": false
			,"picklistDescription": null
			,"picklistUri": null
			,"picklistParent": null
		},
"englishinterpretor": {
	"$ref": "#/definitions/longString"
			,"defaultLabel": "EnglishInterpretor"
			,"description": "EnglishInterpretor"
			,"fieldAlias2x": "EnglishInterpretor"
			,"isSearchable": false
			,"picklistDescription": null
			,"picklistUri": null
			,"picklistParent": null
		},
"ethnicity": {
	"$ref": "#/definitions/longString"
			,"defaultLabel": "Ethnicity"
			,"description": "Ethnicity"
			,"fieldAlias2x": "Ethnicity"
			,"isSearchable": false
			,"picklistDescription": null
			,"picklistUri": null
			,"picklistParent": null
		},
"exerciseregimen": {
	"$ref": "#/definitions/longString"
			,"defaultLabel": "ExerciseRegimen"
			,"description": "ExerciseRegimen"
			,"fieldAlias2x": "ExerciseRegimen"
			,"isSearchable": false
			,"picklistDescription": null
			,"picklistUri": null
			,"picklistParent": null
		},
"expired": {
	"type": "boolean"
			,"defaultLabel": "Expired"
			,"description": "Expired"
			,"fieldAlias2x": "Expired"
			,"isSearchable": false
			,"picklistDescription": null
			,"picklistUri": null
			,"picklistParent": null
		},
"eyecharacteristics": {
	"$ref": "#/definitions/longString"
			,"defaultLabel": "EyeCharacteristics"
			,"description": "EyeCharacteristics"
			,"fieldAlias2x": "EyeCharacteristics"
			,"isSearchable": false
			,"picklistDescription": null
			,"picklistUri": null
			,"picklistParent": null
		},
"eyecolor": {
	"$ref": "#/definitions/longString"
			,"defaultLabel": "EyeColor"
			,"description": "EyeColor"
			,"fieldAlias2x": "EyeColor"
			,"isSearchable": false
			,"picklistDescription": "EyeColor"
			,"picklistUri": "SOFBiographicIIR-EyeColor"
			,"picklistParent": null
		},
"gender": {
	"$ref": "#/definitions/longString"
			,"defaultLabel": "Gender"
			,"description": "Gender"
			,"fieldAlias2x": "Gender"
			,"isSearchable": false
			,"picklistDescription": "Gender"
			,"picklistUri": "SOFBiographicIIR-Gender"
			,"picklistParent": null
		},
"givenname": {
	"$ref": "#/definitions/longString"
			,"defaultLabel": "GivenName"
			,"description": "GivenName"
			,"fieldAlias2x": "GivenName"
			,"isSearchable": false
			,"picklistDescription": null
			,"picklistUri": null
			,"picklistParent": null
		},
"haircharacteristics": {
	"$ref": "#/definitions/longString"
			,"defaultLabel": "HairCharacteristics"
			,"description": "HairCharacteristics"
			,"fieldAlias2x": "HairCharacteristics"
			,"isSearchable": false
			,"picklistDescription": null
			,"picklistUri": null
			,"picklistParent": null
		},
"haircolor": {
	"$ref": "#/definitions/longString"
			,"defaultLabel": "HairColor"
			,"description": "HairColor"
			,"fieldAlias2x": "HairColor"
			,"isSearchable": false
			,"picklistDescription": "HairColor"
			,"picklistUri": "SOFBiographicIIR-HairColor"
			,"picklistParent": null
		},
"height": {
	"$ref": "#/definitions/longString"
			,"defaultLabel": "Height"
			,"description": "Height"
			,"fieldAlias2x": "Height"
			,"isSearchable": false
			,"picklistDescription": null
			,"picklistUri": null
			,"picklistParent": null
		},
"iirsignificance": {
	"$ref": "#/definitions/text"
			,"defaultLabel": "IIRSignificance"
			,"description": "IIRSignificance"
			,"fieldAlias2x": "IIRSignificance"
			,"isSearchable": false
			,"picklistDescription": null
			,"picklistUri": null
			,"picklistParent": null
		},
"isusperson": {
	"$ref": "#/definitions/longString"
			,"defaultLabel": "IsUSPerson"
			,"description": "IsUSPerson"
			,"fieldAlias2x": "IsUSPerson"
			,"isSearchable": false
			,"picklistDescription": null
			,"picklistUri": null
			,"picklistParent": null
		},
"keywords": {
	"$ref": "#/definitions/longString"
			,"defaultLabel": "Keywords"
			,"description": "Keywords"
			,"fieldAlias2x": "Keywords"
			,"isSearchable": false
			,"picklistDescription": null
			,"picklistUri": null
			,"picklistParent": null
		},
"languagecompetence": {
	"$ref": "#/definitions/longString"
			,"defaultLabel": "LanguageCompetence"
			,"description": "LanguageCompetence"
			,"fieldAlias2x": "LanguageCompetence"
			,"isSearchable": false
			,"picklistDescription": null
			,"picklistUri": null
			,"picklistParent": null
		},
"latitude": {
	"$ref": "#/definitions/latitude_dds"
			,"defaultLabel": "Latitude"
			,"description": "Latitude"
			,"fieldAlias2x": "Latitude"
			,"isSearchable": false
			,"picklistDescription": null
			,"picklistUri": null
			,"picklistParent": null
		},
"longitude": {
	"$ref": "#/definitions/longitude_dds"
			,"defaultLabel": "Longitude"
			,"description": "Longitude"
			,"fieldAlias2x": "Longitude"
			,"isSearchable": false
			,"picklistDescription": null
			,"picklistUri": null
			,"picklistParent": null
		},
"mgrs": {
	"$ref": "#/definitions/longString"
			,"defaultLabel": "MGRS"
			,"description": "MGRS"
			,"fieldAlias2x": "MGRS"
			,"isSearchable": false
			,"picklistDescription": null
			,"picklistUri": null
			,"picklistParent": null
		},
"middlename": {
	"$ref": "#/definitions/longString"
			,"defaultLabel": "MiddleName"
			,"description": "MiddleName"
			,"fieldAlias2x": "MiddleName"
			,"isSearchable": false
			,"picklistDescription": null
			,"picklistUri": null
			,"picklistParent": null
		},
"militaryserviceactualname": {
	"$ref": "#/definitions/longString"
			,"defaultLabel": "MilitaryServiceActualName"
			,"description": "MilitaryServiceActualName"
			,"fieldAlias2x": "MilitaryServiceActualName"
			,"isSearchable": false
			,"picklistDescription": null
			,"picklistUri": null
			,"picklistParent": null
		},
"phoneticspelling": {
	"$ref": "#/definitions/longString"
			,"defaultLabel": "PhoneticSpelling"
			,"description": "PhoneticSpelling"
			,"fieldAlias2x": "PhoneticSpelling"
			,"isSearchable": false
			,"picklistDescription": null
			,"picklistUri": null
			,"picklistParent": null
		},
"placeofacquisition": {
	"$ref": "#/definitions/longString"
			,"defaultLabel": "PlaceofAcquisition"
			,"description": "PlaceofAcquisition"
			,"fieldAlias2x": "PlaceofAcquisition"
			,"isSearchable": false
			,"picklistDescription": null
			,"picklistUri": null
			,"picklistParent": null
		},
"positionbillet": {
	"$ref": "#/definitions/longString"
			,"defaultLabel": "PositionBillet"
			,"description": "PositionBillet"
			,"fieldAlias2x": "PositionBillet"
			,"isSearchable": false
			,"picklistDescription": null
			,"picklistUri": null
			,"picklistParent": null
		},
"positionscheduledenddate": {
	"$ref": "#/definitions/dateTime"
			,"defaultLabel": "PositionScheduledEndDate"
			,"description": "PositionScheduledEndDate"
			,"fieldAlias2x": "PositionScheduledEndDate"
			,"isSearchable": false
			,"picklistDescription": null
			,"picklistUri": null
			,"picklistParent": null
		},
"positionstartdate": {
	"$ref": "#/definitions/dateTime"
			,"defaultLabel": "PositionStartDate"
			,"description": "PositionStartDate"
			,"fieldAlias2x": "PositionStartDate"
			,"isSearchable": false
			,"picklistDescription": null
			,"picklistUri": null
			,"picklistParent": null
		},
"posture": {
	"$ref": "#/definitions/longString"
			,"defaultLabel": "Posture"
			,"description": "Posture"
			,"fieldAlias2x": "Posture"
			,"isSearchable": false
			,"picklistDescription": "Posture"
			,"picklistUri": "SOFBiographicIIR-Posture"
			,"picklistParent": null
		},
"predecessor": {
	"$ref": "#/definitions/longString"
			,"defaultLabel": "Predecessor"
			,"description": "Predecessor"
			,"fieldAlias2x": "Predecessor"
			,"isSearchable": false
			,"picklistDescription": null
			,"picklistUri": null
			,"picklistParent": null
		},
"rank": {
	"$ref": "#/definitions/longString"
			,"defaultLabel": "Rank"
			,"description": "Rank"
			,"fieldAlias2x": "Rank"
			,"isSearchable": false
			,"picklistDescription": "Rank"
			,"picklistUri": "SOFBiographicIIR-Rank"
			,"picklistParent": null
		},
"religioncomments": {
	"$ref": "#/definitions/text"
			,"defaultLabel": "ReligionComments"
			,"description": "ReligionComments"
			,"fieldAlias2x": "ReligionComments"
			,"isSearchable": false
			,"picklistDescription": null
			,"picklistUri": null
			,"picklistParent": null
		},
"reportcategory": {
	"$ref": "#/definitions/longString"
			,"defaultLabel": "ReportCategory"
			,"description": "ReportCategory"
			,"fieldAlias2x": "ReportCategory"
			,"isSearchable": false
			,"picklistDescription": null
			,"picklistUri": null
			,"picklistParent": null
		},
"reportstance": {
	"$ref": "#/definitions/longString"
			,"defaultLabel": "ReportStance"
			,"description": "ReportStance"
			,"fieldAlias2x": "ReportStance"
			,"isSearchable": false
			,"picklistDescription": null
			,"picklistUri": null
			,"picklistParent": null
		},
"reportstatus": {
	"$ref": "#/definitions/longString"
			,"defaultLabel": "ReportStatus"
			,"description": "ReportStatus"
			,"fieldAlias2x": "ReportStatus"
			,"isSearchable": false
			,"picklistDescription": null
			,"picklistUri": null
			,"picklistParent": null
		},
"reporttitle": {
	"$ref": "#/definitions/longString"
			,"defaultLabel": "ReportTitle"
			,"description": "ReportTitle"
			,"fieldAlias2x": "ReportTitle"
			,"isSearchable": false
			,"picklistDescription": null
			,"picklistUri": null
			,"picklistParent": null
		},
"reporttype": {
	"$ref": "#/definitions/longString"
			,"defaultLabel": "ReportType"
			,"description": "ReportType"
			,"fieldAlias2x": "ReportType"
			,"isSearchable": false
			,"picklistDescription": null
			,"picklistUri": null
			,"picklistParent": null
		},
"servicebranch": {
	"$ref": "#/definitions/longString"
			,"defaultLabel": "ServiceBranch"
			,"description": "ServiceBranch"
			,"fieldAlias2x": "ServiceBranch"
			,"isSearchable": false
			,"picklistDescription": "ServiceBranch"
			,"picklistUri": "SOFBiographicIIR-ServiceBranch"
			,"picklistParent": null
		},
"statusofreport": {
	"$ref": "#/definitions/longString"
			,"defaultLabel": "StatusOfReport"
			,"description": "StatusOfReport"
			,"fieldAlias2x": "StatusOfReport"
			,"isSearchable": false
			,"picklistDescription": null
			,"picklistUri": null
			,"picklistParent": null
		},
"submittedby": {
	"$ref": "#/definitions/longString"
			,"defaultLabel": "SubmittedBy"
			,"description": "SubmittedBy"
			,"fieldAlias2x": "SubmittedBy"
			,"isSearchable": false
			,"picklistDescription": null
			,"picklistUri": null
			,"picklistParent": null
		},
"submittedbyemail": {
	"$ref": "#/definitions/longString"
			,"defaultLabel": "SubmittedByEmail"
			,"description": "SubmittedByEmail"
			,"fieldAlias2x": "SubmittedByEmail"
			,"isSearchable": false
			,"picklistDescription": null
			,"picklistUri": null
			,"picklistParent": null
		},
"submittedbyphone": {
	"$ref": "#/definitions/longString"
			,"defaultLabel": "SubmittedByPhone"
			,"description": "SubmittedByPhone"
			,"fieldAlias2x": "SubmittedByPhone"
			,"isSearchable": false
			,"picklistDescription": null
			,"picklistUri": null
			,"picklistParent": null
		},
"surname": {
	"$ref": "#/definitions/longString"
			,"defaultLabel": "Surname"
			,"description": "Surname"
			,"fieldAlias2x": "Surname"
			,"isSearchable": false
			,"picklistDescription": null
			,"picklistUri": null
			,"picklistParent": null
		},
"titlerank": {
	"$ref": "#/definitions/longString"
			,"defaultLabel": "TitleRank"
			,"description": "TitleRank"
			,"fieldAlias2x": "TitleRank"
			,"isSearchable": false
			,"picklistDescription": null
			,"picklistUri": null
			,"picklistParent": null
		},
"uspersonremarks": {
	"$ref": "#/definitions/text"
			,"defaultLabel": "USPersonRemarks"
			,"description": "USPersonRemarks"
			,"fieldAlias2x": "USPersonRemarks"
			,"isSearchable": false
			,"picklistDescription": null
			,"picklistUri": null
			,"picklistParent": null
		},
"validationdate": {
	"$ref": "#/definitions/dateTime"
			,"defaultLabel": "ValidationDate"
			,"description": "ValidationDate"
			,"fieldAlias2x": "ValidationDate"
			,"isSearchable": false
			,"picklistDescription": null
			,"picklistUri": null
			,"picklistParent": null
		},
"weight": {
	"$ref": "#/definitions/longString"
			,"defaultLabel": "Weight"
			,"description": "Weight"
			,"fieldAlias2x": "Weight"
			,"isSearchable": false
			,"picklistDescription": null
			,"picklistUri": null
			,"picklistParent": null
		},
"computerdata": {
	"type": ["object","null"]
	,"defaultLabel": "ComputerData"
	,"description": "ComputerData"
	,"fieldAlias2x": "ComputerData"
	,"isSearchable": false
	,"hasSecurity": true
	,"picklistDescription": null
	,"picklistUri": null
	,"picklistParent": null
	,"properties": {
				"objectValue": {		
					"$ref": "#/definitions/text"
				},
			   "security": {
					"$ref": "#/definitions/securityOptional"
				}
			},
			"required": [
				"objectValue",
				"security"
			]
	},
"militaryreputation": {
	"type": ["object","null"]
	,"defaultLabel": "MilitaryReputation"
	,"description": "MilitaryReputation"
	,"fieldAlias2x": "MilitaryReputation"
	,"isSearchable": false
	,"hasSecurity": true
	,"picklistDescription": null
	,"picklistUri": null
	,"picklistParent": null
	,"properties": {
				"objectValue": {		
					"$ref": "#/definitions/text"
				},
			   "security": {
					"$ref": "#/definitions/securityOptional"
				}
			},
			"required": [
				"objectValue",
				"security"
			]
	},
"personaldetails": {
	"type": ["object","null"]
	,"defaultLabel": "PersonalDetails"
	,"description": "PersonalDetails"
	,"fieldAlias2x": "PersonalDetails"
	,"isSearchable": false
	,"hasSecurity": true
	,"picklistDescription": null
	,"picklistUri": null
	,"picklistParent": null
	,"properties": {
				"objectValue": {		
					"$ref": "#/definitions/text"
				},
			   "security": {
					"$ref": "#/definitions/securityOptional"
				}
			},
			"required": [
				"objectValue",
				"security"
			]
	},
"personality": {
	"type": ["object","null"]
	,"defaultLabel": "Personality"
	,"description": "Personality"
	,"fieldAlias2x": "Personality"
	,"isSearchable": false
	,"hasSecurity": true
	,"picklistDescription": null
	,"picklistUri": null
	,"picklistParent": null
	,"properties": {
				"objectValue": {		
					"$ref": "#/definitions/text"
				},
			   "security": {
					"$ref": "#/definitions/securityOptional"
				}
			},
			"required": [
				"objectValue",
				"security"
			]
	},
"politicaltendencies": {
	"type": ["object","null"]
	,"defaultLabel": "PoliticalTendencies"
	,"description": "PoliticalTendencies"
	,"fieldAlias2x": "PoliticalTendencies"
	,"isSearchable": false
	,"hasSecurity": true
	,"picklistDescription": null
	,"picklistUri": null
	,"picklistParent": null
	,"properties": {
				"objectValue": {		
					"$ref": "#/definitions/text"
				},
			   "security": {
					"$ref": "#/definitions/securityOptional"
				}
			},
			"required": [
				"objectValue",
				"security"
			]
	},
"religion": {
	"type": ["object","null"]
	,"defaultLabel": "Religion"
	,"description": "Religion"
	,"fieldAlias2x": "Religion"
	,"isSearchable": false
	,"hasSecurity": true
	,"picklistDescription": "Religion"
	,"picklistUri": "SOFBiographicIIR-Religion"
	,"picklistParent": null
	,"properties": {
				"objectValue": {		
					"$ref": "#/definitions/longString"
				},
			   "security": {
					"$ref": "#/definitions/securityOptional"
				}
			},
			"required": [
				"objectValue",
				"security"
			]
	},
"significance": {
	"type": ["object","null"]
	,"defaultLabel": "Significance"
	,"description": "Significance"
	,"fieldAlias2x": "Significance"
	,"isSearchable": false
	,"hasSecurity": true
	,"picklistDescription": null
	,"picklistUri": null
	,"picklistParent": null
	,"properties": {
				"objectValue": {		
					"$ref": "#/definitions/text"
				},
			   "security": {
					"$ref": "#/definitions/securityOptional"
				}
			},
			"required": [
				"objectValue",
				"security"
			]
	},
"subjectevaulation": {
	"type": ["object","null"]
	,"defaultLabel": "SubjectEvaulation"
	,"description": "SubjectEvaulation"
	,"fieldAlias2x": "SubjectEvaulation"
	,"isSearchable": false
	,"hasSecurity": true
	,"picklistDescription": null
	,"picklistUri": null
	,"picklistParent": null
	,"properties": {
				"objectValue": {		
					"$ref": "#/definitions/text"
				},
			   "security": {
					"$ref": "#/definitions/securityOptional"
				}
			},
			"required": [
				"objectValue",
				"security"
			]
	},
			"affiliations": {
				"type": "array",
				"description": "SOF BiographicIIR Report Affiliations specific details",
				"fieldAlias2x": "Affiliations", 
					"items": {
						"type": "object",
						"properties": {
						
"referenceid": {
	"$ref": "#/definitions/longString"
			,"defaultLabel": "referenceId"
			,"description": "referenceId"
			,"fieldAlias2x": "AffiliationsKey"
			,"isSearchable": false
			,"picklistDescription": null
			,"picklistUri": null
			,"picklistParent": null
		},
"businessname": {
	"$ref": "#/definitions/longString"
			,"defaultLabel": "BusinessName"
			,"description": "BusinessName"
			,"fieldAlias2x": "BusinessName"
			,"isSearchable": false
			,"picklistDescription": null
			,"picklistUri": null
			,"picklistParent": null
		},
"comments": {
	"$ref": "#/definitions/text"
			,"defaultLabel": "Comments"
			,"description": "Comments"
			,"fieldAlias2x": "Comments"
			,"isSearchable": false
			,"picklistDescription": null
			,"picklistUri": null
			,"picklistParent": null
		}
				}
			}
		},
			"aliases": {
				"type": "array",
				"description": "SOF BiographicIIR Report Aliases specific details",
				"fieldAlias2x": "Aliases", 
					"items": {
						"type": "object",
						"properties": {
						
"alias": {
	"$ref": "#/definitions/longString"
			,"defaultLabel": "Alias"
			,"description": "Alias"
			,"fieldAlias2x": "Alias"
			,"isSearchable": false
			,"picklistDescription": null
			,"picklistUri": null
			,"picklistParent": null
		},
"referenceid": {
	"$ref": "#/definitions/longString"
			,"defaultLabel": "referenceId"
			,"description": "referenceId"
			,"fieldAlias2x": "AliasesKey"
			,"isSearchable": false
			,"picklistDescription": null
			,"picklistUri": null
			,"picklistParent": null
		}
				}
			}
		},
			"citizenships": {
				"type": "array",
				"description": "SOF BiographicIIR Report Citizenships specific details",
				"fieldAlias2x": "Citizenships", 
					"items": {
						"type": "object",
						"properties": {
						
"citizenships": {
	"$ref": "#/definitions/text"
			,"defaultLabel": "Citizenships"
			,"description": "Citizenships"
			,"fieldAlias2x": "Citizenships"
			,"isSearchable": false
			,"picklistDescription": null
			,"picklistUri": null
			,"picklistParent": null
		},
"referenceid": {
	"$ref": "#/definitions/longString"
			,"defaultLabel": "referenceId"
			,"description": "referenceId"
			,"fieldAlias2x": "CitizenshipsKey"
			,"isSearchable": false
			,"picklistDescription": null
			,"picklistUri": null
			,"picklistParent": null
		}
				}
			}
		},
			"comments": {
				"type": "array",
				"description": "SOF BiographicIIR Report Comments specific details",
				"fieldAlias2x": "Comments", 
					"items": {
						"type": "object",
						"properties": {
						
"comment": {
	"$ref": "#/definitions/text"
			,"defaultLabel": "Comment"
			,"description": "Comment"
			,"fieldAlias2x": "Comment"
			,"isSearchable": false
			,"picklistDescription": null
			,"picklistUri": null
			,"picklistParent": null
		},
"referenceid": {
	"$ref": "#/definitions/longString"
			,"defaultLabel": "referenceId"
			,"description": "referenceId"
			,"fieldAlias2x": "CommentsKey"
			,"isSearchable": false
			,"picklistDescription": null
			,"picklistUri": null
			,"picklistParent": null
		},
"commenttype": {
	"$ref": "#/definitions/longString"
			,"defaultLabel": "CommentType"
			,"description": "CommentType"
			,"fieldAlias2x": "CommentType"
			,"isSearchable": false
			,"picklistDescription": null
			,"picklistUri": null
			,"picklistParent": null
		}
				}
			}
		},
			"contactinfo": {
				"type": "array",
				"description": "SOF BiographicIIR Report ContactInfo specific details",
				"fieldAlias2x": "ContactInfo", 
					"items": {
						"type": "object",
						"properties": {
						
"address1": {
	"$ref": "#/definitions/longString"
			,"defaultLabel": "Address1"
			,"description": "Address1"
			,"fieldAlias2x": "Address1"
			,"isSearchable": false
			,"picklistDescription": null
			,"picklistUri": null
			,"picklistParent": null
		},
"address2": {
	"$ref": "#/definitions/longString"
			,"defaultLabel": "Address2"
			,"description": "Address2"
			,"fieldAlias2x": "Address2"
			,"isSearchable": false
			,"picklistDescription": null
			,"picklistUri": null
			,"picklistParent": null
		},
"addresstype": {
	"$ref": "#/definitions/longString"
			,"defaultLabel": "AddressType"
			,"description": "AddressType"
			,"fieldAlias2x": "AddressType"
			,"isSearchable": false
			,"picklistDescription": null
			,"picklistUri": null
			,"picklistParent": null
		},
"city": {
	"$ref": "#/definitions/longString"
			,"defaultLabel": "City"
			,"description": "City"
			,"fieldAlias2x": "City"
			,"isSearchable": false
			,"picklistDescription": null
			,"picklistUri": null
			,"picklistParent": null
		},
"referenceid": {
	"$ref": "#/definitions/longString"
			,"defaultLabel": "referenceId"
			,"description": "referenceId"
			,"fieldAlias2x": "ContactInfoKey"
			,"isSearchable": false
			,"picklistDescription": null
			,"picklistUri": null
			,"picklistParent": null
		},
"country": {
	"$ref": "#/definitions/longString"
			,"defaultLabel": "Country"
			,"description": "Country"
			,"fieldAlias2x": "Country"
			,"isSearchable": false
			,"picklistDescription": null
			,"picklistUri": null
			,"picklistParent": null
		},
"postalcode": {
	"$ref": "#/definitions/longString"
			,"defaultLabel": "PostalCode"
			,"description": "PostalCode"
			,"fieldAlias2x": "PostalCode"
			,"isSearchable": false
			,"picklistDescription": null
			,"picklistUri": null
			,"picklistParent": null
		},
"stateprovince": {
	"$ref": "#/definitions/longString"
			,"defaultLabel": "StateProvince"
			,"description": "StateProvince"
			,"fieldAlias2x": "StateProvince"
			,"isSearchable": false
			,"picklistDescription": null
			,"picklistUri": null
			,"picklistParent": null
		}
				}
			}
		},
			"education": {
				"type": "array",
				"description": "SOF BiographicIIR Report Education specific details",
				"fieldAlias2x": "Education", 
					"items": {
						"type": "object",
						"properties": {
						
"attendanceperiod": {
	"$ref": "#/definitions/longString"
			,"defaultLabel": "AttendancePeriod"
			,"description": "AttendancePeriod"
			,"fieldAlias2x": "AttendancePeriod"
			,"isSearchable": false
			,"picklistDescription": null
			,"picklistUri": null
			,"picklistParent": null
		},
"cityname": {
	"$ref": "#/definitions/longString"
			,"defaultLabel": "CityName"
			,"description": "CityName"
			,"fieldAlias2x": "CityName"
			,"isSearchable": false
			,"picklistDescription": null
			,"picklistUri": null
			,"picklistParent": null
		},
"country": {
	"$ref": "#/definitions/longString"
			,"defaultLabel": "Country"
			,"description": "Country"
			,"fieldAlias2x": "Country"
			,"isSearchable": false
			,"picklistDescription": null
			,"picklistUri": null
			,"picklistParent": null
		},
"degree": {
	"$ref": "#/definitions/longString"
			,"defaultLabel": "Degree"
			,"description": "Degree"
			,"fieldAlias2x": "Degree"
			,"isSearchable": false
			,"picklistDescription": null
			,"picklistUri": null
			,"picklistParent": null
		},
"referenceid": {
	"$ref": "#/definitions/longString"
			,"defaultLabel": "referenceId"
			,"description": "referenceId"
			,"fieldAlias2x": "EducationKey"
			,"isSearchable": false
			,"picklistDescription": null
			,"picklistUri": null
			,"picklistParent": null
		},
"geographicalcoordinates": {
	"$ref": "#/definitions/longString"
			,"defaultLabel": "GeographicalCoordinates"
			,"description": "GeographicalCoordinates"
			,"fieldAlias2x": "GeographicalCoordinates"
			,"isSearchable": false
			,"picklistDescription": null
			,"picklistUri": null
			,"picklistParent": null
		},
"institutionname": {
	"$ref": "#/definitions/longString"
			,"defaultLabel": "InstitutionName"
			,"description": "InstitutionName"
			,"fieldAlias2x": "InstitutionName"
			,"isSearchable": false
			,"picklistDescription": null
			,"picklistUri": null
			,"picklistParent": null
		}
				}
			}
		},
			"family": {
				"type": "array",
				"description": "SOF BiographicIIR Report Family specific details",
				"fieldAlias2x": "Family", 
					"items": {
						"type": "object",
						"properties": {
						
"aliases": {
	"$ref": "#/definitions/longString"
			,"defaultLabel": "Aliases"
			,"description": "Aliases"
			,"fieldAlias2x": "Aliases"
			,"isSearchable": false
			,"picklistDescription": null
			,"picklistUri": null
			,"picklistParent": null
		},
"birthdate": {
	"$ref": "#/definitions/dateTime"
			,"defaultLabel": "BirthDate"
			,"description": "BirthDate"
			,"fieldAlias2x": "BirthDate"
			,"isSearchable": false
			,"picklistDescription": null
			,"picklistUri": null
			,"picklistParent": null
		},
"childrenofcurrentrelationship": {
	"$ref": "#/definitions/text"
			,"defaultLabel": "ChildrenOfCurrentRelationship"
			,"description": "ChildrenOfCurrentRelationship"
			,"fieldAlias2x": "ChildrenOfCurrentRelationship"
			,"isSearchable": false
			,"picklistDescription": null
			,"picklistUri": null
			,"picklistParent": null
		},
"citytownvillage": {
	"$ref": "#/definitions/longString"
			,"defaultLabel": "CityTownVillage"
			,"description": "CityTownVillage"
			,"fieldAlias2x": "CityTownVillage"
			,"isSearchable": false
			,"picklistDescription": null
			,"picklistUri": null
			,"picklistParent": null
		},
"comments": {
	"$ref": "#/definitions/text"
			,"defaultLabel": "Comments"
			,"description": "Comments"
			,"fieldAlias2x": "Comments"
			,"isSearchable": false
			,"picklistDescription": null
			,"picklistUri": null
			,"picklistParent": null
		},
"country": {
	"$ref": "#/definitions/longString"
			,"defaultLabel": "Country"
			,"description": "Country"
			,"fieldAlias2x": "Country"
			,"isSearchable": false
			,"picklistDescription": null
			,"picklistUri": null
			,"picklistParent": null
		},
"ethnicity": {
	"$ref": "#/definitions/longString"
			,"defaultLabel": "Ethnicity"
			,"description": "Ethnicity"
			,"fieldAlias2x": "Ethnicity"
			,"isSearchable": false
			,"picklistDescription": null
			,"picklistUri": null
			,"picklistParent": null
		},
"familyconnections": {
	"$ref": "#/definitions/text"
			,"defaultLabel": "FamilyConnections"
			,"description": "FamilyConnections"
			,"fieldAlias2x": "FamilyConnections"
			,"isSearchable": false
			,"picklistDescription": null
			,"picklistUri": null
			,"picklistParent": null
		},
"referenceid": {
	"$ref": "#/definitions/longString"
			,"defaultLabel": "referenceId"
			,"description": "referenceId"
			,"fieldAlias2x": "FamilyKey"
			,"isSearchable": false
			,"picklistDescription": null
			,"picklistUri": null
			,"picklistParent": null
		},
"givenname": {
	"$ref": "#/definitions/longString"
			,"defaultLabel": "GivenName"
			,"description": "GivenName"
			,"fieldAlias2x": "GivenName"
			,"isSearchable": false
			,"picklistDescription": null
			,"picklistUri": null
			,"picklistParent": null
		},
"maritalstatus": {
	"$ref": "#/definitions/longString"
			,"defaultLabel": "MaritalStatus"
			,"description": "MaritalStatus"
			,"fieldAlias2x": "MaritalStatus"
			,"isSearchable": false
			,"picklistDescription": "MaritalStatus"
			,"picklistUri": "SOFBiographicIIR-MaritalStatus"
			,"picklistParent": null
		},
"personalbackground": {
	"$ref": "#/definitions/text"
			,"defaultLabel": "PersonalBackground"
			,"description": "PersonalBackground"
			,"fieldAlias2x": "PersonalBackground"
			,"isSearchable": false
			,"picklistDescription": null
			,"picklistUri": null
			,"picklistParent": null
		},
"religion": {
	"$ref": "#/definitions/longString"
			,"defaultLabel": "Religion"
			,"description": "Religion"
			,"fieldAlias2x": "Religion"
			,"isSearchable": false
			,"picklistDescription": "Religion"
			,"picklistUri": "SOFBiographicIIR-Religion"
			,"picklistParent": null
		},
"religioncomments": {
	"$ref": "#/definitions/text"
			,"defaultLabel": "ReligionComments"
			,"description": "ReligionComments"
			,"fieldAlias2x": "ReligionComments"
			,"isSearchable": false
			,"picklistDescription": null
			,"picklistUri": null
			,"picklistParent": null
		},
"religiontype": {
	"$ref": "#/definitions/longString"
			,"defaultLabel": "ReligionType"
			,"description": "ReligionType"
			,"fieldAlias2x": "ReligionType"
			,"isSearchable": false
			,"picklistDescription": null
			,"picklistUri": null
			,"picklistParent": null
		},
"stateprovince": {
	"$ref": "#/definitions/longString"
			,"defaultLabel": "StateProvince"
			,"description": "StateProvince"
			,"fieldAlias2x": "StateProvince"
			,"isSearchable": false
			,"picklistDescription": null
			,"picklistUri": null
			,"picklistParent": null
		},
"surname": {
	"$ref": "#/definitions/longString"
			,"defaultLabel": "Surname"
			,"description": "Surname"
			,"fieldAlias2x": "Surname"
			,"isSearchable": false
			,"picklistDescription": null
			,"picklistUri": null
			,"picklistParent": null
		},
			"familycitizenships": {
				"type": "array",
				"description": "SOF BiographicIIR Report FamilyCitizenships specific details",
				"fieldAlias2x": "FamilyCitizenships", 
					"items": {
						"type": "object",
						"properties": {
						
"familycitizenships": {
	"$ref": "#/definitions/text"
			,"defaultLabel": "FamilyCitizenships"
			,"description": "FamilyCitizenships"
			,"fieldAlias2x": "FamilyCitizenships"
			,"isSearchable": false
			,"picklistDescription": null
			,"picklistUri": null
			,"picklistParent": null
		},
"referenceid": {
	"$ref": "#/definitions/longString"
			,"defaultLabel": "referenceId"
			,"description": "referenceId"
			,"fieldAlias2x": "FamilyCitizenshipsKey"
			,"isSearchable": false
			,"picklistDescription": null
			,"picklistUri": null
			,"picklistParent": null
		}
				}
			}
		}
				}
			}
		},
			"internationaltravel": {
				"type": "array",
				"description": "SOF BiographicIIR Report InternationalTravel specific details",
				"fieldAlias2x": "InternationalTravel", 
					"items": {
						"type": "object",
						"properties": {
						
"country": {
	"$ref": "#/definitions/longString"
			,"defaultLabel": "Country"
			,"description": "Country"
			,"fieldAlias2x": "Country"
			,"isSearchable": false
			,"picklistDescription": null
			,"picklistUri": null
			,"picklistParent": null
		},
"creditcardsused": {
	"$ref": "#/definitions/text"
			,"defaultLabel": "CreditCardsUsed"
			,"description": "CreditCardsUsed"
			,"fieldAlias2x": "CreditCardsUsed"
			,"isSearchable": false
			,"picklistDescription": null
			,"picklistUri": null
			,"picklistParent": null
		},
"datestamped": {
	"$ref": "#/definitions/dateTime"
			,"defaultLabel": "DateStamped"
			,"description": "DateStamped"
			,"fieldAlias2x": "DateStamped"
			,"isSearchable": false
			,"picklistDescription": null
			,"picklistUri": null
			,"picklistParent": null
		},
"enddate": {
	"$ref": "#/definitions/dateTime"
			,"defaultLabel": "EndDate"
			,"description": "EndDate"
			,"fieldAlias2x": "EndDate"
			,"isSearchable": false
			,"picklistDescription": null
			,"picklistUri": null
			,"picklistParent": null
		},
"flightdata": {
	"$ref": "#/definitions/text"
			,"defaultLabel": "FlightData"
			,"description": "FlightData"
			,"fieldAlias2x": "FlightData"
			,"isSearchable": false
			,"picklistDescription": null
			,"picklistUri": null
			,"picklistParent": null
		},
"frequentflyeraccount": {
	"$ref": "#/definitions/longString"
			,"defaultLabel": "FrequentFlyerAccount"
			,"description": "FrequentFlyerAccount"
			,"fieldAlias2x": "FrequentFlyerAccount"
			,"isSearchable": false
			,"picklistDescription": null
			,"picklistUri": null
			,"picklistParent": null
		},
"referenceid": {
	"$ref": "#/definitions/longString"
			,"defaultLabel": "referenceId"
			,"description": "referenceId"
			,"fieldAlias2x": "InternationalTravelKey"
			,"isSearchable": false
			,"picklistDescription": null
			,"picklistUri": null
			,"picklistParent": null
		},
"passport": {
	"$ref": "#/definitions/longString"
			,"defaultLabel": "Passport"
			,"description": "Passport"
			,"fieldAlias2x": "Passport"
			,"isSearchable": false
			,"picklistDescription": null
			,"picklistUri": null
			,"picklistParent": null
		},
"startdate": {
	"$ref": "#/definitions/dateTime"
			,"defaultLabel": "StartDate"
			,"description": "StartDate"
			,"fieldAlias2x": "StartDate"
			,"isSearchable": false
			,"picklistDescription": null
			,"picklistUri": null
			,"picklistParent": null
		},
"visaentrydate": {
	"$ref": "#/definitions/dateTime"
			,"defaultLabel": "VisaEntryDate"
			,"description": "VisaEntryDate"
			,"fieldAlias2x": "VisaEntryDate"
			,"isSearchable": false
			,"picklistDescription": null
			,"picklistUri": null
			,"picklistParent": null
		},
"visaexitdate": {
	"$ref": "#/definitions/dateTime"
			,"defaultLabel": "VisaExitDate"
			,"description": "VisaExitDate"
			,"fieldAlias2x": "VisaExitDate"
			,"isSearchable": false
			,"picklistDescription": null
			,"picklistUri": null
			,"picklistParent": null
		},
"visanumber": {
	"$ref": "#/definitions/longString"
			,"defaultLabel": "VisaNumber"
			,"description": "VisaNumber"
			,"fieldAlias2x": "VisaNumber"
			,"isSearchable": false
			,"picklistDescription": null
			,"picklistUri": null
			,"picklistParent": null
		},
"visitpurpose": {
	"$ref": "#/definitions/longString"
			,"defaultLabel": "VisitPurpose"
			,"description": "VisitPurpose"
			,"fieldAlias2x": "VisitPurpose"
			,"isSearchable": false
			,"picklistDescription": null
			,"picklistUri": null
			,"picklistParent": null
		}
				}
			}
		},
			"militaryassignments": {
				"type": "array",
				"description": "SOF BiographicIIR Report MilitaryAssignments specific details",
				"fieldAlias2x": "MilitaryAssignments", 
					"items": {
						"type": "object",
						"properties": {
						
"assignment": {
	"$ref": "#/definitions/text"
			,"defaultLabel": "Assignment"
			,"description": "Assignment"
			,"fieldAlias2x": "Assignment"
			,"isSearchable": false
			,"picklistDescription": null
			,"picklistUri": null
			,"picklistParent": null
		},
"referenceid": {
	"$ref": "#/definitions/longString"
			,"defaultLabel": "referenceId"
			,"description": "referenceId"
			,"fieldAlias2x": "MilitaryAssignmentsKey"
			,"isSearchable": false
			,"picklistDescription": null
			,"picklistUri": null
			,"picklistParent": null
		}
				}
			}
		},
			"organizations": {
				"type": "array",
				"description": "SOF BiographicIIR Report Organizations specific details",
				"fieldAlias2x": "Organizations", 
					"items": {
						"type": "object",
						"properties": {
						
"comments": {
	"$ref": "#/definitions/text"
			,"defaultLabel": "Comments"
			,"description": "Comments"
			,"fieldAlias2x": "Comments"
			,"isSearchable": false
			,"picklistDescription": null
			,"picklistUri": null
			,"picklistParent": null
		},
"enddate": {
	"$ref": "#/definitions/dateTime"
			,"defaultLabel": "EndDate"
			,"description": "EndDate"
			,"fieldAlias2x": "EndDate"
			,"isSearchable": false
			,"picklistDescription": null
			,"picklistUri": null
			,"picklistParent": null
		},
"organizationname": {
	"$ref": "#/definitions/longString"
			,"defaultLabel": "OrganizationName"
			,"description": "OrganizationName"
			,"fieldAlias2x": "OrganizationName"
			,"isSearchable": false
			,"picklistDescription": null
			,"picklistUri": null
			,"picklistParent": null
		},
"referenceid": {
	"$ref": "#/definitions/longString"
			,"defaultLabel": "referenceId"
			,"description": "referenceId"
			,"fieldAlias2x": "OrganizationsKey"
			,"isSearchable": false
			,"picklistDescription": null
			,"picklistUri": null
			,"picklistParent": null
		},
"organziationtype": {
	"$ref": "#/definitions/longString"
			,"defaultLabel": "OrganziationType"
			,"description": "OrganziationType"
			,"fieldAlias2x": "OrganziationType"
			,"isSearchable": false
			,"picklistDescription": null
			,"picklistUri": null
			,"picklistParent": null
		},
"startdate": {
	"$ref": "#/definitions/dateTime"
			,"defaultLabel": "StartDate"
			,"description": "StartDate"
			,"fieldAlias2x": "StartDate"
			,"isSearchable": false
			,"picklistDescription": null
			,"picklistUri": null
			,"picklistParent": null
		}
				}
			}
		},
			"phone": {
				"type": "array",
				"description": "SOF BiographicIIR Report Phone specific details",
				"fieldAlias2x": "Phone", 
					"items": {
						"type": "object",
						"properties": {
						
"numbertype": {
	"$ref": "#/definitions/longString"
			,"defaultLabel": "NumberType"
			,"description": "NumberType"
			,"fieldAlias2x": "NumberType"
			,"isSearchable": false
			,"picklistDescription": "NumberType"
			,"picklistUri": "SOFBiographicIIR-NumberType"
			,"picklistParent": null
		},
"referenceid": {
	"$ref": "#/definitions/longString"
			,"defaultLabel": "referenceId"
			,"description": "referenceId"
			,"fieldAlias2x": "PhoneKey"
			,"isSearchable": false
			,"picklistDescription": null
			,"picklistUri": null
			,"picklistParent": null
		},
"phonenumber": {
	"$ref": "#/definitions/longString"
			,"defaultLabel": "PhoneNumber"
			,"description": "PhoneNumber"
			,"fieldAlias2x": "PhoneNumber"
			,"isSearchable": false
			,"picklistDescription": null
			,"picklistUri": null
			,"picklistParent": null
		}
				}
			}
		},
			"pmesii": {
				"type": "array",
				"description": "SOF BiographicIIR Report PMESII specific details",
				"fieldAlias2x": "PMESII", 
					"items": {
						"type": "object",
						"properties": {
						
"ascope": {
	"$ref": "#/definitions/longString"
			,"defaultLabel": "ASCOPE"
			,"description": "ASCOPE"
			,"fieldAlias2x": "ASCOPE"
			,"isSearchable": false
			,"picklistDescription": null
			,"picklistUri": null
			,"picklistParent": null
		},
"dimelif": {
	"$ref": "#/definitions/longString"
			,"defaultLabel": "DIMELIF"
			,"description": "DIMELIF"
			,"fieldAlias2x": "DIMELIF"
			,"isSearchable": false
			,"picklistDescription": null
			,"picklistUri": null
			,"picklistParent": null
		},
"pmesii": {
	"$ref": "#/definitions/longString"
			,"defaultLabel": "PMESII"
			,"description": "PMESII"
			,"fieldAlias2x": "PMESII"
			,"isSearchable": false
			,"picklistDescription": null
			,"picklistUri": null
			,"picklistParent": null
		},
"referenceid": {
	"$ref": "#/definitions/longString"
			,"defaultLabel": "referenceId"
			,"description": "referenceId"
			,"fieldAlias2x": "PMESIIKey"
			,"isSearchable": false
			,"picklistDescription": null
			,"picklistUri": null
			,"picklistParent": null
		},
"remarks": {
	"$ref": "#/definitions/text"
			,"defaultLabel": "Remarks"
			,"description": "Remarks"
			,"fieldAlias2x": "Remarks"
			,"isSearchable": false
			,"picklistDescription": null
			,"picklistUri": null
			,"picklistParent": null
		},
"stance": {
	"$ref": "#/definitions/longString"
			,"defaultLabel": "Stance"
			,"description": "Stance"
			,"fieldAlias2x": "Stance"
			,"isSearchable": false
			,"picklistDescription": null
			,"picklistUri": null
			,"picklistParent": null
		}
				}
			}
		},
			"poc": {
				"type": "array",
				"description": "SOF BiographicIIR Report POC specific details",
				"fieldAlias2x": "POC", 
					"items": {
						"type": "object",
						"properties": {
						
"referenceid": {
	"$ref": "#/definitions/longString"
			,"defaultLabel": "referenceId"
			,"description": "referenceId"
			,"fieldAlias2x": "POCKey"
			,"isSearchable": false
			,"picklistDescription": null
			,"picklistUri": null
			,"picklistParent": null
		},
"poc": {
	"type": ["object","null"]
	,"defaultLabel": "POC"
	,"description": "POC"
	,"fieldAlias2x": "POC"
	,"isSearchable": false
	,"hasSecurity": true
	,"picklistDescription": null
	,"picklistUri": null
	,"picklistParent": null
	,"properties": {
				"objectValue": {		
					"$ref": "#/definitions/text"
				},
			   "security": {
					"$ref": "#/definitions/securityOptional"
				}
			},
			"required": [
				"objectValue",
				"security"
			]
	}
				}
			}
		},
			"publishedworks": {
				"type": "array",
				"description": "SOF BiographicIIR Report PublishedWorks specific details",
				"fieldAlias2x": "PublishedWorks", 
					"items": {
						"type": "object",
						"properties": {
						
"publishedworks": {
	"$ref": "#/definitions/text"
			,"defaultLabel": "PublishedWorks"
			,"description": "PublishedWorks"
			,"fieldAlias2x": "PublishedWorks"
			,"isSearchable": false
			,"picklistDescription": null
			,"picklistUri": null
			,"picklistParent": null
		},
"referenceid": {
	"$ref": "#/definitions/longString"
			,"defaultLabel": "referenceId"
			,"description": "referenceId"
			,"fieldAlias2x": "PublishedWorksKey"
			,"isSearchable": false
			,"picklistDescription": null
			,"picklistUri": null
			,"picklistParent": null
		}
				}
			}
		},
			"remarks": {
				"type": "array",
				"description": "SOF BiographicIIR Report Remarks specific details",
				"fieldAlias2x": "Remarks", 
					"items": {
						"type": "object",
						"properties": {
						
"remarks": {
	"$ref": "#/definitions/text"
			,"defaultLabel": "Remarks"
			,"description": "Remarks"
			,"fieldAlias2x": "Remarks"
			,"isSearchable": false
			,"picklistDescription": null
			,"picklistUri": null
			,"picklistParent": null
		},
"referenceid": {
	"$ref": "#/definitions/longString"
			,"defaultLabel": "referenceId"
			,"description": "referenceId"
			,"fieldAlias2x": "RemarksKey"
			,"isSearchable": false
			,"picklistDescription": null
			,"picklistUri": null
			,"picklistParent": null
		}
				}
			}
		}
				}
			}
	}
}
