	
{
    "type": "object",
    "id": "http://cidne.dae.smil.mil/schemas/SOF/PortSurvey/CIDNEDM235",
    "description": "CIDNE SOF PortSurvey Report Definition",
    "definitions": {
        "shortStringRequired": {
            "type": "string",
            "maxLength": 50
        },
        "longStringRequired": {
            "type": "string",
            "maxLength": 500
        },
        "textRequired": {
            "type": "string"
        },
        "textFieldLevelRequired": {
            "type": "object",
            "properties": {
                "objectValue": {
                    "type": "string"
                },
                "security": {
					"$ref": "#/definitions/security"
				}
            },
            "required": [
                "objectValue",
                "security"
            ]
        },
        "dateTimeRequired": {
            "type": "object",
            "properties": {
                "zuluDateTime": {
                    "type": "string",
                    "format": "date-time"
                },
                "zuluOffset": {
                    "type": "integer",
					"minimum": -840,
					"maximum": 840,
                    "description": "Offset in minutes from Zulu"
                }
            },
            "required": [
                "zuluDateTime",
                "zuluOffset"
            ]
        },
        "latitude_ddsRequired": {
            "type": "number",
            "minimum": -90,
            "maximum": 90
        },
        "longitude_ddsRequired": {
            "type": "number",
            "minimum": -180,
            "maximum": 180
        },
        "positive_intRequired": {
            "type": "integer",
            "minimum": 0
        },
        "positive_numRequired": {
            "type": "number",
            "minimum": 0
        },
        "positive_intRequired": {
            "type": "integer",
            "minimum": 0
        },
        "shortString": {
            "type": ["string","null"],
            "maxLength": 50
        },
        "longString": {
            "type": ["string","null"],
            "maxLength": 500
        },
        "text": {
            "type": ["string","null"]
        },
        "textFieldLevel": {
            "type": "object",
            "properties": {
                "objectValue": {
                    "type": ["string","null"]
                },
                "security": {
					"$ref": "#/definitions/securityOptional"
				}
            },
            "required": [
                "objectValue",
                "security"
            ]
        },
        "dateTime": {
            "type": ["object","null"],
            "properties": {
                "zuluDateTime": {
                    "type": "string",
                    "format": "date-time"
                },
                "zuluOffset": {
                    "type": "integer",
					"minimum": -840,
					"maximum": 840,
                    "description": "Offset in minutes from Zulu"
                }
            },
            "required": [
                "zuluDateTime",
                "zuluOffset"
            ]
        },
        "latitude_dds": {
            "type": ["number","null"],
            "minimum": -90,
            "maximum": 90
        },
        "longitude_dds": {
            "type": ["number","null"],
            "minimum": -180,
            "maximum": 180
        },
        "positive_int": {
            "type": ["integer","null"],
            "minimum": 0
        },
        "positive_num": {
            "type": ["number","null"],
            "minimum": 0
        },
        "num": {
            "type": ["number","null"]
        },
        "uniqueStringArray": {
            "type": "array",
            "uniqueItems": true,
            "items": {
                "type": "string"
            }
        },
        "securityOptional": {
            "oneOf": [
                {
                    "type": "null"
                },
                {
                    "$ref": "#/definitions/security"
                }
            ]
        },
        "security": {
            "type": "object",
            "properties": {
                "atomicEnergyMarkings": {
                    "$ref": "#/definitions/shortString",
                    "description": "Atomic Energy Act Information Markings"
                },
                "classificationReason": {
                    "$ref": "#/definitions/longString",
                    "description": ": Concise reason for classification"
                },
                "classification": {
                    "enum": [ "U", "TS", "S", "C" ],
                    "description": "Classification of information",
                    "defaultLabel": "Classification",
                    "isSearchable": false,
                    "picklistName": "classification",
                    "picklistUri": "http://cidne.dae.smil.mil/schemas/CAPCO/classification",
                    "picklistParent": null
                    
                },
                "classifiedBy": {
                    "$ref": "#/definitions/longString",
                    "description": "Identification by name and position, or personal identifier of the OCA"
                },
                "compilationReason": {
                    "$ref": "#/definitions/longString",
                    "description": "Reason why the compilation of information causes the classification"
                },
                "declassDate": {
                    "$ref": "#/definitions/dateTime",
                    "description": "Declassification date"
                },
                "declassEvent": {
                    "$ref": "#/definitions/shortString",
                    "description": "Declassification event"
                },
                "declassException": {
                    "$ref": "#/definitions/longString",
                    "description": "Declassification exception"
                },
                "derivativelyClassifiedBy": {
                    "$ref": "#/definitions/longString",
                    "description": "The derivative classifier’s identification by name and position, or by personal identifier, in a manner that is immediately apparent on each derivatively classified document. If not otherwise evident, the agency and office of origin shall be identified"
                },
                "derivedFrom": {
                    "$ref": "#/definitions/shortString",
                    "description": "Concisely identify the source document or the classification guide"
                },
                "displayOnlyTo": {
                    "$ref": "#/definitions/longString",
                    "description": "List of foreign country(ies)/international organization(s) authorized for disclosure without providing the recipient with a physical copy for retention, regardless of medium to the foreign country(ies)/international organization(s) indicated"
                },
                "disseminationControls": {
                    "$ref": "#/definitions/longString",
                    "description": "Control markings that identify the expansion or limitation on the distribution of information. These markings are in addition to and separate from the levels of classification"
                },
                "FGIsourceOpen": {
                    "$ref": "#/definitions/shortString",
                    "description": "Open Source Foreign Government Information"
                },
                "FGIsourceProtected": {
                    "$ref": "#/definitions/shortString",
                    "description": "Protected Source Foreign Government Information"
                },
                "nonICmarkings": {
                    "$ref": "#/definitions/text",
                    "description": "Markings authorized for use by entities outside of the Intelligence Community"
                },
                "nonUSControls": {
                    "$ref": "#/definitions/shortString",
                    "description": "Non-US protective markings"
                },
                "ownerProducer": {
                    "$ref": "#/definitions/shortStringRequired",
                    "description": "Owner/Producer",
                    "default": "USA",
                    "defaultLabel": "Owner Producer",
                    "isSearchable": false,
                    "picklistName": "ownerProducer",
                    "picklistUri": "http://cidne.dae.smil.mil/schemas/CAPCO/ownerProducer",
                    "picklistParent": null
                },
                "releasableToFilterField": {
                    "$ref": "#/definitions/shortString",
                    "description": "Need to add CAPCO Descriptions"
                },
                "releasableTo": {
                    "$ref": "#/definitions/text",
                    "description": "List of countries releasable to",
                    "defaultLabel": "Releasable To",
                    "isSearchable": false,
                    "picklistName": "releasableTo",
                    "picklistUri": "http://cidne.dae.smil.mil/schemas/CAPCO/releasableTo",
                    "picklistParent": null
                },
                "SARIdentifier": {
                    "$ref": "#/definitions/shortString",
                    "description": "Special access required programs"
                },
                "SCIcontrols": {
                    "$ref": "#/definitions/longString",
                    "description": "Sensitive Compartmented Information (SCI) control systems"
                }
            },
            "required": [
                "ownerProducer",
                "classification"
            ]
        },
        "actionInfo":{
            "type": "object",
            "properties": {
                "actionDate": {
                    "$ref": "#/definitions/dateTimeRequired",
                    "description": "Date Time Action was taken"
                },
                "group": {
                    "$ref": "#/definitions/longStringRequired",
                    "description": "User Group that performed action"
                },
                "parentGroup": {
                    "$ref": "#/definitions/longString",
                    "description": "User Group's Parent Group Name"
                },
                "nationality": {
                    "$ref": "#/definitions/shortStringRequired",
                    "description": "User Nationality"
                },
                "network": {
                    "$ref": "#/definitions/shortStringRequired",
                    "description": "Systems Network where action was taken"
                },
                "objectState": {
                    "description": "",
                    "enum": [
                        "CREATED",
                        "MODIFIED",
                        "TEMPLATE",
                        "SUBMITTED",
                        "PUBLISHED",
                        "VERSIONED",
                        "DEPRECATED",
                        "VALIDATING",
                        "RESTORED",
                        "MOVED"
                    ]
                },
                "site": {
                    "$ref": "#/definitions/shortStringRequired",
                    "description": "Systems Site"
                },
                "system": {
                    "$ref": "#/definitions/shortStringRequired",
                    "description": "System that provided the action"
                },
                "user": {
                    "$ref": "#/definitions/shortStringRequired",
                    "description": "User that performed action"
                }
            },
            "required": [
                "actionDate",
                "group",
                "parentGroup",
                "nationality",
                "network",
                "objectState",
                "site",
                "system",
                "user"
            ]
        },
        "position": {
            "description": "A single position. (order should be longitude,latitude)",
            "type": "array",
            "minItems": 2,
            "items": [
                {
                    "type": "number"
                },
                {
                    "type": "number"
                }
            ],
            "additionalItems": false
        },
        "positionArray": {
            "description": "An array of positions",
            "type": "array",
            "items": {
                "$ref": "#/definitions/position"
            }
        },
        "lineString": {
            "description": "An array of two or more positions",
            "allOf": [
                {
                    "type": "array",
                    "items": {
                        "$ref": "#/definitions/position"
                    }
                },
                {
                    "minItems": 2
                }
            ]
        },
        "linearRing": {
            "description": "An array of four positions where the first equals the last",
            "allOf": [
                {
                    "type": "array",
                    "items": {
                        "$ref": "#/definitions/position"
                    }
                },
                {
                    "minItems": 4
                }
            ]
        },
        "polygon": {
            "description": "An array of linear rings",
            "type": "array",
            "items": {
                "$ref": "#/definitions/linearRing"
            }
        },
        "geometry": {
            "title": "geometry",
            "description": "One geometry as defined by GeoJSON",
            "type": "object",
            "required": [
                "type",
                "coordinates"
            ],
            "oneOf": [
                {
                    "title": "Point",
                    "properties": {
                        "type": {
                            "enum": [
                                "Point"
                            ]
                        },
                        "coordinates": {
                            "$ref": "#/definitions/position"
                        }
                    }
                },
                {
                    "title": "MultiPoint",
                    "properties": {
                        "type": {
                            "enum": [
                                "MultiPoint"
                            ]
                        },
                        "coordinates": {
                            "type": "array",
                            "items": {
                                "$ref": "#/definitions/position"
                            }
                        }
                    }
                },
                {
                    "title": "LineString",
                    "properties": {
                        "type": {
                            "enum": [
                                "LineString"
                            ]
                        },
                        "coordinates": {
                            "$ref": "#/definitions/lineString"
                        }
                    }
                },
                {
                    "title": "MultiLineString",
                    "properties": {
                        "type": {
                            "enum": [
                                "MultiLineString"
                            ]
                        },
                        "coordinates": {
                            "type": "array",
                            "items": {
                                "$ref": "#/definitions/lineString"
                            }
                        }
                    }
                },
                {
                    "title": "Polygon",
                    "properties": {
                        "type": {
                            "enum": [
                                "Polygon"
                            ]
                        },
                        "coordinates": {
                            "$ref": "#/definitions/polygon"
                        }
                    }
                },
                {
                    "title": "MultiPolygon",
                    "properties": {
                        "type": {
                            "enum": [
                                "MultiPolygon"
                            ]
                        },
                        "coordinates": {
                            "type": "array",
                            "items": {
                                "$ref": "#/definitions/polygon"
                            }
                        }
                    }
                }
            ]
        },
        "geometryCollection": {
            "title": "GeometryCollection",
            "description": "A collection of geometry objects",
            "required": [
                "geometries"
            ],
            "properties": {
                "type": {
                    "enum": [
                        "GeometryCollection"
                    ]
                },
                "geometries": {
                    "type": "array",
                    "items": {
                        "$ref": "#/definitions/geometry"
                    }
                }
            }
        },
        "feature": {
            "title": "Feature",
            "description": "A Geo JSON feature object",
            "required": [
                "geometry"
            ],
            "properties": {
                "type": {
                    "enum": [
                        "Feature"
                    ]
                },
                "geometry": {
                    "oneOf": [
                        {
                            "type": "null"
                        },
                        {
                            "$ref": "#/definitions/geometry"
                        }
                    ]
                },
				"properties": { "type": [ "object", "null" ] },
                "id": { "type":["string"] }
            }
        },
        "featureCollection": {
            "description": "A GeoJSON feature collection",
            "required": [
                "features"
            ],
            "properties": {
                "type": {
                    "enum": [
                        "FeatureCollection"
                    ]
                },
                "features": {
                    "type": "array",
                    "items": {
                        "$ref": "#/definitions/feature"
                    }
                }
            }
        },
		"namedCrs": {
            "properties": {
                "type": { "enum": [ "name" ] },
                "properties": {
                    "required": [ "name" ],
                    "additionalProperties": false,
                    "properties": {
                        "name": {
                            "type": "string"
                        }
                    }
                }
            }
        },
        "linkedObject": {
            "type": "object",
            "required": [ "href" ],
            "properties": {
                "href": {
                    "type": "string",
                    "format": "uri"
                },
                "type": {
                    "type": "string",
                    "description": "Suggested values: proj4, ogjwkt, esriwkt"
                }
            }
        },
        "linkedCrs": {
            "properties": {
                "type": { "enum": [ "link" ] },
                "properties": { "$ref": "#/definitions/linkedObject" }
            }
        },	
		"crs":{
			"title": "crs",
			"description": "a Coordinate Reference System object",
			"type": [ "object", "null" ],
			"required": [ "type", "properties" ],
			"properties": {
				"type": { "type": "string" },
				"properties": { "type": "object" }
			},
			"additionalProperties": false,
			"oneOf": [
				{ "$ref": "#/definitions/namedCrs" },
				{ "$ref": "#/definitions/linkedCrs" }
			]
		},
		"bbox":{
		"description": "A bounding box as defined by GeoJSON",
			"type": "array",
			"items": { "type": "number" }
		},
        "geojson": {
            "title": "Geo JSON object",
            "description": "Schema for a Geo JSON object",
            "type": ["object","null"],
            "required": [
                "type"
            ],
			"properties": {
				"crs": { "$ref": "#/definitions/crs" },
				"bbox": { "$ref": "#/definitions/bbox" }
			},
            "anyOf": [
                {
                    "$ref": "#/definitions/geometry"
                },
                {
                    "$ref": "#/definitions/geometryCollection"
                },
                {
                    "$ref": "#/definitions/feature"
                },
                {
                    "$ref": "#/definitions/featureCollection"
                }
            ]
        }
    },
    "required": [
        "base",
        "datamodel",
        "formId",
        "location",
        "security",
        "details"
    ],	
    "properties": {
        "datamodel": {
            "$ref": "#/definitions/longString",
            "description": "Reference to the report definition."
        },
        "formId": {
            "$ref": "#/definitions/longString",
            "description": "Reference to the layout template identifier that this data was intended to be best visualized"
        },
        "base": {
            "type": "object",
            "description": "The core metadata used within all report definitions",
            "properties": {
                "objectId": {
                    "$ref": "#/definitions/shortStringRequired",
                    "description": "Report instance unique identifier"
                },
                "reportId": {
                    "$ref": "#/definitions/shortStringRequired",
                    "description": "Original report instance objectId for a report version grouping. (i.e. the root report identifier)"
                },
                "parentVersionId": {
                    "$ref": "#/definitions/shortString",
                    "description": "Report instance's objectId of the parent report. NOTE: If there is no parent, this value should be set to the report instance's own objectId. "
                },
                "module": {
                    "$ref": "#/definitions/shortStringRequired",
                    "description": "CIDNE community"
                },
                "reportType": {
                    "$ref": "#/definitions/shortStringRequired",
                    "description": "CIDNE report type (e.g. SIGACT)"
                },
                "reportSerial": {
                    "$ref": "#/definitions/textFieldLevel",
					"defaultLabel": "DisplaySerial",
					"description": "Report instance nomenclature (DisplaySerial)",
					"fieldAlias2x": "DisplaySerial"
                },
                "reportTitle": {
                    "$ref": "#/definitions/textFieldLevel",
					"defaultLabel": "DisplayTitle",
					"description": "Report instance title text (DisplayTitle)",
					"fieldAlias2x": "DisplayTitle"
                },
                "reportSummary": {
                    "$ref": "#/definitions/textFieldLevel",
					"defaultLabel": "DisplaySummary",
					"description": "Report instance summary text block (DisplaySummary)",
					"fieldAlias2x": "DisplaySummary"
                },
                "reportDate": {
                    "$ref": "#/definitions/dateTimeRequired",
					"defaultLabel": "DatePosted",
					"description": "Primary report instance date (DatePosted)",
					"fieldAlias2x": "DatePosted"
                },
                "reportSymbol": {
                    "$ref": "#/definitions/longString",
                    "description": "Report instance symbology"
                },
                "reportImage": {
                    "$ref": "#/definitions/longString",
                    "description": "Primary image of report instance"
                },
                "reportCountry": {
                    "$ref": "#/definitions/shortString",
                    "description": "Country value of report instance's primary location"
                },
                "reportLatitude": {
                    "$ref": "#/definitions/latitude_dds",
                    "description": "Latitude value of report instance's primary location"
                },
                "reportLongitude": {
                    "$ref": "#/definitions/longitude_dds",
                    "description": "Longitude value of report instance's primary location"
                },
				"geoLocation":{
					"$ref":"#/definitions/geojson"
				},
                "currentObjectState":{
                        "$ref": "#/definitions/actionInfo"
                },
                "originatingGroup": {
                    "$ref": "#/definitions/longStringRequired",
                    "description": "Original creator's group"
                },  
                "originatingUser": {
                    "$ref": "#/definitions/longStringRequired",
                    "description": "Original creator's User Name or email address"
                },  
				"isTearline": {
                    "type": "boolean",
                    "description": "Determines whether a report is a tearline"
                },
				"tearlineId": {
					"$ref": "#/definitions/shortString",
                    "description": "The reportId of the parent, used as a tearline group binding"
				},
                "theaterFilter": {
                    "$ref": "#/definitions/shortStringRequired",
                    "description": "Report instance theater of relevance"
                },
                "warehouseUri": {
                    "$ref": "#/definitions/longStringRequired",
                    "description": "Data warehouse location for report instance",
                    "format": "uri"
                }
            },
            "required": [
                "isTearline",
                "module",
                "objectId",
                "currentObjectState",
                "originatingGroup",
                "originatingUser",
                "reportId",
                "reportSerial",
                "reportDate",
                "theaterFilter",
                "reportType",
                "reportTitle",
                "reportSummary"
            ]
        },
        "location": {
            "type": "array",
            "description": "All locations for the report instance",
            "items": {
                "type": "object",
                "properties": {
                    "objectId": {
                        "$ref": "#/definitions/shortStringRequired",
                        "description": "objectId required for Edit Purposes"
                    },
                    "address": {
                        "$ref": "#/definitions/longString",
                        "description": "Address Details"
                    },
                    "alternateRoute": {
                        "$ref": "#/definitions/longString",
                        "description": "Alternate Route for location"
                    },
                    "ao": {
                        "$ref": "#/definitions/shortString",
                        "description": "Area of Operations"
                    },
                    "basecamp": {
                        "$ref": "#/definitions/shortString",
                        "description": "Base Camp"
                    },
                    "city": {
                        "$ref": "#/definitions/shortString",
                        "description": "City for Location"
                    },
                    "confidence": {
                        "$ref": "#/definitions/shortString",
                        "description": "Reporters Confidence in Location Value"
                    },
                    "country": {
                        "$ref": "#/definitions/shortString",
                        "description": "Location Country"
                    },
                    "customGeom": {
                        "type": "object",
                        "description": "Custom Geometry Object for Location",
                        "properties": {
                            "customGeomObjectId": {
                                "$ref": "#/definitions/shortString",
                                "description": "objectId for Custom Geometry Object"
                            },
                            "geomType": {
                                "$ref": "#/definitions/shortString",
                                "description": "Geometry Type for custom geometry object (e.g. Point, Multi-polygon"
                            },
                            "geom": {
                                "$ref": "#/definitions/shortString",
                                "description": "TBD GEOM Object for Custom Location Object"
                            },
                            "name": {
                                "$ref": "#/definitions/shortString",
                                "description": "Custom Location Name"
                            }
                        }
                    },
                    "dateEndLocation": {
                        "$ref": "#/definitions/dateTime",
                        "description": "Ending Date Time for location"
                    },
                    "dateStartLocation": {
                        "$ref": "#/definitions/dateTime",
                        "description": "Starting Date Time for location"
                    },
                    "derivedLocation": {
                        "type": "boolean",
                        "description": "Was Location Lat/Long derived from user picklists?"
                    },
                    "description": {
                        "$ref": "#/definitions/text",
                        "description": "Location Description"
                    },
                    "distanceFromCityCenter": {
                        "$ref": "#/definitions/positive_int",
                        "description": "Distance in meters to nearest city center"
                    },
                    "distanceToNearestFOB": {
                        "$ref": "#/definitions/positive_num",
                        "description": "Distance in meters to nearest FOB"
                    },
                    "distanceToNearestRoute": {
                        "$ref": "#/definitions/positive_num",
                        "description": "Distance in meters to nearest Route"
                    },
                    "district": {
                        "$ref": "#/definitions/shortString",
                        "description": "District"
                    },
                    "fob": {
                        "$ref": "#/definitions/shortString",
                        "description": "FOB"
                    },
					"geoLocation":{
						"$ref":"#/definitions/geojson"
					},
					"house": {
                        "$ref": "#/definitions/shortString",
                        "description": "HOUSE"
                    },
                    "isPrimaryLocation": {
                        "type": "boolean",
                        "description": "Marks Primary Location"
                    },
                    "latitude": {
                        "$ref": "#/definitions/latitude_ddsRequired",
                        "description": "Latitude of Location in Degree Decimal Seconds"
                    },
                    "locationActive": {
                        "type": "boolean",
                        "description": "Is Location Active?"
                    },
                    "locationType": {
                        "$ref": "#/definitions/shortString",
                        "description": "Location Type"
                    },
                    "longitude": {
                        "$ref": "#/definitions/longitude_ddsRequired",
                        "description": "Longitude of Location in Degree Decimal Seconds"
                    },
                    "mscCurrent": {
                        "$ref": "#/definitions/shortString",
                        "description": "Current Major Supporting Command responsible for location"
                    },
                    "mscDateOfCurrent": {
                        "$ref": "#/definitions/dateTime",
                        "description": "Date Of Current Major Supporting Command's Control of location"
                    },
                    "msc": {
                        "$ref": "#/definitions/shortString",
                        "description": "Major Supporting Command responsible for location"
                    },
                    "nai": {
                        "$ref": "#/definitions/shortString",
                        "description": "Named Area of Interest"
                    },
                    "nearestCity": {
                        "$ref": "#/definitions/shortString",
                        "description": "Nearest City"
                    },
                    "nearestFOB": {
                        "$ref": "#/definitions/shortString",
                        "description": "Nearest FOB"
                    },
                    "nearestRoute": {
                        "$ref": "#/definitions/shortString",
                        "description": "Nearest Route"
                    },
                    "neighborhood": {
                        "$ref": "#/definitions/shortString",
                        "description": "Neighborhood for location"
                    },
                    "populationCenterType": {
                        "$ref": "#/definitions/shortString",
                        "description": "Population Center Type"
                    },
                    "populationCenter": {
                        "$ref": "#/definitions/shortString",
                        "description": "Population Center"
                    },
                    "province": {
                        "$ref": "#/definitions/shortString",
                        "description": "Province"
                    },
                    "referenceId": {
                        "$ref": "#/definitions/shortString",
                        "description": "Reference to any subelement with in current report instance (e.g. Event Object ID)"
                    },
                    "route": {
                        "$ref": "#/definitions/shortString",
                        "description": "Route"
                    },
                    "security": {
                        "$ref": "#/definitions/securityOptional"
                    },
                    "street": {
                        "$ref": "#/definitions/shortString",
                        "description": "Street"
                    },
                    "structure": {
                        "$ref": "#/definitions/shortString",
                        "description": "Structure"
                    },
                    "village": {
                        "$ref": "#/definitions/shortString",
                        "description": "Village"
                    },
                    "zone": {
                        "$ref": "#/definitions/shortString",
                        "description": "City Zone"
                    }
                },
				"required": [
					"objectId",
					"isPrimaryLocation",
					"latitude",
					"longitude"
				]
            }
        },
        "remarks": {
            "type": "array",
            "items": {
                "type": "object",
                "properties": {
                    "objectId": {
                        "$ref": "#/definitions/shortStringRequired",
                        "description": "objectId required for Edit Purposes"
                    },
                    "referenceId": {
                        "$ref": "#/definitions/shortString",
                        "description": "Reference to any subelement with in current report instance (e.g. Event Object ID)"
                    },
                    "remarkText": {
                        "$ref": "#/definitions/text",
                        "description": "Remark Text"
                    },
                    "remarkType": {
                        "$ref": "#/definitions/shortString",
                        "description": "Remark Type"
                    },
                    "remarkOrder": {
                        "$ref": "#/definitions/positive_num",
                        "description": "Remark Order"
                    },
                    "security": {
                        "$ref": "#/definitions/securityOptional"
                    }
                },
                "required": [
                    "objectId",
                    "remarkText",
                    "remarkType",
                    "security"
                ]
            }
        },
        "requirements": {
            "type": "array",
            "items": {
                "type": "object",
                "properties": {
                    "objectId": {
                        "$ref": "#/definitions/shortStringRequired",
                        "description": "objectId required for Edit Purposes"
                    },
                    "referenceId": {
                        "$ref": "#/definitions/shortString",
                        "description": "Reference to any subelement with in current report instance (e.g. Event Object ID)"
                    },
                    "requirement": {
                        "$ref": "#/definitions/longString",
                        "description": "Requirement sub based on Requirement Type"
                    },
                    "requirementType": {
                        "$ref": "#/definitions/shortString",
                        "description": "Requirement Type"
                    },
                    "comment": {
                        "$ref": "#/definitions/text",
                        "description": "Requirement Comment"
                    },
                    "security": {
                        "$ref": "#/definitions/securityOptional"
                    }
                },
                "required": [
                    "objectId",
                    "requirementType",
                    "requirement",
                    "comment"
                ]
            }
        },
        "security": {
                        "$ref": "#/definitions/security"
        },
        "objectHistory": {
            "type": "array",
            "items":
                    {
                        "$ref": "#/definitions/actionInfo"
                    }       
		},
			"details": {
				"type": "object",
				"description": "SOF PortSurvey Report details specific details",
				"fieldAlias2x": "details", 
						"properties": {
						
"activitiesremarks": {
	"$ref": "#/definitions/text"
			,"defaultLabel": "ActivitiesRemarks"
			,"description": "ActivitiesRemarks"
			,"fieldAlias2x": "ActivitiesRemarks"
			,"isSearchable": false
			,"picklistDescription": null
			,"picklistUri": null
			,"picklistParent": null
		},
"additionalsurroundingareainfo": {
	"$ref": "#/definitions/text"
			,"defaultLabel": "AdditionalSurroundingAreaInfo"
			,"description": "AdditionalSurroundingAreaInfo"
			,"fieldAlias2x": "AdditionalSurroundingAreaInfo"
			,"isSearchable": false
			,"picklistDescription": null
			,"picklistUri": null
			,"picklistParent": null
		},
"adjacentcommunities": {
	"$ref": "#/definitions/longString"
			,"defaultLabel": "AdjacentCommunities"
			,"description": "AdjacentCommunities"
			,"fieldAlias2x": "AdjacentCommunities"
			,"isSearchable": false
			,"picklistDescription": null
			,"picklistUri": null
			,"picklistParent": null
		},
"adjacentcommunitiesremarks": {
	"$ref": "#/definitions/text"
			,"defaultLabel": "AdjacentCommunitiesRemarks"
			,"description": "AdjacentCommunitiesRemarks"
			,"fieldAlias2x": "AdjacentCommunitiesRemarks"
			,"isSearchable": false
			,"picklistDescription": null
			,"picklistUri": null
			,"picklistParent": null
		},
"anchoragedescription": {
	"$ref": "#/definitions/text"
			,"defaultLabel": "AnchorageDescription"
			,"description": "AnchorageDescription"
			,"fieldAlias2x": "AnchorageDescription"
			,"isSearchable": false
			,"picklistDescription": null
			,"picklistUri": null
			,"picklistParent": null
		},
"anchoragedrystore": {
	"$ref": "#/definitions/longString"
			,"defaultLabel": "AnchorageDryStore"
			,"description": "AnchorageDryStore"
			,"fieldAlias2x": "AnchorageDryStore"
			,"isSearchable": false
			,"picklistDescription": null
			,"picklistUri": null
			,"picklistParent": null
		},
"anchoragedrystoreremarks": {
	"$ref": "#/definitions/text"
			,"defaultLabel": "AnchorageDryStoreRemarks"
			,"description": "AnchorageDryStoreRemarks"
			,"fieldAlias2x": "AnchorageDryStoreRemarks"
			,"isSearchable": false
			,"picklistDescription": null
			,"picklistUri": null
			,"picklistParent": null
		},
"anchoragefuelservices": {
	"$ref": "#/definitions/longString"
			,"defaultLabel": "AnchorageFuelServices"
			,"description": "AnchorageFuelServices"
			,"fieldAlias2x": "AnchorageFuelServices"
			,"isSearchable": false
			,"picklistDescription": null
			,"picklistUri": null
			,"picklistParent": null
		},
"anchoragefuelservicesremarks": {
	"$ref": "#/definitions/text"
			,"defaultLabel": "AnchorageFuelServicesRemarks"
			,"description": "AnchorageFuelServicesRemarks"
			,"fieldAlias2x": "AnchorageFuelServicesRemarks"
			,"isSearchable": false
			,"picklistDescription": null
			,"picklistUri": null
			,"picklistParent": null
		},
"anchoragewaterservices": {
	"$ref": "#/definitions/longString"
			,"defaultLabel": "AnchorageWaterServices"
			,"description": "AnchorageWaterServices"
			,"fieldAlias2x": "AnchorageWaterServices"
			,"isSearchable": false
			,"picklistDescription": null
			,"picklistUri": null
			,"picklistParent": null
		},
"anchoragewaterservicesremarks": {
	"$ref": "#/definitions/text"
			,"defaultLabel": "AnchorageWaterServicesRemarks"
			,"description": "AnchorageWaterServicesRemarks"
			,"fieldAlias2x": "AnchorageWaterServicesRemarks"
			,"isSearchable": false
			,"picklistDescription": null
			,"picklistUri": null
			,"picklistParent": null
		},
"benumber": {
	"$ref": "#/definitions/text"
			,"defaultLabel": "BENumber"
			,"description": "BENumber"
			,"fieldAlias2x": "BENumber"
			,"isSearchable": false
			,"picklistDescription": null
			,"picklistUri": null
			,"picklistParent": null
		},
"customscapability": {
	"$ref": "#/definitions/longString"
			,"defaultLabel": "CustomsCapability"
			,"description": "CustomsCapability"
			,"fieldAlias2x": "CustomsCapability"
			,"isSearchable": false
			,"picklistDescription": null
			,"picklistUri": null
			,"picklistParent": null
		},
"customscapabilityremarks": {
	"$ref": "#/definitions/text"
			,"defaultLabel": "CustomsCapabilityRemarks"
			,"description": "CustomsCapabilityRemarks"
			,"fieldAlias2x": "CustomsCapabilityRemarks"
			,"isSearchable": false
			,"picklistDescription": null
			,"picklistUri": null
			,"picklistParent": null
		},
"doi": {
	"$ref": "#/definitions/dateTime"
			,"defaultLabel": "DOI"
			,"description": "DOI"
			,"fieldAlias2x": "DOI"
			,"isSearchable": false
			,"picklistDescription": null
			,"picklistUri": null
			,"picklistParent": null
		},
"expired": {
	"type": "boolean"
			,"defaultLabel": "Expired"
			,"description": "Expired"
			,"fieldAlias2x": "Expired"
			,"isSearchable": false
			,"picklistDescription": null
			,"picklistUri": null
			,"picklistParent": null
		},
"hazardousberthingcapability": {
	"$ref": "#/definitions/longString"
			,"defaultLabel": "HazardousBerthingCapability"
			,"description": "HazardousBerthingCapability"
			,"fieldAlias2x": "HazardousBerthingCapability"
			,"isSearchable": false
			,"picklistDescription": null
			,"picklistUri": null
			,"picklistParent": null
		},
"hazardousberthingcapabilityremarks": {
	"$ref": "#/definitions/text"
			,"defaultLabel": "HazardousBerthingCapabilityRemarks"
			,"description": "HazardousBerthingCapabilityRemarks"
			,"fieldAlias2x": "HazardousBerthingCapabilityRemarks"
			,"isSearchable": false
			,"picklistDescription": null
			,"picklistUri": null
			,"picklistParent": null
		},
"hazardousstoragecapability": {
	"$ref": "#/definitions/longString"
			,"defaultLabel": "HazardousStorageCapability"
			,"description": "HazardousStorageCapability"
			,"fieldAlias2x": "HazardousStorageCapability"
			,"isSearchable": false
			,"picklistDescription": null
			,"picklistUri": null
			,"picklistParent": null
		},
"hazardousstoragecapabilityremarks": {
	"$ref": "#/definitions/text"
			,"defaultLabel": "HazardousStorageCapabilityRemarks"
			,"description": "HazardousStorageCapabilityRemarks"
			,"fieldAlias2x": "HazardousStorageCapabilityRemarks"
			,"isSearchable": false
			,"picklistDescription": null
			,"picklistUri": null
			,"picklistParent": null
		},
"heavyequipmentavailability": {
	"$ref": "#/definitions/longString"
			,"defaultLabel": "HeavyEquipmentAvailability"
			,"description": "HeavyEquipmentAvailability"
			,"fieldAlias2x": "HeavyEquipmentAvailability"
			,"isSearchable": false
			,"picklistDescription": null
			,"picklistUri": null
			,"picklistParent": null
		},
"heavyequipmentavailabilityremarks": {
	"$ref": "#/definitions/text"
			,"defaultLabel": "HeavyEquipmentAvailabilityRemarks"
			,"description": "HeavyEquipmentAvailabilityRemarks"
			,"fieldAlias2x": "HeavyEquipmentAvailabilityRemarks"
			,"isSearchable": false
			,"picklistDescription": null
			,"picklistUri": null
			,"picklistParent": null
		},
"keywords": {
	"$ref": "#/definitions/longString"
			,"defaultLabel": "Keywords"
			,"description": "Keywords"
			,"fieldAlias2x": "Keywords"
			,"isSearchable": false
			,"picklistDescription": null
			,"picklistUri": null
			,"picklistParent": null
		},
"latitude": {
	"$ref": "#/definitions/latitude_dds"
			,"defaultLabel": "Latitude"
			,"description": "Latitude"
			,"fieldAlias2x": "Latitude"
			,"isSearchable": false
			,"picklistDescription": null
			,"picklistUri": null
			,"picklistParent": null
		},
"longitude": {
	"$ref": "#/definitions/longitude_dds"
			,"defaultLabel": "Longitude"
			,"description": "Longitude"
			,"fieldAlias2x": "Longitude"
			,"isSearchable": false
			,"picklistDescription": null
			,"picklistUri": null
			,"picklistParent": null
		},
"marshallingareaavailability": {
	"$ref": "#/definitions/longString"
			,"defaultLabel": "MarshallingAreaAvailability"
			,"description": "MarshallingAreaAvailability"
			,"fieldAlias2x": "MarshallingAreaAvailability"
			,"isSearchable": false
			,"picklistDescription": null
			,"picklistUri": null
			,"picklistParent": null
		},
"marshallingareaavailabilityremarks": {
	"$ref": "#/definitions/text"
			,"defaultLabel": "MarshallingAreaAvailabilityRemarks"
			,"description": "MarshallingAreaAvailabilityRemarks"
			,"fieldAlias2x": "MarshallingAreaAvailabilityRemarks"
			,"isSearchable": false
			,"picklistDescription": null
			,"picklistUri": null
			,"picklistParent": null
		},
"mgrs": {
	"$ref": "#/definitions/longString"
			,"defaultLabel": "MGRS"
			,"description": "MGRS"
			,"fieldAlias2x": "MGRS"
			,"isSearchable": false
			,"picklistDescription": null
			,"picklistUri": null
			,"picklistParent": null
		},
"navigationalaids": {
	"$ref": "#/definitions/text"
			,"defaultLabel": "NavigationalAids"
			,"description": "NavigationalAids"
			,"fieldAlias2x": "NavigationalAids"
			,"isSearchable": false
			,"picklistDescription": null
			,"picklistUri": null
			,"picklistParent": null
		},
"neoassemblyareas": {
	"$ref": "#/definitions/longString"
			,"defaultLabel": "NEOassemblyAreas"
			,"description": "NEOassemblyAreas"
			,"fieldAlias2x": "NEOassemblyAreas"
			,"isSearchable": false
			,"picklistDescription": null
			,"picklistUri": null
			,"picklistParent": null
		},
"openstorageavailability": {
	"$ref": "#/definitions/longString"
			,"defaultLabel": "OpenStorageAvailability"
			,"description": "OpenStorageAvailability"
			,"fieldAlias2x": "OpenStorageAvailability"
			,"isSearchable": false
			,"picklistDescription": null
			,"picklistUri": null
			,"picklistParent": null
		},
"openstorageavailabilityremarks": {
	"$ref": "#/definitions/text"
			,"defaultLabel": "OpenStorageAvailabilityRemarks"
			,"description": "OpenStorageAvailabilityRemarks"
			,"fieldAlias2x": "OpenStorageAvailabilityRemarks"
			,"isSearchable": false
			,"picklistDescription": null
			,"picklistUri": null
			,"picklistParent": null
		},
"operatinghours": {
	"$ref": "#/definitions/longString"
			,"defaultLabel": "OperatingHours"
			,"description": "OperatingHours"
			,"fieldAlias2x": "OperatingHours"
			,"isSearchable": false
			,"picklistDescription": null
			,"picklistUri": null
			,"picklistParent": null
		},
"operatinghoursendtime": {
	"$ref": "#/definitions/longString"
			,"defaultLabel": "OperatingHoursEndTime"
			,"description": "OperatingHoursEndTime"
			,"fieldAlias2x": "OperatingHoursEndTime"
			,"isSearchable": false
			,"picklistDescription": null
			,"picklistUri": null
			,"picklistParent": null
		},
"operatinghoursstarttime": {
	"$ref": "#/definitions/longString"
			,"defaultLabel": "OperatingHoursStartTime"
			,"description": "OperatingHoursStartTime"
			,"fieldAlias2x": "OperatingHoursStartTime"
			,"isSearchable": false
			,"picklistDescription": null
			,"picklistUri": null
			,"picklistParent": null
		},
"otherservicesavailable": {
	"$ref": "#/definitions/longString"
			,"defaultLabel": "OtherServicesAvailable"
			,"description": "OtherServicesAvailable"
			,"fieldAlias2x": "OtherServicesAvailable"
			,"isSearchable": false
			,"picklistDescription": null
			,"picklistUri": null
			,"picklistParent": null
		},
"otherservicesavailableremarks": {
	"$ref": "#/definitions/text"
			,"defaultLabel": "OtherServicesAvailableRemarks"
			,"description": "OtherServicesAvailableRemarks"
			,"fieldAlias2x": "OtherServicesAvailableRemarks"
			,"isSearchable": false
			,"picklistDescription": null
			,"picklistUri": null
			,"picklistParent": null
		},
"physicalsecurity": {
	"$ref": "#/definitions/longString"
			,"defaultLabel": "PhysicalSecurity"
			,"description": "PhysicalSecurity"
			,"fieldAlias2x": "PhysicalSecurity"
			,"isSearchable": false
			,"picklistDescription": null
			,"picklistUri": null
			,"picklistParent": null
		},
"physicalsecurityavailability": {
	"$ref": "#/definitions/longString"
			,"defaultLabel": "PhysicalSecurityAvailability"
			,"description": "PhysicalSecurityAvailability"
			,"fieldAlias2x": "PhysicalSecurityAvailability"
			,"isSearchable": false
			,"picklistDescription": null
			,"picklistUri": null
			,"picklistParent": null
		},
"physicalsecurityavailabilityremarks": {
	"$ref": "#/definitions/text"
			,"defaultLabel": "PhysicalSecurityAvailabilityRemarks"
			,"description": "PhysicalSecurityAvailabilityRemarks"
			,"fieldAlias2x": "PhysicalSecurityAvailabilityRemarks"
			,"isSearchable": false
			,"picklistDescription": null
			,"picklistUri": null
			,"picklistParent": null
		},
"physicalsecurityremarks": {
	"$ref": "#/definitions/text"
			,"defaultLabel": "PhysicalSecurityRemarks"
			,"description": "PhysicalSecurityRemarks"
			,"fieldAlias2x": "PhysicalSecurityRemarks"
			,"isSearchable": false
			,"picklistDescription": null
			,"picklistUri": null
			,"picklistParent": null
		},
"pilotrequirement": {
	"$ref": "#/definitions/longString"
			,"defaultLabel": "PilotRequirement"
			,"description": "PilotRequirement"
			,"fieldAlias2x": "PilotRequirement"
			,"isSearchable": false
			,"picklistDescription": null
			,"picklistUri": null
			,"picklistParent": null
		},
"pilotrequirementremarks": {
	"$ref": "#/definitions/text"
			,"defaultLabel": "PilotRequirementRemarks"
			,"description": "PilotRequirementRemarks"
			,"fieldAlias2x": "PilotRequirementRemarks"
			,"isSearchable": false
			,"picklistDescription": null
			,"picklistUri": null
			,"picklistParent": null
		},
"portbeachobstacles": {
	"$ref": "#/definitions/text"
			,"defaultLabel": "PortBeachObstacles"
			,"description": "PortBeachObstacles"
			,"fieldAlias2x": "PortBeachObstacles"
			,"isSearchable": false
			,"picklistDescription": null
			,"picklistUri": null
			,"picklistParent": null
		},
"portsuitableforneo": {
	"$ref": "#/definitions/longString"
			,"defaultLabel": "PortSuitableForNEO"
			,"description": "PortSuitableForNEO"
			,"fieldAlias2x": "PortSuitableForNEO"
			,"isSearchable": false
			,"picklistDescription": null
			,"picklistUri": null
			,"picklistParent": null
		},
"portsuitableforneoremarks": {
	"$ref": "#/definitions/text"
			,"defaultLabel": "PortSuitableForNEORemarks"
			,"description": "PortSuitableForNEORemarks"
			,"fieldAlias2x": "PortSuitableForNEORemarks"
			,"isSearchable": false
			,"picklistDescription": null
			,"picklistUri": null
			,"picklistParent": null
		},
"reportcategory": {
	"$ref": "#/definitions/longString"
			,"defaultLabel": "ReportCategory"
			,"description": "ReportCategory"
			,"fieldAlias2x": "ReportCategory"
			,"isSearchable": false
			,"picklistDescription": null
			,"picklistUri": null
			,"picklistParent": null
		},
"reportstance": {
	"$ref": "#/definitions/longString"
			,"defaultLabel": "ReportStance"
			,"description": "ReportStance"
			,"fieldAlias2x": "ReportStance"
			,"isSearchable": false
			,"picklistDescription": null
			,"picklistUri": null
			,"picklistParent": null
		},
"reportstatus": {
	"$ref": "#/definitions/longString"
			,"defaultLabel": "ReportStatus"
			,"description": "ReportStatus"
			,"fieldAlias2x": "ReportStatus"
			,"isSearchable": false
			,"picklistDescription": null
			,"picklistUri": null
			,"picklistParent": null
		},
"reporttitle": {
	"$ref": "#/definitions/longString"
			,"defaultLabel": "ReportTitle"
			,"description": "ReportTitle"
			,"fieldAlias2x": "ReportTitle"
			,"isSearchable": false
			,"picklistDescription": null
			,"picklistUri": null
			,"picklistParent": null
		},
"reporttype": {
	"$ref": "#/definitions/longString"
			,"defaultLabel": "ReportType"
			,"description": "ReportType"
			,"fieldAlias2x": "ReportType"
			,"isSearchable": false
			,"picklistDescription": null
			,"picklistUri": null
			,"picklistParent": null
		},
"roadconditions": {
	"$ref": "#/definitions/longString"
			,"defaultLabel": "RoadConditions"
			,"description": "RoadConditions"
			,"fieldAlias2x": "RoadConditions"
			,"isSearchable": false
			,"picklistDescription": null
			,"picklistUri": null
			,"picklistParent": null
		},
"roadconditionsdescription": {
	"$ref": "#/definitions/text"
			,"defaultLabel": "RoadConditionsDescription"
			,"description": "RoadConditionsDescription"
			,"fieldAlias2x": "RoadConditionsDescription"
			,"isSearchable": false
			,"picklistDescription": null
			,"picklistUri": null
			,"picklistParent": null
		},
"roadnetworks": {
	"$ref": "#/definitions/longString"
			,"defaultLabel": "RoadNetworks"
			,"description": "RoadNetworks"
			,"fieldAlias2x": "RoadNetworks"
			,"isSearchable": false
			,"picklistDescription": null
			,"picklistUri": null
			,"picklistParent": null
		},
"roadnetworksremarks": {
	"$ref": "#/definitions/text"
			,"defaultLabel": "RoadNetworksRemarks"
			,"description": "RoadNetworksRemarks"
			,"fieldAlias2x": "RoadNetworksRemarks"
			,"isSearchable": false
			,"picklistDescription": null
			,"picklistUri": null
			,"picklistParent": null
		},
"shorepoweravailability": {
	"$ref": "#/definitions/longString"
			,"defaultLabel": "ShorePowerAvailability"
			,"description": "ShorePowerAvailability"
			,"fieldAlias2x": "ShorePowerAvailability"
			,"isSearchable": false
			,"picklistDescription": null
			,"picklistUri": null
			,"picklistParent": null
		},
"shorepoweravailabilityremarks": {
	"$ref": "#/definitions/text"
			,"defaultLabel": "ShorePowerAvailabilityRemarks"
			,"description": "ShorePowerAvailabilityRemarks"
			,"fieldAlias2x": "ShorePowerAvailabilityRemarks"
			,"isSearchable": false
			,"picklistDescription": null
			,"picklistUri": null
			,"picklistParent": null
		},
"significance": {
	"$ref": "#/definitions/text"
			,"defaultLabel": "Significance"
			,"description": "Significance"
			,"fieldAlias2x": "Significance"
			,"isSearchable": false
			,"picklistDescription": null
			,"picklistUri": null
			,"picklistParent": null
		},
"significantterrain": {
	"$ref": "#/definitions/longString"
			,"defaultLabel": "SignificantTerrain"
			,"description": "SignificantTerrain"
			,"fieldAlias2x": "SignificantTerrain"
			,"isSearchable": false
			,"picklistDescription": null
			,"picklistUri": null
			,"picklistParent": null
		},
"significantterrainremarks": {
	"$ref": "#/definitions/text"
			,"defaultLabel": "SignificantTerrainRemarks"
			,"description": "SignificantTerrainRemarks"
			,"fieldAlias2x": "SignificantTerrainRemarks"
			,"isSearchable": false
			,"picklistDescription": null
			,"picklistUri": null
			,"picklistParent": null
		},
"smallboatsupport": {
	"$ref": "#/definitions/longString"
			,"defaultLabel": "SmallBoatSupport"
			,"description": "SmallBoatSupport"
			,"fieldAlias2x": "SmallBoatSupport"
			,"isSearchable": false
			,"picklistDescription": null
			,"picklistUri": null
			,"picklistParent": null
		},
"smallboatsupportremarks": {
	"$ref": "#/definitions/text"
			,"defaultLabel": "SmallBoatSupportRemarks"
			,"description": "SmallBoatSupportRemarks"
			,"fieldAlias2x": "SmallBoatSupportRemarks"
			,"isSearchable": false
			,"picklistDescription": null
			,"picklistUri": null
			,"picklistParent": null
		},
"statusofreport": {
	"$ref": "#/definitions/longString"
			,"defaultLabel": "StatusOfReport"
			,"description": "StatusOfReport"
			,"fieldAlias2x": "StatusOfReport"
			,"isSearchable": false
			,"picklistDescription": null
			,"picklistUri": null
			,"picklistParent": null
		},
"submittedby": {
	"$ref": "#/definitions/longString"
			,"defaultLabel": "SubmittedBy"
			,"description": "SubmittedBy"
			,"fieldAlias2x": "SubmittedBy"
			,"isSearchable": false
			,"picklistDescription": null
			,"picklistUri": null
			,"picklistParent": null
		},
"submittedbyemail": {
	"$ref": "#/definitions/longString"
			,"defaultLabel": "SubmittedByEmail"
			,"description": "SubmittedByEmail"
			,"fieldAlias2x": "SubmittedByEmail"
			,"isSearchable": false
			,"picklistDescription": null
			,"picklistUri": null
			,"picklistParent": null
		},
"submittedbyphone": {
	"$ref": "#/definitions/longString"
			,"defaultLabel": "SubmittedByPhone"
			,"description": "SubmittedByPhone"
			,"fieldAlias2x": "SubmittedByPhone"
			,"isSearchable": false
			,"picklistDescription": null
			,"picklistUri": null
			,"picklistParent": null
		},
"surroundingarea": {
	"$ref": "#/definitions/text"
			,"defaultLabel": "SurroundingArea"
			,"description": "SurroundingArea"
			,"fieldAlias2x": "SurroundingArea"
			,"isSearchable": false
			,"picklistDescription": null
			,"picklistUri": null
			,"picklistParent": null
		},
"tidalrange": {
	"$ref": "#/definitions/longString"
			,"defaultLabel": "TidalRange"
			,"description": "TidalRange"
			,"fieldAlias2x": "TidalRange"
			,"isSearchable": false
			,"picklistDescription": null
			,"picklistUri": null
			,"picklistParent": null
		},
"tideinformationendtime": {
	"$ref": "#/definitions/longString"
			,"defaultLabel": "TideInformationEndTime"
			,"description": "TideInformationEndTime"
			,"fieldAlias2x": "TideInformationEndTime"
			,"isSearchable": false
			,"picklistDescription": null
			,"picklistUri": null
			,"picklistParent": null
		},
"tideinformationstarttime": {
	"$ref": "#/definitions/longString"
			,"defaultLabel": "TideInformationStartTime"
			,"description": "TideInformationStartTime"
			,"fieldAlias2x": "TideInformationStartTime"
			,"isSearchable": false
			,"picklistDescription": null
			,"picklistUri": null
			,"picklistParent": null
		},
"transitdepth": {
	"$ref": "#/definitions/longString"
			,"defaultLabel": "TransitDepth"
			,"description": "TransitDepth"
			,"fieldAlias2x": "TransitDepth"
			,"isSearchable": false
			,"picklistDescription": null
			,"picklistUri": null
			,"picklistParent": null
		},
"validationdate": {
	"$ref": "#/definitions/dateTime"
			,"defaultLabel": "ValidationDate"
			,"description": "ValidationDate"
			,"fieldAlias2x": "ValidationDate"
			,"isSearchable": false
			,"picklistDescription": null
			,"picklistUri": null
			,"picklistParent": null
		},
"vesseldraft": {
	"$ref": "#/definitions/longString"
			,"defaultLabel": "VesselDraft"
			,"description": "VesselDraft"
			,"fieldAlias2x": "VesselDraft"
			,"isSearchable": false
			,"picklistDescription": null
			,"picklistUri": null
			,"picklistParent": null
		},
"vesselwidth": {
	"$ref": "#/definitions/longString"
			,"defaultLabel": "VesselWidth"
			,"description": "VesselWidth"
			,"fieldAlias2x": "VesselWidth"
			,"isSearchable": false
			,"picklistDescription": null
			,"picklistUri": null
			,"picklistParent": null
		},
"warehousespaceavailability": {
	"$ref": "#/definitions/longString"
			,"defaultLabel": "WarehouseSpaceAvailability"
			,"description": "WarehouseSpaceAvailability"
			,"fieldAlias2x": "WarehouseSpaceAvailability"
			,"isSearchable": false
			,"picklistDescription": null
			,"picklistUri": null
			,"picklistParent": null
		},
"warehousespaceavailabilityremarks": {
	"$ref": "#/definitions/text"
			,"defaultLabel": "WarehouseSpaceAvailabilityRemarks"
			,"description": "WarehouseSpaceAvailabilityRemarks"
			,"fieldAlias2x": "WarehouseSpaceAvailabilityRemarks"
			,"isSearchable": false
			,"picklistDescription": null
			,"picklistUri": null
			,"picklistParent": null
		},
"wharfdrystore": {
	"$ref": "#/definitions/longString"
			,"defaultLabel": "WharfDryStore"
			,"description": "WharfDryStore"
			,"fieldAlias2x": "WharfDryStore"
			,"isSearchable": false
			,"picklistDescription": null
			,"picklistUri": null
			,"picklistParent": null
		},
"wharfdrystoreremarks": {
	"$ref": "#/definitions/text"
			,"defaultLabel": "WharfDryStoreRemarks"
			,"description": "WharfDryStoreRemarks"
			,"fieldAlias2x": "WharfDryStoreRemarks"
			,"isSearchable": false
			,"picklistDescription": null
			,"picklistUri": null
			,"picklistParent": null
		},
"wharffuelservices": {
	"$ref": "#/definitions/longString"
			,"defaultLabel": "WharfFuelServices"
			,"description": "WharfFuelServices"
			,"fieldAlias2x": "WharfFuelServices"
			,"isSearchable": false
			,"picklistDescription": null
			,"picklistUri": null
			,"picklistParent": null
		},
"wharffuelservicesremarks": {
	"$ref": "#/definitions/text"
			,"defaultLabel": "WharfFuelServicesRemarks"
			,"description": "WharfFuelServicesRemarks"
			,"fieldAlias2x": "WharfFuelServicesRemarks"
			,"isSearchable": false
			,"picklistDescription": null
			,"picklistUri": null
			,"picklistParent": null
		},
"wharfpierdescription": {
	"$ref": "#/definitions/text"
			,"defaultLabel": "WharfPierDescription"
			,"description": "WharfPierDescription"
			,"fieldAlias2x": "WharfPierDescription"
			,"isSearchable": false
			,"picklistDescription": null
			,"picklistUri": null
			,"picklistParent": null
		},
"wharfwaterservices": {
	"$ref": "#/definitions/longString"
			,"defaultLabel": "WharfWaterServices"
			,"description": "WharfWaterServices"
			,"fieldAlias2x": "WharfWaterServices"
			,"isSearchable": false
			,"picklistDescription": null
			,"picklistUri": null
			,"picklistParent": null
		},
"wharfwaterservicesremarks": {
	"$ref": "#/definitions/text"
			,"defaultLabel": "WharfWaterServicesRemarks"
			,"description": "WharfWaterServicesRemarks"
			,"fieldAlias2x": "WharfWaterServicesRemarks"
			,"isSearchable": false
			,"picklistDescription": null
			,"picklistUri": null
			,"picklistParent": null
		},
			"activities": {
				"type": "array",
				"description": "SOF PortSurvey Report Activities specific details",
				"fieldAlias2x": "Activities", 
					"items": {
						"type": "object",
						"properties": {
						
"activities": {
	"$ref": "#/definitions/text"
			,"defaultLabel": "Activities"
			,"description": "Activities"
			,"fieldAlias2x": "Activities"
			,"isSearchable": false
			,"picklistDescription": "Activities"
			,"picklistUri": "SOFPortSurvey-Activities"
			,"picklistParent": null
		},
"referenceid": {
	"$ref": "#/definitions/longString"
			,"defaultLabel": "referenceId"
			,"description": "referenceId"
			,"fieldAlias2x": "ActivitiesKey"
			,"isSearchable": false
			,"picklistDescription": null
			,"picklistUri": null
			,"picklistParent": null
		}
				}
			}
		},
			"assemblylocation": {
				"type": "array",
				"description": "SOF PortSurvey Report AssemblyLocation specific details",
				"fieldAlias2x": "AssemblyLocation", 
					"items": {
						"type": "object",
						"properties": {
						
"referenceid": {
	"$ref": "#/definitions/longString"
			,"defaultLabel": "referenceId"
			,"description": "referenceId"
			,"fieldAlias2x": "AssemblyLocationKey"
			,"isSearchable": false
			,"picklistDescription": null
			,"picklistUri": null
			,"picklistParent": null
		},
"description": {
	"$ref": "#/definitions/text"
			,"defaultLabel": "Description"
			,"description": "Description"
			,"fieldAlias2x": "Description"
			,"isSearchable": false
			,"picklistDescription": null
			,"picklistUri": null
			,"picklistParent": null
		},
"locationmgrs": {
	"$ref": "#/definitions/longString"
			,"defaultLabel": "LocationMGRS"
			,"description": "LocationMGRS"
			,"fieldAlias2x": "LocationMGRS"
			,"isSearchable": false
			,"picklistDescription": null
			,"picklistUri": null
			,"picklistParent": null
		},
"locationmgrslatitude": {
	"$ref": "#/definitions/latitude_dds"
			,"defaultLabel": "LocationMGRSLatitude"
			,"description": "LocationMGRSLatitude"
			,"fieldAlias2x": "LocationMGRSLatitude"
			,"isSearchable": false
			,"picklistDescription": null
			,"picklistUri": null
			,"picklistParent": null
		},
"locationmgrslongitude": {
	"$ref": "#/definitions/longitude_dds"
			,"defaultLabel": "LocationMGRSLongitude"
			,"description": "LocationMGRSLongitude"
			,"fieldAlias2x": "LocationMGRSLongitude"
			,"isSearchable": false
			,"picklistDescription": null
			,"picklistUri": null
			,"picklistParent": null
		}
				}
			}
		},
			"pmesii": {
				"type": "array",
				"description": "SOF PortSurvey Report PMESII specific details",
				"fieldAlias2x": "PMESII", 
					"items": {
						"type": "object",
						"properties": {
						
"ascope": {
	"$ref": "#/definitions/longString"
			,"defaultLabel": "ASCOPE"
			,"description": "ASCOPE"
			,"fieldAlias2x": "ASCOPE"
			,"isSearchable": false
			,"picklistDescription": null
			,"picklistUri": null
			,"picklistParent": null
		},
"dimelif": {
	"$ref": "#/definitions/longString"
			,"defaultLabel": "DIMELIF"
			,"description": "DIMELIF"
			,"fieldAlias2x": "DIMELIF"
			,"isSearchable": false
			,"picklistDescription": null
			,"picklistUri": null
			,"picklistParent": null
		},
"pmesii": {
	"$ref": "#/definitions/longString"
			,"defaultLabel": "PMESII"
			,"description": "PMESII"
			,"fieldAlias2x": "PMESII"
			,"isSearchable": false
			,"picklistDescription": null
			,"picklistUri": null
			,"picklistParent": null
		},
"referenceid": {
	"$ref": "#/definitions/longString"
			,"defaultLabel": "referenceId"
			,"description": "referenceId"
			,"fieldAlias2x": "PMESIIKey"
			,"isSearchable": false
			,"picklistDescription": null
			,"picklistUri": null
			,"picklistParent": null
		},
"remarks": {
	"$ref": "#/definitions/text"
			,"defaultLabel": "Remarks"
			,"description": "Remarks"
			,"fieldAlias2x": "Remarks"
			,"isSearchable": false
			,"picklistDescription": null
			,"picklistUri": null
			,"picklistParent": null
		},
"stance": {
	"$ref": "#/definitions/longString"
			,"defaultLabel": "Stance"
			,"description": "Stance"
			,"fieldAlias2x": "Stance"
			,"isSearchable": false
			,"picklistDescription": null
			,"picklistUri": null
			,"picklistParent": null
		}
				}
			}
		},
			"publicationreferences": {
				"type": "array",
				"description": "SOF PortSurvey Report PublicationReferences specific details",
				"fieldAlias2x": "PublicationReferences", 
					"items": {
						"type": "object",
						"properties": {
						
"chartname": {
	"$ref": "#/definitions/longString"
			,"defaultLabel": "ChartName"
			,"description": "ChartName"
			,"fieldAlias2x": "ChartName"
			,"isSearchable": false
			,"picklistDescription": null
			,"picklistUri": null
			,"picklistParent": null
		},
"edition": {
	"$ref": "#/definitions/longString"
			,"defaultLabel": "Edition"
			,"description": "Edition"
			,"fieldAlias2x": "Edition"
			,"isSearchable": false
			,"picklistDescription": null
			,"picklistUri": null
			,"picklistParent": null
		},
"publicationdate": {
	"$ref": "#/definitions/dateTime"
			,"defaultLabel": "PublicationDate"
			,"description": "PublicationDate"
			,"fieldAlias2x": "PublicationDate"
			,"isSearchable": false
			,"picklistDescription": null
			,"picklistUri": null
			,"picklistParent": null
		},
"referenceid": {
	"$ref": "#/definitions/longString"
			,"defaultLabel": "referenceId"
			,"description": "referenceId"
			,"fieldAlias2x": "PublicationReferencesKey"
			,"isSearchable": false
			,"picklistDescription": null
			,"picklistUri": null
			,"picklistParent": null
		},
"remarks": {
	"$ref": "#/definitions/text"
			,"defaultLabel": "Remarks"
			,"description": "Remarks"
			,"fieldAlias2x": "Remarks"
			,"isSearchable": false
			,"picklistDescription": null
			,"picklistUri": null
			,"picklistParent": null
		},
"scale": {
	"$ref": "#/definitions/longString"
			,"defaultLabel": "Scale"
			,"description": "Scale"
			,"fieldAlias2x": "Scale"
			,"isSearchable": false
			,"picklistDescription": null
			,"picklistUri": null
			,"picklistParent": null
		},
"series": {
	"$ref": "#/definitions/longString"
			,"defaultLabel": "Series"
			,"description": "Series"
			,"fieldAlias2x": "Series"
			,"isSearchable": false
			,"picklistDescription": null
			,"picklistUri": null
			,"picklistParent": null
		},
"sheet": {
	"$ref": "#/definitions/longString"
			,"defaultLabel": "Sheet"
			,"description": "Sheet"
			,"fieldAlias2x": "Sheet"
			,"isSearchable": false
			,"picklistDescription": null
			,"picklistUri": null
			,"picklistParent": null
		}
				}
			}
		},
			"remarks": {
				"type": "array",
				"description": "SOF PortSurvey Report Remarks specific details",
				"fieldAlias2x": "Remarks", 
					"items": {
						"type": "object",
						"properties": {
						
"remarks": {
	"$ref": "#/definitions/text"
			,"defaultLabel": "Remarks"
			,"description": "Remarks"
			,"fieldAlias2x": "Remarks"
			,"isSearchable": false
			,"picklistDescription": null
			,"picklistUri": null
			,"picklistParent": null
		},
"referenceid": {
	"$ref": "#/definitions/longString"
			,"defaultLabel": "referenceId"
			,"description": "referenceId"
			,"fieldAlias2x": "RemarksKey"
			,"isSearchable": false
			,"picklistDescription": null
			,"picklistUri": null
			,"picklistParent": null
		}
				}
			}
		}
				}
			}
	}
}
