	
{
    "type": "object",
    "id": "http://cidne.dae.smil.mil/schemas/Transition/CMOMed/CIDNEDM235",
    "description": "CIDNE Transition CMOMed Report Definition",
    "definitions": {
        "shortStringRequired": {
            "type": "string",
            "maxLength": 50
        },
        "longStringRequired": {
            "type": "string",
            "maxLength": 500
        },
        "textRequired": {
            "type": "string"
        },
        "textFieldLevelRequired": {
            "type": "object",
            "properties": {
                "objectValue": {
                    "type": "string"
                },
                "security": {
					"$ref": "#/definitions/security"
				}
            },
            "required": [
                "objectValue",
                "security"
            ]
        },
        "dateTimeRequired": {
            "type": "object",
            "properties": {
                "zuluDateTime": {
                    "type": "string",
                    "format": "date-time"
                },
                "zuluOffset": {
                    "type": "integer",
					"minimum": -840,
					"maximum": 840,
                    "description": "Offset in minutes from Zulu"
                }
            },
            "required": [
                "zuluDateTime",
                "zuluOffset"
            ]
        },
        "latitude_ddsRequired": {
            "type": "number",
            "minimum": -90,
            "maximum": 90
        },
        "longitude_ddsRequired": {
            "type": "number",
            "minimum": -180,
            "maximum": 180
        },
        "positive_intRequired": {
            "type": "integer",
            "minimum": 0
        },
        "positive_numRequired": {
            "type": "number",
            "minimum": 0
        },
        "positive_intRequired": {
            "type": "integer",
            "minimum": 0
        },
        "shortString": {
            "type": ["string","null"],
            "maxLength": 50
        },
        "longString": {
            "type": ["string","null"],
            "maxLength": 500
        },
        "text": {
            "type": ["string","null"]
        },
        "textFieldLevel": {
            "type": "object",
            "properties": {
                "objectValue": {
                    "type": ["string","null"]
                },
                "security": {
					"$ref": "#/definitions/securityOptional"
				}
            },
            "required": [
                "objectValue",
                "security"
            ]
        },
        "dateTime": {
            "type": ["object","null"],
            "properties": {
                "zuluDateTime": {
                    "type": "string",
                    "format": "date-time"
                },
                "zuluOffset": {
                    "type": "integer",
					"minimum": -840,
					"maximum": 840,
                    "description": "Offset in minutes from Zulu"
                }
            },
            "required": [
                "zuluDateTime",
                "zuluOffset"
            ]
        },
        "latitude_dds": {
            "type": ["number","null"],
            "minimum": -90,
            "maximum": 90
        },
        "longitude_dds": {
            "type": ["number","null"],
            "minimum": -180,
            "maximum": 180
        },
        "positive_int": {
            "type": ["integer","null"],
            "minimum": 0
        },
        "positive_num": {
            "type": ["number","null"],
            "minimum": 0
        },
        "num": {
            "type": ["number","null"]
        },
        "uniqueStringArray": {
            "type": "array",
            "uniqueItems": true,
            "items": {
                "type": "string"
            }
        },
        "securityOptional": {
            "oneOf": [
                {
                    "type": "null"
                },
                {
                    "$ref": "#/definitions/security"
                }
            ]
        },
        "security": {
            "type": "object",
            "properties": {
                "atomicEnergyMarkings": {
                    "$ref": "#/definitions/shortString",
                    "description": "Atomic Energy Act Information Markings"
                },
                "classificationReason": {
                    "$ref": "#/definitions/longString",
                    "description": ": Concise reason for classification"
                },
                "classification": {
                    "enum": [ "U", "TS", "S", "C" ],
                    "description": "Classification of information",
                    "defaultLabel": "Classification",
                    "isSearchable": false,
                    "picklistName": "classification",
                    "picklistUri": "http://cidne.dae.smil.mil/schemas/CAPCO/classification",
                    "picklistParent": null
                    
                },
                "classifiedBy": {
                    "$ref": "#/definitions/longString",
                    "description": "Identification by name and position, or personal identifier of the OCA"
                },
                "compilationReason": {
                    "$ref": "#/definitions/longString",
                    "description": "Reason why the compilation of information causes the classification"
                },
                "declassDate": {
                    "$ref": "#/definitions/dateTime",
                    "description": "Declassification date"
                },
                "declassEvent": {
                    "$ref": "#/definitions/shortString",
                    "description": "Declassification event"
                },
                "declassException": {
                    "$ref": "#/definitions/longString",
                    "description": "Declassification exception"
                },
                "derivativelyClassifiedBy": {
                    "$ref": "#/definitions/longString",
                    "description": "The derivative classifier’s identification by name and position, or by personal identifier, in a manner that is immediately apparent on each derivatively classified document. If not otherwise evident, the agency and office of origin shall be identified"
                },
                "derivedFrom": {
                    "$ref": "#/definitions/shortString",
                    "description": "Concisely identify the source document or the classification guide"
                },
                "displayOnlyTo": {
                    "$ref": "#/definitions/longString",
                    "description": "List of foreign country(ies)/international organization(s) authorized for disclosure without providing the recipient with a physical copy for retention, regardless of medium to the foreign country(ies)/international organization(s) indicated"
                },
                "disseminationControls": {
                    "$ref": "#/definitions/longString",
                    "description": "Control markings that identify the expansion or limitation on the distribution of information. These markings are in addition to and separate from the levels of classification"
                },
                "FGIsourceOpen": {
                    "$ref": "#/definitions/shortString",
                    "description": "Open Source Foreign Government Information"
                },
                "FGIsourceProtected": {
                    "$ref": "#/definitions/shortString",
                    "description": "Protected Source Foreign Government Information"
                },
                "nonICmarkings": {
                    "$ref": "#/definitions/text",
                    "description": "Markings authorized for use by entities outside of the Intelligence Community"
                },
                "nonUSControls": {
                    "$ref": "#/definitions/shortString",
                    "description": "Non-US protective markings"
                },
                "ownerProducer": {
                    "$ref": "#/definitions/shortStringRequired",
                    "description": "Owner/Producer",
                    "default": "USA",
                    "defaultLabel": "Owner Producer",
                    "isSearchable": false,
                    "picklistName": "ownerProducer",
                    "picklistUri": "http://cidne.dae.smil.mil/schemas/CAPCO/ownerProducer",
                    "picklistParent": null
                },
                "releasableToFilterField": {
                    "$ref": "#/definitions/shortString",
                    "description": "Need to add CAPCO Descriptions"
                },
                "releasableTo": {
                    "$ref": "#/definitions/text",
                    "description": "List of countries releasable to",
                    "defaultLabel": "Releasable To",
                    "isSearchable": false,
                    "picklistName": "releasableTo",
                    "picklistUri": "http://cidne.dae.smil.mil/schemas/CAPCO/releasableTo",
                    "picklistParent": null
                },
                "SARIdentifier": {
                    "$ref": "#/definitions/shortString",
                    "description": "Special access required programs"
                },
                "SCIcontrols": {
                    "$ref": "#/definitions/longString",
                    "description": "Sensitive Compartmented Information (SCI) control systems"
                }
            },
            "required": [
                "ownerProducer",
                "classification"
            ]
        },
        "actionInfo":{
            "type": "object",
            "properties": {
                "actionDate": {
                    "$ref": "#/definitions/dateTimeRequired",
                    "description": "Date Time Action was taken"
                },
                "group": {
                    "$ref": "#/definitions/longStringRequired",
                    "description": "User Group that performed action"
                },
                "parentGroup": {
                    "$ref": "#/definitions/longString",
                    "description": "User Group's Parent Group Name"
                },
                "nationality": {
                    "$ref": "#/definitions/shortStringRequired",
                    "description": "User Nationality"
                },
                "network": {
                    "$ref": "#/definitions/shortStringRequired",
                    "description": "Systems Network where action was taken"
                },
                "objectState": {
                    "description": "",
                    "enum": [
                        "CREATED",
                        "MODIFIED",
                        "TEMPLATE",
                        "SUBMITTED",
                        "PUBLISHED",
                        "VERSIONED",
                        "DEPRECATED",
                        "VALIDATING",
                        "RESTORED",
                        "MOVED"
                    ]
                },
                "site": {
                    "$ref": "#/definitions/shortStringRequired",
                    "description": "Systems Site"
                },
                "system": {
                    "$ref": "#/definitions/shortStringRequired",
                    "description": "System that provided the action"
                },
                "user": {
                    "$ref": "#/definitions/shortStringRequired",
                    "description": "User that performed action"
                }
            },
            "required": [
                "actionDate",
                "group",
                "parentGroup",
                "nationality",
                "network",
                "objectState",
                "site",
                "system",
                "user"
            ]
        },
        "position": {
            "description": "A single position. (order should be longitude,latitude)",
            "type": "array",
            "minItems": 2,
            "items": [
                {
                    "type": "number"
                },
                {
                    "type": "number"
                }
            ],
            "additionalItems": false
        },
        "positionArray": {
            "description": "An array of positions",
            "type": "array",
            "items": {
                "$ref": "#/definitions/position"
            }
        },
        "lineString": {
            "description": "An array of two or more positions",
            "allOf": [
                {
                    "type": "array",
                    "items": {
                        "$ref": "#/definitions/position"
                    }
                },
                {
                    "minItems": 2
                }
            ]
        },
        "linearRing": {
            "description": "An array of four positions where the first equals the last",
            "allOf": [
                {
                    "type": "array",
                    "items": {
                        "$ref": "#/definitions/position"
                    }
                },
                {
                    "minItems": 4
                }
            ]
        },
        "polygon": {
            "description": "An array of linear rings",
            "type": "array",
            "items": {
                "$ref": "#/definitions/linearRing"
            }
        },
        "geometry": {
            "title": "geometry",
            "description": "One geometry as defined by GeoJSON",
            "type": "object",
            "required": [
                "type",
                "coordinates"
            ],
            "oneOf": [
                {
                    "title": "Point",
                    "properties": {
                        "type": {
                            "enum": [
                                "Point"
                            ]
                        },
                        "coordinates": {
                            "$ref": "#/definitions/position"
                        }
                    }
                },
                {
                    "title": "MultiPoint",
                    "properties": {
                        "type": {
                            "enum": [
                                "MultiPoint"
                            ]
                        },
                        "coordinates": {
                            "type": "array",
                            "items": {
                                "$ref": "#/definitions/position"
                            }
                        }
                    }
                },
                {
                    "title": "LineString",
                    "properties": {
                        "type": {
                            "enum": [
                                "LineString"
                            ]
                        },
                        "coordinates": {
                            "$ref": "#/definitions/lineString"
                        }
                    }
                },
                {
                    "title": "MultiLineString",
                    "properties": {
                        "type": {
                            "enum": [
                                "MultiLineString"
                            ]
                        },
                        "coordinates": {
                            "type": "array",
                            "items": {
                                "$ref": "#/definitions/lineString"
                            }
                        }
                    }
                },
                {
                    "title": "Polygon",
                    "properties": {
                        "type": {
                            "enum": [
                                "Polygon"
                            ]
                        },
                        "coordinates": {
                            "$ref": "#/definitions/polygon"
                        }
                    }
                },
                {
                    "title": "MultiPolygon",
                    "properties": {
                        "type": {
                            "enum": [
                                "MultiPolygon"
                            ]
                        },
                        "coordinates": {
                            "type": "array",
                            "items": {
                                "$ref": "#/definitions/polygon"
                            }
                        }
                    }
                }
            ]
        },
        "geometryCollection": {
            "title": "GeometryCollection",
            "description": "A collection of geometry objects",
            "required": [
                "geometries"
            ],
            "properties": {
                "type": {
                    "enum": [
                        "GeometryCollection"
                    ]
                },
                "geometries": {
                    "type": "array",
                    "items": {
                        "$ref": "#/definitions/geometry"
                    }
                }
            }
        },
        "feature": {
            "title": "Feature",
            "description": "A Geo JSON feature object",
            "required": [
                "geometry"
            ],
            "properties": {
                "type": {
                    "enum": [
                        "Feature"
                    ]
                },
                "geometry": {
                    "oneOf": [
                        {
                            "type": "null"
                        },
                        {
                            "$ref": "#/definitions/geometry"
                        }
                    ]
                },
				"properties": { "type": [ "object", "null" ] },
                "id": { "type":["string"] }
            }
        },
        "featureCollection": {
            "description": "A GeoJSON feature collection",
            "required": [
                "features"
            ],
            "properties": {
                "type": {
                    "enum": [
                        "FeatureCollection"
                    ]
                },
                "features": {
                    "type": "array",
                    "items": {
                        "$ref": "#/definitions/feature"
                    }
                }
            }
        },
		"namedCrs": {
            "properties": {
                "type": { "enum": [ "name" ] },
                "properties": {
                    "required": [ "name" ],
                    "additionalProperties": false,
                    "properties": {
                        "name": {
                            "type": "string"
                        }
                    }
                }
            }
        },
        "linkedObject": {
            "type": "object",
            "required": [ "href" ],
            "properties": {
                "href": {
                    "type": "string",
                    "format": "uri"
                },
                "type": {
                    "type": "string",
                    "description": "Suggested values: proj4, ogjwkt, esriwkt"
                }
            }
        },
        "linkedCrs": {
            "properties": {
                "type": { "enum": [ "link" ] },
                "properties": { "$ref": "#/definitions/linkedObject" }
            }
        },	
		"crs":{
			"title": "crs",
			"description": "a Coordinate Reference System object",
			"type": [ "object", "null" ],
			"required": [ "type", "properties" ],
			"properties": {
				"type": { "type": "string" },
				"properties": { "type": "object" }
			},
			"additionalProperties": false,
			"oneOf": [
				{ "$ref": "#/definitions/namedCrs" },
				{ "$ref": "#/definitions/linkedCrs" }
			]
		},
		"bbox":{
		"description": "A bounding box as defined by GeoJSON",
			"type": "array",
			"items": { "type": "number" }
		},
        "geojson": {
            "title": "Geo JSON object",
            "description": "Schema for a Geo JSON object",
            "type": ["object","null"],
            "required": [
                "type"
            ],
			"properties": {
				"crs": { "$ref": "#/definitions/crs" },
				"bbox": { "$ref": "#/definitions/bbox" }
			},
            "anyOf": [
                {
                    "$ref": "#/definitions/geometry"
                },
                {
                    "$ref": "#/definitions/geometryCollection"
                },
                {
                    "$ref": "#/definitions/feature"
                },
                {
                    "$ref": "#/definitions/featureCollection"
                }
            ]
        }
    },
    "required": [
        "base",
        "datamodel",
        "formId",
        "location",
        "security",
        "details"
    ],	
    "properties": {
        "datamodel": {
            "$ref": "#/definitions/longString",
            "description": "Reference to the report definition."
        },
        "formId": {
            "$ref": "#/definitions/longString",
            "description": "Reference to the layout template identifier that this data was intended to be best visualized"
        },
        "base": {
            "type": "object",
            "description": "The core metadata used within all report definitions",
            "properties": {
                "objectId": {
                    "$ref": "#/definitions/shortStringRequired",
                    "description": "Report instance unique identifier"
                },
                "reportId": {
                    "$ref": "#/definitions/shortStringRequired",
                    "description": "Original report instance objectId for a report version grouping. (i.e. the root report identifier)"
                },
                "parentVersionId": {
                    "$ref": "#/definitions/shortString",
                    "description": "Report instance's objectId of the parent report. NOTE: If there is no parent, this value should be set to the report instance's own objectId. "
                },
                "module": {
                    "$ref": "#/definitions/shortStringRequired",
                    "description": "CIDNE community"
                },
                "reportType": {
                    "$ref": "#/definitions/shortStringRequired",
                    "description": "CIDNE report type (e.g. SIGACT)"
                },
                "reportSerial": {
                    "$ref": "#/definitions/textFieldLevel",
					"defaultLabel": "DisplaySerial",
					"description": "Report instance nomenclature (DisplaySerial)",
					"fieldAlias2x": "DisplaySerial"
                },
                "reportTitle": {
                    "$ref": "#/definitions/textFieldLevel",
					"defaultLabel": "DisplayTitle",
					"description": "Report instance title text (DisplayTitle)",
					"fieldAlias2x": "DisplayTitle"
                },
                "reportSummary": {
                    "$ref": "#/definitions/textFieldLevel",
					"defaultLabel": "DisplaySummary",
					"description": "Report instance summary text block (DisplaySummary)",
					"fieldAlias2x": "DisplaySummary"
                },
                "reportDate": {
                    "$ref": "#/definitions/dateTimeRequired",
					"defaultLabel": "DatePosted",
					"description": "Primary report instance date (DatePosted)",
					"fieldAlias2x": "DatePosted"
                },
                "reportSymbol": {
                    "$ref": "#/definitions/longString",
                    "description": "Report instance symbology"
                },
                "reportImage": {
                    "$ref": "#/definitions/longString",
                    "description": "Primary image of report instance"
                },
                "reportCountry": {
                    "$ref": "#/definitions/shortString",
                    "description": "Country value of report instance's primary location"
                },
                "reportLatitude": {
                    "$ref": "#/definitions/latitude_dds",
                    "description": "Latitude value of report instance's primary location"
                },
                "reportLongitude": {
                    "$ref": "#/definitions/longitude_dds",
                    "description": "Longitude value of report instance's primary location"
                },
				"geoLocation":{
					"$ref":"#/definitions/geojson"
				},
                "currentObjectState":{
                        "$ref": "#/definitions/actionInfo"
                },
                "originatingGroup": {
                    "$ref": "#/definitions/longStringRequired",
                    "description": "Original creator's group"
                },  
                "originatingUser": {
                    "$ref": "#/definitions/longStringRequired",
                    "description": "Original creator's User Name or email address"
                },  
				"isTearline": {
                    "type": "boolean",
                    "description": "Determines whether a report is a tearline"
                },
				"tearlineId": {
					"$ref": "#/definitions/shortString",
                    "description": "The reportId of the parent, used as a tearline group binding"
				},
                "theaterFilter": {
                    "$ref": "#/definitions/shortStringRequired",
                    "description": "Report instance theater of relevance"
                },
                "warehouseUri": {
                    "$ref": "#/definitions/longStringRequired",
                    "description": "Data warehouse location for report instance",
                    "format": "uri"
                }
            },
            "required": [
                "isTearline",
                "module",
                "objectId",
                "currentObjectState",
                "originatingGroup",
                "originatingUser",
                "reportId",
                "reportSerial",
                "reportDate",
                "theaterFilter",
                "reportType",
                "reportTitle",
                "reportSummary"
            ]
        },
        "location": {
            "type": "array",
            "description": "All locations for the report instance",
            "items": {
                "type": "object",
                "properties": {
                    "objectId": {
                        "$ref": "#/definitions/shortStringRequired",
                        "description": "objectId required for Edit Purposes"
                    },
                    "address": {
                        "$ref": "#/definitions/longString",
                        "description": "Address Details"
                    },
                    "alternateRoute": {
                        "$ref": "#/definitions/longString",
                        "description": "Alternate Route for location"
                    },
                    "ao": {
                        "$ref": "#/definitions/shortString",
                        "description": "Area of Operations"
                    },
                    "basecamp": {
                        "$ref": "#/definitions/shortString",
                        "description": "Base Camp"
                    },
                    "city": {
                        "$ref": "#/definitions/shortString",
                        "description": "City for Location"
                    },
                    "confidence": {
                        "$ref": "#/definitions/shortString",
                        "description": "Reporters Confidence in Location Value"
                    },
                    "country": {
                        "$ref": "#/definitions/shortString",
                        "description": "Location Country"
                    },
                    "customGeom": {
                        "type": "object",
                        "description": "Custom Geometry Object for Location",
                        "properties": {
                            "customGeomObjectId": {
                                "$ref": "#/definitions/shortString",
                                "description": "objectId for Custom Geometry Object"
                            },
                            "geomType": {
                                "$ref": "#/definitions/shortString",
                                "description": "Geometry Type for custom geometry object (e.g. Point, Multi-polygon"
                            },
                            "geom": {
                                "$ref": "#/definitions/shortString",
                                "description": "TBD GEOM Object for Custom Location Object"
                            },
                            "name": {
                                "$ref": "#/definitions/shortString",
                                "description": "Custom Location Name"
                            }
                        }
                    },
                    "dateEndLocation": {
                        "$ref": "#/definitions/dateTime",
                        "description": "Ending Date Time for location"
                    },
                    "dateStartLocation": {
                        "$ref": "#/definitions/dateTime",
                        "description": "Starting Date Time for location"
                    },
                    "derivedLocation": {
                        "type": "boolean",
                        "description": "Was Location Lat/Long derived from user picklists?"
                    },
                    "description": {
                        "$ref": "#/definitions/text",
                        "description": "Location Description"
                    },
                    "distanceFromCityCenter": {
                        "$ref": "#/definitions/positive_int",
                        "description": "Distance in meters to nearest city center"
                    },
                    "distanceToNearestFOB": {
                        "$ref": "#/definitions/positive_num",
                        "description": "Distance in meters to nearest FOB"
                    },
                    "distanceToNearestRoute": {
                        "$ref": "#/definitions/positive_num",
                        "description": "Distance in meters to nearest Route"
                    },
                    "district": {
                        "$ref": "#/definitions/shortString",
                        "description": "District"
                    },
                    "fob": {
                        "$ref": "#/definitions/shortString",
                        "description": "FOB"
                    },
					"geoLocation":{
						"$ref":"#/definitions/geojson"
					},
					"house": {
                        "$ref": "#/definitions/shortString",
                        "description": "HOUSE"
                    },
                    "isPrimaryLocation": {
                        "type": "boolean",
                        "description": "Marks Primary Location"
                    },
                    "latitude": {
                        "$ref": "#/definitions/latitude_ddsRequired",
                        "description": "Latitude of Location in Degree Decimal Seconds"
                    },
                    "locationActive": {
                        "type": "boolean",
                        "description": "Is Location Active?"
                    },
                    "locationType": {
                        "$ref": "#/definitions/shortString",
                        "description": "Location Type"
                    },
                    "longitude": {
                        "$ref": "#/definitions/longitude_ddsRequired",
                        "description": "Longitude of Location in Degree Decimal Seconds"
                    },
                    "mscCurrent": {
                        "$ref": "#/definitions/shortString",
                        "description": "Current Major Supporting Command responsible for location"
                    },
                    "mscDateOfCurrent": {
                        "$ref": "#/definitions/dateTime",
                        "description": "Date Of Current Major Supporting Command's Control of location"
                    },
                    "msc": {
                        "$ref": "#/definitions/shortString",
                        "description": "Major Supporting Command responsible for location"
                    },
                    "nai": {
                        "$ref": "#/definitions/shortString",
                        "description": "Named Area of Interest"
                    },
                    "nearestCity": {
                        "$ref": "#/definitions/shortString",
                        "description": "Nearest City"
                    },
                    "nearestFOB": {
                        "$ref": "#/definitions/shortString",
                        "description": "Nearest FOB"
                    },
                    "nearestRoute": {
                        "$ref": "#/definitions/shortString",
                        "description": "Nearest Route"
                    },
                    "neighborhood": {
                        "$ref": "#/definitions/shortString",
                        "description": "Neighborhood for location"
                    },
                    "populationCenterType": {
                        "$ref": "#/definitions/shortString",
                        "description": "Population Center Type"
                    },
                    "populationCenter": {
                        "$ref": "#/definitions/shortString",
                        "description": "Population Center"
                    },
                    "province": {
                        "$ref": "#/definitions/shortString",
                        "description": "Province"
                    },
                    "referenceId": {
                        "$ref": "#/definitions/shortString",
                        "description": "Reference to any subelement with in current report instance (e.g. Event Object ID)"
                    },
                    "route": {
                        "$ref": "#/definitions/shortString",
                        "description": "Route"
                    },
                    "security": {
                        "$ref": "#/definitions/securityOptional"
                    },
                    "street": {
                        "$ref": "#/definitions/shortString",
                        "description": "Street"
                    },
                    "structure": {
                        "$ref": "#/definitions/shortString",
                        "description": "Structure"
                    },
                    "village": {
                        "$ref": "#/definitions/shortString",
                        "description": "Village"
                    },
                    "zone": {
                        "$ref": "#/definitions/shortString",
                        "description": "City Zone"
                    }
                },
				"required": [
					"objectId",
					"isPrimaryLocation",
					"latitude",
					"longitude"
				]
            }
        },
        "remarks": {
            "type": "array",
            "items": {
                "type": "object",
                "properties": {
                    "objectId": {
                        "$ref": "#/definitions/shortStringRequired",
                        "description": "objectId required for Edit Purposes"
                    },
                    "referenceId": {
                        "$ref": "#/definitions/shortString",
                        "description": "Reference to any subelement with in current report instance (e.g. Event Object ID)"
                    },
                    "remarkText": {
                        "$ref": "#/definitions/text",
                        "description": "Remark Text"
                    },
                    "remarkType": {
                        "$ref": "#/definitions/shortString",
                        "description": "Remark Type"
                    },
                    "remarkOrder": {
                        "$ref": "#/definitions/positive_num",
                        "description": "Remark Order"
                    },
                    "security": {
                        "$ref": "#/definitions/securityOptional"
                    }
                },
                "required": [
                    "objectId",
                    "remarkText",
                    "remarkType",
                    "security"
                ]
            }
        },
        "requirements": {
            "type": "array",
            "items": {
                "type": "object",
                "properties": {
                    "objectId": {
                        "$ref": "#/definitions/shortStringRequired",
                        "description": "objectId required for Edit Purposes"
                    },
                    "referenceId": {
                        "$ref": "#/definitions/shortString",
                        "description": "Reference to any subelement with in current report instance (e.g. Event Object ID)"
                    },
                    "requirement": {
                        "$ref": "#/definitions/longString",
                        "description": "Requirement sub based on Requirement Type"
                    },
                    "requirementType": {
                        "$ref": "#/definitions/shortString",
                        "description": "Requirement Type"
                    },
                    "comment": {
                        "$ref": "#/definitions/text",
                        "description": "Requirement Comment"
                    },
                    "security": {
                        "$ref": "#/definitions/securityOptional"
                    }
                },
                "required": [
                    "objectId",
                    "requirementType",
                    "requirement",
                    "comment"
                ]
            }
        },
        "security": {
                        "$ref": "#/definitions/security"
        },
        "objectHistory": {
            "type": "array",
            "items":
                    {
                        "$ref": "#/definitions/actionInfo"
                    }       
		},
			"details": {
				"type": "object",
				"description": "Transition CMOMed Report details specific details",
				"fieldAlias2x": "details", 
						"properties": {
						
"ansfmedpersprovidecare": {
	"$ref": "#/definitions/longString"
			,"defaultLabel": "ANSFMedPersProvideCare"
			,"description": "ANSFMedPersProvideCare"
			,"fieldAlias2x": "ANSFMedPersProvideCare"
			,"isSearchable": false
			,"picklistDescription": null
			,"picklistUri": null
			,"picklistParent": null
		},
"base": {
	"$ref": "#/definitions/text"
			,"defaultLabel": "Base"
			,"description": "Base"
			,"fieldAlias2x": "Base"
			,"isSearchable": false
			,"picklistDescription": null
			,"picklistUri": null
			,"picklistParent": null
		},
"bottomlineassessment": {
	"$ref": "#/definitions/text"
			,"defaultLabel": "BottomLineAssessment"
			,"description": "BottomLineAssessment"
			,"fieldAlias2x": "BottomLineAssessment"
			,"isSearchable": false
			,"picklistDescription": null
			,"picklistUri": null
			,"picklistParent": null
		},
"bottomlinereleasability": {
	"$ref": "#/definitions/longString"
			,"defaultLabel": "BottomLineReleasability"
			,"description": "BottomLineReleasability"
			,"fieldAlias2x": "BottomLineReleasability"
			,"isSearchable": false
			,"picklistDescription": null
			,"picklistUri": null
			,"picklistParent": null
		},
"dateofvisit": {
	"$ref": "#/definitions/dateTime"
			,"defaultLabel": "DateOfVisit"
			,"description": "DateOfVisit"
			,"fieldAlias2x": "DateOfVisit"
			,"isSearchable": false
			,"picklistDescription": null
			,"picklistUri": null
			,"picklistParent": null
		},
"hospitalskillsother": {
	"$ref": "#/definitions/longString"
			,"defaultLabel": "HospitalSkillsOther"
			,"description": "HospitalSkillsOther"
			,"fieldAlias2x": "HospitalSkillsOther"
			,"isSearchable": false
			,"picklistDescription": null
			,"picklistUri": null
			,"picklistParent": null
		},
"medfacilitydirector": {
	"$ref": "#/definitions/longString"
			,"defaultLabel": "MedFacilityDirector"
			,"description": "MedFacilityDirector"
			,"fieldAlias2x": "MedFacilityDirector"
			,"isSearchable": false
			,"picklistDescription": null
			,"picklistUri": null
			,"picklistParent": null
		},
"medfacilityintellectualcapacity": {
	"$ref": "#/definitions/longString"
			,"defaultLabel": "MedFacilityIntellectualCapacity"
			,"description": "MedFacilityIntellectualCapacity"
			,"fieldAlias2x": "MedFacilityIntellectualCapacity"
			,"isSearchable": false
			,"picklistDescription": null
			,"picklistUri": null
			,"picklistParent": null
		},
"medfacilityperception": {
	"$ref": "#/definitions/longString"
			,"defaultLabel": "MedFacilityPerception"
			,"description": "MedFacilityPerception"
			,"fieldAlias2x": "MedFacilityPerception"
			,"isSearchable": false
			,"picklistDescription": null
			,"picklistUri": null
			,"picklistParent": null
		},
"medfacilitystructure": {
	"$ref": "#/definitions/longString"
			,"defaultLabel": "MedFacilityStructure"
			,"description": "MedFacilityStructure"
			,"fieldAlias2x": "MedFacilityStructure"
			,"isSearchable": false
			,"picklistDescription": null
			,"picklistUri": null
			,"picklistParent": null
		},
"medfacilitysustainability": {
	"$ref": "#/definitions/longString"
			,"defaultLabel": "MedFacilitySustainability"
			,"description": "MedFacilitySustainability"
			,"fieldAlias2x": "MedFacilitySustainability"
			,"isSearchable": false
			,"picklistDescription": null
			,"picklistUri": null
			,"picklistParent": null
		},
"medfundedclassiiisupplier": {
	"$ref": "#/definitions/text"
			,"defaultLabel": "MedFundedClassIIISupplier"
			,"description": "MedFundedClassIIISupplier"
			,"fieldAlias2x": "MedFundedClassIIISupplier"
			,"isSearchable": false
			,"picklistDescription": null
			,"picklistUri": null
			,"picklistParent": null
		},
"medfundedestimatedcost": {
	"$ref": "#/definitions/longString"
			,"defaultLabel": "MedFundedEstimatedCost"
			,"description": "MedFundedEstimatedCost"
			,"fieldAlias2x": "MedFundedEstimatedCost"
			,"isSearchable": false
			,"picklistDescription": null
			,"picklistUri": null
			,"picklistParent": null
		},
"medfundedpnfsubmitted": {
	"$ref": "#/definitions/longString"
			,"defaultLabel": "MedFundedPNFSubmitted"
			,"description": "MedFundedPNFSubmitted"
			,"fieldAlias2x": "MedFundedPNFSubmitted"
			,"isSearchable": false
			,"picklistDescription": null
			,"picklistUri": null
			,"picklistParent": null
		},
"medfundedsource": {
	"$ref": "#/definitions/longString"
			,"defaultLabel": "MedFundedSource"
			,"description": "MedFundedSource"
			,"fieldAlias2x": "MedFundedSource"
			,"isSearchable": false
			,"picklistDescription": null
			,"picklistUri": null
			,"picklistParent": null
		},
"mediainterestassessment": {
	"$ref": "#/definitions/text"
			,"defaultLabel": "MediaInterestAssessment"
			,"description": "MediaInterestAssessment"
			,"fieldAlias2x": "MediaInterestAssessment"
			,"isSearchable": false
			,"picklistDescription": null
			,"picklistUri": null
			,"picklistParent": null
		},
"medreporttype": {
	"$ref": "#/definitions/longString"
			,"defaultLabel": "MedReportType"
			,"description": "MedReportType"
			,"fieldAlias2x": "MedReportType"
			,"isSearchable": false
			,"picklistDescription": null
			,"picklistUri": null
			,"picklistParent": null
		},
"numberansfmedprovidersdentists": {
	"$ref": "#/definitions/positive_int"
			,"defaultLabel": "NumberANSFMedProvidersDentists"
			,"description": "NumberANSFMedProvidersDentists"
			,"fieldAlias2x": "NumberANSFMedProvidersDentists"
			,"isSearchable": false
			,"picklistDescription": null
			,"picklistUri": null
			,"picklistParent": null
		},
"numberansfmedprovidersdoctors": {
	"$ref": "#/definitions/positive_int"
			,"defaultLabel": "NumberANSFMedProvidersDoctors"
			,"description": "NumberANSFMedProvidersDoctors"
			,"fieldAlias2x": "NumberANSFMedProvidersDoctors"
			,"isSearchable": false
			,"picklistDescription": null
			,"picklistUri": null
			,"picklistParent": null
		},
"numberansfmedproviderslabtechs": {
	"$ref": "#/definitions/positive_int"
			,"defaultLabel": "NumberANSFMedProvidersLabTechs"
			,"description": "NumberANSFMedProvidersLabTechs"
			,"fieldAlias2x": "NumberANSFMedProvidersLabTechs"
			,"isSearchable": false
			,"picklistDescription": null
			,"picklistUri": null
			,"picklistParent": null
		},
"numberansfmedprovidersmidwives": {
	"$ref": "#/definitions/positive_int"
			,"defaultLabel": "NumberANSFMedProvidersMidWives"
			,"description": "NumberANSFMedProvidersMidWives"
			,"fieldAlias2x": "NumberANSFMedProvidersMidWives"
			,"isSearchable": false
			,"picklistDescription": null
			,"picklistUri": null
			,"picklistParent": null
		},
"numberansfmedprovidersnurseassistants": {
	"$ref": "#/definitions/positive_int"
			,"defaultLabel": "NumberANSFMedProvidersNurseAssistants"
			,"description": "NumberANSFMedProvidersNurseAssistants"
			,"fieldAlias2x": "NumberANSFMedProvidersNurseAssistants"
			,"isSearchable": false
			,"picklistDescription": null
			,"picklistUri": null
			,"picklistParent": null
		},
"numberansfmedprovidersnurses": {
	"$ref": "#/definitions/positive_int"
			,"defaultLabel": "NumberANSFMedProvidersNurses"
			,"description": "NumberANSFMedProvidersNurses"
			,"fieldAlias2x": "NumberANSFMedProvidersNurses"
			,"isSearchable": false
			,"picklistDescription": null
			,"picklistUri": null
			,"picklistParent": null
		},
"numberansfmedprovidersother": {
	"$ref": "#/definitions/positive_int"
			,"defaultLabel": "NumberANSFMedProvidersOther"
			,"description": "NumberANSFMedProvidersOther"
			,"fieldAlias2x": "NumberANSFMedProvidersOther"
			,"isSearchable": false
			,"picklistDescription": null
			,"picklistUri": null
			,"picklistParent": null
		},
"numberansfmedproviderspharmacy": {
	"$ref": "#/definitions/positive_int"
			,"defaultLabel": "NumberANSFMedProvidersPharmacy"
			,"description": "NumberANSFMedProvidersPharmacy"
			,"fieldAlias2x": "NumberANSFMedProvidersPharmacy"
			,"isSearchable": false
			,"picklistDescription": null
			,"picklistUri": null
			,"picklistParent": null
		},
"numberansfmedproviderstotal": {
	"$ref": "#/definitions/positive_int"
			,"defaultLabel": "NumberANSFMedProvidersTotal"
			,"description": "NumberANSFMedProvidersTotal"
			,"fieldAlias2x": "NumberANSFMedProvidersTotal"
			,"isSearchable": false
			,"picklistDescription": null
			,"picklistUri": null
			,"picklistParent": null
		},
"numberansfmedprovidersvaccinators": {
	"$ref": "#/definitions/positive_int"
			,"defaultLabel": "NumberANSFMedProvidersVaccinators"
			,"description": "NumberANSFMedProvidersVaccinators"
			,"fieldAlias2x": "NumberANSFMedProvidersVaccinators"
			,"isSearchable": false
			,"picklistDescription": null
			,"picklistUri": null
			,"picklistParent": null
		},
"numberlncivprovidersdentists": {
	"$ref": "#/definitions/positive_int"
			,"defaultLabel": "NumberLNCivProvidersDentists"
			,"description": "NumberLNCivProvidersDentists"
			,"fieldAlias2x": "NumberLNCivProvidersDentists"
			,"isSearchable": false
			,"picklistDescription": null
			,"picklistUri": null
			,"picklistParent": null
		},
"numberlncivprovidersdoctors": {
	"$ref": "#/definitions/positive_int"
			,"defaultLabel": "NumberLNCivProvidersDoctors"
			,"description": "NumberLNCivProvidersDoctors"
			,"fieldAlias2x": "NumberLNCivProvidersDoctors"
			,"isSearchable": false
			,"picklistDescription": null
			,"picklistUri": null
			,"picklistParent": null
		},
"numberlncivproviderslabtechs": {
	"$ref": "#/definitions/positive_int"
			,"defaultLabel": "NumberLNCivProvidersLabTechs"
			,"description": "NumberLNCivProvidersLabTechs"
			,"fieldAlias2x": "NumberLNCivProvidersLabTechs"
			,"isSearchable": false
			,"picklistDescription": null
			,"picklistUri": null
			,"picklistParent": null
		},
"numberlncivprovidersmidwives": {
	"$ref": "#/definitions/positive_int"
			,"defaultLabel": "NumberLNCivProvidersMidWives"
			,"description": "NumberLNCivProvidersMidWives"
			,"fieldAlias2x": "NumberLNCivProvidersMidWives"
			,"isSearchable": false
			,"picklistDescription": null
			,"picklistUri": null
			,"picklistParent": null
		},
"numberlncivprovidersnurseassistants": {
	"$ref": "#/definitions/positive_int"
			,"defaultLabel": "NumberLNCivProvidersNurseAssistants"
			,"description": "NumberLNCivProvidersNurseAssistants"
			,"fieldAlias2x": "NumberLNCivProvidersNurseAssistants"
			,"isSearchable": false
			,"picklistDescription": null
			,"picklistUri": null
			,"picklistParent": null
		},
"numberlncivprovidersnurses": {
	"$ref": "#/definitions/positive_int"
			,"defaultLabel": "NumberLNCivProvidersNurses"
			,"description": "NumberLNCivProvidersNurses"
			,"fieldAlias2x": "NumberLNCivProvidersNurses"
			,"isSearchable": false
			,"picklistDescription": null
			,"picklistUri": null
			,"picklistParent": null
		},
"numberlncivprovidersother": {
	"$ref": "#/definitions/positive_int"
			,"defaultLabel": "NumberLNCivProvidersOther"
			,"description": "NumberLNCivProvidersOther"
			,"fieldAlias2x": "NumberLNCivProvidersOther"
			,"isSearchable": false
			,"picklistDescription": null
			,"picklistUri": null
			,"picklistParent": null
		},
"numberlncivproviderspharmacy": {
	"$ref": "#/definitions/positive_int"
			,"defaultLabel": "NumberLNCivProvidersPharmacy"
			,"description": "NumberLNCivProvidersPharmacy"
			,"fieldAlias2x": "NumberLNCivProvidersPharmacy"
			,"isSearchable": false
			,"picklistDescription": null
			,"picklistUri": null
			,"picklistParent": null
		},
"numberlncivproviderstotal": {
	"$ref": "#/definitions/positive_int"
			,"defaultLabel": "NumberLNCivProvidersTotal"
			,"description": "NumberLNCivProvidersTotal"
			,"fieldAlias2x": "NumberLNCivProvidersTotal"
			,"isSearchable": false
			,"picklistDescription": null
			,"picklistUri": null
			,"picklistParent": null
		},
"numberlncivprovidersvaccinators": {
	"$ref": "#/definitions/positive_int"
			,"defaultLabel": "NumberLNCivProvidersVaccinators"
			,"description": "NumberLNCivProvidersVaccinators"
			,"fieldAlias2x": "NumberLNCivProvidersVaccinators"
			,"isSearchable": false
			,"picklistDescription": null
			,"picklistUri": null
			,"picklistParent": null
		},
"originatoremail": {
	"$ref": "#/definitions/longString"
			,"defaultLabel": "OriginatorEmail"
			,"description": "OriginatorEmail"
			,"fieldAlias2x": "OriginatorEmail"
			,"isSearchable": false
			,"picklistDescription": null
			,"picklistUri": null
			,"picklistParent": null
		},
"originatorgrade": {
	"$ref": "#/definitions/longString"
			,"defaultLabel": "OriginatorGrade"
			,"description": "OriginatorGrade"
			,"fieldAlias2x": "OriginatorGrade"
			,"isSearchable": false
			,"picklistDescription": null
			,"picklistUri": null
			,"picklistParent": null
		},
"originatorphone": {
	"$ref": "#/definitions/longString"
			,"defaultLabel": "OriginatorPhone"
			,"description": "OriginatorPhone"
			,"fieldAlias2x": "OriginatorPhone"
			,"isSearchable": false
			,"picklistDescription": null
			,"picklistUri": null
			,"picklistParent": null
		},
"prehospitaltrainingother": {
	"$ref": "#/definitions/longString"
			,"defaultLabel": "PreHospitalTrainingOther"
			,"description": "PreHospitalTrainingOther"
			,"fieldAlias2x": "PreHospitalTrainingOther"
			,"isSearchable": false
			,"picklistDescription": null
			,"picklistUri": null
			,"picklistParent": null
		},
"prtassessment": {
	"$ref": "#/definitions/text"
			,"defaultLabel": "PRTAssessment"
			,"description": "PRTAssessment"
			,"fieldAlias2x": "PRTAssessment"
			,"isSearchable": false
			,"picklistDescription": null
			,"picklistUri": null
			,"picklistParent": null
		},
"reportperiodend": {
	"$ref": "#/definitions/dateTime"
			,"defaultLabel": "ReportPeriodEnd"
			,"description": "ReportPeriodEnd"
			,"fieldAlias2x": "ReportPeriodEnd"
			,"isSearchable": false
			,"picklistDescription": null
			,"picklistUri": null
			,"picklistParent": null
		},
"reportperiodstart": {
	"$ref": "#/definitions/dateTime"
			,"defaultLabel": "ReportPeriodStart"
			,"description": "ReportPeriodStart"
			,"fieldAlias2x": "ReportPeriodStart"
			,"isSearchable": false
			,"picklistDescription": null
			,"picklistUri": null
			,"picklistParent": null
		},
"summaryofactions": {
	"$ref": "#/definitions/text"
			,"defaultLabel": "SummaryOfActions"
			,"description": "SummaryOfActions"
			,"fieldAlias2x": "SummaryOfActions"
			,"isSearchable": false
			,"picklistDescription": null
			,"picklistUri": null
			,"picklistParent": null
		},
"targetaudiencesother": {
	"$ref": "#/definitions/longString"
			,"defaultLabel": "TargetAudiencesOther"
			,"description": "TargetAudiencesOther"
			,"fieldAlias2x": "TargetAudiencesOther"
			,"isSearchable": false
			,"picklistDescription": null
			,"picklistUri": null
			,"picklistParent": null
		},
"trackingnumber": {
	"$ref": "#/definitions/longString"
			,"defaultLabel": "TrackingNumber"
			,"description": "TrackingNumber"
			,"fieldAlias2x": "TrackingNumber"
			,"isSearchable": false
			,"picklistDescription": null
			,"picklistUri": null
			,"picklistParent": null
		},
			"animal": {
				"type": "array",
				"description": "Transition CMOMed Report Animal specific details",
				"fieldAlias2x": "Animal", 
					"items": {
						"type": "object",
						"properties": {
						
"animalcause": {
	"$ref": "#/definitions/longString"
			,"defaultLabel": "AnimalCause"
			,"description": "AnimalCause"
			,"fieldAlias2x": "AnimalCause"
			,"isSearchable": false
			,"picklistDescription": null
			,"picklistUri": null
			,"picklistParent": null
		},
"animalcomments": {
	"$ref": "#/definitions/text"
			,"defaultLabel": "AnimalComments"
			,"description": "AnimalComments"
			,"fieldAlias2x": "AnimalComments"
			,"isSearchable": false
			,"picklistDescription": null
			,"picklistUri": null
			,"picklistParent": null
		},
"animaldeaths": {
	"$ref": "#/definitions/positive_int"
			,"defaultLabel": "AnimalDeaths"
			,"description": "AnimalDeaths"
			,"fieldAlias2x": "AnimalDeaths"
			,"isSearchable": false
			,"picklistDescription": null
			,"picklistUri": null
			,"picklistParent": null
		},
"animalhealth": {
	"$ref": "#/definitions/longString"
			,"defaultLabel": "AnimalHealth"
			,"description": "AnimalHealth"
			,"fieldAlias2x": "AnimalHealth"
			,"isSearchable": false
			,"picklistDescription": null
			,"picklistUri": null
			,"picklistParent": null
		},
"referenceid": {
	"$ref": "#/definitions/longString"
			,"defaultLabel": "referenceId"
			,"description": "referenceId"
			,"fieldAlias2x": "AnimalKey"
			,"isSearchable": false
			,"picklistDescription": null
			,"picklistUri": null
			,"picklistParent": null
		},
"animalquantity": {
	"$ref": "#/definitions/positive_int"
			,"defaultLabel": "AnimalQuantity"
			,"description": "AnimalQuantity"
			,"fieldAlias2x": "AnimalQuantity"
			,"isSearchable": false
			,"picklistDescription": null
			,"picklistUri": null
			,"picklistParent": null
		},
"animaltype": {
	"$ref": "#/definitions/longString"
			,"defaultLabel": "AnimalType"
			,"description": "AnimalType"
			,"fieldAlias2x": "AnimalType"
			,"isSearchable": false
			,"picklistDescription": "AnimalType"
			,"picklistUri": "Transition-AnimalType"
			,"picklistParent": null
		}
				}
			}
		},
			"hospitalskills": {
				"type": "array",
				"description": "Transition CMOMed Report HospitalSkills specific details",
				"fieldAlias2x": "HospitalSkills", 
					"items": {
						"type": "object",
						"properties": {
						
"hospitalskills": {
	"$ref": "#/definitions/longString"
			,"defaultLabel": "HospitalSkills"
			,"description": "HospitalSkills"
			,"fieldAlias2x": "HospitalSkills"
			,"isSearchable": false
			,"picklistDescription": null
			,"picklistUri": null
			,"picklistParent": null
		},
"referenceid": {
	"$ref": "#/definitions/longString"
			,"defaultLabel": "referenceId"
			,"description": "referenceId"
			,"fieldAlias2x": "HospitalSkillsKey"
			,"isSearchable": false
			,"picklistDescription": null
			,"picklistUri": null
			,"picklistParent": null
		},
"hospitalskillsother": {
	"$ref": "#/definitions/longString"
			,"defaultLabel": "HospitalSkillsOther"
			,"description": "HospitalSkillsOther"
			,"fieldAlias2x": "HospitalSkillsOther"
			,"isSearchable": false
			,"picklistDescription": null
			,"picklistUri": null
			,"picklistParent": null
		}
				}
			}
		},
			"loo": {
				"type": "array",
				"description": "Transition CMOMed Report LOO specific details",
				"fieldAlias2x": "LOO", 
					"items": {
						"type": "object",
						"properties": {
						
"linesofoperation": {
	"$ref": "#/definitions/longString"
			,"defaultLabel": "LinesOfOperation"
			,"description": "LinesOfOperation"
			,"fieldAlias2x": "LinesOfOperation"
			,"isSearchable": false
			,"picklistDescription": null
			,"picklistUri": null
			,"picklistParent": null
		},
"linesofoperationsub": {
	"$ref": "#/definitions/longString"
			,"defaultLabel": "LinesOfOperationSub"
			,"description": "LinesOfOperationSub"
			,"fieldAlias2x": "LinesOfOperationSub"
			,"isSearchable": false
			,"picklistDescription": null
			,"picklistUri": null
			,"picklistParent": null
		},
"linesofoperationvalue": {
	"$ref": "#/definitions/longString"
			,"defaultLabel": "LinesOfOperationValue"
			,"description": "LinesOfOperationValue"
			,"fieldAlias2x": "LinesOfOperationValue"
			,"isSearchable": false
			,"picklistDescription": null
			,"picklistUri": null
			,"picklistParent": null
		},
"referenceid": {
	"$ref": "#/definitions/longString"
			,"defaultLabel": "referenceId"
			,"description": "referenceId"
			,"fieldAlias2x": "LOOKey"
			,"isSearchable": false
			,"picklistDescription": null
			,"picklistUri": null
			,"picklistParent": null
		}
				}
			}
		},
			"mit": {
				"type": "array",
				"description": "Transition CMOMed Report MIT specific details",
				"fieldAlias2x": "MIT", 
					"items": {
						"type": "object",
						"properties": {
						
"casespermonth": {
	"$ref": "#/definitions/positive_int"
			,"defaultLabel": "CasesPerMonth"
			,"description": "CasesPerMonth"
			,"fieldAlias2x": "CasesPerMonth"
			,"isSearchable": false
			,"picklistDescription": null
			,"picklistUri": null
			,"picklistParent": null
		},
"casestreated": {
	"$ref": "#/definitions/positive_int"
			,"defaultLabel": "CasesTreated"
			,"description": "CasesTreated"
			,"fieldAlias2x": "CasesTreated"
			,"isSearchable": false
			,"picklistDescription": null
			,"picklistUri": null
			,"picklistParent": null
		},
"disease": {
	"$ref": "#/definitions/longString"
			,"defaultLabel": "Disease"
			,"description": "Disease"
			,"fieldAlias2x": "Disease"
			,"isSearchable": false
			,"picklistDescription": null
			,"picklistUri": null
			,"picklistParent": null
		},
"referenceid": {
	"$ref": "#/definitions/longString"
			,"defaultLabel": "referenceId"
			,"description": "referenceId"
			,"fieldAlias2x": "MITKey"
			,"isSearchable": false
			,"picklistDescription": null
			,"picklistUri": null
			,"picklistParent": null
		},
"mostrecentcase": {
	"$ref": "#/definitions/dateTime"
			,"defaultLabel": "MostRecentCase"
			,"description": "MostRecentCase"
			,"fieldAlias2x": "MostRecentCase"
			,"isSearchable": false
			,"picklistDescription": null
			,"picklistUri": null
			,"picklistParent": null
		}
				}
			}
		},
			"poc": {
				"type": "array",
				"description": "Transition CMOMed Report POC specific details",
				"fieldAlias2x": "POC", 
					"items": {
						"type": "object",
						"properties": {
						
"bottomlineassessment": {
	"$ref": "#/definitions/text"
			,"defaultLabel": "BottomLineAssessment"
			,"description": "BottomLineAssessment"
			,"fieldAlias2x": "BottomLineAssessment"
			,"isSearchable": false
			,"picklistDescription": null
			,"picklistUri": null
			,"picklistParent": null
		},
"firstname": {
	"$ref": "#/definitions/longString"
			,"defaultLabel": "FirstName"
			,"description": "FirstName"
			,"fieldAlias2x": "FirstName"
			,"isSearchable": false
			,"picklistDescription": null
			,"picklistUri": null
			,"picklistParent": null
		},
"lastname": {
	"$ref": "#/definitions/longString"
			,"defaultLabel": "LastName"
			,"description": "LastName"
			,"fieldAlias2x": "LastName"
			,"isSearchable": false
			,"picklistDescription": null
			,"picklistUri": null
			,"picklistParent": null
		},
"middlename": {
	"$ref": "#/definitions/longString"
			,"defaultLabel": "MiddleName"
			,"description": "MiddleName"
			,"fieldAlias2x": "MiddleName"
			,"isSearchable": false
			,"picklistDescription": null
			,"picklistUri": null
			,"picklistParent": null
		},
"referenceid": {
	"$ref": "#/definitions/longString"
			,"defaultLabel": "referenceId"
			,"description": "referenceId"
			,"fieldAlias2x": "POCKey"
			,"isSearchable": false
			,"picklistDescription": null
			,"picklistUri": null
			,"picklistParent": null
		},
"position": {
	"$ref": "#/definitions/longString"
			,"defaultLabel": "Position"
			,"description": "Position"
			,"fieldAlias2x": "Position"
			,"isSearchable": false
			,"picklistDescription": null
			,"picklistUri": null
			,"picklistParent": null
		},
"significance": {
	"$ref": "#/definitions/longString"
			,"defaultLabel": "Significance"
			,"description": "Significance"
			,"fieldAlias2x": "Significance"
			,"isSearchable": false
			,"picklistDescription": null
			,"picklistUri": null
			,"picklistParent": null
		},
"suffix": {
	"$ref": "#/definitions/longString"
			,"defaultLabel": "Suffix"
			,"description": "Suffix"
			,"fieldAlias2x": "Suffix"
			,"isSearchable": false
			,"picklistDescription": null
			,"picklistUri": null
			,"picklistParent": null
		}
				}
			}
		},
			"prehospitaltraining": {
				"type": "array",
				"description": "Transition CMOMed Report PreHospitalTraining specific details",
				"fieldAlias2x": "PreHospitalTraining", 
					"items": {
						"type": "object",
						"properties": {
						
"prehospitaltraining": {
	"$ref": "#/definitions/longString"
			,"defaultLabel": "PreHospitalTraining"
			,"description": "PreHospitalTraining"
			,"fieldAlias2x": "PreHospitalTraining"
			,"isSearchable": false
			,"picklistDescription": null
			,"picklistUri": null
			,"picklistParent": null
		},
"referenceid": {
	"$ref": "#/definitions/longString"
			,"defaultLabel": "referenceId"
			,"description": "referenceId"
			,"fieldAlias2x": "PreHospitalTrainingKey"
			,"isSearchable": false
			,"picklistDescription": null
			,"picklistUri": null
			,"picklistParent": null
		},
"prehospitaltrainingother": {
	"$ref": "#/definitions/longString"
			,"defaultLabel": "PreHospitalTrainingOther"
			,"description": "PreHospitalTrainingOther"
			,"fieldAlias2x": "PreHospitalTrainingOther"
			,"isSearchable": false
			,"picklistDescription": null
			,"picklistUri": null
			,"picklistParent": null
		},
"prehospitaltraininther": {
	"$ref": "#/definitions/longString"
			,"defaultLabel": "PreHospitalTraininther"
			,"description": "PreHospitalTraininther"
			,"fieldAlias2x": "PreHospitalTraininther"
			,"isSearchable": false
			,"picklistDescription": null
			,"picklistUri": null
			,"picklistParent": null
		}
				}
			}
		},
			"targetaudiences": {
				"type": "array",
				"description": "Transition CMOMed Report TargetAudiences specific details",
				"fieldAlias2x": "TargetAudiences", 
					"items": {
						"type": "object",
						"properties": {
						
"targetaudiences": {
	"$ref": "#/definitions/longString"
			,"defaultLabel": "TargetAudiences"
			,"description": "TargetAudiences"
			,"fieldAlias2x": "TargetAudiences"
			,"isSearchable": false
			,"picklistDescription": null
			,"picklistUri": null
			,"picklistParent": null
		},
"referenceid": {
	"$ref": "#/definitions/longString"
			,"defaultLabel": "referenceId"
			,"description": "referenceId"
			,"fieldAlias2x": "TargetAudiencesKey"
			,"isSearchable": false
			,"picklistDescription": null
			,"picklistUri": null
			,"picklistParent": null
		},
"targetaudiencesother": {
	"$ref": "#/definitions/longString"
			,"defaultLabel": "TargetAudiencesOther"
			,"description": "TargetAudiencesOther"
			,"fieldAlias2x": "TargetAudiencesOther"
			,"isSearchable": false
			,"picklistDescription": null
			,"picklistUri": null
			,"picklistParent": null
		}
				}
			}
		},
			"targetpop": {
				"type": "array",
				"description": "Transition CMOMed Report TargetPop specific details",
				"fieldAlias2x": "TargetPop", 
					"items": {
						"type": "object",
						"properties": {
						
"adultfemales": {
	"$ref": "#/definitions/positive_int"
			,"defaultLabel": "AdultFemales"
			,"description": "AdultFemales"
			,"fieldAlias2x": "AdultFemales"
			,"isSearchable": false
			,"picklistDescription": null
			,"picklistUri": null
			,"picklistParent": null
		},
"adultmales": {
	"$ref": "#/definitions/positive_int"
			,"defaultLabel": "AdultMales"
			,"description": "AdultMales"
			,"fieldAlias2x": "AdultMales"
			,"isSearchable": false
			,"picklistDescription": null
			,"picklistUri": null
			,"picklistParent": null
		},
"femalechildren": {
	"$ref": "#/definitions/positive_int"
			,"defaultLabel": "FemaleChildren"
			,"description": "FemaleChildren"
			,"fieldAlias2x": "FemaleChildren"
			,"isSearchable": false
			,"picklistDescription": null
			,"picklistUri": null
			,"picklistParent": null
		},
"malechildren": {
	"$ref": "#/definitions/positive_int"
			,"defaultLabel": "MaleChildren"
			,"description": "MaleChildren"
			,"fieldAlias2x": "MaleChildren"
			,"isSearchable": false
			,"picklistDescription": null
			,"picklistUri": null
			,"picklistParent": null
		},
"targetaudiencetype": {
	"$ref": "#/definitions/longString"
			,"defaultLabel": "TargetAudienceType"
			,"description": "TargetAudienceType"
			,"fieldAlias2x": "TargetAudienceType"
			,"isSearchable": false
			,"picklistDescription": null
			,"picklistUri": null
			,"picklistParent": null
		},
"total": {
	"$ref": "#/definitions/positive_int"
			,"defaultLabel": "Total"
			,"description": "Total"
			,"fieldAlias2x": "Total"
			,"isSearchable": false
			,"picklistDescription": null
			,"picklistUri": null
			,"picklistParent": null
		},
"referenceid": {
	"$ref": "#/definitions/longString"
			,"defaultLabel": "referenceId"
			,"description": "referenceId"
			,"fieldAlias2x": "TPKey"
			,"isSearchable": false
			,"picklistDescription": null
			,"picklistUri": null
			,"picklistParent": null
		}
				}
			}
		}
				}
			}
	}
}
