{
  "datamodel": "http://interfaces.dae.smil.mil/schemas/transformationengine/ruleset",
  "objectId": "cdir_cidne_iir",
  "displayName": "CDIR/ISM - IIR Report to CIDNE 4.1",
  "sourceVersionObjectId": "cdir-iir",
  "destinationVersionObjectId": "cidne-4.1-humint-iir",
  "rules": [
    { "className": "com.issinc.ges.interfaces.te.rules.cdr.Cdr2Cidne",
      "reportType" : "IIR"}
  ]
}