{
  "datamodel": "http://interfaces.dae.smil.mil/schemas/transformationengine/ruleset",
  "objectId": "cidne_cdir_eval",
  "displayName": "CIDNE 4.1 to CDIR/ISM - EVAL Report",
  "sourceVersionObjectId": "cidne-4.1-humint-eval",
  "destinationVersionObjectId": "cdir-eval",
  "rules": [
    { "className": "com.issinc.ges.interfaces.te.rules.cdr.Cidne2Cdr",
      "reportType" : "EVAL"}
  ]
}