{
  "datamodel": "http://interfaces.dae.smil.mil/schemas/transformationengine/ruleset",
  "objectId": "cidne_cdir_hcr",
  "displayName": "CIDNE 4.1 to CDIR/ISM - HCR Report",
  "sourceVersionObjectId": "cidne-4.1-humint-hcr",
  "destinationVersionObjectId": "cdir-icr",
  "rules": [
    { "className": "com.issinc.ges.interfaces.te.rules.cdr.Cidne2Cdr",
      "reportType" : "HCR"}
  ]
}